%!PS-Adobe-3.0 EPSF-3.0
%%Creator: (MATLAB, The Mathworks, Inc. Version 9.6.0.1472908 \(R2019a\) Update 9. Operating System: Windows 10)
%%Title: (C:/Users/A/OneDrive - ETHZ/Research_MasterThesis/AllCodeFiles/Figure/ConvergenceWithCustomCDF.eps)
%%CreationDate: 2022-11-17T13:40:05
%%Pages: (atend)
%%BoundingBox:    30     0   596   482
%%LanguageLevel: 3
%%EndComments
%%BeginProlog
%%BeginResource: procset (Apache XML Graphics Std ProcSet) 1.2 0
%%Version: 1.2 0
%%Copyright: (Copyright 2001-2003,2010 The Apache Software Foundation. License terms: http://www.apache.org/licenses/LICENSE-2.0)
/bd{bind def}bind def
/ld{load def}bd
/GR/grestore ld
/GS/gsave ld
/RM/rmoveto ld
/C/curveto ld
/t/show ld
/L/lineto ld
/ML/setmiterlimit ld
/CT/concat ld
/f/fill ld
/N/newpath ld
/S/stroke ld
/CC/setcmykcolor ld
/A/ashow ld
/cp/closepath ld
/RC/setrgbcolor ld
/LJ/setlinejoin ld
/GC/setgray ld
/LW/setlinewidth ld
/M/moveto ld
/re {4 2 roll M
1 index 0 rlineto
0 exch rlineto
neg 0 rlineto
cp } bd
/_ctm matrix def
/_tm matrix def
/BT { _ctm currentmatrix pop matrix _tm copy pop 0 0 moveto } bd
/ET { _ctm setmatrix } bd
/iTm { _ctm setmatrix _tm concat } bd
/Tm { _tm astore pop iTm 0 0 moveto } bd
/ux 0.0 def
/uy 0.0 def
/F {
  /Tp exch def
  /Tf exch def
  Tf findfont Tp scalefont setfont
  /cf Tf def  /cs Tp def
} bd
/ULS {currentpoint /uy exch def /ux exch def} bd
/ULE {
  /Tcx currentpoint pop def
  gsave
  newpath
  cf findfont cs scalefont dup
  /FontMatrix get 0 get /Ts exch def /FontInfo get dup
  /UnderlinePosition get Ts mul /To exch def
  /UnderlineThickness get Ts mul /Tt exch def
  ux uy To add moveto  Tcx uy To add lineto
  Tt setlinewidth stroke
  grestore
} bd
/OLE {
  /Tcx currentpoint pop def
  gsave
  newpath
  cf findfont cs scalefont dup
  /FontMatrix get 0 get /Ts exch def /FontInfo get dup
  /UnderlinePosition get Ts mul /To exch def
  /UnderlineThickness get Ts mul /Tt exch def
  ux uy To add cs add moveto Tcx uy To add cs add lineto
  Tt setlinewidth stroke
  grestore
} bd
/SOE {
  /Tcx currentpoint pop def
  gsave
  newpath
  cf findfont cs scalefont dup
  /FontMatrix get 0 get /Ts exch def /FontInfo get dup
  /UnderlinePosition get Ts mul /To exch def
  /UnderlineThickness get Ts mul /Tt exch def
  ux uy To add cs 10 mul 26 idiv add moveto Tcx uy To add cs 10 mul 26 idiv add lineto
  Tt setlinewidth stroke
  grestore
} bd
/QT {
/Y22 exch store
/X22 exch store
/Y21 exch store
/X21 exch store
currentpoint
/Y21 load 2 mul add 3 div exch
/X21 load 2 mul add 3 div exch
/X21 load 2 mul /X22 load add 3 div
/Y21 load 2 mul /Y22 load add 3 div
/X22 load /Y22 load curveto
} bd
/SSPD {
dup length /d exch dict def
{
/v exch def
/k exch def
currentpagedevice k known {
/cpdv currentpagedevice k get def
v cpdv ne {
/upd false def
/nullv v type /nulltype eq def
/nullcpdv cpdv type /nulltype eq def
nullv nullcpdv or
{
/upd true def
} {
/sametype v type cpdv type eq def
sametype {
v type /arraytype eq {
/vlen v length def
/cpdvlen cpdv length def
vlen cpdvlen eq {
0 1 vlen 1 sub {
/i exch def
/obj v i get def
/cpdobj cpdv i get def
obj cpdobj ne {
/upd true def
exit
} if
} for
} {
/upd true def
} ifelse
} {
v type /dicttype eq {
v {
/dv exch def
/dk exch def
/cpddv cpdv dk get def
dv cpddv ne {
/upd true def
exit
} if
} forall
} {
/upd true def
} ifelse
} ifelse
} if
} ifelse
upd true eq {
d k v put
} if
} if
} if
} forall
d length 0 gt {
d setpagedevice
} if
} bd
/RE { % /NewFontName [NewEncodingArray] /FontName RE -
  findfont dup length dict begin
  {
    1 index /FID ne
    {def} {pop pop} ifelse
  } forall
  /Encoding exch def
  /FontName 1 index def
  currentdict definefont pop
  end
} bind def
%%EndResource
%%BeginResource: procset (Apache XML Graphics EPS ProcSet) 1.0 0
%%Version: 1.0 0
%%Copyright: (Copyright 2002-2003 The Apache Software Foundation. License terms: http://www.apache.org/licenses/LICENSE-2.0)
/BeginEPSF { %def
/b4_Inc_state save def         % Save state for cleanup
/dict_count countdictstack def % Count objects on dict stack
/op_count count 1 sub def      % Count objects on operand stack
userdict begin                 % Push userdict on dict stack
/showpage { } def              % Redefine showpage, { } = null proc
0 setgray 0 setlinecap         % Prepare graphics state
1 setlinewidth 0 setlinejoin
10 setmiterlimit [ ] 0 setdash newpath
/languagelevel where           % If level not equal to 1 then
{pop languagelevel             % set strokeadjust and
1 ne                           % overprint to their defaults.
{false setstrokeadjust false setoverprint
} if
} if
} bd
/EndEPSF { %def
count op_count sub {pop} repeat            % Clean up stacks
countdictstack dict_count sub {end} repeat
b4_Inc_state restore
} bd
%%EndResource
%FOPBeginFontDict
%%IncludeResource: font Courier-Oblique
%%IncludeResource: font Courier-BoldOblique
%%IncludeResource: font Courier-Bold
%%IncludeResource: font ZapfDingbats
%%IncludeResource: font Symbol
%%IncludeResource: font Helvetica
%%IncludeResource: font Helvetica-Oblique
%%IncludeResource: font Helvetica-Bold
%%IncludeResource: font Helvetica-BoldOblique
%%IncludeResource: font Times-Roman
%%IncludeResource: font Times-Italic
%%IncludeResource: font Times-Bold
%%IncludeResource: font Times-BoldItalic
%%IncludeResource: font Courier
%FOPEndFontDict
%%BeginResource: encoding WinAnsiEncoding
/WinAnsiEncoding [
/.notdef /.notdef /.notdef /.notdef /.notdef
/.notdef /.notdef /.notdef /.notdef /.notdef
/.notdef /.notdef /.notdef /.notdef /.notdef
/.notdef /.notdef /.notdef /.notdef /.notdef
/.notdef /.notdef /.notdef /.notdef /.notdef
/.notdef /.notdef /.notdef /.notdef /.notdef
/.notdef /.notdef /space /exclam /quotedbl
/numbersign /dollar /percent /ampersand /quotesingle
/parenleft /parenright /asterisk /plus /comma
/hyphen /period /slash /zero /one
/two /three /four /five /six
/seven /eight /nine /colon /semicolon
/less /equal /greater /question /at
/A /B /C /D /E
/F /G /H /I /J
/K /L /M /N /O
/P /Q /R /S /T
/U /V /W /X /Y
/Z /bracketleft /backslash /bracketright /asciicircum
/underscore /quoteleft /a /b /c
/d /e /f /g /h
/i /j /k /l /m
/n /o /p /q /r
/s /t /u /v /w
/x /y /z /braceleft /bar
/braceright /asciitilde /bullet /Euro /bullet
/quotesinglbase /florin /quotedblbase /ellipsis /dagger
/daggerdbl /circumflex /perthousand /Scaron /guilsinglleft
/OE /bullet /Zcaron /bullet /bullet
/quoteleft /quoteright /quotedblleft /quotedblright /bullet
/endash /emdash /asciitilde /trademark /scaron
/guilsinglright /oe /bullet /zcaron /Ydieresis
/space /exclamdown /cent /sterling /currency
/yen /brokenbar /section /dieresis /copyright
/ordfeminine /guillemotleft /logicalnot /sfthyphen /registered
/macron /degree /plusminus /twosuperior /threesuperior
/acute /mu /paragraph /middot /cedilla
/onesuperior /ordmasculine /guillemotright /onequarter /onehalf
/threequarters /questiondown /Agrave /Aacute /Acircumflex
/Atilde /Adieresis /Aring /AE /Ccedilla
/Egrave /Eacute /Ecircumflex /Edieresis /Igrave
/Iacute /Icircumflex /Idieresis /Eth /Ntilde
/Ograve /Oacute /Ocircumflex /Otilde /Odieresis
/multiply /Oslash /Ugrave /Uacute /Ucircumflex
/Udieresis /Yacute /Thorn /germandbls /agrave
/aacute /acircumflex /atilde /adieresis /aring
/ae /ccedilla /egrave /eacute /ecircumflex
/edieresis /igrave /iacute /icircumflex /idieresis
/eth /ntilde /ograve /oacute /ocircumflex
/otilde /odieresis /divide /oslash /ugrave
/uacute /ucircumflex /udieresis /yacute /thorn
/ydieresis
] def
%%EndResource
%FOPBeginFontReencode
/Courier-Oblique findfont
dup length dict begin
  {1 index /FID ne {def} {pop pop} ifelse} forall
  /Encoding WinAnsiEncoding def
  currentdict
end
/Courier-Oblique exch definefont pop
/Courier-BoldOblique findfont
dup length dict begin
  {1 index /FID ne {def} {pop pop} ifelse} forall
  /Encoding WinAnsiEncoding def
  currentdict
end
/Courier-BoldOblique exch definefont pop
/Courier-Bold findfont
dup length dict begin
  {1 index /FID ne {def} {pop pop} ifelse} forall
  /Encoding WinAnsiEncoding def
  currentdict
end
/Courier-Bold exch definefont pop
/Helvetica findfont
dup length dict begin
  {1 index /FID ne {def} {pop pop} ifelse} forall
  /Encoding WinAnsiEncoding def
  currentdict
end
/Helvetica exch definefont pop
/Helvetica-Oblique findfont
dup length dict begin
  {1 index /FID ne {def} {pop pop} ifelse} forall
  /Encoding WinAnsiEncoding def
  currentdict
end
/Helvetica-Oblique exch definefont pop
/Helvetica-Bold findfont
dup length dict begin
  {1 index /FID ne {def} {pop pop} ifelse} forall
  /Encoding WinAnsiEncoding def
  currentdict
end
/Helvetica-Bold exch definefont pop
/Helvetica-BoldOblique findfont
dup length dict begin
  {1 index /FID ne {def} {pop pop} ifelse} forall
  /Encoding WinAnsiEncoding def
  currentdict
end
/Helvetica-BoldOblique exch definefont pop
/Times-Roman findfont
dup length dict begin
  {1 index /FID ne {def} {pop pop} ifelse} forall
  /Encoding WinAnsiEncoding def
  currentdict
end
/Times-Roman exch definefont pop
/Times-Italic findfont
dup length dict begin
  {1 index /FID ne {def} {pop pop} ifelse} forall
  /Encoding WinAnsiEncoding def
  currentdict
end
/Times-Italic exch definefont pop
/Times-Bold findfont
dup length dict begin
  {1 index /FID ne {def} {pop pop} ifelse} forall
  /Encoding WinAnsiEncoding def
  currentdict
end
/Times-Bold exch definefont pop
/Times-BoldItalic findfont
dup length dict begin
  {1 index /FID ne {def} {pop pop} ifelse} forall
  /Encoding WinAnsiEncoding def
  currentdict
end
/Times-BoldItalic exch definefont pop
/Courier findfont
dup length dict begin
  {1 index /FID ne {def} {pop pop} ifelse} forall
  /Encoding WinAnsiEncoding def
  currentdict
end
/Courier exch definefont pop
%FOPEndFontReencode
%%EndProlog
%%Page: 1 1
%%PageBoundingBox: 0 0 648 432
%%BeginPageSetup
[1 0 0 -1 0 432] CT
%%EndPageSetup
GS
[0.6 0 0 0.6 0 0] CT
1 GC
N
0 0 1080 720 re
f
GR
GS
[0.6 0 0 0.6 0 0] CT
1 GC
N
0 0 1080 720 re
f
GR
GS
[0.6 0 0 0.6 0 0] CT
1 GC
N
140 640 M
977 640 L
977 54 L
140 54 L
cp
f
GR
GS
[0.6 0 0 0.6 0 0] CT
0.873 GC
1 LJ
0.833 LW
N
140 640 M
140 54 L
S
GR
GS
[0.6 0 0 0.6 0 0] CT
0.873 GC
1 LJ
0.833 LW
N
233 640 M
233 54 L
S
GR
GS
[0.6 0 0 0.6 0 0] CT
0.873 GC
1 LJ
0.833 LW
N
326 640 M
326 54 L
S
GR
GS
[0.6 0 0 0.6 0 0] CT
0.873 GC
1 LJ
0.833 LW
N
419 640 M
419 54 L
S
GR
GS
[0.6 0 0 0.6 0 0] CT
0.873 GC
1 LJ
0.833 LW
N
512 640 M
512 54 L
S
GR
GS
[0.6 0 0 0.6 0 0] CT
0.873 GC
1 LJ
0.833 LW
N
605 640 M
605 54 L
S
GR
GS
[0.6 0 0 0.6 0 0] CT
0.873 GC
1 LJ
0.833 LW
N
698 640 M
698 54 L
S
GR
GS
[0.6 0 0 0.6 0 0] CT
0.873 GC
1 LJ
0.833 LW
N
791 640 M
791 54 L
S
GR
GS
[0.6 0 0 0.6 0 0] CT
0.873 GC
1 LJ
0.833 LW
N
884 640 M
884 54 L
S
GR
GS
[0.6 0 0 0.6 0 0] CT
0.873 GC
1 LJ
0.833 LW
N
977 640 M
977 54 L
S
GR
GS
[0.6 0 0 0.6 0 0] CT
0.851 GC
1 LJ
0.833 LW
N
977 640 M
140 640 L
S
GR
GS
[0.6 0 0 0.6 0 0] CT
0.851 GC
1 LJ
0.833 LW
N
977 556.286 M
140 556.286 L
S
GR
GS
[0.6 0 0 0.6 0 0] CT
0.851 GC
1 LJ
0.833 LW
N
977 472.571 M
140 472.571 L
S
GR
GS
[0.6 0 0 0.6 0 0] CT
0.851 GC
1 LJ
0.833 LW
N
977 388.857 M
140 388.857 L
S
GR
GS
[0.6 0 0 0.6 0 0] CT
0.851 GC
1 LJ
0.833 LW
N
977 305.143 M
140 305.143 L
S
GR
GS
[0.6 0 0 0.6 0 0] CT
0.851 GC
1 LJ
0.833 LW
N
977 221.429 M
140 221.429 L
S
GR
GS
[0.6 0 0 0.6 0 0] CT
0.851 GC
1 LJ
0.833 LW
N
977 137.714 M
140 137.714 L
S
GR
GS
[0.6 0 0 0.6 0 0] CT
0.851 GC
1 LJ
0.833 LW
N
977 54 M
140 54 L
S
GR
GS
[0.6 0 0 0.6 0 0] CT
0.149 GC
2 setlinecap
1 LJ
0.833 LW
N
140 640 M
977 640 L
S
GR
GS
[0.6 0 0 0.6 0 0] CT
0.149 GC
2 setlinecap
1 LJ
0.833 LW
N
140 54 M
977 54 L
S
GR
GS
[0.6 0 0 0.6 0 0] CT
0.149 GC
2 setlinecap
1 LJ
0.833 LW
N
140 640 M
140 631.63 L
S
GR
GS
[0.6 0 0 0.6 0 0] CT
0.149 GC
2 setlinecap
1 LJ
0.833 LW
N
233 640 M
233 631.63 L
S
GR
GS
[0.6 0 0 0.6 0 0] CT
0.149 GC
2 setlinecap
1 LJ
0.833 LW
N
326 640 M
326 631.63 L
S
GR
GS
[0.6 0 0 0.6 0 0] CT
0.149 GC
2 setlinecap
1 LJ
0.833 LW
N
419 640 M
419 631.63 L
S
GR
GS
[0.6 0 0 0.6 0 0] CT
0.149 GC
2 setlinecap
1 LJ
0.833 LW
N
512 640 M
512 631.63 L
S
GR
GS
[0.6 0 0 0.6 0 0] CT
0.149 GC
2 setlinecap
1 LJ
0.833 LW
N
605 640 M
605 631.63 L
S
GR
GS
[0.6 0 0 0.6 0 0] CT
0.149 GC
2 setlinecap
1 LJ
0.833 LW
N
698 640 M
698 631.63 L
S
GR
GS
[0.6 0 0 0.6 0 0] CT
0.149 GC
2 setlinecap
1 LJ
0.833 LW
N
791 640 M
791 631.63 L
S
GR
GS
[0.6 0 0 0.6 0 0] CT
0.149 GC
2 setlinecap
1 LJ
0.833 LW
N
884 640 M
884 631.63 L
S
GR
GS
[0.6 0 0 0.6 0 0] CT
0.149 GC
2 setlinecap
1 LJ
0.833 LW
N
977 640 M
977 631.63 L
S
GR
GS
[0.6 0 0 0.6 0 0] CT
0.149 GC
2 setlinecap
1 LJ
0.833 LW
N
140 54 M
140 62.37 L
S
GR
GS
[0.6 0 0 0.6 0 0] CT
0.149 GC
2 setlinecap
1 LJ
0.833 LW
N
233 54 M
233 62.37 L
S
GR
GS
[0.6 0 0 0.6 0 0] CT
0.149 GC
2 setlinecap
1 LJ
0.833 LW
N
326 54 M
326 62.37 L
S
GR
GS
[0.6 0 0 0.6 0 0] CT
0.149 GC
2 setlinecap
1 LJ
0.833 LW
N
419 54 M
419 62.37 L
S
GR
GS
[0.6 0 0 0.6 0 0] CT
0.149 GC
2 setlinecap
1 LJ
0.833 LW
N
512 54 M
512 62.37 L
S
GR
GS
[0.6 0 0 0.6 0 0] CT
0.149 GC
2 setlinecap
1 LJ
0.833 LW
N
605 54 M
605 62.37 L
S
GR
GS
[0.6 0 0 0.6 0 0] CT
0.149 GC
2 setlinecap
1 LJ
0.833 LW
N
698 54 M
698 62.37 L
S
GR
GS
[0.6 0 0 0.6 0 0] CT
0.149 GC
2 setlinecap
1 LJ
0.833 LW
N
791 54 M
791 62.37 L
S
GR
GS
[0.6 0 0 0.6 0 0] CT
0.149 GC
2 setlinecap
1 LJ
0.833 LW
N
884 54 M
884 62.37 L
S
GR
GS
[0.6 0 0 0.6 0 0] CT
0.149 GC
2 setlinecap
1 LJ
0.833 LW
N
977 54 M
977 62.37 L
S
GR
GS
[0.6 0 0 0.6 84 389.20001] CT
0.149 GC
/Times-Roman 26.667 F
GS
[1 0 0 1 0 0] CT
-7 25 moveto 
1 -1 scale
(0) t 
GR
GR
GS
[0.6 0 0 0.6 139.8 389.20001] CT
0.149 GC
/Times-Roman 26.667 F
GS
[1 0 0 1 0 0] CT
-7 25 moveto 
1 -1 scale
(2) t 
GR
GR
GS
[0.6 0 0 0.6 195.6 389.20001] CT
0.149 GC
/Times-Roman 26.667 F
GS
[1 0 0 1 0 0] CT
-7 25 moveto 
1 -1 scale
(4) t 
GR
GR
GS
[0.6 0 0 0.6 251.4 389.20001] CT
0.149 GC
/Times-Roman 26.667 F
GS
[1 0 0 1 0 0] CT
-7 25 moveto 
1 -1 scale
(6) t 
GR
GR
GS
[0.6 0 0 0.6 307.2 389.20001] CT
0.149 GC
/Times-Roman 26.667 F
GS
[1 0 0 1 0 0] CT
-7 25 moveto 
1 -1 scale
(8) t 
GR
GR
GS
[0.6 0 0 0.6 363 389.20001] CT
0.149 GC
/Times-Roman 26.667 F
GS
[1 0 0 1 0 0] CT
-13.5 25 moveto 
1 -1 scale
(10) t 
GR
GR
GS
[0.6 0 0 0.6 418.8 389.20001] CT
0.149 GC
/Times-Roman 26.667 F
GS
[1 0 0 1 0 0] CT
-13.5 25 moveto 
1 -1 scale
(12) t 
GR
GR
GS
[0.6 0 0 0.6 474.6 389.20001] CT
0.149 GC
/Times-Roman 26.667 F
GS
[1 0 0 1 0 0] CT
-13.5 25 moveto 
1 -1 scale
(14) t 
GR
GR
GS
[0.6 0 0 0.6 530.4 389.20001] CT
0.149 GC
/Times-Roman 26.667 F
GS
[1 0 0 1 0 0] CT
-13.5 25 moveto 
1 -1 scale
(16) t 
GR
GR
GS
[0.6 0 0 0.6 586.2 389.20001] CT
0.149 GC
/Times-Roman 26.667 F
GS
[1 0 0 1 0 0] CT
-13.5 25 moveto 
1 -1 scale
(18) t 
GR
GR
GS
[0.6 0 0 0.6 335.10026 409.39999] CT
0.149 GC
N
-59.852 26.6 M
-59.852 25.475 L
-56.555 25.475 -56.555 24.459 QT
-56.555 6.881 L
-56.555 5.866 -59.852 5.866 QT
-59.852 4.741 L
-48.461 4.741 L
-46.711 4.741 -44.961 5.459 QT
-43.211 6.178 -42.079 7.553 QT
-40.946 8.928 -40.946 10.756 QT
-40.946 12.537 -42.086 13.881 QT
-43.227 15.225 -44.961 15.92 QT
-46.696 16.616 -48.461 16.616 QT
-53.586 16.616 L
-53.586 24.459 L
-53.586 25.475 -50.289 25.475 QT
-50.289 26.6 L
-59.852 26.6 L
cp
-53.68 15.662 M
-49.336 15.662 L
-47.571 15.662 -46.477 15.155 QT
-45.383 14.647 -44.875 13.576 QT
-44.368 12.506 -44.368 10.756 QT
-44.368 8.147 -45.516 7.006 QT
-46.664 5.866 -49.336 5.866 QT
-52.055 5.866 L
-52.633 5.866 -52.954 5.912 QT
-53.274 5.959 -53.477 6.186 QT
-53.68 6.412 -53.68 6.881 QT
-53.68 15.662 L
cp
f
GR
GS
[0.6 0 0 0.6 335.10026 409.39999] CT
0.149 GC
N
-38.962 23.459 M
-38.962 21.553 -37.462 20.358 QT
-35.962 19.162 -33.86 18.67 QT
-31.759 18.178 -29.868 18.178 QT
-29.868 16.866 L
-29.868 15.944 -30.274 15.076 QT
-30.681 14.209 -31.446 13.655 QT
-32.212 13.1 -33.134 13.1 QT
-35.259 13.1 -36.368 14.053 QT
-35.759 14.053 -35.36 14.514 QT
-34.962 14.975 -34.962 15.584 QT
-34.962 16.225 -35.415 16.678 QT
-35.868 17.131 -36.493 17.131 QT
-37.134 17.131 -37.587 16.678 QT
-38.04 16.225 -38.04 15.584 QT
-38.04 13.897 -36.509 13.076 QT
-34.978 12.256 -33.134 12.256 QT
-31.837 12.256 -30.524 12.811 QT
-29.212 13.366 -28.376 14.397 QT
-27.54 15.428 -27.54 16.803 QT
-27.54 24.006 L
-27.54 24.631 -27.274 25.155 QT
-27.009 25.678 -26.446 25.678 QT
-25.915 25.678 -25.657 25.147 QT
-25.399 24.616 -25.399 24.006 QT
-25.399 21.959 L
-24.462 21.959 L
-24.462 24.006 L
-24.462 24.725 -24.837 25.373 QT
-25.212 26.022 -25.845 26.405 QT
-26.478 26.787 -27.212 26.787 QT
-28.149 26.787 -28.829 26.061 QT
-29.509 25.334 -29.587 24.334 QT
-30.181 25.537 -31.337 26.248 QT
-32.493 26.959 -33.806 26.959 QT
-35.024 26.959 -36.204 26.6 QT
-37.384 26.241 -38.173 25.467 QT
-38.962 24.694 -38.962 23.459 QT
cp
-36.368 23.459 M
-36.368 24.584 -35.54 25.35 QT
-34.712 26.116 -33.587 26.116 QT
-32.556 26.116 -31.712 25.6 QT
-30.868 25.084 -30.368 24.194 QT
-29.868 23.303 -29.868 22.319 QT
-29.868 18.991 L
-31.321 18.991 -32.845 19.467 QT
-34.368 19.944 -35.368 20.959 QT
-36.368 21.975 -36.368 23.459 QT
cp
f
GR
GS
[0.6 0 0 0.6 335.10026 409.39999] CT
0.149 GC
N
-23.086 31.85 M
-22.477 32.334 -21.743 32.334 QT
-19.727 32.334 -18.446 29.287 QT
-17.352 26.6 L
-22.149 14.85 L
-22.446 14.256 -23.055 14.092 QT
-23.664 13.928 -24.68 13.928 QT
-24.68 12.803 L
-17.961 12.803 L
-17.961 13.928 L
-19.727 13.928 -19.727 14.694 QT
-19.727 14.819 -19.696 14.881 QT
-16.133 23.631 L
-12.93 15.756 L
-12.836 15.506 -12.836 15.209 QT
-12.836 14.819 -13.047 14.53 QT
-13.258 14.241 -13.594 14.084 QT
-13.93 13.928 -14.352 13.928 QT
-14.352 12.803 L
-9.039 12.803 L
-9.039 13.928 L
-10.024 13.928 -10.766 14.381 QT
-11.508 14.834 -11.914 15.725 QT
-17.446 29.287 L
-17.883 30.319 -18.469 31.186 QT
-19.055 32.053 -19.899 32.608 QT
-20.743 33.162 -21.743 33.162 QT
-22.914 33.162 -23.797 32.389 QT
-24.68 31.616 -24.68 30.475 QT
-24.68 29.881 -24.274 29.475 QT
-23.868 29.069 -23.274 29.069 QT
-22.868 29.069 -22.547 29.248 QT
-22.227 29.428 -22.047 29.741 QT
-21.868 30.053 -21.868 30.475 QT
-21.868 30.991 -22.211 31.397 QT
-22.555 31.803 -23.086 31.85 QT
cp
f
GR
GS
[0.6 0 0 0.6 335.10026 409.39999] CT
0.149 GC
N
-7.623 26.6 M
-7.623 25.475 L
-6.529 25.475 -5.826 25.303 QT
-5.123 25.131 -5.123 24.459 QT
-5.123 15.725 L
-5.123 14.866 -5.381 14.483 QT
-5.639 14.1 -6.123 14.014 QT
-6.608 13.928 -7.623 13.928 QT
-7.623 12.803 L
-2.983 12.459 L
-2.983 15.584 L
-2.342 14.209 -1.084 13.334 QT
0.174 12.459 1.658 12.459 QT
5.346 12.459 5.986 15.459 QT
6.627 14.116 7.861 13.287 QT
9.096 12.459 10.564 12.459 QT
12.017 12.459 13.01 12.928 QT
14.002 13.397 14.502 14.358 QT
15.002 15.319 15.002 16.772 QT
15.002 24.459 L
15.002 25.131 15.713 25.303 QT
16.424 25.475 17.502 25.475 QT
17.502 26.6 L
10.174 26.6 L
10.174 25.475 L
11.267 25.475 11.971 25.303 QT
12.674 25.131 12.674 24.459 QT
12.674 16.866 L
12.674 15.256 12.221 14.272 QT
11.767 13.287 10.361 13.287 QT
8.517 13.287 7.314 14.772 QT
6.111 16.256 6.111 18.147 QT
6.111 24.459 L
6.111 25.131 6.814 25.303 QT
7.517 25.475 8.611 25.475 QT
8.611 26.6 L
1.283 26.6 L
1.283 25.475 L
2.377 25.475 3.08 25.303 QT
3.783 25.131 3.783 24.459 QT
3.783 16.866 L
3.783 15.303 3.33 14.295 QT
2.877 13.287 1.471 13.287 QT
-0.389 13.287 -1.584 14.772 QT
-2.779 16.256 -2.779 18.147 QT
-2.779 24.459 L
-2.779 25.131 -2.076 25.303 QT
-1.373 25.475 -0.295 25.475 QT
-0.295 26.6 L
-7.623 26.6 L
cp
f
GR
GS
[0.6 0 0 0.6 335.10026 409.39999] CT
0.149 GC
N
25.781 26.959 M
23.828 26.959 22.195 25.936 QT
20.563 24.912 19.633 23.201 QT
18.703 21.491 18.703 19.584 QT
18.703 17.709 19.555 16.022 QT
20.406 14.334 21.93 13.295 QT
23.453 12.256 25.328 12.256 QT
26.797 12.256 27.883 12.748 QT
28.969 13.241 29.672 14.116 QT
30.375 14.991 30.734 16.178 QT
31.094 17.366 31.094 18.787 QT
31.094 19.209 30.766 19.209 QT
21.5 19.209 L
21.5 19.553 L
21.5 22.209 22.57 24.116 QT
23.641 26.022 26.063 26.022 QT
27.047 26.022 27.883 25.584 QT
28.719 25.147 29.336 24.366 QT
29.953 23.584 30.172 22.694 QT
30.203 22.584 30.289 22.498 QT
30.375 22.412 30.484 22.412 QT
30.766 22.412 L
31.094 22.412 31.094 22.819 QT
30.641 24.631 29.141 25.795 QT
27.641 26.959 25.781 26.959 QT
cp
21.531 18.412 M
28.828 18.412 L
28.828 17.209 28.492 15.975 QT
28.156 14.741 27.375 13.92 QT
26.594 13.1 25.328 13.1 QT
23.516 13.1 22.524 14.795 QT
21.531 16.491 21.531 18.412 QT
cp
f
GR
GS
[0.6 0 0 0.6 335.10026 409.39999] CT
0.149 GC
N
32.84 26.6 M
32.84 25.475 L
33.934 25.475 34.637 25.303 QT
35.34 25.131 35.34 24.459 QT
35.34 15.725 L
35.34 14.866 35.082 14.483 QT
34.824 14.1 34.34 14.014 QT
33.855 13.928 32.84 13.928 QT
32.84 12.803 L
37.48 12.459 L
37.48 15.584 L
38.121 14.209 39.379 13.334 QT
40.637 12.459 42.121 12.459 QT
44.34 12.459 45.457 13.522 QT
46.574 14.584 46.574 16.772 QT
46.574 24.459 L
46.574 25.131 47.277 25.303 QT
47.98 25.475 49.074 25.475 QT
49.074 26.6 L
41.746 26.6 L
41.746 25.475 L
42.84 25.475 43.543 25.303 QT
44.246 25.131 44.246 24.459 QT
44.246 16.866 L
44.246 15.303 43.793 14.295 QT
43.34 13.287 41.934 13.287 QT
40.074 13.287 38.879 14.772 QT
37.684 16.256 37.684 18.147 QT
37.684 24.459 L
37.684 25.131 38.387 25.303 QT
39.09 25.475 40.168 25.475 QT
40.168 26.6 L
32.84 26.6 L
cp
f
GR
GS
[0.6 0 0 0.6 335.10026 409.39999] CT
0.149 GC
N
51.865 22.756 M
51.865 13.928 L
49.209 13.928 L
49.209 13.1 L
51.303 13.1 52.287 11.147 QT
53.272 9.194 53.272 6.912 QT
54.193 6.912 L
54.193 12.803 L
58.709 12.803 L
58.709 13.928 L
54.193 13.928 L
54.193 22.694 L
54.193 24.022 54.639 25.022 QT
55.084 26.022 56.24 26.022 QT
57.334 26.022 57.818 24.967 QT
58.303 23.912 58.303 22.694 QT
58.303 20.803 L
59.225 20.803 L
59.225 22.756 L
59.225 23.756 58.857 24.733 QT
58.49 25.709 57.772 26.334 QT
57.053 26.959 56.022 26.959 QT
54.1 26.959 52.982 25.811 QT
51.865 24.662 51.865 22.756 QT
cp
f
GR
GS
[0.6 0 0 0.6 0 0] CT
2 setlinecap
1 LJ
0.833 LW
N
140 640 M
140 54 L
S
GR
GS
[0.6 0 0 0.6 0 0] CT
2 setlinecap
1 LJ
0.833 LW
N
977 640 M
977 54 L
S
GR
GS
[0.6 0 0 0.6 0 0] CT
2 setlinecap
1 LJ
0.833 LW
N
140 640 M
148.37 640 L
S
GR
GS
[0.6 0 0 0.6 0 0] CT
2 setlinecap
1 LJ
0.833 LW
N
140 556.286 M
148.37 556.286 L
S
GR
GS
[0.6 0 0 0.6 0 0] CT
2 setlinecap
1 LJ
0.833 LW
N
140 472.571 M
148.37 472.571 L
S
GR
GS
[0.6 0 0 0.6 0 0] CT
2 setlinecap
1 LJ
0.833 LW
N
140 388.857 M
148.37 388.857 L
S
GR
GS
[0.6 0 0 0.6 0 0] CT
2 setlinecap
1 LJ
0.833 LW
N
140 305.143 M
148.37 305.143 L
S
GR
GS
[0.6 0 0 0.6 0 0] CT
2 setlinecap
1 LJ
0.833 LW
N
140 221.429 M
148.37 221.429 L
S
GR
GS
[0.6 0 0 0.6 0 0] CT
2 setlinecap
1 LJ
0.833 LW
N
140 137.714 M
148.37 137.714 L
S
GR
GS
[0.6 0 0 0.6 0 0] CT
2 setlinecap
1 LJ
0.833 LW
N
140 54 M
148.37 54 L
S
GR
GS
[0.6 0 0 0.6 0 0] CT
2 setlinecap
1 LJ
0.833 LW
N
977 640 M
968.63 640 L
S
GR
GS
[0.6 0 0 0.6 0 0] CT
2 setlinecap
1 LJ
0.833 LW
N
977 556.286 M
968.63 556.286 L
S
GR
GS
[0.6 0 0 0.6 0 0] CT
2 setlinecap
1 LJ
0.833 LW
N
977 472.571 M
968.63 472.571 L
S
GR
GS
[0.6 0 0 0.6 0 0] CT
2 setlinecap
1 LJ
0.833 LW
N
977 388.857 M
968.63 388.857 L
S
GR
GS
[0.6 0 0 0.6 0 0] CT
2 setlinecap
1 LJ
0.833 LW
N
977 305.143 M
968.63 305.143 L
S
GR
GS
[0.6 0 0 0.6 0 0] CT
2 setlinecap
1 LJ
0.833 LW
N
977 221.429 M
968.63 221.429 L
S
GR
GS
[0.6 0 0 0.6 0 0] CT
2 setlinecap
1 LJ
0.833 LW
N
977 137.714 M
968.63 137.714 L
S
GR
GS
[0.6 0 0 0.6 0 0] CT
2 setlinecap
1 LJ
0.833 LW
N
977 54 M
968.63 54 L
S
GR
GS
[0.6 0 0 0.6 78.8 384] CT
/Times-Roman 26.667 F
GS
[1 0 0 1 0 0] CT
-14 9.5 moveto 
1 -1 scale
(0) t 
GR
GR
GS
[0.6 0 0 0.6 78.8 333.77142] CT
/Times-Roman 26.667 F
GS
[1 0 0 1 0 0] CT
-27 9.5 moveto 
1 -1 scale
(50) t 
GR
GR
GS
[0.6 0 0 0.6 78.8 283.54286] CT
/Times-Roman 26.667 F
GS
[1 0 0 1 0 0] CT
-40 9.5 moveto 
1 -1 scale
(100) t 
GR
GR
GS
[0.6 0 0 0.6 78.8 233.31429] CT
/Times-Roman 26.667 F
GS
[1 0 0 1 0 0] CT
-40 9.5 moveto 
1 -1 scale
(150) t 
GR
GR
GS
[0.6 0 0 0.6 78.8 183.08571] CT
/Times-Roman 26.667 F
GS
[1 0 0 1 0 0] CT
-40 9.5 moveto 
1 -1 scale
(200) t 
GR
GR
GS
[0.6 0 0 0.6 78.8 132.85714] CT
/Times-Roman 26.667 F
GS
[1 0 0 1 0 0] CT
-40 9.5 moveto 
1 -1 scale
(250) t 
GR
GR
GS
[0.6 0 0 0.6 78.8 82.62857] CT
/Times-Roman 26.667 F
GS
[1 0 0 1 0 0] CT
-40 9.5 moveto 
1 -1 scale
(300) t 
GR
GR
GS
[0.6 0 0 0.6 78.8 32.4] CT
/Times-Roman 26.667 F
GS
[1 0 0 1 0 0] CT
-40 9.5 moveto 
1 -1 scale
(350) t 
GR
GR
GS
[0 -0.6 0.6 0 51.8 208.19984] CT
N
-422.241 -3.463 M
-424.022 -4.869 -425.311 -6.689 QT
-426.6 -8.509 -427.42 -10.572 QT
-428.241 -12.634 -428.647 -14.884 QT
-429.053 -17.134 -429.053 -19.4 QT
-429.053 -21.697 -428.647 -23.947 QT
-428.241 -26.197 -427.405 -28.275 QT
-426.569 -30.353 -425.272 -32.166 QT
-423.975 -33.978 -422.241 -35.338 QT
-422.241 -35.4 -422.085 -35.4 QT
-421.788 -35.4 L
-421.694 -35.4 -421.616 -35.314 QT
-421.538 -35.228 -421.538 -35.119 QT
-421.538 -34.978 -421.6 -34.916 QT
-423.163 -33.384 -424.202 -31.634 QT
-425.241 -29.884 -425.874 -27.908 QT
-426.506 -25.931 -426.788 -23.814 QT
-427.069 -21.697 -427.069 -19.4 QT
-427.069 -9.228 -421.631 -3.947 QT
-421.538 -3.853 -421.538 -3.681 QT
-421.538 -3.603 -421.624 -3.502 QT
-421.71 -3.4 -421.788 -3.4 QT
-422.085 -3.4 L
-422.241 -3.4 -422.241 -3.463 QT
cp
f
GR
GS
[0 -0.6 0.6 0 51.8 208.19984] CT
N
-407.395 -10.697 M
-410.442 -10.697 -412.871 -12.314 QT
-415.301 -13.931 -416.676 -16.611 QT
-418.051 -19.291 -418.051 -22.244 QT
-418.051 -24.431 -417.262 -26.572 QT
-416.473 -28.713 -415.059 -30.369 QT
-413.645 -32.025 -411.66 -32.994 QT
-409.676 -33.963 -407.395 -33.963 QT
-405.129 -33.963 -403.137 -32.986 QT
-401.145 -32.009 -399.723 -30.338 QT
-398.301 -28.666 -397.535 -26.588 QT
-396.77 -24.509 -396.77 -22.244 QT
-396.77 -19.291 -398.145 -16.611 QT
-399.52 -13.931 -401.957 -12.314 QT
-404.395 -10.697 -407.395 -10.697 QT
cp
-412.707 -14.853 M
-411.77 -13.384 -410.395 -12.517 QT
-409.02 -11.65 -407.395 -11.65 QT
-406.348 -11.65 -405.34 -12.072 QT
-404.332 -12.494 -403.512 -13.228 QT
-402.692 -13.963 -402.113 -14.853 QT
-400.207 -17.728 -400.207 -22.759 QT
-400.207 -27.369 -402.113 -30.056 QT
-403.051 -31.4 -404.449 -32.213 QT
-405.848 -33.025 -407.395 -33.025 QT
-408.957 -33.025 -410.363 -32.213 QT
-411.77 -31.4 -412.707 -30.056 QT
-413.457 -29.009 -413.871 -27.83 QT
-414.285 -26.65 -414.457 -25.384 QT
-414.629 -24.119 -414.629 -22.759 QT
-414.629 -21.306 -414.465 -19.924 QT
-414.301 -18.541 -413.856 -17.213 QT
-413.41 -15.884 -412.707 -14.853 QT
cp
f
GR
GS
[0 -0.6 0.6 0 51.8 208.19984] CT
N
-391.89 -11.4 M
-391.89 -30.338 L
-391.89 -31.197 -392.148 -31.58 QT
-392.406 -31.963 -392.89 -32.049 QT
-393.374 -32.134 -394.39 -32.134 QT
-394.39 -33.259 L
-389.656 -33.603 L
-389.656 -23.588 L
-389.124 -24.181 -388.413 -24.627 QT
-387.702 -25.072 -386.89 -25.306 QT
-386.077 -25.541 -385.234 -25.541 QT
-383.796 -25.541 -382.57 -24.963 QT
-381.343 -24.384 -380.437 -23.369 QT
-379.531 -22.353 -379.023 -21.033 QT
-378.515 -19.713 -378.515 -18.306 QT
-378.515 -16.369 -379.46 -14.697 QT
-380.406 -13.025 -382.038 -12.033 QT
-383.671 -11.041 -385.624 -11.041 QT
-386.843 -11.041 -387.984 -11.666 QT
-389.124 -12.291 -389.874 -13.322 QT
-390.968 -11.4 L
-391.89 -11.4 L
cp
-389.562 -14.541 M
-389.031 -13.369 -388.031 -12.627 QT
-387.031 -11.884 -385.812 -11.884 QT
-384.156 -11.884 -383.132 -12.838 QT
-382.109 -13.791 -381.702 -15.244 QT
-381.296 -16.697 -381.296 -18.306 QT
-381.296 -21.009 -381.999 -22.416 QT
-382.312 -23.041 -382.851 -23.572 QT
-383.39 -24.103 -384.054 -24.408 QT
-384.718 -24.713 -385.452 -24.713 QT
-386.734 -24.713 -387.827 -24.033 QT
-388.921 -23.353 -389.562 -22.213 QT
-389.562 -14.541 L
cp
f
GR
GS
[0 -0.6 0.6 0 51.8 208.19984] CT
N
-375.226 -6.025 M
-374.491 -5.666 -373.569 -5.666 QT
-372.304 -5.666 -371.812 -6.955 QT
-371.319 -8.244 -371.319 -9.744 QT
-371.319 -22.275 L
-371.319 -23.134 -371.632 -23.517 QT
-371.944 -23.9 -372.483 -23.986 QT
-373.022 -24.072 -374.069 -24.072 QT
-374.069 -25.197 L
-369.085 -25.541 L
-369.085 -9.603 L
-369.085 -8.369 -369.694 -7.267 QT
-370.304 -6.166 -371.351 -5.502 QT
-372.397 -4.838 -373.632 -4.838 QT
-375.022 -4.838 -376.147 -5.525 QT
-377.272 -6.213 -377.272 -7.463 QT
-377.272 -8.088 -376.819 -8.541 QT
-376.366 -8.994 -375.741 -8.994 QT
-375.116 -8.994 -374.663 -8.541 QT
-374.21 -8.088 -374.21 -7.463 QT
-374.21 -6.978 -374.483 -6.572 QT
-374.757 -6.166 -375.226 -6.025 QT
cp
-372.601 -31.041 M
-372.601 -31.744 -372.069 -32.275 QT
-371.538 -32.806 -370.835 -32.806 QT
-370.397 -32.806 -369.976 -32.572 QT
-369.554 -32.338 -369.319 -31.916 QT
-369.085 -31.494 -369.085 -31.041 QT
-369.085 -30.353 -369.601 -29.822 QT
-370.116 -29.291 -370.835 -29.291 QT
-371.538 -29.291 -372.069 -29.822 QT
-372.601 -30.353 -372.601 -31.041 QT
cp
f
GR
GS
[0 -0.6 0.6 0 51.8 208.19984] CT
N
-358.222 -11.041 M
-360.175 -11.041 -361.807 -12.064 QT
-363.44 -13.088 -364.37 -14.799 QT
-365.3 -16.509 -365.3 -18.416 QT
-365.3 -20.291 -364.448 -21.978 QT
-363.597 -23.666 -362.073 -24.705 QT
-360.55 -25.744 -358.675 -25.744 QT
-357.206 -25.744 -356.12 -25.252 QT
-355.034 -24.759 -354.331 -23.884 QT
-353.628 -23.009 -353.268 -21.822 QT
-352.909 -20.634 -352.909 -19.213 QT
-352.909 -18.791 -353.237 -18.791 QT
-362.503 -18.791 L
-362.503 -18.447 L
-362.503 -15.791 -361.432 -13.884 QT
-360.362 -11.978 -357.94 -11.978 QT
-356.956 -11.978 -356.12 -12.416 QT
-355.284 -12.853 -354.667 -13.634 QT
-354.05 -14.416 -353.831 -15.306 QT
-353.8 -15.416 -353.714 -15.502 QT
-353.628 -15.588 -353.518 -15.588 QT
-353.237 -15.588 L
-352.909 -15.588 -352.909 -15.181 QT
-353.362 -13.369 -354.862 -12.205 QT
-356.362 -11.041 -358.222 -11.041 QT
cp
-362.472 -19.588 M
-355.175 -19.588 L
-355.175 -20.791 -355.511 -22.025 QT
-355.847 -23.259 -356.628 -24.08 QT
-357.409 -24.9 -358.675 -24.9 QT
-360.487 -24.9 -361.479 -23.205 QT
-362.472 -21.509 -362.472 -19.588 QT
cp
f
GR
GS
[0 -0.6 0.6 0 51.8 208.19984] CT
N
-344.147 -11.041 M
-346.085 -11.041 -347.663 -12.049 QT
-349.241 -13.056 -350.147 -14.736 QT
-351.054 -16.416 -351.054 -18.306 QT
-351.054 -20.197 -350.155 -21.931 QT
-349.257 -23.666 -347.671 -24.705 QT
-346.085 -25.744 -344.147 -25.744 QT
-342.272 -25.744 -340.733 -25.009 QT
-339.194 -24.275 -339.194 -22.603 QT
-339.194 -21.978 -339.64 -21.517 QT
-340.085 -21.056 -340.726 -21.056 QT
-341.366 -21.056 -341.812 -21.517 QT
-342.257 -21.978 -342.257 -22.603 QT
-342.257 -23.166 -341.897 -23.58 QT
-341.538 -23.994 -341.007 -24.103 QT
-342.116 -24.806 -344.116 -24.806 QT
-345.647 -24.806 -346.585 -23.791 QT
-347.522 -22.775 -347.897 -21.275 QT
-348.272 -19.775 -348.272 -18.306 QT
-348.272 -16.759 -347.812 -15.314 QT
-347.351 -13.869 -346.327 -12.924 QT
-345.304 -11.978 -343.757 -11.978 QT
-342.241 -11.978 -341.179 -12.908 QT
-340.116 -13.838 -339.726 -15.338 QT
-339.726 -15.525 -339.476 -15.525 QT
-339.085 -15.525 L
-338.991 -15.525 -338.913 -15.439 QT
-338.835 -15.353 -338.835 -15.244 QT
-338.835 -15.15 L
-339.319 -13.259 -340.757 -12.15 QT
-342.194 -11.041 -344.147 -11.041 QT
cp
f
GR
GS
[0 -0.6 0.6 0 51.8 208.19984] CT
N
-334.777 -15.244 M
-334.777 -24.072 L
-337.433 -24.072 L
-337.433 -24.9 L
-335.339 -24.9 -334.355 -26.853 QT
-333.37 -28.806 -333.37 -31.088 QT
-332.448 -31.088 L
-332.448 -25.197 L
-327.933 -25.197 L
-327.933 -24.072 L
-332.448 -24.072 L
-332.448 -15.306 L
-332.448 -13.978 -332.003 -12.978 QT
-331.558 -11.978 -330.402 -11.978 QT
-329.308 -11.978 -328.823 -13.033 QT
-328.339 -14.088 -328.339 -15.306 QT
-328.339 -17.197 L
-327.417 -17.197 L
-327.417 -15.244 L
-327.417 -14.244 -327.784 -13.267 QT
-328.152 -12.291 -328.87 -11.666 QT
-329.589 -11.041 -330.62 -11.041 QT
-332.542 -11.041 -333.659 -12.189 QT
-334.777 -13.338 -334.777 -15.244 QT
cp
f
GR
GS
[0 -0.6 0.6 0 51.8 208.19984] CT
N
-324.743 -11.4 M
-324.743 -12.525 L
-323.649 -12.525 -322.946 -12.697 QT
-322.243 -12.869 -322.243 -13.541 QT
-322.243 -22.275 L
-322.243 -23.509 -322.719 -23.791 QT
-323.196 -24.072 -324.602 -24.072 QT
-324.602 -25.197 L
-319.993 -25.541 L
-319.993 -13.541 L
-319.993 -12.869 -319.384 -12.697 QT
-318.774 -12.525 -317.759 -12.525 QT
-317.759 -11.4 L
-324.743 -11.4 L
cp
-323.384 -31.041 M
-323.384 -31.744 -322.852 -32.275 QT
-322.321 -32.806 -321.634 -32.806 QT
-321.18 -32.806 -320.759 -32.572 QT
-320.337 -32.338 -320.102 -31.916 QT
-319.868 -31.494 -319.868 -31.041 QT
-319.868 -30.353 -320.399 -29.822 QT
-320.93 -29.291 -321.634 -29.291 QT
-322.321 -29.291 -322.852 -29.822 QT
-323.384 -30.353 -323.384 -31.041 QT
cp
f
GR
GS
[0 -0.6 0.6 0 51.8 208.19984] CT
N
-309.118 -11.4 M
-313.79 -23.15 L
-314.087 -23.744 -314.704 -23.908 QT
-315.322 -24.072 -316.322 -24.072 QT
-316.322 -25.197 L
-309.603 -25.197 L
-309.603 -24.072 L
-311.4 -24.072 -311.4 -23.306 QT
-311.4 -23.181 -311.368 -23.119 QT
-307.775 -14.088 L
-304.54 -22.244 L
-304.447 -22.494 -304.447 -22.759 QT
-304.447 -23.369 -304.908 -23.72 QT
-305.368 -24.072 -305.993 -24.072 QT
-305.993 -25.197 L
-300.681 -25.197 L
-300.681 -24.072 L
-301.665 -24.072 -302.408 -23.619 QT
-303.15 -23.166 -303.556 -22.275 QT
-307.868 -11.4 L
-307.993 -11.041 -308.384 -11.041 QT
-308.618 -11.041 L
-309.009 -11.041 -309.118 -11.4 QT
cp
f
GR
GS
[0 -0.6 0.6 0 51.8 208.19984] CT
N
-293.129 -11.041 M
-295.082 -11.041 -296.715 -12.064 QT
-298.348 -13.088 -299.277 -14.799 QT
-300.207 -16.509 -300.207 -18.416 QT
-300.207 -20.291 -299.355 -21.978 QT
-298.504 -23.666 -296.98 -24.705 QT
-295.457 -25.744 -293.582 -25.744 QT
-292.113 -25.744 -291.027 -25.252 QT
-289.941 -24.759 -289.238 -23.884 QT
-288.535 -23.009 -288.176 -21.822 QT
-287.816 -20.634 -287.816 -19.213 QT
-287.816 -18.791 -288.144 -18.791 QT
-297.41 -18.791 L
-297.41 -18.447 L
-297.41 -15.791 -296.34 -13.884 QT
-295.269 -11.978 -292.848 -11.978 QT
-291.863 -11.978 -291.027 -12.416 QT
-290.191 -12.853 -289.574 -13.634 QT
-288.957 -14.416 -288.738 -15.306 QT
-288.707 -15.416 -288.621 -15.502 QT
-288.535 -15.588 -288.426 -15.588 QT
-288.144 -15.588 L
-287.816 -15.588 -287.816 -15.181 QT
-288.269 -13.369 -289.769 -12.205 QT
-291.269 -11.041 -293.129 -11.041 QT
cp
-297.379 -19.588 M
-290.082 -19.588 L
-290.082 -20.791 -290.418 -22.025 QT
-290.754 -23.259 -291.535 -24.08 QT
-292.316 -24.9 -293.582 -24.9 QT
-295.394 -24.9 -296.387 -23.205 QT
-297.379 -21.509 -297.379 -19.588 QT
cp
f
GR
GS
[0 -0.6 0.6 0 51.8 208.19984] CT
N
-275.484 -11.4 M
-275.484 -12.525 L
-272.187 -12.525 -272.187 -13.541 QT
-272.187 -31.119 L
-272.187 -32.134 -275.484 -32.134 QT
-275.484 -33.259 L
-257.843 -33.259 L
-256.952 -25.931 L
-257.874 -25.931 L
-258.093 -27.947 -258.46 -29.111 QT
-258.827 -30.275 -259.53 -30.939 QT
-260.234 -31.603 -261.413 -31.869 QT
-262.593 -32.134 -264.655 -32.134 QT
-267.577 -32.134 L
-268.155 -32.134 -268.476 -32.088 QT
-268.796 -32.041 -268.999 -31.814 QT
-269.202 -31.588 -269.202 -31.119 QT
-269.202 -22.884 L
-266.937 -22.884 L
-265.296 -22.884 -264.53 -23.174 QT
-263.765 -23.463 -263.476 -24.228 QT
-263.187 -24.994 -263.187 -26.634 QT
-262.265 -26.634 L
-262.265 -18.025 L
-263.187 -18.025 L
-263.187 -19.666 -263.476 -20.431 QT
-263.765 -21.197 -264.53 -21.486 QT
-265.296 -21.775 -266.937 -21.775 QT
-269.202 -21.775 L
-269.202 -13.541 L
-269.202 -12.525 -265.109 -12.525 QT
-265.109 -11.4 L
-275.484 -11.4 L
cp
f
GR
GS
[0 -0.6 0.6 0 51.8 208.19984] CT
N
-254.982 -15.213 M
-254.982 -22.275 L
-254.982 -23.134 -255.24 -23.517 QT
-255.498 -23.9 -255.982 -23.986 QT
-256.467 -24.072 -257.482 -24.072 QT
-257.482 -25.197 L
-252.639 -25.541 L
-252.639 -15.213 L
-252.639 -13.963 -252.459 -13.267 QT
-252.279 -12.572 -251.693 -12.228 QT
-251.107 -11.884 -249.826 -11.884 QT
-248.107 -11.884 -247.092 -13.322 QT
-246.076 -14.759 -246.076 -16.588 QT
-246.076 -22.275 L
-246.076 -23.134 -246.342 -23.517 QT
-246.607 -23.9 -247.084 -23.986 QT
-247.561 -24.072 -248.576 -24.072 QT
-248.576 -25.197 L
-243.748 -25.541 L
-243.748 -14.306 L
-243.748 -13.463 -243.49 -13.08 QT
-243.232 -12.697 -242.748 -12.611 QT
-242.264 -12.525 -241.248 -12.525 QT
-241.248 -11.4 L
-245.982 -11.041 L
-245.982 -13.744 L
-246.576 -12.541 -247.639 -11.791 QT
-248.701 -11.041 -249.982 -11.041 QT
-252.279 -11.041 -253.631 -12.017 QT
-254.982 -12.994 -254.982 -15.213 QT
cp
f
GR
GS
[0 -0.6 0.6 0 51.8 208.19984] CT
N
-239.89 -11.4 M
-239.89 -12.525 L
-238.796 -12.525 -238.093 -12.697 QT
-237.39 -12.869 -237.39 -13.541 QT
-237.39 -22.275 L
-237.39 -23.134 -237.648 -23.517 QT
-237.905 -23.9 -238.39 -23.986 QT
-238.874 -24.072 -239.89 -24.072 QT
-239.89 -25.197 L
-235.249 -25.541 L
-235.249 -22.416 L
-234.609 -23.791 -233.351 -24.666 QT
-232.093 -25.541 -230.609 -25.541 QT
-228.39 -25.541 -227.273 -24.478 QT
-226.155 -23.416 -226.155 -21.228 QT
-226.155 -13.541 L
-226.155 -12.869 -225.452 -12.697 QT
-224.749 -12.525 -223.655 -12.525 QT
-223.655 -11.4 L
-230.984 -11.4 L
-230.984 -12.525 L
-229.89 -12.525 -229.187 -12.697 QT
-228.484 -12.869 -228.484 -13.541 QT
-228.484 -21.134 L
-228.484 -22.697 -228.937 -23.705 QT
-229.39 -24.713 -230.796 -24.713 QT
-232.655 -24.713 -233.851 -23.228 QT
-235.046 -21.744 -235.046 -19.853 QT
-235.046 -13.541 L
-235.046 -12.869 -234.343 -12.697 QT
-233.64 -12.525 -232.562 -12.525 QT
-232.562 -11.4 L
-239.89 -11.4 L
cp
f
GR
GS
[0 -0.6 0.6 0 51.8 208.19984] CT
N
-215.281 -11.041 M
-217.219 -11.041 -218.797 -12.049 QT
-220.375 -13.056 -221.281 -14.736 QT
-222.188 -16.416 -222.188 -18.306 QT
-222.188 -20.197 -221.289 -21.931 QT
-220.391 -23.666 -218.805 -24.705 QT
-217.219 -25.744 -215.281 -25.744 QT
-213.406 -25.744 -211.867 -25.009 QT
-210.328 -24.275 -210.328 -22.603 QT
-210.328 -21.978 -210.774 -21.517 QT
-211.219 -21.056 -211.86 -21.056 QT
-212.5 -21.056 -212.946 -21.517 QT
-213.391 -21.978 -213.391 -22.603 QT
-213.391 -23.166 -213.031 -23.58 QT
-212.672 -23.994 -212.141 -24.103 QT
-213.25 -24.806 -215.25 -24.806 QT
-216.781 -24.806 -217.719 -23.791 QT
-218.656 -22.775 -219.031 -21.275 QT
-219.406 -19.775 -219.406 -18.306 QT
-219.406 -16.759 -218.946 -15.314 QT
-218.485 -13.869 -217.461 -12.924 QT
-216.438 -11.978 -214.891 -11.978 QT
-213.375 -11.978 -212.313 -12.908 QT
-211.25 -13.838 -210.86 -15.338 QT
-210.86 -15.525 -210.61 -15.525 QT
-210.219 -15.525 L
-210.125 -15.525 -210.047 -15.439 QT
-209.969 -15.353 -209.969 -15.244 QT
-209.969 -15.15 L
-210.453 -13.259 -211.891 -12.15 QT
-213.328 -11.041 -215.281 -11.041 QT
cp
f
GR
GS
[0 -0.6 0.6 0 51.8 208.19984] CT
N
-205.911 -15.244 M
-205.911 -24.072 L
-208.567 -24.072 L
-208.567 -24.9 L
-206.473 -24.9 -205.489 -26.853 QT
-204.504 -28.806 -204.504 -31.088 QT
-203.582 -31.088 L
-203.582 -25.197 L
-199.067 -25.197 L
-199.067 -24.072 L
-203.582 -24.072 L
-203.582 -15.306 L
-203.582 -13.978 -203.137 -12.978 QT
-202.692 -11.978 -201.536 -11.978 QT
-200.442 -11.978 -199.957 -13.033 QT
-199.473 -14.088 -199.473 -15.306 QT
-199.473 -17.197 L
-198.551 -17.197 L
-198.551 -15.244 L
-198.551 -14.244 -198.918 -13.267 QT
-199.286 -12.291 -200.004 -11.666 QT
-200.723 -11.041 -201.754 -11.041 QT
-203.676 -11.041 -204.793 -12.189 QT
-205.911 -13.338 -205.911 -15.244 QT
cp
f
GR
GS
[0 -0.6 0.6 0 51.8 208.19984] CT
N
-195.877 -11.4 M
-195.877 -12.525 L
-194.783 -12.525 -194.08 -12.697 QT
-193.377 -12.869 -193.377 -13.541 QT
-193.377 -22.275 L
-193.377 -23.509 -193.854 -23.791 QT
-194.33 -24.072 -195.736 -24.072 QT
-195.736 -25.197 L
-191.127 -25.541 L
-191.127 -13.541 L
-191.127 -12.869 -190.518 -12.697 QT
-189.908 -12.525 -188.893 -12.525 QT
-188.893 -11.4 L
-195.877 -11.4 L
cp
-194.518 -31.041 M
-194.518 -31.744 -193.986 -32.275 QT
-193.455 -32.806 -192.768 -32.806 QT
-192.314 -32.806 -191.893 -32.572 QT
-191.471 -32.338 -191.236 -31.916 QT
-191.002 -31.494 -191.002 -31.041 QT
-191.002 -30.353 -191.533 -29.822 QT
-192.064 -29.291 -192.768 -29.291 QT
-193.455 -29.291 -193.986 -29.822 QT
-194.518 -30.353 -194.518 -31.041 QT
cp
f
GR
GS
[0 -0.6 0.6 0 51.8 208.19984] CT
N
-180.065 -11.041 M
-181.987 -11.041 -183.627 -12.017 QT
-185.268 -12.994 -186.221 -14.634 QT
-187.174 -16.275 -187.174 -18.213 QT
-187.174 -19.681 -186.651 -21.041 QT
-186.127 -22.4 -185.151 -23.47 QT
-184.174 -24.541 -182.877 -25.142 QT
-181.581 -25.744 -180.065 -25.744 QT
-178.096 -25.744 -176.479 -24.705 QT
-174.862 -23.666 -173.924 -21.924 QT
-172.987 -20.181 -172.987 -18.213 QT
-172.987 -16.291 -173.94 -14.642 QT
-174.893 -12.994 -176.526 -12.017 QT
-178.159 -11.041 -180.065 -11.041 QT
cp
-180.065 -11.978 M
-177.502 -11.978 -176.643 -13.838 QT
-175.784 -15.697 -175.784 -18.572 QT
-175.784 -20.181 -175.956 -21.236 QT
-176.127 -22.291 -176.706 -23.15 QT
-177.065 -23.681 -177.62 -24.08 QT
-178.174 -24.478 -178.792 -24.689 QT
-179.409 -24.9 -180.065 -24.9 QT
-181.065 -24.9 -181.963 -24.447 QT
-182.862 -23.994 -183.456 -23.15 QT
-184.049 -22.244 -184.213 -21.158 QT
-184.377 -20.072 -184.377 -18.572 QT
-184.377 -16.775 -184.065 -15.345 QT
-183.752 -13.916 -182.807 -12.947 QT
-181.862 -11.978 -180.065 -11.978 QT
cp
f
GR
GS
[0 -0.6 0.6 0 51.8 208.19984] CT
N
-171.278 -11.4 M
-171.278 -12.525 L
-170.185 -12.525 -169.482 -12.697 QT
-168.778 -12.869 -168.778 -13.541 QT
-168.778 -22.275 L
-168.778 -23.134 -169.036 -23.517 QT
-169.294 -23.9 -169.778 -23.986 QT
-170.263 -24.072 -171.278 -24.072 QT
-171.278 -25.197 L
-166.638 -25.541 L
-166.638 -22.416 L
-165.997 -23.791 -164.739 -24.666 QT
-163.482 -25.541 -161.997 -25.541 QT
-159.778 -25.541 -158.661 -24.478 QT
-157.544 -23.416 -157.544 -21.228 QT
-157.544 -13.541 L
-157.544 -12.869 -156.841 -12.697 QT
-156.138 -12.525 -155.044 -12.525 QT
-155.044 -11.4 L
-162.372 -11.4 L
-162.372 -12.525 L
-161.278 -12.525 -160.575 -12.697 QT
-159.872 -12.869 -159.872 -13.541 QT
-159.872 -21.134 L
-159.872 -22.697 -160.325 -23.705 QT
-160.778 -24.713 -162.185 -24.713 QT
-164.044 -24.713 -165.239 -23.228 QT
-166.435 -21.744 -166.435 -19.853 QT
-166.435 -13.541 L
-166.435 -12.869 -165.732 -12.697 QT
-165.028 -12.525 -163.95 -12.525 QT
-163.95 -11.4 L
-171.278 -11.4 L
cp
f
GR
GS
[0 -0.6 0.6 0 51.8 208.19984] CT
N
-152.561 -3.4 M
-152.842 -3.4 -152.842 -3.681 QT
-152.842 -3.822 -152.78 -3.884 QT
-147.311 -9.228 -147.311 -19.4 QT
-147.311 -29.572 -152.717 -34.853 QT
-152.842 -34.931 -152.842 -35.119 QT
-152.842 -35.228 -152.756 -35.314 QT
-152.67 -35.4 -152.561 -35.4 QT
-152.264 -35.4 L
-152.17 -35.4 -152.108 -35.338 QT
-149.811 -33.525 -148.28 -30.931 QT
-146.748 -28.338 -146.037 -25.4 QT
-145.326 -22.463 -145.326 -19.4 QT
-145.326 -17.134 -145.709 -14.939 QT
-146.092 -12.744 -146.928 -10.611 QT
-147.764 -8.478 -149.045 -6.674 QT
-150.326 -4.869 -152.108 -3.463 QT
-152.17 -3.4 -152.264 -3.4 QT
-152.561 -3.4 L
cp
f
GR
GS
[0 -0.6 0.6 0 51.8 208.19984] CT
N
-131.409 -17.322 M
-131.409 -19.306 L
-122.94 -19.306 L
-122.94 -17.322 L
-131.409 -17.322 L
cp
f
GR
GS
[0 -0.6 0.6 0 51.8 208.19984] CT
N
-109.595 -11.4 M
-109.595 -12.525 L
-106.298 -12.525 -106.298 -13.541 QT
-106.298 -31.119 L
-106.298 -32.134 -109.595 -32.134 QT
-109.595 -33.259 L
-98.204 -33.259 L
-96.454 -33.259 -94.704 -32.541 QT
-92.954 -31.822 -91.822 -30.447 QT
-90.689 -29.072 -90.689 -27.244 QT
-90.689 -25.463 -91.829 -24.119 QT
-92.97 -22.775 -94.704 -22.08 QT
-96.439 -21.384 -98.204 -21.384 QT
-103.329 -21.384 L
-103.329 -13.541 L
-103.329 -12.525 -100.032 -12.525 QT
-100.032 -11.4 L
-109.595 -11.4 L
cp
-103.423 -22.338 M
-99.079 -22.338 L
-97.314 -22.338 -96.22 -22.845 QT
-95.126 -23.353 -94.618 -24.424 QT
-94.111 -25.494 -94.111 -27.244 QT
-94.111 -29.853 -95.259 -30.994 QT
-96.407 -32.134 -99.079 -32.134 QT
-101.798 -32.134 L
-102.376 -32.134 -102.697 -32.088 QT
-103.017 -32.041 -103.22 -31.814 QT
-103.423 -31.588 -103.423 -31.119 QT
-103.423 -22.338 L
cp
f
GR
GS
[0 -0.6 0.6 0 51.8 208.19984] CT
N
-88.705 -14.541 M
-88.705 -16.447 -87.205 -17.642 QT
-85.705 -18.838 -83.603 -19.33 QT
-81.502 -19.822 -79.611 -19.822 QT
-79.611 -21.134 L
-79.611 -22.056 -80.017 -22.924 QT
-80.424 -23.791 -81.189 -24.345 QT
-81.955 -24.9 -82.877 -24.9 QT
-85.002 -24.9 -86.111 -23.947 QT
-85.502 -23.947 -85.103 -23.486 QT
-84.705 -23.025 -84.705 -22.416 QT
-84.705 -21.775 -85.158 -21.322 QT
-85.611 -20.869 -86.236 -20.869 QT
-86.877 -20.869 -87.33 -21.322 QT
-87.783 -21.775 -87.783 -22.416 QT
-87.783 -24.103 -86.252 -24.924 QT
-84.721 -25.744 -82.877 -25.744 QT
-81.58 -25.744 -80.267 -25.189 QT
-78.955 -24.634 -78.119 -23.603 QT
-77.283 -22.572 -77.283 -21.197 QT
-77.283 -13.994 L
-77.283 -13.369 -77.017 -12.845 QT
-76.752 -12.322 -76.189 -12.322 QT
-75.658 -12.322 -75.4 -12.853 QT
-75.142 -13.384 -75.142 -13.994 QT
-75.142 -16.041 L
-74.205 -16.041 L
-74.205 -13.994 L
-74.205 -13.275 -74.58 -12.627 QT
-74.955 -11.978 -75.588 -11.595 QT
-76.221 -11.213 -76.955 -11.213 QT
-77.892 -11.213 -78.572 -11.939 QT
-79.252 -12.666 -79.33 -13.666 QT
-79.924 -12.463 -81.08 -11.752 QT
-82.236 -11.041 -83.549 -11.041 QT
-84.767 -11.041 -85.947 -11.4 QT
-87.127 -11.759 -87.916 -12.533 QT
-88.705 -13.306 -88.705 -14.541 QT
cp
-86.111 -14.541 M
-86.111 -13.416 -85.283 -12.65 QT
-84.455 -11.884 -83.33 -11.884 QT
-82.299 -11.884 -81.455 -12.4 QT
-80.611 -12.916 -80.111 -13.806 QT
-79.611 -14.697 -79.611 -15.681 QT
-79.611 -19.009 L
-81.064 -19.009 -82.588 -18.533 QT
-84.111 -18.056 -85.111 -17.041 QT
-86.111 -16.025 -86.111 -14.541 QT
cp
f
GR
GS
[0 -0.6 0.6 0 51.8 208.19984] CT
N
-72.829 -6.15 M
-72.22 -5.666 -71.486 -5.666 QT
-69.47 -5.666 -68.189 -8.713 QT
-67.095 -11.4 L
-71.892 -23.15 L
-72.189 -23.744 -72.798 -23.908 QT
-73.407 -24.072 -74.423 -24.072 QT
-74.423 -25.197 L
-67.704 -25.197 L
-67.704 -24.072 L
-69.47 -24.072 -69.47 -23.306 QT
-69.47 -23.181 -69.439 -23.119 QT
-65.876 -14.369 L
-62.673 -22.244 L
-62.579 -22.494 -62.579 -22.791 QT
-62.579 -23.181 -62.79 -23.47 QT
-63.001 -23.759 -63.337 -23.916 QT
-63.673 -24.072 -64.095 -24.072 QT
-64.095 -25.197 L
-58.782 -25.197 L
-58.782 -24.072 L
-59.767 -24.072 -60.509 -23.619 QT
-61.251 -23.166 -61.657 -22.275 QT
-67.189 -8.713 L
-67.626 -7.681 -68.212 -6.814 QT
-68.798 -5.947 -69.642 -5.392 QT
-70.486 -4.838 -71.486 -4.838 QT
-72.657 -4.838 -73.54 -5.611 QT
-74.423 -6.384 -74.423 -7.525 QT
-74.423 -8.119 -74.017 -8.525 QT
-73.611 -8.931 -73.017 -8.931 QT
-72.611 -8.931 -72.29 -8.752 QT
-71.97 -8.572 -71.79 -8.259 QT
-71.611 -7.947 -71.611 -7.525 QT
-71.611 -7.009 -71.954 -6.603 QT
-72.298 -6.197 -72.829 -6.15 QT
cp
f
GR
GS
[0 -0.6 0.6 0 51.8 208.19984] CT
N
-57.366 -11.4 M
-57.366 -12.525 L
-56.273 -12.525 -55.569 -12.697 QT
-54.866 -12.869 -54.866 -13.541 QT
-54.866 -22.275 L
-54.866 -23.134 -55.124 -23.517 QT
-55.382 -23.9 -55.866 -23.986 QT
-56.351 -24.072 -57.366 -24.072 QT
-57.366 -25.197 L
-52.726 -25.541 L
-52.726 -22.416 L
-52.085 -23.791 -50.827 -24.666 QT
-49.569 -25.541 -48.085 -25.541 QT
-44.398 -25.541 -43.757 -22.541 QT
-43.116 -23.884 -41.882 -24.713 QT
-40.648 -25.541 -39.179 -25.541 QT
-37.726 -25.541 -36.733 -25.072 QT
-35.741 -24.603 -35.241 -23.642 QT
-34.741 -22.681 -34.741 -21.228 QT
-34.741 -13.541 L
-34.741 -12.869 -34.03 -12.697 QT
-33.319 -12.525 -32.241 -12.525 QT
-32.241 -11.4 L
-39.569 -11.4 L
-39.569 -12.525 L
-38.476 -12.525 -37.773 -12.697 QT
-37.069 -12.869 -37.069 -13.541 QT
-37.069 -21.134 L
-37.069 -22.744 -37.523 -23.728 QT
-37.976 -24.713 -39.382 -24.713 QT
-41.226 -24.713 -42.429 -23.228 QT
-43.632 -21.744 -43.632 -19.853 QT
-43.632 -13.541 L
-43.632 -12.869 -42.929 -12.697 QT
-42.226 -12.525 -41.132 -12.525 QT
-41.132 -11.4 L
-48.46 -11.4 L
-48.46 -12.525 L
-47.366 -12.525 -46.663 -12.697 QT
-45.96 -12.869 -45.96 -13.541 QT
-45.96 -21.134 L
-45.96 -22.697 -46.413 -23.705 QT
-46.866 -24.713 -48.273 -24.713 QT
-50.132 -24.713 -51.327 -23.228 QT
-52.523 -21.744 -52.523 -19.853 QT
-52.523 -13.541 L
-52.523 -12.869 -51.819 -12.697 QT
-51.116 -12.525 -50.038 -12.525 QT
-50.038 -11.4 L
-57.366 -11.4 L
cp
f
GR
GS
[0 -0.6 0.6 0 51.8 208.19984] CT
N
-23.962 -11.041 M
-25.915 -11.041 -27.548 -12.064 QT
-29.18 -13.088 -30.11 -14.799 QT
-31.04 -16.509 -31.04 -18.416 QT
-31.04 -20.291 -30.188 -21.978 QT
-29.337 -23.666 -27.813 -24.705 QT
-26.29 -25.744 -24.415 -25.744 QT
-22.946 -25.744 -21.86 -25.252 QT
-20.774 -24.759 -20.071 -23.884 QT
-19.368 -23.009 -19.009 -21.822 QT
-18.649 -20.634 -18.649 -19.213 QT
-18.649 -18.791 -18.977 -18.791 QT
-28.243 -18.791 L
-28.243 -18.447 L
-28.243 -15.791 -27.173 -13.884 QT
-26.102 -11.978 -23.68 -11.978 QT
-22.696 -11.978 -21.86 -12.416 QT
-21.024 -12.853 -20.407 -13.634 QT
-19.79 -14.416 -19.571 -15.306 QT
-19.54 -15.416 -19.454 -15.502 QT
-19.368 -15.588 -19.259 -15.588 QT
-18.977 -15.588 L
-18.649 -15.588 -18.649 -15.181 QT
-19.102 -13.369 -20.602 -12.205 QT
-22.102 -11.041 -23.962 -11.041 QT
cp
-28.212 -19.588 M
-20.915 -19.588 L
-20.915 -20.791 -21.251 -22.025 QT
-21.587 -23.259 -22.368 -24.08 QT
-23.149 -24.9 -24.415 -24.9 QT
-26.227 -24.9 -27.22 -23.205 QT
-28.212 -21.509 -28.212 -19.588 QT
cp
f
GR
GS
[0 -0.6 0.6 0 51.8 208.19984] CT
N
-16.903 -11.4 M
-16.903 -12.525 L
-15.809 -12.525 -15.106 -12.697 QT
-14.403 -12.869 -14.403 -13.541 QT
-14.403 -22.275 L
-14.403 -23.134 -14.661 -23.517 QT
-14.919 -23.9 -15.403 -23.986 QT
-15.888 -24.072 -16.903 -24.072 QT
-16.903 -25.197 L
-12.263 -25.541 L
-12.263 -22.416 L
-11.622 -23.791 -10.364 -24.666 QT
-9.106 -25.541 -7.622 -25.541 QT
-5.403 -25.541 -4.286 -24.478 QT
-3.169 -23.416 -3.169 -21.228 QT
-3.169 -13.541 L
-3.169 -12.869 -2.466 -12.697 QT
-1.763 -12.525 -0.669 -12.525 QT
-0.669 -11.4 L
-7.997 -11.4 L
-7.997 -12.525 L
-6.903 -12.525 -6.2 -12.697 QT
-5.497 -12.869 -5.497 -13.541 QT
-5.497 -21.134 L
-5.497 -22.697 -5.95 -23.705 QT
-6.403 -24.713 -7.809 -24.713 QT
-9.669 -24.713 -10.864 -23.228 QT
-12.059 -21.744 -12.059 -19.853 QT
-12.059 -13.541 L
-12.059 -12.869 -11.356 -12.697 QT
-10.653 -12.525 -9.575 -12.525 QT
-9.575 -11.4 L
-16.903 -11.4 L
cp
f
GR
GS
[0 -0.6 0.6 0 51.8 208.19984] CT
N
2.122 -15.244 M
2.122 -24.072 L
-0.534 -24.072 L
-0.534 -24.9 L
1.56 -24.9 2.544 -26.853 QT
3.528 -28.806 3.528 -31.088 QT
4.45 -31.088 L
4.45 -25.197 L
8.966 -25.197 L
8.966 -24.072 L
4.45 -24.072 L
4.45 -15.306 L
4.45 -13.978 4.896 -12.978 QT
5.341 -11.978 6.497 -11.978 QT
7.591 -11.978 8.075 -13.033 QT
8.56 -14.088 8.56 -15.306 QT
8.56 -17.197 L
9.482 -17.197 L
9.482 -15.244 L
9.482 -14.244 9.114 -13.267 QT
8.747 -12.291 8.028 -11.666 QT
7.31 -11.041 6.278 -11.041 QT
4.357 -11.041 3.239 -12.189 QT
2.122 -13.338 2.122 -15.244 QT
cp
f
GR
GS
[0 -0.6 0.6 0 51.8 208.19984] CT
N
22.086 -17.322 M
22.086 -19.306 L
30.555 -19.306 L
30.555 -17.322 L
22.086 -17.322 L
cp
f
GR
GS
[0 -0.6 0.6 0 51.8 208.19984] CT
N
52.76 -3.463 M
50.979 -4.869 49.69 -6.689 QT
48.401 -8.509 47.58 -10.572 QT
46.76 -12.634 46.354 -14.884 QT
45.947 -17.134 45.947 -19.4 QT
45.947 -21.697 46.354 -23.947 QT
46.76 -26.197 47.596 -28.275 QT
48.432 -30.353 49.729 -32.166 QT
51.026 -33.978 52.76 -35.338 QT
52.76 -35.4 52.916 -35.4 QT
53.213 -35.4 L
53.307 -35.4 53.385 -35.314 QT
53.463 -35.228 53.463 -35.119 QT
53.463 -34.978 53.401 -34.916 QT
51.838 -33.384 50.799 -31.634 QT
49.76 -29.884 49.127 -27.908 QT
48.494 -25.931 48.213 -23.814 QT
47.932 -21.697 47.932 -19.4 QT
47.932 -9.228 53.369 -3.947 QT
53.463 -3.853 53.463 -3.681 QT
53.463 -3.603 53.377 -3.502 QT
53.291 -3.4 53.213 -3.4 QT
52.916 -3.4 L
52.76 -3.4 52.76 -3.463 QT
cp
f
GR
GS
[0 -0.6 0.6 0 51.8 208.19984] CT
N
56.215 -11.4 M
56.215 -12.525 L
59.512 -12.525 59.512 -13.541 QT
59.512 -31.119 L
59.512 -32.134 56.215 -32.134 QT
56.215 -33.259 L
66.262 -33.259 L
68.059 -33.259 70.036 -32.611 QT
72.012 -31.963 73.34 -30.634 QT
74.669 -29.306 74.669 -27.463 QT
74.669 -26.119 73.864 -25.064 QT
73.059 -24.009 71.801 -23.299 QT
70.544 -22.588 69.231 -22.275 QT
70.669 -21.775 71.747 -20.681 QT
72.825 -19.588 73.044 -18.181 QT
73.497 -15.338 L
73.809 -13.416 74.153 -12.47 QT
74.497 -11.525 75.669 -11.525 QT
76.669 -11.525 77.161 -12.455 QT
77.653 -13.384 77.653 -14.478 QT
77.653 -14.588 77.755 -14.674 QT
77.856 -14.759 77.965 -14.759 QT
78.262 -14.759 L
78.575 -14.759 78.575 -14.338 QT
78.575 -13.463 78.231 -12.627 QT
77.887 -11.791 77.239 -11.244 QT
76.59 -10.697 75.7 -10.697 QT
73.387 -10.697 71.723 -11.845 QT
70.059 -12.994 70.059 -15.213 QT
70.059 -18.056 L
70.059 -19.65 68.95 -20.791 QT
67.84 -21.931 66.231 -21.931 QT
62.387 -21.931 L
62.387 -13.541 L
62.387 -12.525 65.684 -12.525 QT
65.684 -11.4 L
56.215 -11.4 L
cp
62.387 -22.759 M
65.809 -22.759 L
68.465 -22.759 69.856 -23.83 QT
71.247 -24.9 71.247 -27.463 QT
71.247 -30.009 69.872 -31.072 QT
68.497 -32.134 65.809 -32.134 QT
64.012 -32.134 L
63.434 -32.134 63.114 -32.088 QT
62.794 -32.041 62.59 -31.814 QT
62.387 -31.588 62.387 -31.119 QT
62.387 -22.759 L
cp
f
GR
GS
[0 -0.6 0.6 0 51.8 208.19984] CT
N
86.432 -11.041 M
84.479 -11.041 82.846 -12.064 QT
81.213 -13.088 80.283 -14.799 QT
79.354 -16.509 79.354 -18.416 QT
79.354 -20.291 80.205 -21.978 QT
81.057 -23.666 82.58 -24.705 QT
84.104 -25.744 85.979 -25.744 QT
87.448 -25.744 88.533 -25.252 QT
89.619 -24.759 90.323 -23.884 QT
91.026 -23.009 91.385 -21.822 QT
91.744 -20.634 91.744 -19.213 QT
91.744 -18.791 91.416 -18.791 QT
82.151 -18.791 L
82.151 -18.447 L
82.151 -15.791 83.221 -13.884 QT
84.291 -11.978 86.713 -11.978 QT
87.698 -11.978 88.533 -12.416 QT
89.369 -12.853 89.987 -13.634 QT
90.604 -14.416 90.823 -15.306 QT
90.854 -15.416 90.94 -15.502 QT
91.026 -15.588 91.135 -15.588 QT
91.416 -15.588 L
91.744 -15.588 91.744 -15.181 QT
91.291 -13.369 89.791 -12.205 QT
88.291 -11.041 86.432 -11.041 QT
cp
82.182 -19.588 M
89.479 -19.588 L
89.479 -20.791 89.143 -22.025 QT
88.807 -23.259 88.026 -24.08 QT
87.244 -24.9 85.979 -24.9 QT
84.166 -24.9 83.174 -23.205 QT
82.182 -21.509 82.182 -19.588 QT
cp
f
GR
GS
[0 -0.6 0.6 0 51.8 208.19984] CT
N
93.568 -11.4 M
93.568 -12.525 L
94.647 -12.525 95.35 -12.697 QT
96.053 -12.869 96.053 -13.541 QT
96.053 -24.072 L
93.6 -24.072 L
93.6 -25.197 L
96.053 -25.197 L
96.053 -29.025 L
96.053 -30.056 96.483 -30.955 QT
96.912 -31.853 97.639 -32.525 QT
98.365 -33.197 99.311 -33.58 QT
100.256 -33.963 101.272 -33.963 QT
102.35 -33.963 103.217 -33.322 QT
104.084 -32.681 104.084 -31.619 QT
104.084 -31.009 103.67 -30.595 QT
103.256 -30.181 102.647 -30.181 QT
102.037 -30.181 101.608 -30.595 QT
101.178 -31.009 101.178 -31.619 QT
101.178 -32.619 102.037 -32.963 QT
101.522 -33.134 101.115 -33.134 QT
100.178 -33.134 99.514 -32.47 QT
98.85 -31.806 98.522 -30.853 QT
98.193 -29.9 98.193 -28.963 QT
98.193 -25.197 L
101.881 -25.197 L
101.881 -24.072 L
98.303 -24.072 L
98.303 -13.541 L
98.303 -12.884 99.24 -12.705 QT
100.178 -12.525 101.397 -12.525 QT
101.397 -11.4 L
93.568 -11.4 L
cp
f
GR
GS
[0 -0.6 0.6 0 51.8 208.19984] CT
N
110.182 -11.041 M
108.229 -11.041 106.596 -12.064 QT
104.963 -13.088 104.033 -14.799 QT
103.104 -16.509 103.104 -18.416 QT
103.104 -20.291 103.955 -21.978 QT
104.807 -23.666 106.33 -24.705 QT
107.854 -25.744 109.729 -25.744 QT
111.198 -25.744 112.283 -25.252 QT
113.369 -24.759 114.073 -23.884 QT
114.776 -23.009 115.135 -21.822 QT
115.494 -20.634 115.494 -19.213 QT
115.494 -18.791 115.166 -18.791 QT
105.901 -18.791 L
105.901 -18.447 L
105.901 -15.791 106.971 -13.884 QT
108.041 -11.978 110.463 -11.978 QT
111.448 -11.978 112.283 -12.416 QT
113.119 -12.853 113.737 -13.634 QT
114.354 -14.416 114.573 -15.306 QT
114.604 -15.416 114.69 -15.502 QT
114.776 -15.588 114.885 -15.588 QT
115.166 -15.588 L
115.494 -15.588 115.494 -15.181 QT
115.041 -13.369 113.541 -12.205 QT
112.041 -11.041 110.182 -11.041 QT
cp
105.932 -19.588 M
113.229 -19.588 L
113.229 -20.791 112.893 -22.025 QT
112.557 -23.259 111.776 -24.08 QT
110.994 -24.9 109.729 -24.9 QT
107.916 -24.9 106.924 -23.205 QT
105.932 -21.509 105.932 -19.588 QT
cp
f
GR
GS
[0 -0.6 0.6 0 51.8 208.19984] CT
N
117.115 -11.4 M
117.115 -12.525 L
118.209 -12.525 118.912 -12.697 QT
119.615 -12.869 119.615 -13.541 QT
119.615 -22.275 L
119.615 -23.134 119.358 -23.517 QT
119.1 -23.9 118.615 -23.986 QT
118.131 -24.072 117.115 -24.072 QT
117.115 -25.197 L
121.693 -25.541 L
121.693 -22.416 L
122.209 -23.806 123.162 -24.674 QT
124.115 -25.541 125.475 -25.541 QT
126.428 -25.541 127.178 -24.978 QT
127.928 -24.416 127.928 -23.494 QT
127.928 -22.916 127.514 -22.486 QT
127.1 -22.056 126.49 -22.056 QT
125.897 -22.056 125.475 -22.478 QT
125.053 -22.9 125.053 -23.494 QT
125.053 -24.353 125.662 -24.713 QT
125.475 -24.713 L
124.178 -24.713 123.358 -23.775 QT
122.537 -22.838 122.193 -21.447 QT
121.85 -20.056 121.85 -18.791 QT
121.85 -13.541 L
121.85 -12.525 124.959 -12.525 QT
124.959 -11.4 L
117.115 -11.4 L
cp
f
GR
GS
[0 -0.6 0.6 0 51.8 208.19984] CT
N
136.659 -11.041 M
134.706 -11.041 133.073 -12.064 QT
131.44 -13.088 130.51 -14.799 QT
129.581 -16.509 129.581 -18.416 QT
129.581 -20.291 130.432 -21.978 QT
131.284 -23.666 132.807 -24.705 QT
134.331 -25.744 136.206 -25.744 QT
137.674 -25.744 138.76 -25.252 QT
139.846 -24.759 140.549 -23.884 QT
141.253 -23.009 141.612 -21.822 QT
141.971 -20.634 141.971 -19.213 QT
141.971 -18.791 141.643 -18.791 QT
132.378 -18.791 L
132.378 -18.447 L
132.378 -15.791 133.448 -13.884 QT
134.518 -11.978 136.94 -11.978 QT
137.924 -11.978 138.76 -12.416 QT
139.596 -12.853 140.213 -13.634 QT
140.831 -14.416 141.049 -15.306 QT
141.081 -15.416 141.167 -15.502 QT
141.253 -15.588 141.362 -15.588 QT
141.643 -15.588 L
141.971 -15.588 141.971 -15.181 QT
141.518 -13.369 140.018 -12.205 QT
138.518 -11.041 136.659 -11.041 QT
cp
132.409 -19.588 M
139.706 -19.588 L
139.706 -20.791 139.37 -22.025 QT
139.034 -23.259 138.253 -24.08 QT
137.471 -24.9 136.206 -24.9 QT
134.393 -24.9 133.401 -23.205 QT
132.409 -21.509 132.409 -19.588 QT
cp
f
GR
GS
[0 -0.6 0.6 0 51.8 208.19984] CT
N
143.717 -11.4 M
143.717 -12.525 L
144.811 -12.525 145.514 -12.697 QT
146.217 -12.869 146.217 -13.541 QT
146.217 -22.275 L
146.217 -23.134 145.959 -23.517 QT
145.702 -23.9 145.217 -23.986 QT
144.733 -24.072 143.717 -24.072 QT
143.717 -25.197 L
148.358 -25.541 L
148.358 -22.416 L
148.998 -23.791 150.256 -24.666 QT
151.514 -25.541 152.998 -25.541 QT
155.217 -25.541 156.334 -24.478 QT
157.452 -23.416 157.452 -21.228 QT
157.452 -13.541 L
157.452 -12.869 158.155 -12.697 QT
158.858 -12.525 159.952 -12.525 QT
159.952 -11.4 L
152.623 -11.4 L
152.623 -12.525 L
153.717 -12.525 154.42 -12.697 QT
155.123 -12.869 155.123 -13.541 QT
155.123 -21.134 L
155.123 -22.697 154.67 -23.705 QT
154.217 -24.713 152.811 -24.713 QT
150.952 -24.713 149.756 -23.228 QT
148.561 -21.744 148.561 -19.853 QT
148.561 -13.541 L
148.561 -12.869 149.264 -12.697 QT
149.967 -12.525 151.045 -12.525 QT
151.045 -11.4 L
143.717 -11.4 L
cp
f
GR
GS
[0 -0.6 0.6 0 51.8 208.19984] CT
N
168.326 -11.041 M
166.388 -11.041 164.81 -12.049 QT
163.232 -13.056 162.326 -14.736 QT
161.419 -16.416 161.419 -18.306 QT
161.419 -20.197 162.318 -21.931 QT
163.216 -23.666 164.802 -24.705 QT
166.388 -25.744 168.326 -25.744 QT
170.201 -25.744 171.74 -25.009 QT
173.279 -24.275 173.279 -22.603 QT
173.279 -21.978 172.833 -21.517 QT
172.388 -21.056 171.747 -21.056 QT
171.107 -21.056 170.661 -21.517 QT
170.216 -21.978 170.216 -22.603 QT
170.216 -23.166 170.576 -23.58 QT
170.935 -23.994 171.466 -24.103 QT
170.357 -24.806 168.357 -24.806 QT
166.826 -24.806 165.888 -23.791 QT
164.951 -22.775 164.576 -21.275 QT
164.201 -19.775 164.201 -18.306 QT
164.201 -16.759 164.661 -15.314 QT
165.122 -13.869 166.146 -12.924 QT
167.169 -11.978 168.716 -11.978 QT
170.232 -11.978 171.294 -12.908 QT
172.357 -13.838 172.747 -15.338 QT
172.747 -15.525 172.997 -15.525 QT
173.388 -15.525 L
173.482 -15.525 173.56 -15.439 QT
173.638 -15.353 173.638 -15.244 QT
173.638 -15.15 L
173.154 -13.259 171.716 -12.15 QT
170.279 -11.041 168.326 -11.041 QT
cp
f
GR
GS
[0 -0.6 0.6 0 51.8 208.19984] CT
N
182.4 -11.041 M
180.446 -11.041 178.814 -12.064 QT
177.181 -13.088 176.251 -14.799 QT
175.321 -16.509 175.321 -18.416 QT
175.321 -20.291 176.173 -21.978 QT
177.025 -23.666 178.548 -24.705 QT
180.071 -25.744 181.946 -25.744 QT
183.415 -25.744 184.501 -25.252 QT
185.587 -24.759 186.29 -23.884 QT
186.993 -23.009 187.353 -21.822 QT
187.712 -20.634 187.712 -19.213 QT
187.712 -18.791 187.384 -18.791 QT
178.118 -18.791 L
178.118 -18.447 L
178.118 -15.791 179.189 -13.884 QT
180.259 -11.978 182.681 -11.978 QT
183.665 -11.978 184.501 -12.416 QT
185.337 -12.853 185.954 -13.634 QT
186.571 -14.416 186.79 -15.306 QT
186.821 -15.416 186.907 -15.502 QT
186.993 -15.588 187.103 -15.588 QT
187.384 -15.588 L
187.712 -15.588 187.712 -15.181 QT
187.259 -13.369 185.759 -12.205 QT
184.259 -11.041 182.4 -11.041 QT
cp
178.15 -19.588 M
185.446 -19.588 L
185.446 -20.791 185.111 -22.025 QT
184.775 -23.259 183.993 -24.08 QT
183.212 -24.9 181.946 -24.9 QT
180.134 -24.9 179.142 -23.205 QT
178.15 -21.509 178.15 -19.588 QT
cp
f
GR
GS
[0 -0.6 0.6 0 51.8 208.19984] CT
N
211.514 -10.697 M
208.467 -10.697 206.037 -12.314 QT
203.607 -13.931 202.232 -16.611 QT
200.857 -19.291 200.857 -22.244 QT
200.857 -24.431 201.646 -26.572 QT
202.435 -28.713 203.849 -30.369 QT
205.264 -32.025 207.248 -32.994 QT
209.232 -33.963 211.514 -33.963 QT
213.779 -33.963 215.771 -32.986 QT
217.764 -32.009 219.185 -30.338 QT
220.607 -28.666 221.373 -26.588 QT
222.139 -24.509 222.139 -22.244 QT
222.139 -19.291 220.764 -16.611 QT
219.389 -13.931 216.951 -12.314 QT
214.514 -10.697 211.514 -10.697 QT
cp
206.201 -14.853 M
207.139 -13.384 208.514 -12.517 QT
209.889 -11.65 211.514 -11.65 QT
212.56 -11.65 213.568 -12.072 QT
214.576 -12.494 215.396 -13.228 QT
216.217 -13.963 216.795 -14.853 QT
218.701 -17.728 218.701 -22.759 QT
218.701 -27.369 216.795 -30.056 QT
215.857 -31.4 214.459 -32.213 QT
213.06 -33.025 211.514 -33.025 QT
209.951 -33.025 208.545 -32.213 QT
207.139 -31.4 206.201 -30.056 QT
205.451 -29.009 205.037 -27.83 QT
204.623 -26.65 204.451 -25.384 QT
204.279 -24.119 204.279 -22.759 QT
204.279 -21.306 204.443 -19.924 QT
204.607 -18.541 205.053 -17.213 QT
205.498 -15.884 206.201 -14.853 QT
cp
f
GR
GS
[0 -0.6 0.6 0 51.8 208.19984] CT
N
227.018 -11.4 M
227.018 -30.338 L
227.018 -31.197 226.76 -31.58 QT
226.503 -31.963 226.018 -32.049 QT
225.534 -32.134 224.518 -32.134 QT
224.518 -33.259 L
229.253 -33.603 L
229.253 -23.588 L
229.784 -24.181 230.495 -24.627 QT
231.206 -25.072 232.018 -25.306 QT
232.831 -25.541 233.674 -25.541 QT
235.112 -25.541 236.339 -24.963 QT
237.565 -24.384 238.471 -23.369 QT
239.378 -22.353 239.885 -21.033 QT
240.393 -19.713 240.393 -18.306 QT
240.393 -16.369 239.448 -14.697 QT
238.503 -13.025 236.87 -12.033 QT
235.237 -11.041 233.284 -11.041 QT
232.065 -11.041 230.924 -11.666 QT
229.784 -12.291 229.034 -13.322 QT
227.94 -11.4 L
227.018 -11.4 L
cp
229.346 -14.541 M
229.878 -13.369 230.878 -12.627 QT
231.878 -11.884 233.096 -11.884 QT
234.753 -11.884 235.776 -12.838 QT
236.799 -13.791 237.206 -15.244 QT
237.612 -16.697 237.612 -18.306 QT
237.612 -21.009 236.909 -22.416 QT
236.596 -23.041 236.057 -23.572 QT
235.518 -24.103 234.854 -24.408 QT
234.19 -24.713 233.456 -24.713 QT
232.174 -24.713 231.081 -24.033 QT
229.987 -23.353 229.346 -22.213 QT
229.346 -14.541 L
cp
f
GR
GS
[0 -0.6 0.6 0 51.8 208.19984] CT
N
243.683 -6.025 M
244.417 -5.666 245.339 -5.666 QT
246.604 -5.666 247.097 -6.955 QT
247.589 -8.244 247.589 -9.744 QT
247.589 -22.275 L
247.589 -23.134 247.276 -23.517 QT
246.964 -23.9 246.425 -23.986 QT
245.886 -24.072 244.839 -24.072 QT
244.839 -25.197 L
249.823 -25.541 L
249.823 -9.603 L
249.823 -8.369 249.214 -7.267 QT
248.604 -6.166 247.558 -5.502 QT
246.511 -4.838 245.276 -4.838 QT
243.886 -4.838 242.761 -5.525 QT
241.636 -6.213 241.636 -7.463 QT
241.636 -8.088 242.089 -8.541 QT
242.542 -8.994 243.167 -8.994 QT
243.792 -8.994 244.245 -8.541 QT
244.698 -8.088 244.698 -7.463 QT
244.698 -6.978 244.425 -6.572 QT
244.151 -6.166 243.683 -6.025 QT
cp
246.308 -31.041 M
246.308 -31.744 246.839 -32.275 QT
247.37 -32.806 248.073 -32.806 QT
248.511 -32.806 248.933 -32.572 QT
249.354 -32.338 249.589 -31.916 QT
249.823 -31.494 249.823 -31.041 QT
249.823 -30.353 249.308 -29.822 QT
248.792 -29.291 248.073 -29.291 QT
247.37 -29.291 246.839 -29.822 QT
246.308 -30.353 246.308 -31.041 QT
cp
f
GR
GS
[0 -0.6 0.6 0 51.8 208.19984] CT
N
260.687 -11.041 M
258.734 -11.041 257.101 -12.064 QT
255.468 -13.088 254.538 -14.799 QT
253.609 -16.509 253.609 -18.416 QT
253.609 -20.291 254.46 -21.978 QT
255.312 -23.666 256.835 -24.705 QT
258.359 -25.744 260.234 -25.744 QT
261.702 -25.744 262.788 -25.252 QT
263.874 -24.759 264.577 -23.884 QT
265.28 -23.009 265.64 -21.822 QT
265.999 -20.634 265.999 -19.213 QT
265.999 -18.791 265.671 -18.791 QT
256.405 -18.791 L
256.405 -18.447 L
256.405 -15.791 257.476 -13.884 QT
258.546 -11.978 260.968 -11.978 QT
261.952 -11.978 262.788 -12.416 QT
263.624 -12.853 264.241 -13.634 QT
264.859 -14.416 265.077 -15.306 QT
265.109 -15.416 265.195 -15.502 QT
265.28 -15.588 265.39 -15.588 QT
265.671 -15.588 L
265.999 -15.588 265.999 -15.181 QT
265.546 -13.369 264.046 -12.205 QT
262.546 -11.041 260.687 -11.041 QT
cp
256.437 -19.588 M
263.734 -19.588 L
263.734 -20.791 263.398 -22.025 QT
263.062 -23.259 262.28 -24.08 QT
261.499 -24.9 260.234 -24.9 QT
258.421 -24.9 257.429 -23.205 QT
256.437 -21.509 256.437 -19.588 QT
cp
f
GR
GS
[0 -0.6 0.6 0 51.8 208.19984] CT
N
274.761 -11.041 M
272.823 -11.041 271.245 -12.049 QT
269.667 -13.056 268.761 -14.736 QT
267.855 -16.416 267.855 -18.306 QT
267.855 -20.197 268.753 -21.931 QT
269.651 -23.666 271.237 -24.705 QT
272.823 -25.744 274.761 -25.744 QT
276.636 -25.744 278.175 -25.009 QT
279.714 -24.275 279.714 -22.603 QT
279.714 -21.978 279.269 -21.517 QT
278.823 -21.056 278.183 -21.056 QT
277.542 -21.056 277.097 -21.517 QT
276.651 -21.978 276.651 -22.603 QT
276.651 -23.166 277.011 -23.58 QT
277.37 -23.994 277.901 -24.103 QT
276.792 -24.806 274.792 -24.806 QT
273.261 -24.806 272.323 -23.791 QT
271.386 -22.775 271.011 -21.275 QT
270.636 -19.775 270.636 -18.306 QT
270.636 -16.759 271.097 -15.314 QT
271.558 -13.869 272.581 -12.924 QT
273.605 -11.978 275.151 -11.978 QT
276.667 -11.978 277.73 -12.908 QT
278.792 -13.838 279.183 -15.338 QT
279.183 -15.525 279.433 -15.525 QT
279.823 -15.525 L
279.917 -15.525 279.995 -15.439 QT
280.073 -15.353 280.073 -15.244 QT
280.073 -15.15 L
279.589 -13.259 278.151 -12.15 QT
276.714 -11.041 274.761 -11.041 QT
cp
f
GR
GS
[0 -0.6 0.6 0 51.8 208.19984] CT
N
284.132 -15.244 M
284.132 -24.072 L
281.475 -24.072 L
281.475 -24.9 L
283.569 -24.9 284.554 -26.853 QT
285.538 -28.806 285.538 -31.088 QT
286.46 -31.088 L
286.46 -25.197 L
290.975 -25.197 L
290.975 -24.072 L
286.46 -24.072 L
286.46 -15.306 L
286.46 -13.978 286.905 -12.978 QT
287.35 -11.978 288.507 -11.978 QT
289.6 -11.978 290.085 -13.033 QT
290.569 -14.088 290.569 -15.306 QT
290.569 -17.197 L
291.491 -17.197 L
291.491 -15.244 L
291.491 -14.244 291.124 -13.267 QT
290.757 -12.291 290.038 -11.666 QT
289.319 -11.041 288.288 -11.041 QT
286.366 -11.041 285.249 -12.189 QT
284.132 -13.338 284.132 -15.244 QT
cp
f
GR
GS
[0 -0.6 0.6 0 51.8 208.19984] CT
N
294.165 -11.4 M
294.165 -12.525 L
295.259 -12.525 295.962 -12.697 QT
296.665 -12.869 296.665 -13.541 QT
296.665 -22.275 L
296.665 -23.509 296.189 -23.791 QT
295.712 -24.072 294.306 -24.072 QT
294.306 -25.197 L
298.915 -25.541 L
298.915 -13.541 L
298.915 -12.869 299.525 -12.697 QT
300.134 -12.525 301.15 -12.525 QT
301.15 -11.4 L
294.165 -11.4 L
cp
295.525 -31.041 M
295.525 -31.744 296.056 -32.275 QT
296.587 -32.806 297.275 -32.806 QT
297.728 -32.806 298.15 -32.572 QT
298.572 -32.338 298.806 -31.916 QT
299.04 -31.494 299.04 -31.041 QT
299.04 -30.353 298.509 -29.822 QT
297.978 -29.291 297.275 -29.291 QT
296.587 -29.291 296.056 -29.822 QT
295.525 -30.353 295.525 -31.041 QT
cp
f
GR
GS
[0 -0.6 0.6 0 51.8 208.19984] CT
N
309.79 -11.4 M
305.118 -23.15 L
304.821 -23.744 304.204 -23.908 QT
303.587 -24.072 302.587 -24.072 QT
302.587 -25.197 L
309.305 -25.197 L
309.305 -24.072 L
307.509 -24.072 307.509 -23.306 QT
307.509 -23.181 307.54 -23.119 QT
311.134 -14.088 L
314.368 -22.244 L
314.462 -22.494 314.462 -22.759 QT
314.462 -23.369 314.001 -23.72 QT
313.54 -24.072 312.915 -24.072 QT
312.915 -25.197 L
318.227 -25.197 L
318.227 -24.072 L
317.243 -24.072 316.501 -23.619 QT
315.759 -23.166 315.352 -22.275 QT
311.04 -11.4 L
310.915 -11.041 310.524 -11.041 QT
310.29 -11.041 L
309.899 -11.041 309.79 -11.4 QT
cp
f
GR
GS
[0 -0.6 0.6 0 51.8 208.19984] CT
N
325.779 -11.041 M
323.826 -11.041 322.193 -12.064 QT
320.561 -13.088 319.631 -14.799 QT
318.701 -16.509 318.701 -18.416 QT
318.701 -20.291 319.553 -21.978 QT
320.404 -23.666 321.928 -24.705 QT
323.451 -25.744 325.326 -25.744 QT
326.795 -25.744 327.881 -25.252 QT
328.967 -24.759 329.67 -23.884 QT
330.373 -23.009 330.733 -21.822 QT
331.092 -20.634 331.092 -19.213 QT
331.092 -18.791 330.764 -18.791 QT
321.498 -18.791 L
321.498 -18.447 L
321.498 -15.791 322.568 -13.884 QT
323.639 -11.978 326.061 -11.978 QT
327.045 -11.978 327.881 -12.416 QT
328.717 -12.853 329.334 -13.634 QT
329.951 -14.416 330.17 -15.306 QT
330.201 -15.416 330.287 -15.502 QT
330.373 -15.588 330.483 -15.588 QT
330.764 -15.588 L
331.092 -15.588 331.092 -15.181 QT
330.639 -13.369 329.139 -12.205 QT
327.639 -11.041 325.779 -11.041 QT
cp
321.529 -19.588 M
328.826 -19.588 L
328.826 -20.791 328.49 -22.025 QT
328.154 -23.259 327.373 -24.08 QT
326.592 -24.9 325.326 -24.9 QT
323.514 -24.9 322.522 -23.205 QT
321.529 -21.509 321.529 -19.588 QT
cp
f
GR
GS
[0 -0.6 0.6 0 51.8 208.19984] CT
N
353.706 -11.041 M
346.159 -31.119 L
345.878 -31.791 345.081 -31.963 QT
344.284 -32.134 343.05 -32.134 QT
343.05 -33.259 L
351.847 -33.259 L
351.847 -32.134 L
349.19 -32.134 349.19 -31.306 QT
349.206 -31.259 349.214 -31.22 QT
349.222 -31.181 349.222 -31.119 QT
355.362 -14.791 L
361.159 -30.244 L
361.222 -30.369 361.222 -30.634 QT
361.222 -31.416 360.503 -31.775 QT
359.784 -32.134 358.893 -32.134 QT
358.893 -33.259 L
365.8 -33.259 L
365.8 -32.134 L
364.597 -32.134 363.682 -31.689 QT
362.768 -31.244 362.378 -30.244 QT
355.143 -11.041 L
355.05 -10.697 354.628 -10.697 QT
354.222 -10.697 L
353.8 -10.697 353.706 -11.041 QT
cp
f
GR
GS
[0 -0.6 0.6 0 51.8 208.19984] CT
N
364.833 -14.541 M
364.833 -16.447 366.333 -17.642 QT
367.833 -18.838 369.934 -19.33 QT
372.036 -19.822 373.926 -19.822 QT
373.926 -21.134 L
373.926 -22.056 373.52 -22.924 QT
373.114 -23.791 372.348 -24.345 QT
371.583 -24.9 370.661 -24.9 QT
368.536 -24.9 367.426 -23.947 QT
368.036 -23.947 368.434 -23.486 QT
368.833 -23.025 368.833 -22.416 QT
368.833 -21.775 368.38 -21.322 QT
367.926 -20.869 367.301 -20.869 QT
366.661 -20.869 366.208 -21.322 QT
365.755 -21.775 365.755 -22.416 QT
365.755 -24.103 367.286 -24.924 QT
368.817 -25.744 370.661 -25.744 QT
371.958 -25.744 373.27 -25.189 QT
374.583 -24.634 375.419 -23.603 QT
376.255 -22.572 376.255 -21.197 QT
376.255 -13.994 L
376.255 -13.369 376.52 -12.845 QT
376.786 -12.322 377.348 -12.322 QT
377.88 -12.322 378.137 -12.853 QT
378.395 -13.384 378.395 -13.994 QT
378.395 -16.041 L
379.333 -16.041 L
379.333 -13.994 L
379.333 -13.275 378.958 -12.627 QT
378.583 -11.978 377.95 -11.595 QT
377.317 -11.213 376.583 -11.213 QT
375.645 -11.213 374.965 -11.939 QT
374.286 -12.666 374.208 -13.666 QT
373.614 -12.463 372.458 -11.752 QT
371.301 -11.041 369.989 -11.041 QT
368.77 -11.041 367.59 -11.4 QT
366.411 -11.759 365.622 -12.533 QT
364.833 -13.306 364.833 -14.541 QT
cp
367.426 -14.541 M
367.426 -13.416 368.255 -12.65 QT
369.083 -11.884 370.208 -11.884 QT
371.239 -11.884 372.083 -12.4 QT
372.926 -12.916 373.426 -13.806 QT
373.926 -14.697 373.926 -15.681 QT
373.926 -19.009 L
372.473 -19.009 370.95 -18.533 QT
369.426 -18.056 368.426 -17.041 QT
367.426 -16.025 367.426 -14.541 QT
cp
f
GR
GS
[0 -0.6 0.6 0 51.8 208.19984] CT
N
380.369 -11.4 M
380.369 -12.525 L
381.463 -12.525 382.166 -12.697 QT
382.869 -12.869 382.869 -13.541 QT
382.869 -30.338 L
382.869 -31.197 382.611 -31.58 QT
382.354 -31.963 381.869 -32.049 QT
381.385 -32.134 380.369 -32.134 QT
380.369 -33.259 L
385.119 -33.603 L
385.119 -13.541 L
385.119 -12.869 385.822 -12.697 QT
386.525 -12.525 387.604 -12.525 QT
387.604 -11.4 L
380.369 -11.4 L
cp
f
GR
GS
[0 -0.6 0.6 0 51.8 208.19984] CT
N
391.634 -15.213 M
391.634 -22.275 L
391.634 -23.134 391.376 -23.517 QT
391.119 -23.9 390.634 -23.986 QT
390.15 -24.072 389.134 -24.072 QT
389.134 -25.197 L
393.978 -25.541 L
393.978 -15.213 L
393.978 -13.963 394.158 -13.267 QT
394.337 -12.572 394.923 -12.228 QT
395.509 -11.884 396.79 -11.884 QT
398.509 -11.884 399.525 -13.322 QT
400.54 -14.759 400.54 -16.588 QT
400.54 -22.275 L
400.54 -23.134 400.275 -23.517 QT
400.009 -23.9 399.533 -23.986 QT
399.056 -24.072 398.04 -24.072 QT
398.04 -25.197 L
402.869 -25.541 L
402.869 -14.306 L
402.869 -13.463 403.126 -13.08 QT
403.384 -12.697 403.869 -12.611 QT
404.353 -12.525 405.369 -12.525 QT
405.369 -11.4 L
400.634 -11.041 L
400.634 -13.744 L
400.04 -12.541 398.978 -11.791 QT
397.915 -11.041 396.634 -11.041 QT
394.337 -11.041 392.986 -12.017 QT
391.634 -12.994 391.634 -15.213 QT
cp
f
GR
GS
[0 -0.6 0.6 0 51.8 208.19984] CT
N
413.742 -11.041 M
411.789 -11.041 410.157 -12.064 QT
408.524 -13.088 407.594 -14.799 QT
406.664 -16.509 406.664 -18.416 QT
406.664 -20.291 407.516 -21.978 QT
408.367 -23.666 409.891 -24.705 QT
411.414 -25.744 413.289 -25.744 QT
414.758 -25.744 415.844 -25.252 QT
416.93 -24.759 417.633 -23.884 QT
418.336 -23.009 418.696 -21.822 QT
419.055 -20.634 419.055 -19.213 QT
419.055 -18.791 418.727 -18.791 QT
409.461 -18.791 L
409.461 -18.447 L
409.461 -15.791 410.532 -13.884 QT
411.602 -11.978 414.024 -11.978 QT
415.008 -11.978 415.844 -12.416 QT
416.68 -12.853 417.297 -13.634 QT
417.914 -14.416 418.133 -15.306 QT
418.164 -15.416 418.25 -15.502 QT
418.336 -15.588 418.446 -15.588 QT
418.727 -15.588 L
419.055 -15.588 419.055 -15.181 QT
418.602 -13.369 417.102 -12.205 QT
415.602 -11.041 413.742 -11.041 QT
cp
409.492 -19.588 M
416.789 -19.588 L
416.789 -20.791 416.453 -22.025 QT
416.117 -23.259 415.336 -24.08 QT
414.555 -24.9 413.289 -24.9 QT
411.477 -24.9 410.485 -23.205 QT
409.492 -21.509 409.492 -19.588 QT
cp
f
GR
GS
[0 -0.6 0.6 0 51.8 208.19984] CT
N
421.926 -3.4 M
421.645 -3.4 421.645 -3.681 QT
421.645 -3.822 421.707 -3.884 QT
427.176 -9.228 427.176 -19.4 QT
427.176 -29.572 421.77 -34.853 QT
421.645 -34.931 421.645 -35.119 QT
421.645 -35.228 421.731 -35.314 QT
421.817 -35.4 421.926 -35.4 QT
422.223 -35.4 L
422.317 -35.4 422.379 -35.338 QT
424.676 -33.525 426.207 -30.931 QT
427.738 -28.338 428.449 -25.4 QT
429.16 -22.463 429.16 -19.4 QT
429.16 -17.134 428.777 -14.939 QT
428.395 -12.744 427.559 -10.611 QT
426.723 -8.478 425.442 -6.674 QT
424.16 -4.869 422.379 -3.463 QT
422.317 -3.4 422.223 -3.4 QT
421.926 -3.4 L
cp
f
GR
GS
[0.6 0 0 0.6 0 0] CT
0 0.447 0.741 RC
1 LJ
2.167 LW
N
186.574 116.927 M
193.475 148.092 L
302.393 442.902 L
375.212 508.947 L
519.706 571.373 L
678.551 605.053 L
843.376 627.246 L
938.092 636.959 L
967.749 639.702 L
970.976 639.993 L
S
GR
GS
[0.6 0 0 0.6 111.94464 70.15613] CT
0 0.447 0.741 RC
10.0 ML
2.167 LW
N
5 0 M
5 -2.761 2.761 -5 0 -5 C
-2.761 -5 -5 -2.761 -5 0 C
-5 2.761 -2.761 5 0 5 C
2.761 5 5 2.761 5 0 C
cp
S
GR
GS
[0.6 0 0 0.6 116.085 88.85524] CT
0 0.447 0.741 RC
10.0 ML
2.167 LW
N
5 0 M
5 -2.761 2.761 -5 0 -5 C
-2.761 -5 -5 -2.761 -5 0 C
-5 2.761 -2.761 5 0 5 C
2.761 5 5 2.761 5 0 C
cp
S
GR
GS
[0.6 0 0 0.6 181.43593 265.74122] CT
0 0.447 0.741 RC
10.0 ML
2.167 LW
N
5 0 M
5 -2.761 2.761 -5 0 -5 C
-2.761 -5 -5 -2.761 -5 0 C
-5 2.761 -2.761 5 0 5 C
2.761 5 5 2.761 5 0 C
cp
S
GR
GS
[0.6 0 0 0.6 225.12691 305.36805] CT
0 0.447 0.741 RC
10.0 ML
2.167 LW
N
5 0 M
5 -2.761 2.761 -5 0 -5 C
-2.761 -5 -5 -2.761 -5 0 C
-5 2.761 -2.761 5 0 5 C
2.761 5 5 2.761 5 0 C
cp
S
GR
GS
[0.6 0 0 0.6 311.82341 342.82401] CT
0 0.447 0.741 RC
10.0 ML
2.167 LW
N
5 0 M
5 -2.761 2.761 -5 0 -5 C
-2.761 -5 -5 -2.761 -5 0 C
-5 2.761 -2.761 5 0 5 C
2.761 5 5 2.761 5 0 C
cp
S
GR
GS
[0.6 0 0 0.6 407.13036 363.0316] CT
0 0.447 0.741 RC
10.0 ML
2.167 LW
N
5 0 M
5 -2.761 2.761 -5 0 -5 C
-2.761 -5 -5 -2.761 -5 0 C
-5 2.761 -2.761 5 0 5 C
2.761 5 5 2.761 5 0 C
cp
S
GR
GS
[0.6 0 0 0.6 506.02544 376.34788] CT
0 0.447 0.741 RC
10.0 ML
2.167 LW
N
5 0 M
5 -2.761 2.761 -5 0 -5 C
-2.761 -5 -5 -2.761 -5 0 C
-5 2.761 -2.761 5 0 5 C
2.761 5 5 2.761 5 0 C
cp
S
GR
GS
[0.6 0 0 0.6 562.85504 382.17532] CT
0 0.447 0.741 RC
10.0 ML
2.167 LW
N
5 0 M
5 -2.761 2.761 -5 0 -5 C
-2.761 -5 -5 -2.761 -5 0 C
-5 2.761 -2.761 5 0 5 C
2.761 5 5 2.761 5 0 C
cp
S
GR
GS
[0.6 0 0 0.6 580.6493 383.82096] CT
0 0.447 0.741 RC
10.0 ML
2.167 LW
N
5 0 M
5 -2.761 2.761 -5 0 -5 C
-2.761 -5 -5 -2.761 -5 0 C
-5 2.761 -2.761 5 0 5 C
2.761 5 5 2.761 5 0 C
cp
S
GR
GS
[0.6 0 0 0.6 582.58535 383.99564] CT
0 0.447 0.741 RC
10.0 ML
2.167 LW
N
5 0 M
5 -2.761 2.761 -5 0 -5 C
-2.761 -5 -5 -2.761 -5 0 C
-5 2.761 -2.761 5 0 5 C
2.761 5 5 2.761 5 0 C
cp
S
GR
%%Trailer
%%Pages: 1
%%EOF
