%!PS-Adobe-3.0 EPSF-3.0
%%Creator: (MATLAB, The Mathworks, Inc. Version 9.6.0.1472908 \(R2019a\) Update 9. Operating System: Windows 10)
%%Title: (C:/Users/A/OneDrive - ETHZ/Research_MasterThesis/AllCodeFiles/Figures/figCRPSboth.eps)
%%CreationDate: 2023-05-25T05:38:49
%%Pages: (atend)
%%BoundingBox: 0 0 420 315
%%LanguageLevel: 3
%%EndComments
%%BeginProlog
%%BeginResource: procset (Apache XML Graphics Std ProcSet) 1.2 0
%%Version: 1.2 0
%%Copyright: (Copyright 2001-2003,2010 The Apache Software Foundation. License terms: http://www.apache.org/licenses/LICENSE-2.0)
/bd{bind def}bind def
/ld{load def}bd
/GR/grestore ld
/GS/gsave ld
/RM/rmoveto ld
/C/curveto ld
/t/show ld
/L/lineto ld
/ML/setmiterlimit ld
/CT/concat ld
/f/fill ld
/N/newpath ld
/S/stroke ld
/CC/setcmykcolor ld
/A/ashow ld
/cp/closepath ld
/RC/setrgbcolor ld
/LJ/setlinejoin ld
/GC/setgray ld
/LW/setlinewidth ld
/M/moveto ld
/re {4 2 roll M
1 index 0 rlineto
0 exch rlineto
neg 0 rlineto
cp } bd
/_ctm matrix def
/_tm matrix def
/BT { _ctm currentmatrix pop matrix _tm copy pop 0 0 moveto } bd
/ET { _ctm setmatrix } bd
/iTm { _ctm setmatrix _tm concat } bd
/Tm { _tm astore pop iTm 0 0 moveto } bd
/ux 0.0 def
/uy 0.0 def
/F {
  /Tp exch def
  /Tf exch def
  Tf findfont Tp scalefont setfont
  /cf Tf def  /cs Tp def
} bd
/ULS {currentpoint /uy exch def /ux exch def} bd
/ULE {
  /Tcx currentpoint pop def
  gsave
  newpath
  cf findfont cs scalefont dup
  /FontMatrix get 0 get /Ts exch def /FontInfo get dup
  /UnderlinePosition get Ts mul /To exch def
  /UnderlineThickness get Ts mul /Tt exch def
  ux uy To add moveto  Tcx uy To add lineto
  Tt setlinewidth stroke
  grestore
} bd
/OLE {
  /Tcx currentpoint pop def
  gsave
  newpath
  cf findfont cs scalefont dup
  /FontMatrix get 0 get /Ts exch def /FontInfo get dup
  /UnderlinePosition get Ts mul /To exch def
  /UnderlineThickness get Ts mul /Tt exch def
  ux uy To add cs add moveto Tcx uy To add cs add lineto
  Tt setlinewidth stroke
  grestore
} bd
/SOE {
  /Tcx currentpoint pop def
  gsave
  newpath
  cf findfont cs scalefont dup
  /FontMatrix get 0 get /Ts exch def /FontInfo get dup
  /UnderlinePosition get Ts mul /To exch def
  /UnderlineThickness get Ts mul /Tt exch def
  ux uy To add cs 10 mul 26 idiv add moveto Tcx uy To add cs 10 mul 26 idiv add lineto
  Tt setlinewidth stroke
  grestore
} bd
/QT {
/Y22 exch store
/X22 exch store
/Y21 exch store
/X21 exch store
currentpoint
/Y21 load 2 mul add 3 div exch
/X21 load 2 mul add 3 div exch
/X21 load 2 mul /X22 load add 3 div
/Y21 load 2 mul /Y22 load add 3 div
/X22 load /Y22 load curveto
} bd
/SSPD {
dup length /d exch dict def
{
/v exch def
/k exch def
currentpagedevice k known {
/cpdv currentpagedevice k get def
v cpdv ne {
/upd false def
/nullv v type /nulltype eq def
/nullcpdv cpdv type /nulltype eq def
nullv nullcpdv or
{
/upd true def
} {
/sametype v type cpdv type eq def
sametype {
v type /arraytype eq {
/vlen v length def
/cpdvlen cpdv length def
vlen cpdvlen eq {
0 1 vlen 1 sub {
/i exch def
/obj v i get def
/cpdobj cpdv i get def
obj cpdobj ne {
/upd true def
exit
} if
} for
} {
/upd true def
} ifelse
} {
v type /dicttype eq {
v {
/dv exch def
/dk exch def
/cpddv cpdv dk get def
dv cpddv ne {
/upd true def
exit
} if
} forall
} {
/upd true def
} ifelse
} ifelse
} if
} ifelse
upd true eq {
d k v put
} if
} if
} if
} forall
d length 0 gt {
d setpagedevice
} if
} bd
/RE { % /NewFontName [NewEncodingArray] /FontName RE -
  findfont dup length dict begin
  {
    1 index /FID ne
    {def} {pop pop} ifelse
  } forall
  /Encoding exch def
  /FontName 1 index def
  currentdict definefont pop
  end
} bind def
%%EndResource
%%BeginResource: procset (Apache XML Graphics EPS ProcSet) 1.0 0
%%Version: 1.0 0
%%Copyright: (Copyright 2002-2003 The Apache Software Foundation. License terms: http://www.apache.org/licenses/LICENSE-2.0)
/BeginEPSF { %def
/b4_Inc_state save def         % Save state for cleanup
/dict_count countdictstack def % Count objects on dict stack
/op_count count 1 sub def      % Count objects on operand stack
userdict begin                 % Push userdict on dict stack
/showpage { } def              % Redefine showpage, { } = null proc
0 setgray 0 setlinecap         % Prepare graphics state
1 setlinewidth 0 setlinejoin
10 setmiterlimit [ ] 0 setdash newpath
/languagelevel where           % If level not equal to 1 then
{pop languagelevel             % set strokeadjust and
1 ne                           % overprint to their defaults.
{false setstrokeadjust false setoverprint
} if
} if
} bd
/EndEPSF { %def
count op_count sub {pop} repeat            % Clean up stacks
countdictstack dict_count sub {end} repeat
b4_Inc_state restore
} bd
%%EndResource
%FOPBeginFontDict
%%IncludeResource: font Courier-Oblique
%%IncludeResource: font Courier-BoldOblique
%%IncludeResource: font Courier-Bold
%%IncludeResource: font ZapfDingbats
%%IncludeResource: font Symbol
%%IncludeResource: font Helvetica
%%IncludeResource: font Helvetica-Oblique
%%IncludeResource: font Helvetica-Bold
%%IncludeResource: font Helvetica-BoldOblique
%%IncludeResource: font Times-Roman
%%IncludeResource: font Times-Italic
%%IncludeResource: font Times-Bold
%%IncludeResource: font Times-BoldItalic
%%IncludeResource: font Courier
%FOPEndFontDict
%%BeginResource: encoding WinAnsiEncoding
/WinAnsiEncoding [
/.notdef /.notdef /.notdef /.notdef /.notdef
/.notdef /.notdef /.notdef /.notdef /.notdef
/.notdef /.notdef /.notdef /.notdef /.notdef
/.notdef /.notdef /.notdef /.notdef /.notdef
/.notdef /.notdef /.notdef /.notdef /.notdef
/.notdef /.notdef /.notdef /.notdef /.notdef
/.notdef /.notdef /space /exclam /quotedbl
/numbersign /dollar /percent /ampersand /quotesingle
/parenleft /parenright /asterisk /plus /comma
/hyphen /period /slash /zero /one
/two /three /four /five /six
/seven /eight /nine /colon /semicolon
/less /equal /greater /question /at
/A /B /C /D /E
/F /G /H /I /J
/K /L /M /N /O
/P /Q /R /S /T
/U /V /W /X /Y
/Z /bracketleft /backslash /bracketright /asciicircum
/underscore /quoteleft /a /b /c
/d /e /f /g /h
/i /j /k /l /m
/n /o /p /q /r
/s /t /u /v /w
/x /y /z /braceleft /bar
/braceright /asciitilde /bullet /Euro /bullet
/quotesinglbase /florin /quotedblbase /ellipsis /dagger
/daggerdbl /circumflex /perthousand /Scaron /guilsinglleft
/OE /bullet /Zcaron /bullet /bullet
/quoteleft /quoteright /quotedblleft /quotedblright /bullet
/endash /emdash /asciitilde /trademark /scaron
/guilsinglright /oe /bullet /zcaron /Ydieresis
/space /exclamdown /cent /sterling /currency
/yen /brokenbar /section /dieresis /copyright
/ordfeminine /guillemotleft /logicalnot /sfthyphen /registered
/macron /degree /plusminus /twosuperior /threesuperior
/acute /mu /paragraph /middot /cedilla
/onesuperior /ordmasculine /guillemotright /onequarter /onehalf
/threequarters /questiondown /Agrave /Aacute /Acircumflex
/Atilde /Adieresis /Aring /AE /Ccedilla
/Egrave /Eacute /Ecircumflex /Edieresis /Igrave
/Iacute /Icircumflex /Idieresis /Eth /Ntilde
/Ograve /Oacute /Ocircumflex /Otilde /Odieresis
/multiply /Oslash /Ugrave /Uacute /Ucircumflex
/Udieresis /Yacute /Thorn /germandbls /agrave
/aacute /acircumflex /atilde /adieresis /aring
/ae /ccedilla /egrave /eacute /ecircumflex
/edieresis /igrave /iacute /icircumflex /idieresis
/eth /ntilde /ograve /oacute /ocircumflex
/otilde /odieresis /divide /oslash /ugrave
/uacute /ucircumflex /udieresis /yacute /thorn
/ydieresis
] def
%%EndResource
%FOPBeginFontReencode
/Courier-Oblique findfont
dup length dict begin
  {1 index /FID ne {def} {pop pop} ifelse} forall
  /Encoding WinAnsiEncoding def
  currentdict
end
/Courier-Oblique exch definefont pop
/Courier-BoldOblique findfont
dup length dict begin
  {1 index /FID ne {def} {pop pop} ifelse} forall
  /Encoding WinAnsiEncoding def
  currentdict
end
/Courier-BoldOblique exch definefont pop
/Courier-Bold findfont
dup length dict begin
  {1 index /FID ne {def} {pop pop} ifelse} forall
  /Encoding WinAnsiEncoding def
  currentdict
end
/Courier-Bold exch definefont pop
/Helvetica findfont
dup length dict begin
  {1 index /FID ne {def} {pop pop} ifelse} forall
  /Encoding WinAnsiEncoding def
  currentdict
end
/Helvetica exch definefont pop
/Helvetica-Oblique findfont
dup length dict begin
  {1 index /FID ne {def} {pop pop} ifelse} forall
  /Encoding WinAnsiEncoding def
  currentdict
end
/Helvetica-Oblique exch definefont pop
/Helvetica-Bold findfont
dup length dict begin
  {1 index /FID ne {def} {pop pop} ifelse} forall
  /Encoding WinAnsiEncoding def
  currentdict
end
/Helvetica-Bold exch definefont pop
/Helvetica-BoldOblique findfont
dup length dict begin
  {1 index /FID ne {def} {pop pop} ifelse} forall
  /Encoding WinAnsiEncoding def
  currentdict
end
/Helvetica-BoldOblique exch definefont pop
/Times-Roman findfont
dup length dict begin
  {1 index /FID ne {def} {pop pop} ifelse} forall
  /Encoding WinAnsiEncoding def
  currentdict
end
/Times-Roman exch definefont pop
/Times-Italic findfont
dup length dict begin
  {1 index /FID ne {def} {pop pop} ifelse} forall
  /Encoding WinAnsiEncoding def
  currentdict
end
/Times-Italic exch definefont pop
/Times-Bold findfont
dup length dict begin
  {1 index /FID ne {def} {pop pop} ifelse} forall
  /Encoding WinAnsiEncoding def
  currentdict
end
/Times-Bold exch definefont pop
/Times-BoldItalic findfont
dup length dict begin
  {1 index /FID ne {def} {pop pop} ifelse} forall
  /Encoding WinAnsiEncoding def
  currentdict
end
/Times-BoldItalic exch definefont pop
/Courier findfont
dup length dict begin
  {1 index /FID ne {def} {pop pop} ifelse} forall
  /Encoding WinAnsiEncoding def
  currentdict
end
/Courier exch definefont pop
%FOPEndFontReencode
%%EndProlog
%%Page: 1 1
%%PageBoundingBox: 0 0 420 315
%%BeginPageSetup
[1 0 0 -1 0 315] CT
%%EndPageSetup
GS
[0.75 0 0 0.75 0 0] CT
1 GC
N
0 0 560 420 re
f
GR
GS
[0.75 0 0 0.75 0 0] CT
1 GC
N
0 0 560 420 re
f
GR
GS
[0.75 0 0 0.75 0 0] CT
1 GC
N
73 361 M
507 361 L
507 31 L
73 31 L
cp
f
GR
GS
[0.75 0 0 0.75 0 0] CT
0.149 GC
2 setlinecap
1 LJ
2 LW
N
73 361 M
507 361 L
S
GR
GS
[0.75 0 0 0.75 0 0] CT
0.149 GC
2 setlinecap
1 LJ
2 LW
N
73 361 M
73 356.66 L
S
GR
GS
[0.75 0 0 0.75 0 0] CT
0.149 GC
2 setlinecap
1 LJ
2 LW
N
159.8 361 M
159.8 356.66 L
S
GR
GS
[0.75 0 0 0.75 0 0] CT
0.149 GC
2 setlinecap
1 LJ
2 LW
N
246.6 361 M
246.6 356.66 L
S
GR
GS
[0.75 0 0 0.75 0 0] CT
0.149 GC
2 setlinecap
1 LJ
2 LW
N
333.4 361 M
333.4 356.66 L
S
GR
GS
[0.75 0 0 0.75 0 0] CT
0.149 GC
2 setlinecap
1 LJ
2 LW
N
420.2 361 M
420.2 356.66 L
S
GR
GS
[0.75 0 0 0.75 0 0] CT
0.149 GC
2 setlinecap
1 LJ
2 LW
N
507 361 M
507 356.66 L
S
GR
GS
[0.75 0 0 0.75 54.75 275.55] CT
0.149 GC
/Helvetica 18.667 F
GS
[1 0 0 1 0 0] CT
-5.5 19 moveto 
1 -1 scale
(0) t 
GR
GR
GS
[0.75 0 0 0.75 119.85 275.55] CT
0.149 GC
/Helvetica 18.667 F
GS
[1 0 0 1 0 0] CT
-13 19 moveto 
1 -1 scale
(0.2) t 
GR
GR
GS
[0.75 0 0 0.75 184.95 275.55] CT
0.149 GC
/Helvetica 18.667 F
GS
[1 0 0 1 0 0] CT
-13 19 moveto 
1 -1 scale
(0.4) t 
GR
GR
GS
[0.75 0 0 0.75 250.05002 275.55] CT
0.149 GC
/Helvetica 18.667 F
GS
[1 0 0 1 0 0] CT
-13 19 moveto 
1 -1 scale
(0.6) t 
GR
GR
GS
[0.75 0 0 0.75 315.15001 275.55] CT
0.149 GC
/Helvetica 18.667 F
GS
[1 0 0 1 0 0] CT
-13 19 moveto 
1 -1 scale
(0.8) t 
GR
GR
GS
[0.75 0 0 0.75 380.25 275.55] CT
0.149 GC
/Helvetica 18.667 F
GS
[1 0 0 1 0 0] CT
-5.5 19 moveto 
1 -1 scale
(1) t 
GR
GR
GS
[0.75 0 0 0.75 217.50016 294.55] CT
0.149 GC
/Helvetica 21.333 F
GS
[1 0 0 1 0 0] CT
-5.5 22 moveto 
1 -1 scale
(x) t 
GR
GR
GS
[0.75 0 0 0.75 0 0] CT
0.149 GC
2 setlinecap
1 LJ
2 LW
N
73 361 M
73 31 L
S
GR
GS
[0.75 0 0 0.75 0 0] CT
0.149 GC
2 setlinecap
1 LJ
2 LW
N
73 361 M
77.34 361 L
S
GR
GS
[0.75 0 0 0.75 0 0] CT
0.149 GC
2 setlinecap
1 LJ
2 LW
N
73 295 M
77.34 295 L
S
GR
GS
[0.75 0 0 0.75 0 0] CT
0.149 GC
2 setlinecap
1 LJ
2 LW
N
73 229 M
77.34 229 L
S
GR
GS
[0.75 0 0 0.75 0 0] CT
0.149 GC
2 setlinecap
1 LJ
2 LW
N
73 163 M
77.34 163 L
S
GR
GS
[0.75 0 0 0.75 0 0] CT
0.149 GC
2 setlinecap
1 LJ
2 LW
N
73 97 M
77.34 97 L
S
GR
GS
[0.75 0 0 0.75 0 0] CT
0.149 GC
2 setlinecap
1 LJ
2 LW
N
73 31 M
77.34 31 L
S
GR
GS
[0.75 0 0 0.75 49.95 270.75] CT
0.149 GC
/Helvetica 18.667 F
GS
[1 0 0 1 0 0] CT
-11 7 moveto 
1 -1 scale
(0) t 
GR
GR
GS
[0.75 0 0 0.75 49.95 221.25] CT
0.149 GC
/Helvetica 18.667 F
GS
[1 0 0 1 0 0] CT
-26 7 moveto 
1 -1 scale
(0.2) t 
GR
GR
GS
[0.75 0 0 0.75 49.95 171.75] CT
0.149 GC
/Helvetica 18.667 F
GS
[1 0 0 1 0 0] CT
-26 7 moveto 
1 -1 scale
(0.4) t 
GR
GR
GS
[0.75 0 0 0.75 49.95 122.24999] CT
0.149 GC
/Helvetica 18.667 F
GS
[1 0 0 1 0 0] CT
-26 7 moveto 
1 -1 scale
(0.6) t 
GR
GR
GS
[0.75 0 0 0.75 49.95 72.74999] CT
0.149 GC
/Helvetica 18.667 F
GS
[1 0 0 1 0 0] CT
-26 7 moveto 
1 -1 scale
(0.8) t 
GR
GR
GS
[0.75 0 0 0.75 49.95 23.25] CT
0.149 GC
/Helvetica 18.667 F
GS
[1 0 0 1 0 0] CT
-11 7 moveto 
1 -1 scale
(1) t 
GR
GR
GS
[0 -0.75 0.75 0 27.45 146.99989] CT
0.149 GC
/Helvetica 21.333 F
GS
[1 0 0 1 0 0] CT
-106.5 -5 moveto 
1 -1 scale
(Cumulative Probability) t 
GR
GR
GS
[0.75 0 0 0.75 0 0] CT
0 0.502 0 RC
[16 16] 0 setdash
2 LJ
4 LW
N
73 361 M
73.434 361 L
73.869 361 L
74.303 361 L
74.738 361 L
75.172 361 L
75.607 361 L
76.041 361 L
76.475 361 L
76.91 361 L
77.344 361 L
77.779 361 L
78.213 361 L
78.648 361 L
79.082 361 L
79.517 361 L
79.951 361 L
80.385 361 L
80.82 361 L
81.254 361 L
81.689 361 L
82.123 361 L
82.558 361 L
82.992 361 L
83.426 361 L
83.861 361 L
84.295 361 L
84.73 361 L
85.164 361 L
85.599 361 L
86.033 361 L
86.467 361 L
86.902 361 L
87.336 361 L
87.771 361 L
88.205 361 L
88.64 361 L
89.074 361 L
89.509 361 L
89.943 361 L
90.377 361 L
90.812 361 L
91.246 361 L
91.681 361 L
92.115 361 L
92.55 361 L
92.984 361 L
93.418 361 L
93.853 361 L
94.287 361 L
94.722 361 L
95.156 361 L
95.591 361 L
96.025 361 L
96.459 361 L
96.894 361 L
97.328 361 L
97.763 361 L
98.197 361 L
98.632 361 L
99.066 361 L
99.501 361 L
99.935 361 L
100.369 361 L
100.804 361 L
101.238 361 L
101.673 361 L
102.107 361 L
102.542 361 L
102.976 361 L
103.41 361 L
103.845 361 L
104.279 361 L
104.714 361 L
105.148 361 L
105.583 361 L
106.017 361 L
106.451 361 L
106.886 361 L
107.32 361 L
107.755 361 L
108.189 361 L
108.624 361 L
109.058 361 L
109.492 361 L
109.927 361 L
110.361 361 L
110.796 361 L
111.23 361 L
111.665 361 L
112.099 361 L
112.534 361 L
112.968 361 L
113.402 361 L
113.837 361 L
114.271 361 L
114.706 361 L
115.14 361 L
115.575 361 L
116.009 361 L
116.443 361 L
116.878 361 L
117.312 361 L
117.747 361 L
118.181 361 L
118.616 361 L
119.05 361 L
119.484 361 L
119.919 361 L
120.353 361 L
120.788 361 L
121.222 361 L
121.657 361 L
122.091 361 L
122.526 361 L
122.96 361 L
123.394 361 L
123.829 361 L
124.263 361 L
124.698 361 L
125.132 361 L
125.567 361 L
126.001 361 L
126.435 361 L
126.87 361 L
127.304 361 L
127.739 361 L
128.173 361 L
128.608 361 L
129.042 361 L
129.476 361 L
129.911 361 L
130.345 361 L
130.78 361 L
131.214 361 L
131.649 361 L
132.083 361 L
132.518 361 L
132.952 361 L
133.386 361 L
133.821 361 L
134.255 361 L
134.69 361 L
135.124 361 L
135.559 361 L
135.993 361 L
136.427 361 L
136.862 361 L
137.296 361 L
137.731 361 L
138.165 361 L
138.6 361 L
139.034 361 L
139.468 361 L
139.903 361 L
140.337 361 L
140.772 361 L
141.206 361 L
141.641 361 L
142.075 361 L
142.51 361 L
142.944 361 L
143.378 361 L
143.813 361 L
144.247 361 L
144.682 361 L
145.116 361 L
145.551 361 L
145.985 361 L
146.419 361 L
146.854 361 L
147.288 361 L
147.723 361 L
148.157 361 L
148.592 361 L
149.026 361 L
149.46 361 L
149.895 361 L
150.329 361 L
150.764 361 L
151.198 361 L
151.633 361 L
152.067 361 L
152.501 361 L
152.936 361 L
153.37 361 L
153.805 361 L
154.239 361 L
154.674 361 L
155.108 361 L
155.543 361 L
155.977 361 L
156.411 361 L
156.846 361 L
157.28 361 L
157.715 361 L
158.149 361 L
158.584 361 L
159.018 361 L
159.452 361 L
159.887 361 L
160.321 361 L
160.756 361 L
161.19 361 L
161.625 361 L
162.059 361 L
162.493 361 L
162.928 361 L
163.362 361 L
163.797 361 L
164.231 361 L
164.666 361 L
165.1 361 L
165.535 361 L
165.969 361 L
166.403 361 L
166.838 361 L
167.272 361 L
167.707 361 L
168.141 361 L
168.576 361 L
169.01 361 L
169.444 361 L
169.879 361 L
170.313 361 L
170.748 361 L
171.182 361 L
171.617 361 L
172.051 361 L
172.485 361 L
172.92 361 L
173.354 361 L
173.789 361 L
174.223 361 L
174.658 361 L
175.092 361 L
175.527 361 L
175.961 361 L
176.395 361 L
176.83 361 L
177.264 361 L
177.699 361 L
178.133 361 L
178.568 361 L
179.002 361 L
179.436 361 L
179.871 361 L
180.305 361 L
180.74 361 L
181.174 361 L
181.609 361 L
182.043 361 L
182.477 361 L
182.912 361 L
183.346 361 L
183.781 361 L
184.215 361 L
184.65 361 L
185.084 361 L
185.519 361 L
185.953 361 L
186.387 361 L
186.822 361 L
187.256 361 L
187.691 361 L
188.125 361 L
188.56 361 L
188.994 361 L
189.428 361 L
189.863 361 L
190.297 361 L
190.732 361 L
191.166 361 L
191.601 361 L
192.035 361 L
192.469 361 L
192.904 361 L
193.338 361 L
193.773 361 L
194.207 361 L
194.642 361 L
195.076 361 L
195.511 361 L
195.945 361 L
196.379 361 L
196.814 361 L
197.248 361 L
197.683 361 L
198.117 361 L
198.552 361 L
198.986 361 L
199.42 361 L
199.855 361 L
200.289 361 L
200.724 361 L
201.158 361 L
201.593 361 L
202.027 361 L
202.461 361 L
202.896 361 L
203.33 361 L
203.765 361 L
204.199 361 L
204.634 361 L
205.068 361 L
205.503 361 L
205.937 361 L
206.371 361 L
206.806 361 L
207.24 361 L
207.675 361 L
208.109 361 L
208.544 361 L
208.978 361 L
209.412 361 L
209.847 361 L
210.281 361 L
210.716 361 L
211.15 361 L
211.585 361 L
212.019 361 L
212.453 361 L
212.888 361 L
213.322 361 L
213.757 361 L
214.191 361 L
214.626 361 L
215.06 361 L
215.495 361 L
215.929 361 L
216.363 361 L
216.798 361 L
217.232 361 L
217.667 361 L
218.101 361 L
218.536 361 L
218.97 361 L
219.404 361 L
219.839 361 L
220.273 361 L
220.708 361 L
221.142 361 L
221.577 361 L
222.011 361 L
222.445 361 L
222.88 361 L
223.314 361 L
223.749 361 L
224.183 361 L
224.618 361 L
225.052 361 L
225.486 361 L
225.921 361 L
226.355 361 L
226.79 361 L
227.224 361 L
227.659 361 L
228.093 361 L
228.528 361 L
228.962 361 L
229.396 361 L
229.831 361 L
230.265 361 L
230.7 361 L
231.134 361 L
231.569 361 L
232.003 361 L
232.437 361 L
232.872 361 L
233.306 361 L
233.741 361 L
234.175 361 L
234.61 361 L
235.044 361 L
235.478 361 L
235.913 361 L
236.347 361 L
236.782 361 L
237.216 361 L
237.651 361 L
238.085 361 L
238.52 361 L
238.954 361 L
239.388 361 L
239.823 361 L
240.257 361 L
240.692 361 L
241.126 361 L
241.561 361 L
241.995 361 L
242.429 361 L
242.864 361 L
243.298 361 L
243.733 361 L
244.167 361 L
244.602 361 L
245.036 361 L
245.47 361 L
245.905 361 L
246.339 361 L
246.774 361 L
247.208 361 L
247.643 361 L
248.077 361 L
248.512 361 L
248.946 361 L
249.38 361 L
249.815 361 L
250.249 361 L
250.684 361 L
251.118 361 L
251.553 361 L
251.987 361 L
252.421 361 L
252.856 361 L
253.29 361 L
253.725 361 L
254.159 361 L
254.594 361 L
255.028 361 L
255.462 361 L
255.897 361 L
256.331 361 L
256.766 361 L
257.2 361 L
257.635 361 L
258.069 361 L
258.504 361 L
258.938 361 L
259.372 361 L
259.807 361 L
260.241 361 L
260.676 361 L
261.11 361 L
261.545 361 L
261.979 361 L
262.413 361 L
262.848 361 L
263.282 361 L
263.717 361 L
264.151 361 L
264.586 361 L
265.02 361 L
265.454 361 L
265.889 361 L
266.323 361 L
266.758 361 L
267.192 361 L
267.627 361 L
268.061 361 L
268.495 361 L
268.93 361 L
269.364 361 L
269.799 361 L
270.233 361 L
270.668 361 L
271.102 361 L
271.537 361 L
271.971 361 L
272.405 361 L
272.84 361 L
273.274 361 L
273.709 361 L
274.143 361 L
274.578 361 L
275.012 361 L
275.446 361 L
275.881 361 L
276.315 361 L
276.75 361 L
277.184 361 L
277.619 361 L
278.053 361 L
278.487 361 L
278.922 361 L
279.356 361 L
279.791 361 L
280.225 361 L
280.66 361 L
281.094 361 L
281.529 361 L
281.963 361 L
282.397 361 L
282.832 361 L
283.266 361 L
283.701 361 L
284.135 361 L
284.57 361 L
285.004 361 L
285.438 361 L
285.873 361 L
286.307 361 L
286.742 361 L
287.176 361 L
287.611 361 L
288.045 361 L
288.479 361 L
288.914 361 L
289.348 361 L
289.783 361 L
290.217 31 L
290.652 31 L
291.086 31 L
291.521 31 L
291.955 31 L
292.389 31 L
292.824 31 L
293.258 31 L
293.693 31 L
294.127 31 L
294.562 31 L
294.996 31 L
295.43 31 L
295.865 31 L
296.299 31 L
296.734 31 L
297.168 31 L
297.603 31 L
298.037 31 L
298.471 31 L
298.906 31 L
299.34 31 L
299.775 31 L
300.209 31 L
300.644 31 L
301.078 31 L
301.513 31 L
301.947 31 L
302.381 31 L
302.816 31 L
303.25 31 L
303.685 31 L
304.119 31 L
304.554 31 L
304.988 31 L
305.422 31 L
305.857 31 L
306.291 31 L
306.726 31 L
307.16 31 L
307.595 31 L
308.029 31 L
308.463 31 L
308.898 31 L
309.332 31 L
309.767 31 L
310.201 31 L
310.636 31 L
311.07 31 L
311.504 31 L
311.939 31 L
312.373 31 L
312.808 31 L
313.242 31 L
313.677 31 L
314.111 31 L
314.546 31 L
314.98 31 L
315.414 31 L
315.849 31 L
316.283 31 L
316.718 31 L
317.152 31 L
317.587 31 L
318.021 31 L
318.455 31 L
318.89 31 L
319.324 31 L
319.759 31 L
320.193 31 L
320.628 31 L
321.062 31 L
321.496 31 L
321.931 31 L
322.365 31 L
322.8 31 L
323.234 31 L
323.669 31 L
324.103 31 L
324.538 31 L
324.972 31 L
325.406 31 L
325.841 31 L
326.275 31 L
326.71 31 L
327.144 31 L
327.579 31 L
328.013 31 L
328.447 31 L
328.882 31 L
329.316 31 L
329.751 31 L
330.185 31 L
330.62 31 L
331.054 31 L
331.488 31 L
331.923 31 L
332.357 31 L
332.792 31 L
333.226 31 L
333.661 31 L
334.095 31 L
334.53 31 L
334.964 31 L
335.398 31 L
335.833 31 L
336.267 31 L
336.702 31 L
337.136 31 L
337.571 31 L
338.005 31 L
338.439 31 L
338.874 31 L
339.308 31 L
339.743 31 L
340.177 31 L
340.612 31 L
341.046 31 L
341.48 31 L
341.915 31 L
342.349 31 L
342.784 31 L
343.218 31 L
343.653 31 L
344.087 31 L
344.522 31 L
344.956 31 L
345.39 31 L
345.825 31 L
346.259 31 L
346.694 31 L
347.128 31 L
347.563 31 L
347.997 31 L
348.431 31 L
348.866 31 L
349.3 31 L
349.735 31 L
350.169 31 L
350.604 31 L
351.038 31 L
351.472 31 L
351.907 31 L
352.341 31 L
352.776 31 L
353.21 31 L
353.645 31 L
354.079 31 L
354.513 31 L
354.948 31 L
355.382 31 L
355.817 31 L
356.251 31 L
356.686 31 L
357.12 31 L
357.555 31 L
357.989 31 L
358.423 31 L
358.858 31 L
359.292 31 L
359.727 31 L
360.161 31 L
360.596 31 L
361.03 31 L
361.464 31 L
361.899 31 L
362.333 31 L
362.768 31 L
363.202 31 L
363.637 31 L
364.071 31 L
364.506 31 L
364.94 31 L
365.374 31 L
365.809 31 L
366.243 31 L
366.678 31 L
367.112 31 L
367.547 31 L
367.981 31 L
368.415 31 L
368.85 31 L
369.284 31 L
369.719 31 L
370.153 31 L
370.588 31 L
371.022 31 L
371.456 31 L
371.891 31 L
372.325 31 L
372.76 31 L
373.194 31 L
373.629 31 L
374.063 31 L
374.497 31 L
374.932 31 L
375.366 31 L
375.801 31 L
376.235 31 L
376.67 31 L
377.104 31 L
377.539 31 L
377.973 31 L
378.407 31 L
378.842 31 L
379.276 31 L
379.711 31 L
380.145 31 L
380.58 31 L
381.014 31 L
381.448 31 L
381.883 31 L
382.317 31 L
382.752 31 L
383.186 31 L
383.621 31 L
384.055 31 L
384.489 31 L
384.924 31 L
385.358 31 L
385.793 31 L
386.227 31 L
386.662 31 L
387.096 31 L
387.531 31 L
387.965 31 L
388.399 31 L
388.834 31 L
389.268 31 L
389.703 31 L
390.137 31 L
390.572 31 L
391.006 31 L
391.44 31 L
391.875 31 L
392.309 31 L
392.744 31 L
393.178 31 L
393.613 31 L
394.047 31 L
394.481 31 L
394.916 31 L
395.35 31 L
395.785 31 L
396.219 31 L
396.654 31 L
397.088 31 L
397.523 31 L
397.957 31 L
398.391 31 L
398.826 31 L
399.26 31 L
399.695 31 L
400.129 31 L
400.564 31 L
400.998 31 L
401.432 31 L
401.867 31 L
402.301 31 L
402.736 31 L
403.17 31 L
403.605 31 L
404.039 31 L
404.473 31 L
404.908 31 L
405.342 31 L
405.777 31 L
406.211 31 L
406.646 31 L
407.08 31 L
407.515 31 L
407.949 31 L
408.383 31 L
408.818 31 L
409.252 31 L
409.687 31 L
410.121 31 L
410.556 31 L
410.99 31 L
411.424 31 L
411.859 31 L
412.293 31 L
412.728 31 L
413.162 31 L
413.597 31 L
414.031 31 L
414.465 31 L
414.9 31 L
415.334 31 L
415.769 31 L
416.203 31 L
416.638 31 L
417.072 31 L
417.507 31 L
417.941 31 L
418.375 31 L
418.81 31 L
419.244 31 L
419.679 31 L
420.113 31 L
420.548 31 L
420.982 31 L
421.416 31 L
421.851 31 L
422.285 31 L
422.72 31 L
423.154 31 L
423.589 31 L
424.023 31 L
424.457 31 L
424.892 31 L
425.326 31 L
425.761 31 L
426.195 31 L
426.63 31 L
427.064 31 L
427.499 31 L
427.933 31 L
428.367 31 L
428.802 31 L
429.236 31 L
429.671 31 L
430.105 31 L
430.54 31 L
430.974 31 L
431.408 31 L
431.843 31 L
432.277 31 L
432.712 31 L
433.146 31 L
433.581 31 L
434.015 31 L
434.449 31 L
434.884 31 L
435.318 31 L
435.753 31 L
436.187 31 L
436.622 31 L
437.056 31 L
437.49 31 L
437.925 31 L
438.359 31 L
438.794 31 L
439.228 31 L
439.663 31 L
440.097 31 L
440.532 31 L
440.966 31 L
441.4 31 L
441.835 31 L
442.269 31 L
442.704 31 L
443.138 31 L
443.573 31 L
444.007 31 L
444.441 31 L
444.876 31 L
445.31 31 L
445.745 31 L
446.179 31 L
446.614 31 L
447.048 31 L
447.482 31 L
447.917 31 L
448.351 31 L
448.786 31 L
449.22 31 L
449.655 31 L
450.089 31 L
450.524 31 L
450.958 31 L
451.392 31 L
451.827 31 L
452.261 31 L
452.696 31 L
453.13 31 L
453.565 31 L
453.999 31 L
454.433 31 L
454.868 31 L
455.302 31 L
455.737 31 L
456.171 31 L
456.606 31 L
457.04 31 L
457.474 31 L
457.909 31 L
458.343 31 L
458.778 31 L
459.212 31 L
459.647 31 L
460.081 31 L
460.516 31 L
460.95 31 L
461.384 31 L
461.819 31 L
462.253 31 L
462.688 31 L
463.122 31 L
463.557 31 L
463.991 31 L
464.425 31 L
464.86 31 L
465.294 31 L
465.729 31 L
466.163 31 L
466.598 31 L
467.032 31 L
467.466 31 L
467.901 31 L
468.335 31 L
468.77 31 L
469.204 31 L
469.639 31 L
470.073 31 L
470.508 31 L
470.942 31 L
471.376 31 L
471.811 31 L
472.245 31 L
472.68 31 L
473.114 31 L
473.549 31 L
473.983 31 L
474.417 31 L
474.852 31 L
475.286 31 L
475.721 31 L
476.155 31 L
476.59 31 L
477.024 31 L
477.458 31 L
477.893 31 L
478.327 31 L
478.762 31 L
479.196 31 L
479.631 31 L
480.065 31 L
480.499 31 L
480.934 31 L
481.368 31 L
481.803 31 L
482.237 31 L
482.672 31 L
483.106 31 L
483.541 31 L
483.975 31 L
484.409 31 L
484.844 31 L
485.278 31 L
485.713 31 L
486.147 31 L
486.582 31 L
487.016 31 L
487.45 31 L
487.885 31 L
488.319 31 L
488.754 31 L
489.188 31 L
489.623 31 L
490.057 31 L
490.492 31 L
490.926 31 L
491.36 31 L
491.795 31 L
492.229 31 L
492.664 31 L
493.098 31 L
493.533 31 L
493.967 31 L
494.401 31 L
494.836 31 L
495.27 31 L
495.705 31 L
496.139 31 L
496.574 31 L
497.008 31 L
497.442 31 L
497.877 31 L
498.311 31 L
498.746 31 L
499.18 31 L
499.615 31 L
500.049 31 L
500.483 31 L
500.918 31 L
501.352 31 L
501.787 31 L
502.221 31 L
502.656 31 L
503.09 31 L
503.525 31 L
503.959 31 L
504.393 31 L
504.828 31 L
505.262 31 L
505.697 31 L
506.131 31 L
506.566 31 L
507 31 L
S
GR
GS
[0.75 0 0 0.75 0 0] CT
0.851 0.329 0.102 RC
[16 16] 0 setdash
2 LJ
4 LW
N
73 361 M
73.434 360.67 L
73.869 360.339 L
74.303 360.009 L
74.738 359.679 L
75.172 359.348 L
75.607 359.018 L
76.041 358.688 L
76.475 358.357 L
76.91 358.027 L
77.344 357.697 L
77.779 357.366 L
78.213 357.036 L
78.648 356.706 L
79.082 356.375 L
79.517 356.045 L
79.951 355.715 L
80.385 355.384 L
80.82 355.054 L
81.254 354.724 L
81.689 354.393 L
82.123 354.063 L
82.558 353.733 L
82.992 353.402 L
83.426 353.072 L
83.861 352.742 L
84.295 352.411 L
84.73 352.081 L
85.164 351.751 L
85.599 351.42 L
86.033 351.09 L
86.467 350.76 L
86.902 350.429 L
87.336 350.099 L
87.771 349.769 L
88.205 349.438 L
88.64 349.108 L
89.074 348.778 L
89.509 348.447 L
89.943 348.117 L
90.377 347.787 L
90.812 347.456 L
91.246 347.126 L
91.681 346.796 L
92.115 346.465 L
92.55 346.135 L
92.984 345.805 L
93.418 345.474 L
93.853 345.144 L
94.287 344.814 L
94.722 344.483 L
95.156 344.153 L
95.591 343.823 L
96.025 343.492 L
96.459 343.162 L
96.894 342.832 L
97.328 342.501 L
97.763 342.171 L
98.197 341.841 L
98.632 341.51 L
99.066 341.18 L
99.501 340.85 L
99.935 340.52 L
100.369 340.189 L
100.804 339.859 L
101.238 339.529 L
101.673 339.198 L
102.107 338.868 L
102.542 338.538 L
102.976 338.207 L
103.41 337.877 L
103.845 337.547 L
104.279 337.216 L
104.714 336.886 L
105.148 336.556 L
105.583 336.225 L
106.017 335.895 L
106.451 335.565 L
106.886 335.234 L
107.32 334.904 L
107.755 334.574 L
108.189 334.243 L
108.624 333.913 L
109.058 333.583 L
109.492 333.252 L
109.927 332.922 L
110.361 332.592 L
110.796 332.261 L
111.23 331.931 L
111.665 331.601 L
112.099 331.27 L
112.534 330.94 L
112.968 330.61 L
113.402 330.279 L
113.837 329.949 L
114.271 329.619 L
114.706 329.288 L
115.14 328.958 L
115.575 328.628 L
116.009 328.297 L
116.443 327.967 L
116.878 327.637 L
117.312 327.306 L
117.747 326.976 L
118.181 326.646 L
118.616 326.315 L
119.05 325.985 L
119.484 325.655 L
119.919 325.324 L
120.353 324.994 L
120.788 324.664 L
121.222 324.333 L
121.657 324.003 L
122.091 323.673 L
122.526 323.342 L
122.96 323.012 L
123.394 322.682 L
123.829 322.351 L
124.263 322.021 L
124.698 321.691 L
125.132 321.36 L
125.567 321.03 L
126.001 320.7 L
126.435 320.369 L
126.87 320.039 L
127.304 319.709 L
127.739 319.378 L
128.173 319.048 L
128.608 318.718 L
129.042 318.387 L
129.476 318.057 L
129.911 317.727 L
130.345 317.396 L
130.78 317.066 L
131.214 316.736 L
131.649 316.405 L
132.083 316.075 L
132.518 315.745 L
132.952 315.414 L
133.386 315.084 L
133.821 314.754 L
134.255 314.423 L
134.69 314.093 L
135.124 313.763 L
135.559 313.432 L
135.993 313.102 L
136.427 312.772 L
136.862 312.441 L
137.296 312.111 L
137.731 311.781 L
138.165 311.45 L
138.6 311.12 L
139.034 310.79 L
139.468 310.459 L
139.903 310.129 L
140.337 309.799 L
140.772 309.468 L
141.206 309.138 L
141.641 308.808 L
142.075 308.477 L
142.51 308.147 L
142.944 307.817 L
143.378 307.486 L
143.813 307.156 L
144.247 306.826 L
144.682 306.495 L
145.116 306.165 L
145.551 305.835 L
145.985 305.505 L
146.419 305.174 L
146.854 304.844 L
147.288 304.514 L
147.723 304.183 L
148.157 303.853 L
148.592 303.523 L
149.026 303.192 L
149.46 302.862 L
149.895 302.532 L
150.329 302.201 L
150.764 301.871 L
151.198 301.541 L
151.633 301.21 L
152.067 300.88 L
152.501 300.55 L
152.936 300.219 L
153.37 299.889 L
153.805 299.559 L
154.239 299.228 L
154.674 298.898 L
155.108 298.568 L
155.543 298.237 L
155.977 297.907 L
156.411 297.577 L
156.846 297.246 L
157.28 296.916 L
157.715 296.586 L
158.149 296.255 L
158.584 295.925 L
159.018 295.595 L
159.452 295.264 L
159.887 294.934 L
160.321 294.604 L
160.756 294.273 L
161.19 293.943 L
161.625 293.613 L
162.059 293.282 L
162.493 292.952 L
162.928 292.622 L
163.362 292.291 L
163.797 291.961 L
164.231 291.631 L
164.666 291.3 L
165.1 290.97 L
165.535 290.64 L
165.969 290.309 L
166.403 289.979 L
166.838 289.649 L
167.272 289.318 L
167.707 288.988 L
168.141 288.658 L
168.576 288.327 L
169.01 287.997 L
169.444 287.667 L
169.879 287.336 L
170.313 287.006 L
170.748 286.676 L
171.182 286.345 L
171.617 286.015 L
172.051 285.685 L
172.485 285.354 L
172.92 285.024 L
173.354 284.694 L
173.789 284.363 L
174.223 284.033 L
174.658 283.703 L
175.092 283.372 L
175.527 283.042 L
175.961 282.712 L
176.395 282.381 L
176.83 282.051 L
177.264 281.721 L
177.699 281.39 L
178.133 281.06 L
178.568 280.73 L
179.002 280.399 L
179.436 280.069 L
179.871 279.739 L
180.305 279.408 L
180.74 279.078 L
181.174 278.748 L
181.609 278.417 L
182.043 278.087 L
182.477 277.757 L
182.912 277.426 L
183.346 277.096 L
183.781 276.766 L
184.215 276.435 L
184.65 276.105 L
185.084 275.775 L
185.519 275.444 L
185.953 275.114 L
186.387 274.784 L
186.822 274.453 L
187.256 274.123 L
187.691 273.793 L
188.125 273.462 L
188.56 273.132 L
188.994 272.802 L
189.428 272.471 L
189.863 272.141 L
190.297 271.811 L
190.732 271.48 L
191.166 271.15 L
191.601 270.82 L
192.035 270.49 L
192.469 270.159 L
192.904 269.829 L
193.338 269.499 L
193.773 269.168 L
194.207 268.838 L
194.642 268.508 L
195.076 268.177 L
195.511 267.847 L
195.945 267.517 L
196.379 267.186 L
196.814 266.856 L
197.248 266.526 L
197.683 266.195 L
198.117 265.865 L
198.552 265.535 L
198.986 265.204 L
199.42 264.874 L
199.855 264.544 L
200.289 264.213 L
200.724 263.883 L
201.158 263.553 L
201.593 263.222 L
202.027 262.892 L
202.461 262.562 L
202.896 262.231 L
203.33 261.901 L
203.765 261.571 L
204.199 261.24 L
204.634 260.91 L
205.068 260.58 L
205.503 260.249 L
205.937 259.919 L
206.371 259.589 L
206.806 259.258 L
207.24 258.928 L
207.675 258.598 L
208.109 258.267 L
208.544 257.937 L
208.978 257.607 L
209.412 257.276 L
209.847 256.946 L
210.281 256.616 L
210.716 256.285 L
211.15 255.955 L
211.585 255.625 L
212.019 255.294 L
212.453 254.964 L
212.888 254.634 L
213.322 254.303 L
213.757 253.973 L
214.191 253.643 L
214.626 253.312 L
215.06 252.982 L
215.495 252.652 L
215.929 252.321 L
216.363 251.991 L
216.798 251.661 L
217.232 251.33 L
217.667 251 L
218.101 250.67 L
218.536 250.339 L
218.97 250.009 L
219.404 249.679 L
219.839 249.348 L
220.273 249.018 L
220.708 248.688 L
221.142 248.357 L
221.577 248.027 L
222.011 247.697 L
222.445 247.366 L
222.88 247.036 L
223.314 246.706 L
223.749 246.375 L
224.183 246.045 L
224.618 245.715 L
225.052 245.384 L
225.486 245.054 L
225.921 244.724 L
226.355 244.393 L
226.79 244.063 L
227.224 243.733 L
227.659 243.402 L
228.093 243.072 L
228.528 242.742 L
228.962 242.411 L
229.396 242.081 L
229.831 241.751 L
230.265 241.42 L
230.7 241.09 L
231.134 240.76 L
231.569 240.429 L
232.003 240.099 L
232.437 239.769 L
232.872 239.438 L
233.306 239.108 L
233.741 238.778 L
234.175 238.447 L
234.61 238.117 L
235.044 237.787 L
235.478 237.456 L
235.913 237.126 L
236.347 236.796 L
236.782 236.465 L
237.216 236.135 L
237.651 235.805 L
238.085 235.474 L
238.52 235.144 L
238.954 234.814 L
239.388 234.483 L
239.823 234.153 L
240.257 233.823 L
240.692 233.492 L
241.126 233.162 L
241.561 232.832 L
241.995 232.501 L
242.429 232.171 L
242.864 231.841 L
243.298 231.511 L
243.733 231.18 L
244.167 230.85 L
244.602 230.52 L
245.036 230.189 L
245.47 229.859 L
245.905 229.529 L
246.339 229.198 L
246.774 228.868 L
247.208 228.538 L
247.643 228.207 L
248.077 227.877 L
248.512 227.547 L
248.946 227.216 L
249.38 226.886 L
249.815 226.556 L
250.249 226.225 L
250.684 225.895 L
251.118 225.565 L
251.553 225.234 L
251.987 224.904 L
252.421 224.574 L
252.856 224.243 L
253.29 223.913 L
253.725 223.583 L
254.159 223.252 L
254.594 222.922 L
255.028 222.592 L
255.462 222.261 L
255.897 221.931 L
256.331 221.601 L
256.766 221.27 L
257.2 220.94 L
257.635 220.61 L
258.069 220.279 L
258.504 219.949 L
258.938 219.619 L
259.372 219.288 L
259.807 218.958 L
260.241 218.628 L
260.676 218.297 L
261.11 217.967 L
261.545 217.637 L
261.979 217.306 L
262.413 216.976 L
262.848 216.646 L
263.282 216.315 L
263.717 215.985 L
264.151 215.655 L
264.586 215.324 L
265.02 214.994 L
265.454 214.664 L
265.889 214.333 L
266.323 214.003 L
266.758 213.673 L
267.192 213.342 L
267.627 213.012 L
268.061 212.682 L
268.495 212.351 L
268.93 212.021 L
269.364 211.691 L
269.799 211.36 L
270.233 211.03 L
270.668 210.7 L
271.102 210.369 L
271.537 210.039 L
271.971 209.709 L
272.405 209.378 L
272.84 209.048 L
273.274 208.718 L
273.709 208.387 L
274.143 208.057 L
274.578 207.727 L
275.012 207.396 L
275.446 207.066 L
275.881 206.736 L
276.315 206.405 L
276.75 206.075 L
277.184 205.745 L
277.619 205.414 L
278.053 205.084 L
278.487 204.754 L
278.922 204.423 L
279.356 204.093 L
279.791 203.763 L
280.225 203.432 L
280.66 203.102 L
281.094 202.772 L
281.529 202.441 L
281.963 202.111 L
282.397 201.781 L
282.832 201.45 L
283.266 201.12 L
283.701 200.79 L
284.135 200.459 L
284.57 200.129 L
285.004 199.799 L
285.438 199.468 L
285.873 199.138 L
286.307 198.808 L
286.742 198.477 L
287.176 198.147 L
287.611 197.817 L
288.045 197.486 L
288.479 197.156 L
288.914 196.826 L
289.348 196.495 L
289.783 196.165 L
290.217 195.835 L
290.652 195.505 L
291.086 195.174 L
291.521 194.844 L
291.955 194.514 L
292.389 194.183 L
292.824 193.853 L
293.258 193.523 L
293.693 193.192 L
294.127 192.862 L
294.562 192.532 L
294.996 192.201 L
295.43 191.871 L
295.865 191.541 L
296.299 191.21 L
296.734 190.88 L
297.168 190.55 L
297.603 190.219 L
298.037 189.889 L
298.471 189.559 L
298.906 189.228 L
299.34 188.898 L
299.775 188.568 L
300.209 188.237 L
300.644 187.907 L
301.078 187.577 L
301.513 187.246 L
301.947 186.916 L
302.381 186.586 L
302.816 186.255 L
303.25 185.925 L
303.685 185.595 L
304.119 185.264 L
304.554 184.934 L
304.988 184.604 L
305.422 184.273 L
305.857 183.943 L
306.291 183.613 L
306.726 183.282 L
307.16 182.952 L
307.595 182.622 L
308.029 182.291 L
308.463 181.961 L
308.898 181.631 L
309.332 181.3 L
309.767 180.97 L
310.201 180.64 L
310.636 180.309 L
311.07 179.979 L
311.504 179.649 L
311.939 179.318 L
312.373 178.988 L
312.808 178.658 L
313.242 178.327 L
313.677 177.997 L
314.111 177.667 L
314.546 177.336 L
314.98 177.006 L
315.414 176.676 L
315.849 176.345 L
316.283 176.015 L
316.718 175.685 L
317.152 175.354 L
317.587 175.024 L
318.021 174.694 L
318.455 174.363 L
318.89 174.033 L
319.324 173.703 L
319.759 173.372 L
320.193 173.042 L
320.628 172.712 L
321.062 172.381 L
321.496 172.051 L
321.931 171.721 L
322.365 171.39 L
322.8 171.06 L
323.234 170.73 L
323.669 170.399 L
324.103 170.069 L
324.538 169.739 L
324.972 169.408 L
325.406 169.078 L
325.841 168.748 L
326.275 168.417 L
326.71 168.087 L
327.144 167.757 L
327.579 167.426 L
328.013 167.096 L
328.447 166.766 L
328.882 166.435 L
329.316 166.105 L
329.751 165.775 L
330.185 165.444 L
330.62 165.114 L
331.054 164.784 L
331.488 164.453 L
331.923 164.123 L
332.357 163.793 L
332.792 163.462 L
333.226 163.132 L
333.661 162.802 L
334.095 162.471 L
334.53 162.141 L
334.964 161.811 L
335.398 161.48 L
335.833 161.15 L
336.267 160.82 L
336.702 160.489 L
337.136 160.159 L
337.571 159.829 L
338.005 159.499 L
338.439 159.168 L
338.874 158.838 L
339.308 158.508 L
339.743 158.177 L
340.177 157.847 L
340.612 157.517 L
341.046 157.186 L
341.48 156.856 L
341.915 156.526 L
342.349 156.195 L
342.784 155.865 L
343.218 155.535 L
343.653 155.204 L
344.087 154.874 L
344.522 154.544 L
344.956 154.213 L
345.39 153.883 L
345.825 153.553 L
346.259 153.222 L
346.694 152.892 L
347.128 152.562 L
347.563 152.231 L
347.997 151.901 L
348.431 151.571 L
348.866 151.24 L
349.3 150.91 L
349.735 150.58 L
350.169 150.249 L
350.604 149.919 L
351.038 149.589 L
351.472 149.258 L
351.907 148.928 L
352.341 148.598 L
352.776 148.267 L
353.21 147.937 L
353.645 147.607 L
354.079 147.276 L
354.513 146.946 L
354.948 146.616 L
355.382 146.285 L
355.817 145.955 L
356.251 145.625 L
356.686 145.294 L
357.12 144.964 L
357.555 144.634 L
357.989 144.303 L
358.423 143.973 L
358.858 143.643 L
359.292 143.312 L
359.727 142.982 L
360.161 142.652 L
360.596 142.321 L
361.03 141.991 L
361.464 141.661 L
361.899 141.33 L
362.333 141 L
362.768 140.67 L
363.202 140.339 L
363.637 140.009 L
364.071 139.679 L
364.506 139.348 L
364.94 139.018 L
365.374 138.688 L
365.809 138.357 L
366.243 138.027 L
366.678 137.697 L
367.112 137.366 L
367.547 137.036 L
367.981 136.706 L
368.415 136.375 L
368.85 136.045 L
369.284 135.715 L
369.719 135.384 L
370.153 135.054 L
370.588 134.724 L
371.022 134.393 L
371.456 134.063 L
371.891 133.733 L
372.325 133.402 L
372.76 133.072 L
373.194 132.742 L
373.629 132.411 L
374.063 132.081 L
374.497 131.751 L
374.932 131.42 L
375.366 131.09 L
375.801 130.76 L
376.235 130.429 L
376.67 130.099 L
377.104 129.769 L
377.539 129.438 L
377.973 129.108 L
378.407 128.778 L
378.842 128.447 L
379.276 128.117 L
379.711 127.787 L
380.145 127.456 L
380.58 127.126 L
381.014 126.796 L
381.448 126.465 L
381.883 126.135 L
382.317 125.805 L
382.752 125.474 L
383.186 125.144 L
383.621 124.814 L
384.055 124.483 L
384.489 124.153 L
384.924 123.823 L
385.358 123.492 L
385.793 123.162 L
386.227 122.832 L
386.662 122.502 L
387.096 122.171 L
387.531 121.841 L
387.965 121.511 L
388.399 121.18 L
388.834 120.85 L
389.268 120.52 L
389.703 120.189 L
390.137 119.859 L
390.572 119.529 L
391.006 119.198 L
391.44 118.868 L
391.875 118.538 L
392.309 118.207 L
392.744 117.877 L
393.178 117.547 L
393.613 117.216 L
394.047 116.886 L
394.481 116.556 L
394.916 116.225 L
395.35 115.895 L
395.785 115.565 L
396.219 115.234 L
396.654 114.904 L
397.088 114.574 L
397.523 114.243 L
397.957 113.913 L
398.391 113.583 L
398.826 113.252 L
399.26 112.922 L
399.695 112.592 L
400.129 112.261 L
400.564 111.931 L
400.998 111.601 L
401.432 111.27 L
401.867 110.94 L
402.301 110.61 L
402.736 110.279 L
403.17 109.949 L
403.605 109.619 L
404.039 109.288 L
404.473 108.958 L
404.908 108.628 L
405.342 108.297 L
405.777 107.967 L
406.211 107.637 L
406.646 107.306 L
407.08 106.976 L
407.515 106.646 L
407.949 106.315 L
408.383 105.985 L
408.818 105.655 L
409.252 105.324 L
409.687 104.994 L
410.121 104.664 L
410.556 104.333 L
410.99 104.003 L
411.424 103.673 L
411.859 103.342 L
412.293 103.012 L
412.728 102.682 L
413.162 102.351 L
413.597 102.021 L
414.031 101.691 L
414.465 101.36 L
414.9 101.03 L
415.334 100.7 L
415.769 100.369 L
416.203 100.039 L
416.638 99.709 L
417.072 99.378 L
417.507 99.048 L
417.941 98.718 L
418.375 98.387 L
418.81 98.057 L
419.244 97.727 L
419.679 97.396 L
420.113 97.066 L
420.548 96.736 L
420.982 96.405 L
421.416 96.075 L
421.851 95.745 L
422.285 95.414 L
422.72 95.084 L
423.154 94.754 L
423.589 94.423 L
424.023 94.093 L
424.457 93.763 L
424.892 93.432 L
425.326 93.102 L
425.761 92.772 L
426.195 92.441 L
426.63 92.111 L
427.064 91.781 L
427.499 91.45 L
427.933 91.12 L
428.367 90.79 L
428.802 90.459 L
429.236 90.129 L
429.671 89.799 L
430.105 89.468 L
430.54 89.138 L
430.974 88.808 L
431.408 88.477 L
431.843 88.147 L
432.277 87.817 L
432.712 87.486 L
433.146 87.156 L
433.581 86.826 L
434.015 86.495 L
434.449 86.165 L
434.884 85.835 L
435.318 85.505 L
435.753 85.174 L
436.187 84.844 L
436.622 84.514 L
437.056 84.183 L
437.49 83.853 L
437.925 83.523 L
438.359 83.192 L
438.794 82.862 L
439.228 82.532 L
439.663 82.201 L
440.097 81.871 L
440.532 81.541 L
440.966 81.21 L
441.4 80.88 L
441.835 80.55 L
442.269 80.219 L
442.704 79.889 L
443.138 79.559 L
443.573 79.228 L
444.007 78.898 L
444.441 78.568 L
444.876 78.237 L
445.31 77.907 L
445.745 77.577 L
446.179 77.246 L
446.614 76.916 L
447.048 76.586 L
447.482 76.255 L
447.917 75.925 L
448.351 75.595 L
448.786 75.264 L
449.22 74.934 L
449.655 74.604 L
450.089 74.273 L
450.524 73.943 L
450.958 73.613 L
451.392 73.282 L
451.827 72.952 L
452.261 72.622 L
452.696 72.291 L
453.13 71.961 L
453.565 71.631 L
453.999 71.3 L
454.433 70.97 L
454.868 70.64 L
455.302 70.309 L
455.737 69.979 L
456.171 69.649 L
456.606 69.318 L
457.04 68.988 L
457.474 68.658 L
457.909 68.327 L
458.343 67.997 L
458.778 67.667 L
459.212 67.336 L
459.647 67.006 L
460.081 66.676 L
460.516 66.345 L
460.95 66.015 L
461.384 65.685 L
461.819 65.354 L
462.253 65.024 L
462.688 64.694 L
463.122 64.363 L
463.557 64.033 L
463.991 63.703 L
464.425 63.372 L
464.86 63.042 L
465.294 62.712 L
465.729 62.381 L
466.163 62.051 L
466.598 61.721 L
467.032 61.39 L
467.466 61.06 L
467.901 60.73 L
468.335 60.399 L
468.77 60.069 L
469.204 59.739 L
469.639 59.408 L
470.073 59.078 L
470.508 58.748 L
470.942 58.417 L
471.376 58.087 L
471.811 57.757 L
472.245 57.426 L
472.68 57.096 L
473.114 56.766 L
473.549 56.435 L
473.983 56.105 L
474.417 55.775 L
474.852 55.444 L
475.286 55.114 L
475.721 54.784 L
476.155 54.453 L
476.59 54.123 L
477.024 53.793 L
477.458 53.462 L
477.893 53.132 L
478.327 52.802 L
478.762 52.471 L
479.196 52.141 L
479.631 51.811 L
480.065 51.48 L
480.499 51.15 L
480.934 50.82 L
481.368 50.489 L
481.803 50.159 L
482.237 49.829 L
482.672 49.499 L
483.106 49.168 L
483.541 48.838 L
483.975 48.508 L
484.409 48.177 L
484.844 47.847 L
485.278 47.517 L
485.713 47.186 L
486.147 46.856 L
486.582 46.526 L
487.016 46.195 L
487.45 45.865 L
487.885 45.535 L
488.319 45.204 L
488.754 44.874 L
489.188 44.544 L
489.623 44.213 L
490.057 43.883 L
490.492 43.553 L
490.926 43.222 L
491.36 42.892 L
491.795 42.562 L
492.229 42.231 L
492.664 41.901 L
493.098 41.571 L
493.533 41.24 L
493.967 40.91 L
494.401 40.58 L
494.836 40.249 L
495.27 39.919 L
495.705 39.589 L
496.139 39.258 L
496.574 38.928 L
497.008 38.598 L
497.442 38.267 L
497.877 37.937 L
498.311 37.607 L
498.746 37.276 L
499.18 36.946 L
499.615 36.616 L
500.049 36.285 L
500.483 35.955 L
500.918 35.625 L
501.352 35.294 L
501.787 34.964 L
502.221 34.634 L
502.656 34.303 L
503.09 33.973 L
503.525 33.643 L
503.959 33.312 L
504.393 32.982 L
504.828 32.652 L
505.262 32.321 L
505.697 31.991 L
506.131 31.661 L
506.566 31.33 L
507 31 L
S
GR
GS
[0.75 0 0 0.75 0 0] CT
0.588 0.071 0.588 RC
1 LJ
4 LW
N
73 361 M
82.051 361 L
92.727 361 L
103.054 360.996 L
112.455 360.978 L
122.132 360.899 L
132.182 360.603 L
137.624 360.224 L
143.065 359.543 L
145.276 359.137 L
147.487 358.631 L
149.698 358.004 L
151.909 357.228 L
153.283 356.658 L
154.657 356.011 L
156.032 355.278 L
157.406 354.449 L
158.78 353.513 L
160.154 352.458 L
161.528 351.271 L
162.902 349.939 L
163.994 348.767 L
165.086 347.485 L
167.269 344.561 L
169.453 341.096 L
171.636 337.016 L
174.015 331.78 L
176.394 325.621 L
178.773 318.448 L
181.152 310.18 L
183.705 300.026 L
186.258 288.517 L
188.811 275.682 L
191.364 261.614 L
196.105 232.825 L
200.846 202.025 L
205.968 168.882 L
211.091 138.301 L
213.842 123.577 L
216.592 110.247 L
219.343 98.367 L
222.094 87.926 L
226.456 74.146 L
228.637 68.42 L
230.818 63.387 L
233.463 58.12 L
236.108 53.661 L
238.752 49.903 L
241.397 46.746 L
243.684 44.433 L
245.971 42.451 L
248.258 40.757 L
250.545 39.309 L
253.141 37.922 L
255.736 36.764 L
258.332 35.798 L
260.928 34.993 L
263.264 34.384 L
265.6 33.867 L
270.273 33.057 L
275.159 32.453 L
280.045 32.025 L
290 31.502 L
299.866 31.245 L
309.727 31.119 L
319.983 31.055 L
329.455 31.027 L
340.109 31.012 L
349.182 31.006 L
358.876 31.003 L
368.909 31.001 L
378.837 31 L
388.636 31 L
398.508 31 L
408.364 31 L
418.947 31 L
428.091 31 L
437.489 31 L
447.818 31 L
458.169 31 L
467.545 31 L
474.991 31 L
487.273 31 L
496.953 31 L
507 31 L
S
GR
GS
[0.75 0 0 0.75 0 0] CT
0 0.447 0.741 RC
1 LJ
4 LW
N
73 361 M
82.051 361 L
92.727 361 L
103.054 361 L
112.455 360.998 L
122.132 360.993 L
132.182 360.978 L
143.065 360.938 L
151.909 360.868 L
162.902 360.692 L
171.636 360.427 L
181.152 359.922 L
191.364 358.961 L
196.105 358.293 L
200.846 357.432 L
205.968 356.227 L
211.091 354.662 L
213.842 353.641 L
216.592 352.472 L
219.343 351.137 L
222.094 349.617 L
224.275 348.263 L
226.456 346.767 L
228.637 345.115 L
230.818 343.294 L
233.463 340.838 L
236.108 338.087 L
238.752 335.012 L
241.397 331.586 L
243.684 328.319 L
245.971 324.75 L
250.545 316.639 L
255.736 305.731 L
260.928 292.889 L
265.6 279.635 L
270.273 264.826 L
280.045 229.584 L
290 190.253 L
299.866 151.889 L
309.727 117.938 L
314.855 102.832 L
319.983 89.65 L
324.719 79.169 L
329.455 70.231 L
332.118 65.836 L
334.782 61.861 L
337.445 58.28 L
340.109 55.065 L
342.377 52.592 L
344.645 50.346 L
346.914 48.31 L
349.182 46.467 L
351.605 44.693 L
354.029 43.105 L
356.453 41.686 L
358.876 40.419 L
361.384 39.252 L
363.893 38.219 L
368.909 36.497 L
373.873 35.171 L
378.837 34.143 L
383.737 33.36 L
388.636 32.759 L
398.508 31.948 L
408.364 31.491 L
418.947 31.23 L
428.091 31.112 L
437.489 31.05 L
447.818 31.019 L
458.169 31.006 L
467.545 31.002 L
474.991 31.001 L
487.273 31 L
496.953 31 L
507 31 L
S
GR
%%Trailer
%%Pages: 1
%%EOF
