%!PS-Adobe-3.0 EPSF-3.0
%%Creator: (MATLAB, The Mathworks, Inc. Version 9.6.0.1472908 \(R2019a\) Update 9. Operating System: Windows 10)
%%Title: (C:/Users/A/OneDrive - ETHZ/Research_MasterThesis/AllCodeFiles/Figures/Figuresnew1.eps)
%%CreationDate: 2023-05-25T05:44:01
%%Pages: (atend)
%%BoundingBox:    35     2   589   406
%%LanguageLevel: 3
%%EndComments
%%BeginProlog
%%BeginResource: procset (Apache XML Graphics Std ProcSet) 1.2 0
%%Version: 1.2 0
%%Copyright: (Copyright 2001-2003,2010 The Apache Software Foundation. License terms: http://www.apache.org/licenses/LICENSE-2.0)
/bd{bind def}bind def
/ld{load def}bd
/GR/grestore ld
/GS/gsave ld
/RM/rmoveto ld
/C/curveto ld
/t/show ld
/L/lineto ld
/ML/setmiterlimit ld
/CT/concat ld
/f/fill ld
/N/newpath ld
/S/stroke ld
/CC/setcmykcolor ld
/A/ashow ld
/cp/closepath ld
/RC/setrgbcolor ld
/LJ/setlinejoin ld
/GC/setgray ld
/LW/setlinewidth ld
/M/moveto ld
/re {4 2 roll M
1 index 0 rlineto
0 exch rlineto
neg 0 rlineto
cp } bd
/_ctm matrix def
/_tm matrix def
/BT { _ctm currentmatrix pop matrix _tm copy pop 0 0 moveto } bd
/ET { _ctm setmatrix } bd
/iTm { _ctm setmatrix _tm concat } bd
/Tm { _tm astore pop iTm 0 0 moveto } bd
/ux 0.0 def
/uy 0.0 def
/F {
  /Tp exch def
  /Tf exch def
  Tf findfont Tp scalefont setfont
  /cf Tf def  /cs Tp def
} bd
/ULS {currentpoint /uy exch def /ux exch def} bd
/ULE {
  /Tcx currentpoint pop def
  gsave
  newpath
  cf findfont cs scalefont dup
  /FontMatrix get 0 get /Ts exch def /FontInfo get dup
  /UnderlinePosition get Ts mul /To exch def
  /UnderlineThickness get Ts mul /Tt exch def
  ux uy To add moveto  Tcx uy To add lineto
  Tt setlinewidth stroke
  grestore
} bd
/OLE {
  /Tcx currentpoint pop def
  gsave
  newpath
  cf findfont cs scalefont dup
  /FontMatrix get 0 get /Ts exch def /FontInfo get dup
  /UnderlinePosition get Ts mul /To exch def
  /UnderlineThickness get Ts mul /Tt exch def
  ux uy To add cs add moveto Tcx uy To add cs add lineto
  Tt setlinewidth stroke
  grestore
} bd
/SOE {
  /Tcx currentpoint pop def
  gsave
  newpath
  cf findfont cs scalefont dup
  /FontMatrix get 0 get /Ts exch def /FontInfo get dup
  /UnderlinePosition get Ts mul /To exch def
  /UnderlineThickness get Ts mul /Tt exch def
  ux uy To add cs 10 mul 26 idiv add moveto Tcx uy To add cs 10 mul 26 idiv add lineto
  Tt setlinewidth stroke
  grestore
} bd
/QT {
/Y22 exch store
/X22 exch store
/Y21 exch store
/X21 exch store
currentpoint
/Y21 load 2 mul add 3 div exch
/X21 load 2 mul add 3 div exch
/X21 load 2 mul /X22 load add 3 div
/Y21 load 2 mul /Y22 load add 3 div
/X22 load /Y22 load curveto
} bd
/SSPD {
dup length /d exch dict def
{
/v exch def
/k exch def
currentpagedevice k known {
/cpdv currentpagedevice k get def
v cpdv ne {
/upd false def
/nullv v type /nulltype eq def
/nullcpdv cpdv type /nulltype eq def
nullv nullcpdv or
{
/upd true def
} {
/sametype v type cpdv type eq def
sametype {
v type /arraytype eq {
/vlen v length def
/cpdvlen cpdv length def
vlen cpdvlen eq {
0 1 vlen 1 sub {
/i exch def
/obj v i get def
/cpdobj cpdv i get def
obj cpdobj ne {
/upd true def
exit
} if
} for
} {
/upd true def
} ifelse
} {
v type /dicttype eq {
v {
/dv exch def
/dk exch def
/cpddv cpdv dk get def
dv cpddv ne {
/upd true def
exit
} if
} forall
} {
/upd true def
} ifelse
} ifelse
} if
} ifelse
upd true eq {
d k v put
} if
} if
} if
} forall
d length 0 gt {
d setpagedevice
} if
} bd
/RE { % /NewFontName [NewEncodingArray] /FontName RE -
  findfont dup length dict begin
  {
    1 index /FID ne
    {def} {pop pop} ifelse
  } forall
  /Encoding exch def
  /FontName 1 index def
  currentdict definefont pop
  end
} bind def
%%EndResource
%%BeginResource: procset (Apache XML Graphics EPS ProcSet) 1.0 0
%%Version: 1.0 0
%%Copyright: (Copyright 2002-2003 The Apache Software Foundation. License terms: http://www.apache.org/licenses/LICENSE-2.0)
/BeginEPSF { %def
/b4_Inc_state save def         % Save state for cleanup
/dict_count countdictstack def % Count objects on dict stack
/op_count count 1 sub def      % Count objects on operand stack
userdict begin                 % Push userdict on dict stack
/showpage { } def              % Redefine showpage, { } = null proc
0 setgray 0 setlinecap         % Prepare graphics state
1 setlinewidth 0 setlinejoin
10 setmiterlimit [ ] 0 setdash newpath
/languagelevel where           % If level not equal to 1 then
{pop languagelevel             % set strokeadjust and
1 ne                           % overprint to their defaults.
{false setstrokeadjust false setoverprint
} if
} if
} bd
/EndEPSF { %def
count op_count sub {pop} repeat            % Clean up stacks
countdictstack dict_count sub {end} repeat
b4_Inc_state restore
} bd
%%EndResource
%FOPBeginFontDict
%%IncludeResource: font Courier-Oblique
%%IncludeResource: font Courier-BoldOblique
%%IncludeResource: font Courier-Bold
%%IncludeResource: font ZapfDingbats
%%IncludeResource: font Symbol
%%IncludeResource: font Helvetica
%%IncludeResource: font Helvetica-Oblique
%%IncludeResource: font Helvetica-Bold
%%IncludeResource: font Helvetica-BoldOblique
%%IncludeResource: font Times-Roman
%%IncludeResource: font Times-Italic
%%IncludeResource: font Times-Bold
%%IncludeResource: font Times-BoldItalic
%%IncludeResource: font Courier
%FOPEndFontDict
%%BeginResource: encoding WinAnsiEncoding
/WinAnsiEncoding [
/.notdef /.notdef /.notdef /.notdef /.notdef
/.notdef /.notdef /.notdef /.notdef /.notdef
/.notdef /.notdef /.notdef /.notdef /.notdef
/.notdef /.notdef /.notdef /.notdef /.notdef
/.notdef /.notdef /.notdef /.notdef /.notdef
/.notdef /.notdef /.notdef /.notdef /.notdef
/.notdef /.notdef /space /exclam /quotedbl
/numbersign /dollar /percent /ampersand /quotesingle
/parenleft /parenright /asterisk /plus /comma
/hyphen /period /slash /zero /one
/two /three /four /five /six
/seven /eight /nine /colon /semicolon
/less /equal /greater /question /at
/A /B /C /D /E
/F /G /H /I /J
/K /L /M /N /O
/P /Q /R /S /T
/U /V /W /X /Y
/Z /bracketleft /backslash /bracketright /asciicircum
/underscore /quoteleft /a /b /c
/d /e /f /g /h
/i /j /k /l /m
/n /o /p /q /r
/s /t /u /v /w
/x /y /z /braceleft /bar
/braceright /asciitilde /bullet /Euro /bullet
/quotesinglbase /florin /quotedblbase /ellipsis /dagger
/daggerdbl /circumflex /perthousand /Scaron /guilsinglleft
/OE /bullet /Zcaron /bullet /bullet
/quoteleft /quoteright /quotedblleft /quotedblright /bullet
/endash /emdash /asciitilde /trademark /scaron
/guilsinglright /oe /bullet /zcaron /Ydieresis
/space /exclamdown /cent /sterling /currency
/yen /brokenbar /section /dieresis /copyright
/ordfeminine /guillemotleft /logicalnot /sfthyphen /registered
/macron /degree /plusminus /twosuperior /threesuperior
/acute /mu /paragraph /middot /cedilla
/onesuperior /ordmasculine /guillemotright /onequarter /onehalf
/threequarters /questiondown /Agrave /Aacute /Acircumflex
/Atilde /Adieresis /Aring /AE /Ccedilla
/Egrave /Eacute /Ecircumflex /Edieresis /Igrave
/Iacute /Icircumflex /Idieresis /Eth /Ntilde
/Ograve /Oacute /Ocircumflex /Otilde /Odieresis
/multiply /Oslash /Ugrave /Uacute /Ucircumflex
/Udieresis /Yacute /Thorn /germandbls /agrave
/aacute /acircumflex /atilde /adieresis /aring
/ae /ccedilla /egrave /eacute /ecircumflex
/edieresis /igrave /iacute /icircumflex /idieresis
/eth /ntilde /ograve /oacute /ocircumflex
/otilde /odieresis /divide /oslash /ugrave
/uacute /ucircumflex /udieresis /yacute /thorn
/ydieresis
] def
%%EndResource
%FOPBeginFontReencode
/Courier-Oblique findfont
dup length dict begin
  {1 index /FID ne {def} {pop pop} ifelse} forall
  /Encoding WinAnsiEncoding def
  currentdict
end
/Courier-Oblique exch definefont pop
/Courier-BoldOblique findfont
dup length dict begin
  {1 index /FID ne {def} {pop pop} ifelse} forall
  /Encoding WinAnsiEncoding def
  currentdict
end
/Courier-BoldOblique exch definefont pop
/Courier-Bold findfont
dup length dict begin
  {1 index /FID ne {def} {pop pop} ifelse} forall
  /Encoding WinAnsiEncoding def
  currentdict
end
/Courier-Bold exch definefont pop
/Helvetica findfont
dup length dict begin
  {1 index /FID ne {def} {pop pop} ifelse} forall
  /Encoding WinAnsiEncoding def
  currentdict
end
/Helvetica exch definefont pop
/Helvetica-Oblique findfont
dup length dict begin
  {1 index /FID ne {def} {pop pop} ifelse} forall
  /Encoding WinAnsiEncoding def
  currentdict
end
/Helvetica-Oblique exch definefont pop
/Helvetica-Bold findfont
dup length dict begin
  {1 index /FID ne {def} {pop pop} ifelse} forall
  /Encoding WinAnsiEncoding def
  currentdict
end
/Helvetica-Bold exch definefont pop
/Helvetica-BoldOblique findfont
dup length dict begin
  {1 index /FID ne {def} {pop pop} ifelse} forall
  /Encoding WinAnsiEncoding def
  currentdict
end
/Helvetica-BoldOblique exch definefont pop
/Times-Roman findfont
dup length dict begin
  {1 index /FID ne {def} {pop pop} ifelse} forall
  /Encoding WinAnsiEncoding def
  currentdict
end
/Times-Roman exch definefont pop
/Times-Italic findfont
dup length dict begin
  {1 index /FID ne {def} {pop pop} ifelse} forall
  /Encoding WinAnsiEncoding def
  currentdict
end
/Times-Italic exch definefont pop
/Times-Bold findfont
dup length dict begin
  {1 index /FID ne {def} {pop pop} ifelse} forall
  /Encoding WinAnsiEncoding def
  currentdict
end
/Times-Bold exch definefont pop
/Times-BoldItalic findfont
dup length dict begin
  {1 index /FID ne {def} {pop pop} ifelse} forall
  /Encoding WinAnsiEncoding def
  currentdict
end
/Times-BoldItalic exch definefont pop
/Courier findfont
dup length dict begin
  {1 index /FID ne {def} {pop pop} ifelse} forall
  /Encoding WinAnsiEncoding def
  currentdict
end
/Courier exch definefont pop
%FOPEndFontReencode
%%EndProlog
%%Page: 1 1
%%PageBoundingBox: 0 0 648 432
%%BeginPageSetup
[1 0 0 -1 0 432] CT
%%EndPageSetup
GS
[0.75 0 0 0.75 0 0] CT
1 GC
N
0 0 864 576 re
f
GR
GS
[0.75 0 0 0.75 0 0] CT
1 GC
N
0 0 864 576 re
f
GR
GS
[0.75 0 0 0.75 0 0] CT
1 GC
N
112 512 M
782 512 L
782 43 L
112 43 L
cp
f
GR
GS
[0.75 0 0 0.75 0 0] CT
0.873 GC
1 LJ
0.667 LW
N
112 512 M
112 43 L
S
GR
GS
[0.75 0 0 0.75 0 0] CT
0.873 GC
1 LJ
0.667 LW
N
179 512 M
179 43 L
S
GR
GS
[0.75 0 0 0.75 0 0] CT
0.873 GC
1 LJ
0.667 LW
N
246 512 M
246 43 L
S
GR
GS
[0.75 0 0 0.75 0 0] CT
0.873 GC
1 LJ
0.667 LW
N
313 512 M
313 43 L
S
GR
GS
[0.75 0 0 0.75 0 0] CT
0.873 GC
1 LJ
0.667 LW
N
380 512 M
380 43 L
S
GR
GS
[0.75 0 0 0.75 0 0] CT
0.873 GC
1 LJ
0.667 LW
N
447 512 M
447 43 L
S
GR
GS
[0.75 0 0 0.75 0 0] CT
0.873 GC
1 LJ
0.667 LW
N
514 512 M
514 43 L
S
GR
GS
[0.75 0 0 0.75 0 0] CT
0.873 GC
1 LJ
0.667 LW
N
581 512 M
581 43 L
S
GR
GS
[0.75 0 0 0.75 0 0] CT
0.873 GC
1 LJ
0.667 LW
N
648 512 M
648 43 L
S
GR
GS
[0.75 0 0 0.75 0 0] CT
0.873 GC
1 LJ
0.667 LW
N
715 512 M
715 43 L
S
GR
GS
[0.75 0 0 0.75 0 0] CT
0.873 GC
1 LJ
0.667 LW
N
782 512 M
782 43 L
S
GR
GS
[0.75 0 0 0.75 0 0] CT
0.851 GC
1 LJ
0.667 LW
N
782 512 M
112 512 L
S
GR
GS
[0.75 0 0 0.75 0 0] CT
0.851 GC
1 LJ
0.667 LW
N
782 465.1 M
112 465.1 L
S
GR
GS
[0.75 0 0 0.75 0 0] CT
0.851 GC
1 LJ
0.667 LW
N
782 418.2 M
112 418.2 L
S
GR
GS
[0.75 0 0 0.75 0 0] CT
0.851 GC
1 LJ
0.667 LW
N
782 371.3 M
112 371.3 L
S
GR
GS
[0.75 0 0 0.75 0 0] CT
0.851 GC
1 LJ
0.667 LW
N
782 324.4 M
112 324.4 L
S
GR
GS
[0.75 0 0 0.75 0 0] CT
0.851 GC
1 LJ
0.667 LW
N
782 277.5 M
112 277.5 L
S
GR
GS
[0.75 0 0 0.75 0 0] CT
0.851 GC
1 LJ
0.667 LW
N
782 230.6 M
112 230.6 L
S
GR
GS
[0.75 0 0 0.75 0 0] CT
0.851 GC
1 LJ
0.667 LW
N
782 183.7 M
112 183.7 L
S
GR
GS
[0.75 0 0 0.75 0 0] CT
0.851 GC
1 LJ
0.667 LW
N
782 136.8 M
112 136.8 L
S
GR
GS
[0.75 0 0 0.75 0 0] CT
0.851 GC
1 LJ
0.667 LW
N
782 89.9 M
112 89.9 L
S
GR
GS
[0.75 0 0 0.75 0 0] CT
0.851 GC
1 LJ
0.667 LW
N
782 43 M
112 43 L
S
GR
GS
[0.75 0 0 0.75 0 0] CT
0.149 GC
2 setlinecap
1 LJ
0.667 LW
N
112 512 M
782 512 L
S
GR
GS
[0.75 0 0 0.75 0 0] CT
0.149 GC
2 setlinecap
1 LJ
0.667 LW
N
112 43 M
782 43 L
S
GR
GS
[0.75 0 0 0.75 0 0] CT
0.149 GC
2 setlinecap
1 LJ
0.667 LW
N
112 512 M
112 505.3 L
S
GR
GS
[0.75 0 0 0.75 0 0] CT
0.149 GC
2 setlinecap
1 LJ
0.667 LW
N
179 512 M
179 505.3 L
S
GR
GS
[0.75 0 0 0.75 0 0] CT
0.149 GC
2 setlinecap
1 LJ
0.667 LW
N
246 512 M
246 505.3 L
S
GR
GS
[0.75 0 0 0.75 0 0] CT
0.149 GC
2 setlinecap
1 LJ
0.667 LW
N
313 512 M
313 505.3 L
S
GR
GS
[0.75 0 0 0.75 0 0] CT
0.149 GC
2 setlinecap
1 LJ
0.667 LW
N
380 512 M
380 505.3 L
S
GR
GS
[0.75 0 0 0.75 0 0] CT
0.149 GC
2 setlinecap
1 LJ
0.667 LW
N
447 512 M
447 505.3 L
S
GR
GS
[0.75 0 0 0.75 0 0] CT
0.149 GC
2 setlinecap
1 LJ
0.667 LW
N
514 512 M
514 505.3 L
S
GR
GS
[0.75 0 0 0.75 0 0] CT
0.149 GC
2 setlinecap
1 LJ
0.667 LW
N
581 512 M
581 505.3 L
S
GR
GS
[0.75 0 0 0.75 0 0] CT
0.149 GC
2 setlinecap
1 LJ
0.667 LW
N
648 512 M
648 505.3 L
S
GR
GS
[0.75 0 0 0.75 0 0] CT
0.149 GC
2 setlinecap
1 LJ
0.667 LW
N
715 512 M
715 505.3 L
S
GR
GS
[0.75 0 0 0.75 0 0] CT
0.149 GC
2 setlinecap
1 LJ
0.667 LW
N
782 512 M
782 505.3 L
S
GR
GS
[0.75 0 0 0.75 0 0] CT
0.149 GC
2 setlinecap
1 LJ
0.667 LW
N
112 43 M
112 49.7 L
S
GR
GS
[0.75 0 0 0.75 0 0] CT
0.149 GC
2 setlinecap
1 LJ
0.667 LW
N
179 43 M
179 49.7 L
S
GR
GS
[0.75 0 0 0.75 0 0] CT
0.149 GC
2 setlinecap
1 LJ
0.667 LW
N
246 43 M
246 49.7 L
S
GR
GS
[0.75 0 0 0.75 0 0] CT
0.149 GC
2 setlinecap
1 LJ
0.667 LW
N
313 43 M
313 49.7 L
S
GR
GS
[0.75 0 0 0.75 0 0] CT
0.149 GC
2 setlinecap
1 LJ
0.667 LW
N
380 43 M
380 49.7 L
S
GR
GS
[0.75 0 0 0.75 0 0] CT
0.149 GC
2 setlinecap
1 LJ
0.667 LW
N
447 43 M
447 49.7 L
S
GR
GS
[0.75 0 0 0.75 0 0] CT
0.149 GC
2 setlinecap
1 LJ
0.667 LW
N
514 43 M
514 49.7 L
S
GR
GS
[0.75 0 0 0.75 0 0] CT
0.149 GC
2 setlinecap
1 LJ
0.667 LW
N
581 43 M
581 49.7 L
S
GR
GS
[0.75 0 0 0.75 0 0] CT
0.149 GC
2 setlinecap
1 LJ
0.667 LW
N
648 43 M
648 49.7 L
S
GR
GS
[0.75 0 0 0.75 0 0] CT
0.149 GC
2 setlinecap
1 LJ
0.667 LW
N
715 43 M
715 49.7 L
S
GR
GS
[0.75 0 0 0.75 0 0] CT
0.149 GC
2 setlinecap
1 LJ
0.667 LW
N
782 43 M
782 49.7 L
S
GR
GS
[0.75 0 0 0.75 84 389.20001] CT
0.149 GC
/Times-Roman 21.333 F
GS
[1 0 0 1 0 0] CT
-5.5 20 moveto 
1 -1 scale
(0) t 
GR
GR
GS
[0.75 0 0 0.75 134.25 389.20001] CT
0.149 GC
/Times-Roman 21.333 F
GS
[1 0 0 1 0 0] CT
-13.5 20 moveto 
1 -1 scale
(0.1) t 
GR
GR
GS
[0.75 0 0 0.75 184.5 389.20001] CT
0.149 GC
/Times-Roman 21.333 F
GS
[1 0 0 1 0 0] CT
-13.5 20 moveto 
1 -1 scale
(0.2) t 
GR
GR
GS
[0.75 0 0 0.75 234.75 389.20001] CT
0.149 GC
/Times-Roman 21.333 F
GS
[1 0 0 1 0 0] CT
-13.5 20 moveto 
1 -1 scale
(0.3) t 
GR
GR
GS
[0.75 0 0 0.75 285 389.20001] CT
0.149 GC
/Times-Roman 21.333 F
GS
[1 0 0 1 0 0] CT
-13.5 20 moveto 
1 -1 scale
(0.4) t 
GR
GR
GS
[0.75 0 0 0.75 335.25 389.20001] CT
0.149 GC
/Times-Roman 21.333 F
GS
[1 0 0 1 0 0] CT
-13.5 20 moveto 
1 -1 scale
(0.5) t 
GR
GR
GS
[0.75 0 0 0.75 385.5 389.20001] CT
0.149 GC
/Times-Roman 21.333 F
GS
[1 0 0 1 0 0] CT
-13.5 20 moveto 
1 -1 scale
(0.6) t 
GR
GR
GS
[0.75 0 0 0.75 435.75 389.20001] CT
0.149 GC
/Times-Roman 21.333 F
GS
[1 0 0 1 0 0] CT
-13.5 20 moveto 
1 -1 scale
(0.7) t 
GR
GR
GS
[0.75 0 0 0.75 486 389.20001] CT
0.149 GC
/Times-Roman 21.333 F
GS
[1 0 0 1 0 0] CT
-13.5 20 moveto 
1 -1 scale
(0.8) t 
GR
GR
GS
[0.75 0 0 0.75 536.25 389.20001] CT
0.149 GC
/Times-Roman 21.333 F
GS
[1 0 0 1 0 0] CT
-13.5 20 moveto 
1 -1 scale
(0.9) t 
GR
GR
GS
[0.75 0 0 0.75 586.5 389.20001] CT
0.149 GC
/Times-Roman 21.333 F
GS
[1 0 0 1 0 0] CT
-5.5 20 moveto 
1 -1 scale
(1) t 
GR
GR
GS
[0.75 0 0 0.75 335.25023 408.95] CT
0.149 GC
N
-203.788 21.561 M
-208.897 5.874 L
-209.085 5.342 -209.647 5.21 QT
-210.21 5.077 -211.116 5.077 QT
-211.116 4.202 L
-204.413 4.202 L
-204.413 5.077 L
-206.522 5.077 -206.522 5.749 QT
-206.522 5.874 L
-202.522 18.186 L
-199.116 7.655 L
-199.694 5.874 L
-199.881 5.342 -200.444 5.21 QT
-201.006 5.077 -201.913 5.077 QT
-201.913 4.202 L
-195.225 4.202 L
-195.225 5.077 L
-197.35 5.077 -197.35 5.749 QT
-197.35 5.796 -197.327 5.866 QT
-197.303 5.936 -197.303 5.967 QT
-193.319 18.186 L
-189.569 6.561 L
-189.553 6.483 -189.553 6.327 QT
-189.553 5.671 -190.249 5.374 QT
-190.944 5.077 -191.694 5.077 QT
-191.694 4.202 L
-186.35 4.202 L
-186.35 5.077 L
-188.319 5.077 -188.788 6.561 QT
-193.678 21.561 L
-193.756 21.827 -194.038 21.827 QT
-194.225 21.827 L
-194.506 21.827 -194.585 21.561 QT
-198.71 8.827 L
-202.866 21.561 L
-202.944 21.827 -203.241 21.827 QT
-203.413 21.827 L
-203.71 21.827 -203.788 21.561 QT
cp
f
GR
GS
[0.75 0 0 0.75 335.25023 408.95] CT
0.149 GC
N
-184.766 21.28 M
-184.766 20.405 L
-183.907 20.405 -183.36 20.272 QT
-182.813 20.139 -182.813 19.608 QT
-182.813 12.78 L
-182.813 11.827 -183.18 11.6 QT
-183.547 11.374 -184.657 11.374 QT
-184.657 10.499 L
-181.047 10.233 L
-181.047 19.608 L
-181.047 20.139 -180.571 20.272 QT
-180.094 20.405 -179.313 20.405 QT
-179.313 21.28 L
-184.766 21.28 L
cp
-183.704 5.936 M
-183.704 5.389 -183.29 4.975 QT
-182.876 4.561 -182.329 4.561 QT
-181.985 4.561 -181.649 4.741 QT
-181.313 4.921 -181.133 5.249 QT
-180.954 5.577 -180.954 5.936 QT
-180.954 6.467 -181.368 6.881 QT
-181.782 7.296 -182.329 7.296 QT
-182.876 7.296 -183.29 6.881 QT
-183.704 6.467 -183.704 5.936 QT
cp
f
GR
GS
[0.75 0 0 0.75 335.25023 408.95] CT
0.149 GC
N
-177.745 21.28 M
-177.745 20.405 L
-176.901 20.405 -176.346 20.272 QT
-175.792 20.139 -175.792 19.608 QT
-175.792 12.78 L
-175.792 12.108 -175.995 11.811 QT
-176.198 11.514 -176.581 11.444 QT
-176.964 11.374 -177.745 11.374 QT
-177.745 10.499 L
-174.12 10.233 L
-174.12 12.671 L
-173.62 11.592 -172.635 10.913 QT
-171.651 10.233 -170.495 10.233 QT
-168.76 10.233 -167.893 11.061 QT
-167.026 11.889 -167.026 13.608 QT
-167.026 19.608 L
-167.026 20.139 -166.471 20.272 QT
-165.917 20.405 -165.073 20.405 QT
-165.073 21.28 L
-170.792 21.28 L
-170.792 20.405 L
-169.932 20.405 -169.385 20.272 QT
-168.839 20.139 -168.839 19.608 QT
-168.839 13.671 L
-168.839 12.452 -169.19 11.663 QT
-169.542 10.874 -170.651 10.874 QT
-172.104 10.874 -173.034 12.038 QT
-173.964 13.202 -173.964 14.671 QT
-173.964 19.608 L
-173.964 20.139 -173.417 20.272 QT
-172.87 20.405 -172.026 20.405 QT
-172.026 21.28 L
-177.745 21.28 L
cp
f
GR
GS
[0.75 0 0 0.75 335.25023 408.95] CT
0.149 GC
N
-158.311 21.561 M
-159.796 21.561 -161.014 20.764 QT
-162.233 19.967 -162.913 18.655 QT
-163.593 17.342 -163.593 15.889 QT
-163.593 14.374 -162.85 13.069 QT
-162.108 11.764 -160.843 10.999 QT
-159.577 10.233 -158.046 10.233 QT
-157.139 10.233 -156.319 10.616 QT
-155.499 10.999 -154.905 11.686 QT
-154.905 6.483 L
-154.905 5.811 -155.1 5.514 QT
-155.296 5.217 -155.671 5.147 QT
-156.046 5.077 -156.843 5.077 QT
-156.843 4.202 L
-153.139 3.936 L
-153.139 19.014 L
-153.139 19.671 -152.936 19.967 QT
-152.733 20.264 -152.366 20.335 QT
-151.999 20.405 -151.202 20.405 QT
-151.202 21.28 L
-154.968 21.561 L
-154.968 19.983 L
-155.624 20.733 -156.514 21.147 QT
-157.405 21.561 -158.311 21.561 QT
cp
-160.874 19.108 M
-160.436 19.921 -159.725 20.413 QT
-159.014 20.905 -158.171 20.905 QT
-157.139 20.905 -156.272 20.303 QT
-155.405 19.702 -154.968 18.749 QT
-154.968 12.764 L
-155.264 12.217 -155.71 11.78 QT
-156.155 11.342 -156.71 11.108 QT
-157.264 10.874 -157.889 10.874 QT
-159.202 10.874 -159.991 11.616 QT
-160.78 12.358 -161.1 13.506 QT
-161.421 14.655 -161.421 15.905 QT
-161.421 16.905 -161.319 17.655 QT
-161.218 18.405 -160.874 19.108 QT
cp
f
GR
GS
[0.75 0 0 0.75 335.25023 408.95] CT
0.149 GC
N
-141.074 21.28 M
-141.074 20.405 L
-138.496 20.405 -138.496 19.608 QT
-138.496 5.874 L
-138.496 5.077 -141.074 5.077 QT
-141.074 4.202 L
-132.168 4.202 L
-130.808 4.202 -129.441 4.764 QT
-128.074 5.327 -127.191 6.397 QT
-126.308 7.467 -126.308 8.905 QT
-126.308 10.296 -127.199 11.342 QT
-128.09 12.389 -129.441 12.936 QT
-130.793 13.483 -132.168 13.483 QT
-136.183 13.483 L
-136.183 19.608 L
-136.183 20.405 -133.605 20.405 QT
-133.605 21.28 L
-141.074 21.28 L
cp
-136.246 12.733 M
-132.855 12.733 L
-131.48 12.733 -130.621 12.335 QT
-129.761 11.936 -129.371 11.1 QT
-128.98 10.264 -128.98 8.905 QT
-128.98 6.858 -129.871 5.967 QT
-130.761 5.077 -132.855 5.077 QT
-134.98 5.077 L
-135.433 5.077 -135.683 5.116 QT
-135.933 5.155 -136.09 5.335 QT
-136.246 5.514 -136.246 5.874 QT
-136.246 12.733 L
cp
f
GR
GS
[0.75 0 0 0.75 335.25023 408.95] CT
0.149 GC
N
-119.115 21.561 M
-120.615 21.561 -121.896 20.796 QT
-123.178 20.03 -123.92 18.749 QT
-124.662 17.467 -124.662 15.952 QT
-124.662 14.811 -124.256 13.749 QT
-123.849 12.686 -123.084 11.85 QT
-122.318 11.014 -121.31 10.546 QT
-120.303 10.077 -119.115 10.077 QT
-117.584 10.077 -116.318 10.889 QT
-115.053 11.702 -114.318 13.061 QT
-113.584 14.421 -113.584 15.952 QT
-113.584 17.452 -114.326 18.741 QT
-115.068 20.03 -116.349 20.796 QT
-117.631 21.561 -119.115 21.561 QT
cp
-119.115 20.827 M
-117.115 20.827 -116.443 19.374 QT
-115.771 17.921 -115.771 15.671 QT
-115.771 14.421 -115.904 13.592 QT
-116.037 12.764 -116.49 12.092 QT
-116.771 11.686 -117.201 11.374 QT
-117.631 11.061 -118.115 10.897 QT
-118.599 10.733 -119.115 10.733 QT
-119.896 10.733 -120.599 11.085 QT
-121.303 11.436 -121.771 12.092 QT
-122.224 12.811 -122.357 13.655 QT
-122.49 14.499 -122.49 15.671 QT
-122.49 17.077 -122.24 18.194 QT
-121.99 19.311 -121.256 20.069 QT
-120.521 20.827 -119.115 20.827 QT
cp
f
GR
GS
[0.75 0 0 0.75 335.25023 408.95] CT
0.149 GC
N
-107.871 21.28 M
-111.105 12.186 L
-111.324 11.639 -111.738 11.506 QT
-112.152 11.374 -112.949 11.374 QT
-112.949 10.499 L
-107.793 10.499 L
-107.793 11.374 L
-109.277 11.374 -109.277 11.999 QT
-109.261 12.046 -109.254 12.077 QT
-109.246 12.108 -109.246 12.186 QT
-106.84 18.921 L
-104.777 13.046 L
-105.105 12.186 L
-105.293 11.639 -105.722 11.506 QT
-106.152 11.374 -106.933 11.374 QT
-106.933 10.499 L
-101.996 10.499 L
-101.996 11.374 L
-103.48 11.374 -103.48 11.999 QT
-103.48 12.092 -103.449 12.186 QT
-100.949 19.233 L
-98.683 12.858 L
-98.636 12.655 -98.636 12.499 QT
-98.636 11.983 -99.082 11.678 QT
-99.527 11.374 -100.074 11.374 QT
-100.074 10.499 L
-95.824 10.499 L
-95.824 11.374 L
-96.574 11.374 -97.121 11.772 QT
-97.668 12.171 -97.918 12.858 QT
-100.902 21.28 L
-100.98 21.561 -101.277 21.561 QT
-101.48 21.561 L
-101.761 21.561 -101.855 21.28 QT
-104.386 14.155 L
-106.902 21.28 L
-107.027 21.561 -107.293 21.561 QT
-107.48 21.561 L
-107.793 21.561 -107.871 21.28 QT
cp
f
GR
GS
[0.75 0 0 0.75 335.25023 408.95] CT
0.149 GC
N
-89.591 21.561 M
-91.106 21.561 -92.38 20.764 QT
-93.653 19.967 -94.38 18.631 QT
-95.106 17.296 -95.106 15.796 QT
-95.106 14.327 -94.442 13.014 QT
-93.778 11.702 -92.591 10.889 QT
-91.403 10.077 -89.934 10.077 QT
-88.794 10.077 -87.942 10.46 QT
-87.091 10.842 -86.544 11.53 QT
-85.997 12.217 -85.716 13.139 QT
-85.434 14.061 -85.434 15.171 QT
-85.434 15.499 -85.684 15.499 QT
-92.934 15.499 L
-92.934 15.78 L
-92.934 17.842 -92.099 19.335 QT
-91.263 20.827 -89.356 20.827 QT
-88.591 20.827 -87.942 20.483 QT
-87.294 20.139 -86.809 19.53 QT
-86.325 18.921 -86.153 18.233 QT
-86.122 18.139 -86.059 18.077 QT
-85.997 18.014 -85.903 18.014 QT
-85.684 18.014 L
-85.434 18.014 -85.434 18.327 QT
-85.794 19.749 -86.966 20.655 QT
-88.138 21.561 -89.591 21.561 QT
cp
-92.903 14.889 M
-87.2 14.889 L
-87.2 13.936 -87.466 12.975 QT
-87.731 12.014 -88.341 11.374 QT
-88.95 10.733 -89.934 10.733 QT
-91.356 10.733 -92.13 12.061 QT
-92.903 13.389 -92.903 14.889 QT
cp
f
GR
GS
[0.75 0 0 0.75 335.25023 408.95] CT
0.149 GC
N
-83.91 21.28 M
-83.91 20.405 L
-83.05 20.405 -82.503 20.272 QT
-81.956 20.139 -81.956 19.608 QT
-81.956 12.78 L
-81.956 12.108 -82.152 11.811 QT
-82.347 11.514 -82.73 11.444 QT
-83.113 11.374 -83.91 11.374 QT
-83.91 10.499 L
-80.331 10.233 L
-80.331 12.671 L
-79.925 11.592 -79.183 10.913 QT
-78.441 10.233 -77.378 10.233 QT
-76.628 10.233 -76.042 10.671 QT
-75.456 11.108 -75.456 11.827 QT
-75.456 12.28 -75.777 12.616 QT
-76.097 12.952 -76.581 12.952 QT
-77.05 12.952 -77.378 12.624 QT
-77.706 12.296 -77.706 11.827 QT
-77.706 11.155 -77.222 10.874 QT
-77.378 10.874 L
-78.378 10.874 -79.019 11.608 QT
-79.66 12.342 -79.933 13.428 QT
-80.206 14.514 -80.206 15.499 QT
-80.206 19.608 L
-80.206 20.405 -77.769 20.405 QT
-77.769 21.28 L
-83.91 21.28 L
cp
f
GR
GS
[0.75 0 0 0.75 335.25023 408.95] CT
0.149 GC
N
-65.355 21.28 M
-65.355 20.405 L
-62.777 20.405 -62.777 19.608 QT
-62.777 5.874 L
-62.777 5.077 -65.355 5.077 QT
-65.355 4.202 L
-56.449 4.202 L
-55.09 4.202 -53.723 4.764 QT
-52.355 5.327 -51.473 6.397 QT
-50.59 7.467 -50.59 8.905 QT
-50.59 10.296 -51.48 11.342 QT
-52.371 12.389 -53.723 12.936 QT
-55.074 13.483 -56.449 13.483 QT
-60.465 13.483 L
-60.465 19.608 L
-60.465 20.405 -57.887 20.405 QT
-57.887 21.28 L
-65.355 21.28 L
cp
-60.527 12.733 M
-57.137 12.733 L
-55.762 12.733 -54.902 12.335 QT
-54.043 11.936 -53.652 11.1 QT
-53.262 10.264 -53.262 8.905 QT
-53.262 6.858 -54.152 5.967 QT
-55.043 5.077 -57.137 5.077 QT
-59.262 5.077 L
-59.715 5.077 -59.965 5.116 QT
-60.215 5.155 -60.371 5.335 QT
-60.527 5.514 -60.527 5.874 QT
-60.527 12.733 L
cp
f
GR
GS
[0.75 0 0 0.75 335.25023 408.95] CT
0.149 GC
N
-48.302 21.28 M
-48.302 20.405 L
-47.443 20.405 -46.896 20.272 QT
-46.349 20.139 -46.349 19.608 QT
-46.349 12.78 L
-46.349 12.108 -46.544 11.811 QT
-46.74 11.514 -47.122 11.444 QT
-47.505 11.374 -48.302 11.374 QT
-48.302 10.499 L
-44.724 10.233 L
-44.724 12.671 L
-44.318 11.592 -43.576 10.913 QT
-42.833 10.233 -41.771 10.233 QT
-41.021 10.233 -40.435 10.671 QT
-39.849 11.108 -39.849 11.827 QT
-39.849 12.28 -40.169 12.616 QT
-40.49 12.952 -40.974 12.952 QT
-41.443 12.952 -41.771 12.624 QT
-42.099 12.296 -42.099 11.827 QT
-42.099 11.155 -41.615 10.874 QT
-41.771 10.874 L
-42.771 10.874 -43.412 11.608 QT
-44.052 12.342 -44.326 13.428 QT
-44.599 14.514 -44.599 15.499 QT
-44.599 19.608 L
-44.599 20.405 -42.162 20.405 QT
-42.162 21.28 L
-48.302 21.28 L
cp
f
GR
GS
[0.75 0 0 0.75 335.25023 408.95] CT
0.149 GC
N
-32.771 21.561 M
-34.271 21.561 -35.552 20.796 QT
-36.833 20.03 -37.575 18.749 QT
-38.317 17.467 -38.317 15.952 QT
-38.317 14.811 -37.911 13.749 QT
-37.505 12.686 -36.739 11.85 QT
-35.974 11.014 -34.966 10.546 QT
-33.958 10.077 -32.771 10.077 QT
-31.239 10.077 -29.974 10.889 QT
-28.708 11.702 -27.974 13.061 QT
-27.239 14.421 -27.239 15.952 QT
-27.239 17.452 -27.981 18.741 QT
-28.724 20.03 -30.005 20.796 QT
-31.286 21.561 -32.771 21.561 QT
cp
-32.771 20.827 M
-30.771 20.827 -30.099 19.374 QT
-29.427 17.921 -29.427 15.671 QT
-29.427 14.421 -29.56 13.592 QT
-29.692 12.764 -30.146 12.092 QT
-30.427 11.686 -30.856 11.374 QT
-31.286 11.061 -31.771 10.897 QT
-32.255 10.733 -32.771 10.733 QT
-33.552 10.733 -34.255 11.085 QT
-34.958 11.436 -35.427 12.092 QT
-35.88 12.811 -36.013 13.655 QT
-36.146 14.499 -36.146 15.671 QT
-36.146 17.077 -35.896 18.194 QT
-35.646 19.311 -34.911 20.069 QT
-34.177 20.827 -32.771 20.827 QT
cp
f
GR
GS
[0.75 0 0 0.75 335.25023 408.95] CT
0.149 GC
N
-19.541 21.561 M
-21.025 21.561 -22.244 20.764 QT
-23.463 19.967 -24.142 18.655 QT
-24.822 17.342 -24.822 15.889 QT
-24.822 14.374 -24.08 13.069 QT
-23.338 11.764 -22.072 10.999 QT
-20.806 10.233 -19.275 10.233 QT
-18.369 10.233 -17.549 10.616 QT
-16.728 10.999 -16.134 11.686 QT
-16.134 6.483 L
-16.134 5.811 -16.33 5.514 QT
-16.525 5.217 -16.9 5.147 QT
-17.275 5.077 -18.072 5.077 QT
-18.072 4.202 L
-14.369 3.936 L
-14.369 19.014 L
-14.369 19.671 -14.166 19.967 QT
-13.963 20.264 -13.595 20.335 QT
-13.228 20.405 -12.431 20.405 QT
-12.431 21.28 L
-16.197 21.561 L
-16.197 19.983 L
-16.853 20.733 -17.744 21.147 QT
-18.634 21.561 -19.541 21.561 QT
cp
-22.103 19.108 M
-21.666 19.921 -20.955 20.413 QT
-20.244 20.905 -19.4 20.905 QT
-18.369 20.905 -17.502 20.303 QT
-16.634 19.702 -16.197 18.749 QT
-16.197 12.764 L
-16.494 12.217 -16.939 11.78 QT
-17.384 11.342 -17.939 11.108 QT
-18.494 10.874 -19.119 10.874 QT
-20.431 10.874 -21.22 11.616 QT
-22.009 12.358 -22.33 13.506 QT
-22.65 14.655 -22.65 15.905 QT
-22.65 16.905 -22.549 17.655 QT
-22.447 18.405 -22.103 19.108 QT
cp
f
GR
GS
[0.75 0 0 0.75 335.25023 408.95] CT
0.149 GC
N
-8.873 18.296 M
-8.873 12.78 L
-8.873 12.108 -9.076 11.811 QT
-9.279 11.514 -9.662 11.444 QT
-10.045 11.374 -10.826 11.374 QT
-10.826 10.499 L
-7.045 10.233 L
-7.045 18.296 L
-7.045 19.28 -6.904 19.819 QT
-6.763 20.358 -6.31 20.631 QT
-5.857 20.905 -4.857 20.905 QT
-3.513 20.905 -2.717 19.78 QT
-1.92 18.655 -1.92 17.233 QT
-1.92 12.78 L
-1.92 12.108 -2.131 11.811 QT
-2.342 11.514 -2.709 11.444 QT
-3.076 11.374 -3.873 11.374 QT
-3.873 10.499 L
-0.107 10.233 L
-0.107 19.014 L
-0.107 19.671 0.096 19.967 QT
0.299 20.264 0.682 20.335 QT
1.065 20.405 1.846 20.405 QT
1.846 21.28 L
-1.842 21.561 L
-1.842 19.452 L
-2.31 20.389 -3.138 20.975 QT
-3.967 21.561 -4.967 21.561 QT
-6.763 21.561 -7.818 20.796 QT
-8.873 20.03 -8.873 18.296 QT
cp
f
GR
GS
[0.75 0 0 0.75 335.25023 408.95] CT
0.149 GC
N
8.717 21.561 M
7.217 21.561 5.982 20.772 QT
4.748 19.983 4.037 18.671 QT
3.326 17.358 3.326 15.889 QT
3.326 14.405 4.029 13.053 QT
4.732 11.702 5.975 10.889 QT
7.217 10.077 8.717 10.077 QT
10.186 10.077 11.389 10.647 QT
12.592 11.217 12.592 12.53 QT
12.592 13.014 12.248 13.374 QT
11.904 13.733 11.404 13.733 QT
10.904 13.733 10.553 13.374 QT
10.201 13.014 10.201 12.53 QT
10.201 12.092 10.482 11.764 QT
10.764 11.436 11.17 11.358 QT
10.311 10.811 8.748 10.811 QT
7.545 10.811 6.818 11.6 QT
6.092 12.389 5.795 13.561 QT
5.498 14.733 5.498 15.889 QT
5.498 17.092 5.857 18.225 QT
6.217 19.358 7.022 20.092 QT
7.826 20.827 9.029 20.827 QT
10.217 20.827 11.045 20.1 QT
11.873 19.374 12.186 18.202 QT
12.186 18.061 12.373 18.061 QT
12.686 18.061 L
12.748 18.061 12.811 18.124 QT
12.873 18.186 12.873 18.28 QT
12.873 18.342 L
12.498 19.827 11.373 20.694 QT
10.248 21.561 8.717 21.561 QT
cp
f
GR
GS
[0.75 0 0 0.75 335.25023 408.95] CT
0.149 GC
N
16.304 18.28 M
16.304 11.374 L
14.226 11.374 L
14.226 10.733 L
15.867 10.733 16.64 9.21 QT
17.414 7.686 17.414 5.905 QT
18.132 5.905 L
18.132 10.499 L
21.648 10.499 L
21.648 11.374 L
18.132 11.374 L
18.132 18.233 L
18.132 19.264 18.476 20.046 QT
18.82 20.827 19.726 20.827 QT
20.585 20.827 20.96 20.006 QT
21.335 19.186 21.335 18.233 QT
21.335 16.749 L
22.054 16.749 L
22.054 18.28 L
22.054 19.061 21.773 19.819 QT
21.492 20.577 20.929 21.069 QT
20.367 21.561 19.554 21.561 QT
18.054 21.561 17.179 20.663 QT
16.304 19.764 16.304 18.28 QT
cp
f
GR
GS
[0.75 0 0 0.75 335.25023 408.95] CT
0.149 GC
N
24.375 21.28 M
24.375 20.405 L
25.234 20.405 25.781 20.272 QT
26.328 20.139 26.328 19.608 QT
26.328 12.78 L
26.328 11.827 25.961 11.6 QT
25.594 11.374 24.484 11.374 QT
24.484 10.499 L
28.094 10.233 L
28.094 19.608 L
28.094 20.139 28.57 20.272 QT
29.047 20.405 29.828 20.405 QT
29.828 21.28 L
24.375 21.28 L
cp
25.437 5.936 M
25.437 5.389 25.851 4.975 QT
26.266 4.561 26.812 4.561 QT
27.156 4.561 27.492 4.741 QT
27.828 4.921 28.008 5.249 QT
28.187 5.577 28.187 5.936 QT
28.187 6.467 27.773 6.881 QT
27.359 7.296 26.812 7.296 QT
26.266 7.296 25.851 6.881 QT
25.437 6.467 25.437 5.936 QT
cp
f
GR
GS
[0.75 0 0 0.75 335.25023 408.95] CT
0.149 GC
N
36.896 21.561 M
35.396 21.561 34.115 20.796 QT
32.834 20.03 32.092 18.749 QT
31.349 17.467 31.349 15.952 QT
31.349 14.811 31.756 13.749 QT
32.162 12.686 32.928 11.85 QT
33.693 11.014 34.701 10.546 QT
35.709 10.077 36.896 10.077 QT
38.428 10.077 39.693 10.889 QT
40.959 11.702 41.693 13.061 QT
42.428 14.421 42.428 15.952 QT
42.428 17.452 41.685 18.741 QT
40.943 20.03 39.662 20.796 QT
38.381 21.561 36.896 21.561 QT
cp
36.896 20.827 M
38.896 20.827 39.568 19.374 QT
40.24 17.921 40.24 15.671 QT
40.24 14.421 40.107 13.592 QT
39.974 12.764 39.521 12.092 QT
39.24 11.686 38.81 11.374 QT
38.381 11.061 37.896 10.897 QT
37.412 10.733 36.896 10.733 QT
36.115 10.733 35.412 11.085 QT
34.709 11.436 34.24 12.092 QT
33.787 12.811 33.654 13.655 QT
33.521 14.499 33.521 15.671 QT
33.521 17.077 33.771 18.194 QT
34.021 19.311 34.756 20.069 QT
35.49 20.827 36.896 20.827 QT
cp
f
GR
GS
[0.75 0 0 0.75 335.25023 408.95] CT
0.149 GC
N
44.063 21.28 M
44.063 20.405 L
44.907 20.405 45.461 20.272 QT
46.016 20.139 46.016 19.608 QT
46.016 12.78 L
46.016 12.108 45.813 11.811 QT
45.61 11.514 45.227 11.444 QT
44.844 11.374 44.063 11.374 QT
44.063 10.499 L
47.688 10.233 L
47.688 12.671 L
48.188 11.592 49.172 10.913 QT
50.157 10.233 51.313 10.233 QT
53.047 10.233 53.915 11.061 QT
54.782 11.889 54.782 13.608 QT
54.782 19.608 L
54.782 20.139 55.336 20.272 QT
55.891 20.405 56.735 20.405 QT
56.735 21.28 L
51.016 21.28 L
51.016 20.405 L
51.876 20.405 52.422 20.272 QT
52.969 20.139 52.969 19.608 QT
52.969 13.671 L
52.969 12.452 52.618 11.663 QT
52.266 10.874 51.157 10.874 QT
49.704 10.874 48.774 12.038 QT
47.844 13.202 47.844 14.671 QT
47.844 19.608 L
47.844 20.139 48.391 20.272 QT
48.938 20.405 49.782 20.405 QT
49.782 21.28 L
44.063 21.28 L
cp
f
GR
GS
[0.75 0 0 0.75 335.25023 408.95] CT
0.149 GC
N
73.582 27.483 M
72.191 26.389 71.183 24.967 QT
70.175 23.546 69.535 21.928 QT
68.894 20.311 68.574 18.553 QT
68.253 16.796 68.253 15.03 QT
68.253 13.233 68.574 11.475 QT
68.894 9.717 69.55 8.092 QT
70.207 6.467 71.214 5.053 QT
72.222 3.639 73.582 2.577 QT
73.582 2.53 73.707 2.53 QT
73.941 2.53 L
74.003 2.53 74.066 2.6 QT
74.128 2.671 74.128 2.749 QT
74.128 2.858 74.082 2.905 QT
72.863 4.108 72.05 5.475 QT
71.238 6.842 70.746 8.381 QT
70.253 9.921 70.035 11.577 QT
69.816 13.233 69.816 15.03 QT
69.816 22.983 74.066 27.108 QT
74.128 27.171 74.128 27.311 QT
74.128 27.374 74.066 27.452 QT
74.003 27.53 73.941 27.53 QT
73.707 27.53 L
73.582 27.53 73.582 27.483 QT
cp
f
GR
GS
[0.75 0 0 0.75 335.25023 408.95] CT
0.149 GC
N
76.449 21.28 M
76.449 20.405 L
79.027 20.405 79.027 18.921 QT
79.027 5.233 L
78.215 5.077 76.449 5.077 QT
76.449 4.202 L
81.23 4.202 L
81.355 4.202 81.402 4.296 QT
90.262 17.327 L
90.262 6.561 L
90.262 5.077 87.683 5.077 QT
87.683 4.202 L
93.621 4.202 L
93.621 5.077 L
91.058 5.077 91.058 6.561 QT
91.058 21.061 L
91.058 21.139 90.965 21.21 QT
90.871 21.28 90.808 21.28 QT
90.496 21.28 L
90.387 21.28 90.34 21.186 QT
79.84 5.733 L
79.84 18.921 L
79.84 20.405 82.402 20.405 QT
82.402 21.28 L
76.449 21.28 L
cp
f
GR
GS
[0.75 0 0 0.75 335.25023 408.95] CT
0.149 GC
N
100.933 21.561 M
99.433 21.561 98.152 20.796 QT
96.871 20.03 96.129 18.749 QT
95.387 17.467 95.387 15.952 QT
95.387 14.811 95.793 13.749 QT
96.199 12.686 96.965 11.85 QT
97.73 11.014 98.738 10.546 QT
99.746 10.077 100.933 10.077 QT
102.465 10.077 103.73 10.889 QT
104.996 11.702 105.73 13.061 QT
106.465 14.421 106.465 15.952 QT
106.465 17.452 105.723 18.741 QT
104.98 20.03 103.699 20.796 QT
102.418 21.561 100.933 21.561 QT
cp
100.933 20.827 M
102.933 20.827 103.605 19.374 QT
104.277 17.921 104.277 15.671 QT
104.277 14.421 104.144 13.592 QT
104.012 12.764 103.558 12.092 QT
103.277 11.686 102.848 11.374 QT
102.418 11.061 101.933 10.897 QT
101.449 10.733 100.933 10.733 QT
100.152 10.733 99.449 11.085 QT
98.746 11.436 98.277 12.092 QT
97.824 12.811 97.691 13.655 QT
97.558 14.499 97.558 15.671 QT
97.558 17.077 97.808 18.194 QT
98.058 19.311 98.793 20.069 QT
99.527 20.827 100.933 20.827 QT
cp
f
GR
GS
[0.75 0 0 0.75 335.25023 408.95] CT
0.149 GC
N
107.991 21.28 M
107.991 20.405 L
108.85 20.405 109.397 20.272 QT
109.944 20.139 109.944 19.608 QT
109.944 12.78 L
109.944 12.108 109.749 11.811 QT
109.553 11.514 109.171 11.444 QT
108.788 11.374 107.991 11.374 QT
107.991 10.499 L
111.569 10.233 L
111.569 12.671 L
111.975 11.592 112.717 10.913 QT
113.46 10.233 114.522 10.233 QT
115.272 10.233 115.858 10.671 QT
116.444 11.108 116.444 11.827 QT
116.444 12.28 116.124 12.616 QT
115.803 12.952 115.319 12.952 QT
114.85 12.952 114.522 12.624 QT
114.194 12.296 114.194 11.827 QT
114.194 11.155 114.678 10.874 QT
114.522 10.874 L
113.522 10.874 112.881 11.608 QT
112.241 12.342 111.967 13.428 QT
111.694 14.514 111.694 15.499 QT
111.694 19.608 L
111.694 20.405 114.131 20.405 QT
114.131 21.28 L
107.991 21.28 L
cp
f
GR
GS
[0.75 0 0 0.75 335.25023 408.95] CT
0.149 GC
N
118.022 21.28 M
118.022 20.405 L
118.866 20.405 119.421 20.272 QT
119.976 20.139 119.976 19.608 QT
119.976 12.78 L
119.976 12.108 119.772 11.811 QT
119.569 11.514 119.186 11.444 QT
118.804 11.374 118.022 11.374 QT
118.022 10.499 L
121.647 10.233 L
121.647 12.671 L
122.147 11.592 123.132 10.913 QT
124.116 10.233 125.272 10.233 QT
128.147 10.233 128.647 12.577 QT
129.147 11.53 130.116 10.881 QT
131.085 10.233 132.226 10.233 QT
133.366 10.233 134.14 10.6 QT
134.913 10.967 135.304 11.717 QT
135.694 12.467 135.694 13.608 QT
135.694 19.608 L
135.694 20.139 136.249 20.272 QT
136.804 20.405 137.647 20.405 QT
137.647 21.28 L
131.929 21.28 L
131.929 20.405 L
132.772 20.405 133.327 20.272 QT
133.882 20.139 133.882 19.608 QT
133.882 13.671 L
133.882 12.421 133.522 11.647 QT
133.163 10.874 132.069 10.874 QT
130.632 10.874 129.686 12.038 QT
128.741 13.202 128.741 14.671 QT
128.741 19.608 L
128.741 20.139 129.296 20.272 QT
129.851 20.405 130.694 20.405 QT
130.694 21.28 L
124.976 21.28 L
124.976 20.405 L
125.835 20.405 126.382 20.272 QT
126.929 20.139 126.929 19.608 QT
126.929 13.671 L
126.929 12.452 126.577 11.663 QT
126.226 10.874 125.116 10.874 QT
123.663 10.874 122.733 12.038 QT
121.804 13.202 121.804 14.671 QT
121.804 19.608 L
121.804 20.139 122.351 20.272 QT
122.897 20.405 123.741 20.405 QT
123.741 21.28 L
118.022 21.28 L
cp
f
GR
GS
[0.75 0 0 0.75 335.25023 408.95] CT
0.149 GC
N
139.384 18.827 M
139.384 17.342 140.555 16.405 QT
141.727 15.467 143.368 15.085 QT
145.009 14.702 146.493 14.702 QT
146.493 13.671 L
146.493 12.952 146.173 12.272 QT
145.852 11.592 145.259 11.163 QT
144.665 10.733 143.93 10.733 QT
142.274 10.733 141.415 11.483 QT
141.884 11.483 142.196 11.842 QT
142.509 12.202 142.509 12.671 QT
142.509 13.171 142.157 13.53 QT
141.805 13.889 141.321 13.889 QT
140.805 13.889 140.454 13.53 QT
140.102 13.171 140.102 12.671 QT
140.102 11.358 141.298 10.717 QT
142.493 10.077 143.93 10.077 QT
144.946 10.077 145.977 10.506 QT
147.009 10.936 147.657 11.741 QT
148.305 12.546 148.305 13.624 QT
148.305 19.249 L
148.305 19.749 148.516 20.155 QT
148.727 20.561 149.165 20.561 QT
149.571 20.561 149.774 20.147 QT
149.977 19.733 149.977 19.249 QT
149.977 17.655 L
150.712 17.655 L
150.712 19.249 L
150.712 19.811 150.423 20.319 QT
150.134 20.827 149.634 21.124 QT
149.134 21.421 148.571 21.421 QT
147.837 21.421 147.305 20.858 QT
146.774 20.296 146.712 19.514 QT
146.243 20.452 145.345 21.006 QT
144.446 21.561 143.415 21.561 QT
142.462 21.561 141.54 21.28 QT
140.618 20.999 140.001 20.397 QT
139.384 19.796 139.384 18.827 QT
cp
141.415 18.827 M
141.415 19.702 142.063 20.303 QT
142.712 20.905 143.587 20.905 QT
144.384 20.905 145.048 20.499 QT
145.712 20.092 146.102 19.397 QT
146.493 18.702 146.493 17.936 QT
146.493 15.342 L
145.352 15.342 144.165 15.71 QT
142.977 16.077 142.196 16.874 QT
141.415 17.671 141.415 18.827 QT
cp
f
GR
GS
[0.75 0 0 0.75 335.25023 408.95] CT
0.149 GC
N
151.816 21.28 M
151.816 20.405 L
152.675 20.405 153.222 20.272 QT
153.769 20.139 153.769 19.608 QT
153.769 6.483 L
153.769 5.811 153.566 5.514 QT
153.363 5.217 152.988 5.147 QT
152.613 5.077 151.816 5.077 QT
151.816 4.202 L
155.535 3.936 L
155.535 19.608 L
155.535 20.139 156.082 20.272 QT
156.628 20.405 157.472 20.405 QT
157.472 21.28 L
151.816 21.28 L
cp
f
GR
GS
[0.75 0 0 0.75 335.25023 408.95] CT
0.149 GC
N
158.853 21.28 M
158.853 20.405 L
159.712 20.405 160.259 20.272 QT
160.806 20.139 160.806 19.608 QT
160.806 12.78 L
160.806 11.827 160.439 11.6 QT
160.072 11.374 158.962 11.374 QT
158.962 10.499 L
162.572 10.233 L
162.572 19.608 L
162.572 20.139 163.048 20.272 QT
163.525 20.405 164.306 20.405 QT
164.306 21.28 L
158.853 21.28 L
cp
159.915 5.936 M
159.915 5.389 160.33 4.975 QT
160.744 4.561 161.29 4.561 QT
161.634 4.561 161.97 4.741 QT
162.306 4.921 162.486 5.249 QT
162.665 5.577 162.665 5.936 QT
162.665 6.467 162.251 6.881 QT
161.837 7.296 161.29 7.296 QT
160.744 7.296 160.33 6.881 QT
159.915 6.467 159.915 5.936 QT
cp
f
GR
GS
[0.75 0 0 0.75 335.25023 408.95] CT
0.149 GC
N
166.109 21.28 M
165.828 21.28 165.828 20.999 QT
165.828 20.811 L
165.828 20.702 165.89 20.639 QT
172.874 11.155 L
170.624 11.155 L
169.562 11.155 168.874 11.296 QT
168.187 11.436 167.742 11.803 QT
167.296 12.171 167.093 12.827 QT
166.89 13.483 166.89 14.624 QT
166.171 14.624 L
166.453 10.499 L
174.828 10.499 L
174.937 10.499 175.015 10.577 QT
175.093 10.655 175.093 10.78 QT
175.093 10.921 L
175.093 10.999 175.046 11.092 QT
168.062 20.561 L
170.453 20.561 L
171.531 20.561 172.257 20.428 QT
172.984 20.296 173.499 19.78 QT
173.968 19.296 174.148 18.491 QT
174.328 17.686 174.421 16.514 QT
175.14 16.514 L
174.718 21.28 L
166.109 21.28 L
cp
f
GR
GS
[0.75 0 0 0.75 335.25023 408.95] CT
0.149 GC
N
182.602 21.561 M
181.087 21.561 179.813 20.764 QT
178.54 19.967 177.813 18.631 QT
177.087 17.296 177.087 15.796 QT
177.087 14.327 177.751 13.014 QT
178.415 11.702 179.602 10.889 QT
180.79 10.077 182.259 10.077 QT
183.399 10.077 184.251 10.46 QT
185.102 10.842 185.649 11.53 QT
186.196 12.217 186.477 13.139 QT
186.759 14.061 186.759 15.171 QT
186.759 15.499 186.509 15.499 QT
179.259 15.499 L
179.259 15.78 L
179.259 17.842 180.095 19.335 QT
180.931 20.827 182.837 20.827 QT
183.602 20.827 184.251 20.483 QT
184.899 20.139 185.384 19.53 QT
185.868 18.921 186.04 18.233 QT
186.071 18.139 186.134 18.077 QT
186.196 18.014 186.29 18.014 QT
186.509 18.014 L
186.759 18.014 186.759 18.327 QT
186.399 19.749 185.227 20.655 QT
184.056 21.561 182.602 21.561 QT
cp
179.29 14.889 M
184.993 14.889 L
184.993 13.936 184.727 12.975 QT
184.462 12.014 183.852 11.374 QT
183.243 10.733 182.259 10.733 QT
180.837 10.733 180.063 12.061 QT
179.29 13.389 179.29 14.889 QT
cp
f
GR
GS
[0.75 0 0 0.75 335.25023 408.95] CT
0.149 GC
N
193.752 21.561 M
192.268 21.561 191.049 20.764 QT
189.83 19.967 189.151 18.655 QT
188.471 17.342 188.471 15.889 QT
188.471 14.374 189.213 13.069 QT
189.955 11.764 191.221 10.999 QT
192.487 10.233 194.018 10.233 QT
194.924 10.233 195.744 10.616 QT
196.565 10.999 197.159 11.686 QT
197.159 6.483 L
197.159 5.811 196.963 5.514 QT
196.768 5.217 196.393 5.147 QT
196.018 5.077 195.221 5.077 QT
195.221 4.202 L
198.924 3.936 L
198.924 19.014 L
198.924 19.671 199.127 19.967 QT
199.33 20.264 199.698 20.335 QT
200.065 20.405 200.862 20.405 QT
200.862 21.28 L
197.096 21.561 L
197.096 19.983 L
196.44 20.733 195.549 21.147 QT
194.659 21.561 193.752 21.561 QT
cp
191.19 19.108 M
191.627 19.921 192.338 20.413 QT
193.049 20.905 193.893 20.905 QT
194.924 20.905 195.791 20.303 QT
196.659 19.702 197.096 18.749 QT
197.096 12.764 L
196.799 12.217 196.354 11.78 QT
195.909 11.342 195.354 11.108 QT
194.799 10.874 194.174 10.874 QT
192.862 10.874 192.073 11.616 QT
191.284 12.358 190.963 13.506 QT
190.643 14.655 190.643 15.905 QT
190.643 16.905 190.744 17.655 QT
190.846 18.405 191.19 19.108 QT
cp
f
GR
GS
[0.75 0 0 0.75 335.25023 408.95] CT
0.149 GC
N
203.342 27.53 M
203.123 27.53 203.123 27.311 QT
203.123 27.202 203.17 27.155 QT
207.436 22.983 207.436 15.03 QT
207.436 7.077 203.217 2.952 QT
203.123 2.889 203.123 2.749 QT
203.123 2.671 203.186 2.6 QT
203.248 2.53 203.342 2.53 QT
203.576 2.53 L
203.639 2.53 203.701 2.577 QT
205.483 3.999 206.686 6.022 QT
207.889 8.046 208.444 10.342 QT
208.998 12.639 208.998 15.03 QT
208.998 16.796 208.694 18.514 QT
208.389 20.233 207.74 21.897 QT
207.092 23.561 206.092 24.975 QT
205.092 26.389 203.701 27.483 QT
203.639 27.53 203.576 27.53 QT
203.342 27.53 L
cp
f
GR
GS
[0.75 0 0 0.75 0 0] CT
2 setlinecap
1 LJ
0.667 LW
N
112 512 M
112 43 L
S
GR
GS
[0.75 0 0 0.75 0 0] CT
2 setlinecap
1 LJ
0.667 LW
N
782 512 M
782 43 L
S
GR
GS
[0.75 0 0 0.75 0 0] CT
2 setlinecap
1 LJ
0.667 LW
N
112 512 M
118.7 512 L
S
GR
GS
[0.75 0 0 0.75 0 0] CT
2 setlinecap
1 LJ
0.667 LW
N
112 465.1 M
118.7 465.1 L
S
GR
GS
[0.75 0 0 0.75 0 0] CT
2 setlinecap
1 LJ
0.667 LW
N
112 418.2 M
118.7 418.2 L
S
GR
GS
[0.75 0 0 0.75 0 0] CT
2 setlinecap
1 LJ
0.667 LW
N
112 371.3 M
118.7 371.3 L
S
GR
GS
[0.75 0 0 0.75 0 0] CT
2 setlinecap
1 LJ
0.667 LW
N
112 324.4 M
118.7 324.4 L
S
GR
GS
[0.75 0 0 0.75 0 0] CT
2 setlinecap
1 LJ
0.667 LW
N
112 277.5 M
118.7 277.5 L
S
GR
GS
[0.75 0 0 0.75 0 0] CT
2 setlinecap
1 LJ
0.667 LW
N
112 230.6 M
118.7 230.6 L
S
GR
GS
[0.75 0 0 0.75 0 0] CT
2 setlinecap
1 LJ
0.667 LW
N
112 183.7 M
118.7 183.7 L
S
GR
GS
[0.75 0 0 0.75 0 0] CT
2 setlinecap
1 LJ
0.667 LW
N
112 136.8 M
118.7 136.8 L
S
GR
GS
[0.75 0 0 0.75 0 0] CT
2 setlinecap
1 LJ
0.667 LW
N
112 89.9 M
118.7 89.9 L
S
GR
GS
[0.75 0 0 0.75 0 0] CT
2 setlinecap
1 LJ
0.667 LW
N
112 43 M
118.7 43 L
S
GR
GS
[0.75 0 0 0.75 0 0] CT
2 setlinecap
1 LJ
0.667 LW
N
782 512 M
775.3 512 L
S
GR
GS
[0.75 0 0 0.75 0 0] CT
2 setlinecap
1 LJ
0.667 LW
N
782 465.1 M
775.3 465.1 L
S
GR
GS
[0.75 0 0 0.75 0 0] CT
2 setlinecap
1 LJ
0.667 LW
N
782 418.2 M
775.3 418.2 L
S
GR
GS
[0.75 0 0 0.75 0 0] CT
2 setlinecap
1 LJ
0.667 LW
N
782 371.3 M
775.3 371.3 L
S
GR
GS
[0.75 0 0 0.75 0 0] CT
2 setlinecap
1 LJ
0.667 LW
N
782 324.4 M
775.3 324.4 L
S
GR
GS
[0.75 0 0 0.75 0 0] CT
2 setlinecap
1 LJ
0.667 LW
N
782 277.5 M
775.3 277.5 L
S
GR
GS
[0.75 0 0 0.75 0 0] CT
2 setlinecap
1 LJ
0.667 LW
N
782 230.6 M
775.3 230.6 L
S
GR
GS
[0.75 0 0 0.75 0 0] CT
2 setlinecap
1 LJ
0.667 LW
N
782 183.7 M
775.3 183.7 L
S
GR
GS
[0.75 0 0 0.75 0 0] CT
2 setlinecap
1 LJ
0.667 LW
N
782 136.8 M
775.3 136.8 L
S
GR
GS
[0.75 0 0 0.75 0 0] CT
2 setlinecap
1 LJ
0.667 LW
N
782 89.9 M
775.3 89.9 L
S
GR
GS
[0.75 0 0 0.75 0 0] CT
2 setlinecap
1 LJ
0.667 LW
N
782 43 M
775.3 43 L
S
GR
GS
[0.75 0 0 0.75 78.8 384] CT
/Times-Roman 21.333 F
GS
[1 0 0 1 0 0] CT
-11 7.5 moveto 
1 -1 scale
(0) t 
GR
GR
GS
[0.75 0 0 0.75 78.8 348.825] CT
/Times-Roman 21.333 F
GS
[1 0 0 1 0 0] CT
-27 7.5 moveto 
1 -1 scale
(0.1) t 
GR
GR
GS
[0.75 0 0 0.75 78.8 313.65001] CT
/Times-Roman 21.333 F
GS
[1 0 0 1 0 0] CT
-27 7.5 moveto 
1 -1 scale
(0.2) t 
GR
GR
GS
[0.75 0 0 0.75 78.8 278.47499] CT
/Times-Roman 21.333 F
GS
[1 0 0 1 0 0] CT
-27 7.5 moveto 
1 -1 scale
(0.3) t 
GR
GR
GS
[0.75 0 0 0.75 78.8 243.3] CT
/Times-Roman 21.333 F
GS
[1 0 0 1 0 0] CT
-27 7.5 moveto 
1 -1 scale
(0.4) t 
GR
GR
GS
[0.75 0 0 0.75 78.8 208.125] CT
/Times-Roman 21.333 F
GS
[1 0 0 1 0 0] CT
-27 7.5 moveto 
1 -1 scale
(0.5) t 
GR
GR
GS
[0.75 0 0 0.75 78.8 172.94999] CT
/Times-Roman 21.333 F
GS
[1 0 0 1 0 0] CT
-27 7.5 moveto 
1 -1 scale
(0.6) t 
GR
GR
GS
[0.75 0 0 0.75 78.8 137.77501] CT
/Times-Roman 21.333 F
GS
[1 0 0 1 0 0] CT
-27 7.5 moveto 
1 -1 scale
(0.7) t 
GR
GR
GS
[0.75 0 0 0.75 78.8 102.59999] CT
/Times-Roman 21.333 F
GS
[1 0 0 1 0 0] CT
-27 7.5 moveto 
1 -1 scale
(0.8) t 
GR
GR
GS
[0.75 0 0 0.75 78.8 67.42501] CT
/Times-Roman 21.333 F
GS
[1 0 0 1 0 0] CT
-27 7.5 moveto 
1 -1 scale
(0.9) t 
GR
GR
GS
[0.75 0 0 0.75 78.8 32.25] CT
/Times-Roman 21.333 F
GS
[1 0 0 1 0 0] CT
-11 7.5 moveto 
1 -1 scale
(1) t 
GR
GR
GS
[0 -0.75 0.75 0 55.55 208.12484] CT
N
-124.342 -11.792 M
-123.482 -10.714 -122.201 -10.081 QT
-120.92 -9.448 -119.545 -9.448 QT
-118.388 -9.448 -117.396 -9.909 QT
-116.404 -10.37 -115.67 -11.183 QT
-114.935 -11.995 -114.537 -13.034 QT
-114.138 -14.073 -114.138 -15.229 QT
-114.138 -15.417 -113.92 -15.417 QT
-113.607 -15.417 L
-113.42 -15.417 -113.42 -15.183 QT
-113.42 -13.87 -113.92 -12.651 QT
-114.42 -11.433 -115.334 -10.511 QT
-116.248 -9.589 -117.443 -9.081 QT
-118.638 -8.573 -119.92 -8.573 QT
-121.717 -8.573 -123.326 -9.3 QT
-124.935 -10.026 -126.123 -11.292 QT
-127.31 -12.558 -127.974 -14.214 QT
-128.638 -15.87 -128.638 -17.667 QT
-128.638 -19.464 -127.974 -21.12 QT
-127.31 -22.776 -126.123 -24.05 QT
-124.935 -25.323 -123.326 -26.034 QT
-121.717 -26.745 -119.92 -26.745 QT
-118.638 -26.745 -117.467 -26.19 QT
-116.295 -25.636 -115.42 -24.62 QT
-113.967 -26.667 L
-113.826 -26.745 -113.795 -26.745 QT
-113.607 -26.745 L
-113.545 -26.745 -113.482 -26.683 QT
-113.42 -26.62 -113.42 -26.542 QT
-113.42 -19.792 L
-113.42 -19.573 -113.607 -19.573 QT
-114.06 -19.573 L
-114.295 -19.573 -114.295 -19.792 QT
-114.295 -20.511 -114.584 -21.401 QT
-114.873 -22.292 -115.318 -23.089 QT
-115.763 -23.886 -116.342 -24.495 QT
-117.748 -25.87 -119.576 -25.87 QT
-120.951 -25.87 -122.217 -25.245 QT
-123.482 -24.62 -124.342 -23.526 QT
-125.263 -22.354 -125.615 -20.854 QT
-125.967 -19.354 -125.967 -17.667 QT
-125.967 -15.964 -125.615 -14.464 QT
-125.263 -12.964 -124.342 -11.792 QT
cp
f
GR
GS
[0 -0.75 0.75 0 55.55 208.12484] CT
N
-109.045 -12.104 M
-109.045 -17.62 L
-109.045 -18.292 -109.248 -18.589 QT
-109.452 -18.886 -109.834 -18.956 QT
-110.217 -19.026 -110.998 -19.026 QT
-110.998 -19.901 L
-107.217 -20.167 L
-107.217 -12.104 L
-107.217 -11.12 -107.077 -10.581 QT
-106.936 -10.042 -106.483 -9.769 QT
-106.03 -9.495 -105.03 -9.495 QT
-103.686 -9.495 -102.889 -10.62 QT
-102.092 -11.745 -102.092 -13.167 QT
-102.092 -17.62 L
-102.092 -18.292 -102.303 -18.589 QT
-102.514 -18.886 -102.881 -18.956 QT
-103.248 -19.026 -104.045 -19.026 QT
-104.045 -19.901 L
-100.28 -20.167 L
-100.28 -11.386 L
-100.28 -10.729 -100.077 -10.433 QT
-99.873 -10.136 -99.491 -10.065 QT
-99.108 -9.995 -98.327 -9.995 QT
-98.327 -9.12 L
-102.014 -8.839 L
-102.014 -10.948 L
-102.483 -10.011 -103.311 -9.425 QT
-104.139 -8.839 -105.139 -8.839 QT
-106.936 -8.839 -107.991 -9.604 QT
-109.045 -10.37 -109.045 -12.104 QT
cp
f
GR
GS
[0 -0.75 0.75 0 55.55 208.12484] CT
N
-96.924 -9.12 M
-96.924 -9.995 L
-96.081 -9.995 -95.526 -10.128 QT
-94.971 -10.261 -94.971 -10.792 QT
-94.971 -17.62 L
-94.971 -18.292 -95.174 -18.589 QT
-95.377 -18.886 -95.76 -18.956 QT
-96.143 -19.026 -96.924 -19.026 QT
-96.924 -19.901 L
-93.299 -20.167 L
-93.299 -17.729 L
-92.799 -18.808 -91.815 -19.487 QT
-90.831 -20.167 -89.674 -20.167 QT
-86.799 -20.167 -86.299 -17.823 QT
-85.799 -18.87 -84.831 -19.519 QT
-83.862 -20.167 -82.721 -20.167 QT
-81.581 -20.167 -80.807 -19.8 QT
-80.034 -19.433 -79.643 -18.683 QT
-79.252 -17.933 -79.252 -16.792 QT
-79.252 -10.792 L
-79.252 -10.261 -78.698 -10.128 QT
-78.143 -9.995 -77.299 -9.995 QT
-77.299 -9.12 L
-83.018 -9.12 L
-83.018 -9.995 L
-82.174 -9.995 -81.62 -10.128 QT
-81.065 -10.261 -81.065 -10.792 QT
-81.065 -16.729 L
-81.065 -17.979 -81.424 -18.753 QT
-81.784 -19.526 -82.877 -19.526 QT
-84.315 -19.526 -85.26 -18.362 QT
-86.206 -17.198 -86.206 -15.729 QT
-86.206 -10.792 L
-86.206 -10.261 -85.651 -10.128 QT
-85.096 -9.995 -84.252 -9.995 QT
-84.252 -9.12 L
-89.971 -9.12 L
-89.971 -9.995 L
-89.112 -9.995 -88.565 -10.128 QT
-88.018 -10.261 -88.018 -10.792 QT
-88.018 -16.729 L
-88.018 -17.948 -88.37 -18.737 QT
-88.721 -19.526 -89.831 -19.526 QT
-91.284 -19.526 -92.213 -18.362 QT
-93.143 -17.198 -93.143 -15.729 QT
-93.143 -10.792 L
-93.143 -10.261 -92.596 -10.128 QT
-92.049 -9.995 -91.206 -9.995 QT
-91.206 -9.12 L
-96.924 -9.12 L
cp
f
GR
GS
[0 -0.75 0.75 0 55.55 208.12484] CT
N
-74.564 -12.104 M
-74.564 -17.62 L
-74.564 -18.292 -74.767 -18.589 QT
-74.97 -18.886 -75.353 -18.956 QT
-75.736 -19.026 -76.517 -19.026 QT
-76.517 -19.901 L
-72.736 -20.167 L
-72.736 -12.104 L
-72.736 -11.12 -72.595 -10.581 QT
-72.454 -10.042 -72.001 -9.769 QT
-71.548 -9.495 -70.548 -9.495 QT
-69.204 -9.495 -68.407 -10.62 QT
-67.611 -11.745 -67.611 -13.167 QT
-67.611 -17.62 L
-67.611 -18.292 -67.822 -18.589 QT
-68.032 -18.886 -68.4 -18.956 QT
-68.767 -19.026 -69.564 -19.026 QT
-69.564 -19.901 L
-65.798 -20.167 L
-65.798 -11.386 L
-65.798 -10.729 -65.595 -10.433 QT
-65.392 -10.136 -65.009 -10.065 QT
-64.626 -9.995 -63.845 -9.995 QT
-63.845 -9.12 L
-67.532 -8.839 L
-67.532 -10.948 L
-68.001 -10.011 -68.829 -9.425 QT
-69.657 -8.839 -70.657 -8.839 QT
-72.454 -8.839 -73.509 -9.604 QT
-74.564 -10.37 -74.564 -12.104 QT
cp
f
GR
GS
[0 -0.75 0.75 0 55.55 208.12484] CT
N
-62.427 -9.12 M
-62.427 -9.995 L
-61.568 -9.995 -61.021 -10.128 QT
-60.474 -10.261 -60.474 -10.792 QT
-60.474 -23.917 L
-60.474 -24.589 -60.677 -24.886 QT
-60.88 -25.183 -61.255 -25.253 QT
-61.63 -25.323 -62.427 -25.323 QT
-62.427 -26.198 L
-58.708 -26.464 L
-58.708 -10.792 L
-58.708 -10.261 -58.161 -10.128 QT
-57.615 -9.995 -56.771 -9.995 QT
-56.771 -9.12 L
-62.427 -9.12 L
cp
f
GR
GS
[0 -0.75 0.75 0 55.55 208.12484] CT
N
-55.156 -11.573 M
-55.156 -13.058 -53.984 -13.995 QT
-52.812 -14.933 -51.171 -15.315 QT
-49.531 -15.698 -48.046 -15.698 QT
-48.046 -16.729 L
-48.046 -17.448 -48.367 -18.128 QT
-48.687 -18.808 -49.281 -19.237 QT
-49.874 -19.667 -50.609 -19.667 QT
-52.265 -19.667 -53.124 -18.917 QT
-52.656 -18.917 -52.343 -18.558 QT
-52.031 -18.198 -52.031 -17.729 QT
-52.031 -17.229 -52.382 -16.87 QT
-52.734 -16.511 -53.218 -16.511 QT
-53.734 -16.511 -54.085 -16.87 QT
-54.437 -17.229 -54.437 -17.729 QT
-54.437 -19.042 -53.242 -19.683 QT
-52.046 -20.323 -50.609 -20.323 QT
-49.593 -20.323 -48.562 -19.894 QT
-47.531 -19.464 -46.882 -18.659 QT
-46.234 -17.854 -46.234 -16.776 QT
-46.234 -11.151 L
-46.234 -10.651 -46.023 -10.245 QT
-45.812 -9.839 -45.374 -9.839 QT
-44.968 -9.839 -44.765 -10.253 QT
-44.562 -10.667 -44.562 -11.151 QT
-44.562 -12.745 L
-43.828 -12.745 L
-43.828 -11.151 L
-43.828 -10.589 -44.117 -10.081 QT
-44.406 -9.573 -44.906 -9.276 QT
-45.406 -8.979 -45.968 -8.979 QT
-46.703 -8.979 -47.234 -9.542 QT
-47.765 -10.104 -47.828 -10.886 QT
-48.296 -9.948 -49.195 -9.394 QT
-50.093 -8.839 -51.124 -8.839 QT
-52.078 -8.839 -52.999 -9.12 QT
-53.921 -9.401 -54.538 -10.003 QT
-55.156 -10.604 -55.156 -11.573 QT
cp
-53.124 -11.573 M
-53.124 -10.698 -52.476 -10.097 QT
-51.828 -9.495 -50.953 -9.495 QT
-50.156 -9.495 -49.492 -9.901 QT
-48.828 -10.308 -48.437 -11.003 QT
-48.046 -11.698 -48.046 -12.464 QT
-48.046 -15.058 L
-49.187 -15.058 -50.374 -14.69 QT
-51.562 -14.323 -52.343 -13.526 QT
-53.124 -12.729 -53.124 -11.573 QT
cp
f
GR
GS
[0 -0.75 0.75 0 55.55 208.12484] CT
N
-40.942 -12.12 M
-40.942 -19.026 L
-43.02 -19.026 L
-43.02 -19.667 L
-41.38 -19.667 -40.606 -21.19 QT
-39.833 -22.714 -39.833 -24.495 QT
-39.114 -24.495 L
-39.114 -19.901 L
-35.598 -19.901 L
-35.598 -19.026 L
-39.114 -19.026 L
-39.114 -12.167 L
-39.114 -11.136 -38.77 -10.354 QT
-38.426 -9.573 -37.52 -9.573 QT
-36.661 -9.573 -36.286 -10.394 QT
-35.911 -11.214 -35.911 -12.167 QT
-35.911 -13.651 L
-35.192 -13.651 L
-35.192 -12.12 L
-35.192 -11.339 -35.473 -10.581 QT
-35.755 -9.823 -36.317 -9.331 QT
-36.88 -8.839 -37.692 -8.839 QT
-39.192 -8.839 -40.067 -9.737 QT
-40.942 -10.636 -40.942 -12.12 QT
cp
f
GR
GS
[0 -0.75 0.75 0 55.55 208.12484] CT
N
-32.871 -9.12 M
-32.871 -9.995 L
-32.012 -9.995 -31.465 -10.128 QT
-30.918 -10.261 -30.918 -10.792 QT
-30.918 -17.62 L
-30.918 -18.573 -31.286 -18.8 QT
-31.653 -19.026 -32.762 -19.026 QT
-32.762 -19.901 L
-29.153 -20.167 L
-29.153 -10.792 L
-29.153 -10.261 -28.676 -10.128 QT
-28.2 -9.995 -27.418 -9.995 QT
-27.418 -9.12 L
-32.871 -9.12 L
cp
-31.809 -24.464 M
-31.809 -25.011 -31.395 -25.425 QT
-30.981 -25.839 -30.434 -25.839 QT
-30.09 -25.839 -29.754 -25.659 QT
-29.418 -25.479 -29.239 -25.151 QT
-29.059 -24.823 -29.059 -24.464 QT
-29.059 -23.933 -29.473 -23.519 QT
-29.887 -23.104 -30.434 -23.104 QT
-30.981 -23.104 -31.395 -23.519 QT
-31.809 -23.933 -31.809 -24.464 QT
cp
f
GR
GS
[0 -0.75 0.75 0 55.55 208.12484] CT
N
-20.491 -9.12 M
-24.147 -18.308 L
-24.381 -18.761 -24.866 -18.894 QT
-25.35 -19.026 -26.131 -19.026 QT
-26.131 -19.901 L
-20.881 -19.901 L
-20.881 -19.026 L
-22.272 -19.026 -22.272 -18.417 QT
-22.272 -18.323 -22.256 -18.276 QT
-19.444 -11.214 L
-16.913 -17.589 L
-16.85 -17.792 -16.85 -17.995 QT
-16.85 -18.464 -17.209 -18.745 QT
-17.569 -19.026 -18.053 -19.026 QT
-18.053 -19.901 L
-13.897 -19.901 L
-13.897 -19.026 L
-14.678 -19.026 -15.256 -18.667 QT
-15.834 -18.308 -16.147 -17.62 QT
-19.522 -9.12 L
-19.616 -8.839 -19.928 -8.839 QT
-20.1 -8.839 L
-20.413 -8.839 -20.491 -9.12 QT
cp
f
GR
GS
[0 -0.75 0.75 0 55.55 208.12484] CT
N
-7.715 -8.839 M
-9.23 -8.839 -10.504 -9.636 QT
-11.777 -10.433 -12.504 -11.769 QT
-13.23 -13.104 -13.23 -14.604 QT
-13.23 -16.073 -12.566 -17.386 QT
-11.902 -18.698 -10.715 -19.511 QT
-9.527 -20.323 -8.058 -20.323 QT
-6.918 -20.323 -6.066 -19.94 QT
-5.215 -19.558 -4.668 -18.87 QT
-4.121 -18.183 -3.84 -17.261 QT
-3.558 -16.339 -3.558 -15.229 QT
-3.558 -14.901 -3.808 -14.901 QT
-11.058 -14.901 L
-11.058 -14.62 L
-11.058 -12.558 -10.222 -11.065 QT
-9.386 -9.573 -7.48 -9.573 QT
-6.715 -9.573 -6.066 -9.917 QT
-5.418 -10.261 -4.933 -10.87 QT
-4.449 -11.479 -4.277 -12.167 QT
-4.246 -12.261 -4.183 -12.323 QT
-4.121 -12.386 -4.027 -12.386 QT
-3.808 -12.386 L
-3.558 -12.386 -3.558 -12.073 QT
-3.918 -10.651 -5.09 -9.745 QT
-6.261 -8.839 -7.715 -8.839 QT
cp
-11.027 -15.511 M
-5.324 -15.511 L
-5.324 -16.464 -5.59 -17.425 QT
-5.855 -18.386 -6.465 -19.026 QT
-7.074 -19.667 -8.058 -19.667 QT
-9.48 -19.667 -10.254 -18.339 QT
-11.027 -17.011 -11.027 -15.511 QT
cp
f
GR
GS
[0 -0.75 0.75 0 55.55 208.12484] CT
N
6.598 -9.12 M
6.598 -9.995 L
9.177 -9.995 9.177 -10.792 QT
9.177 -24.526 L
9.177 -25.323 6.598 -25.323 QT
6.598 -26.198 L
15.505 -26.198 L
16.864 -26.198 18.231 -25.636 QT
19.598 -25.073 20.481 -24.003 QT
21.364 -22.933 21.364 -21.495 QT
21.364 -20.104 20.473 -19.058 QT
19.583 -18.011 18.231 -17.464 QT
16.88 -16.917 15.505 -16.917 QT
11.489 -16.917 L
11.489 -10.792 L
11.489 -9.995 14.067 -9.995 QT
14.067 -9.12 L
6.598 -9.12 L
cp
11.427 -17.667 M
14.817 -17.667 L
16.192 -17.667 17.052 -18.065 QT
17.911 -18.464 18.302 -19.3 QT
18.692 -20.136 18.692 -21.495 QT
18.692 -23.542 17.802 -24.433 QT
16.911 -25.323 14.817 -25.323 QT
12.692 -25.323 L
12.239 -25.323 11.989 -25.284 QT
11.739 -25.245 11.583 -25.065 QT
11.427 -24.886 11.427 -24.526 QT
11.427 -17.667 L
cp
f
GR
GS
[0 -0.75 0.75 0 55.55 208.12484] CT
N
23.652 -9.12 M
23.652 -9.995 L
24.511 -9.995 25.058 -10.128 QT
25.605 -10.261 25.605 -10.792 QT
25.605 -17.62 L
25.605 -18.292 25.41 -18.589 QT
25.214 -18.886 24.831 -18.956 QT
24.449 -19.026 23.652 -19.026 QT
23.652 -19.901 L
27.23 -20.167 L
27.23 -17.729 L
27.636 -18.808 28.378 -19.487 QT
29.121 -20.167 30.183 -20.167 QT
30.933 -20.167 31.519 -19.729 QT
32.105 -19.292 32.105 -18.573 QT
32.105 -18.12 31.785 -17.784 QT
31.464 -17.448 30.98 -17.448 QT
30.511 -17.448 30.183 -17.776 QT
29.855 -18.104 29.855 -18.573 QT
29.855 -19.245 30.339 -19.526 QT
30.183 -19.526 L
29.183 -19.526 28.542 -18.792 QT
27.902 -18.058 27.628 -16.972 QT
27.355 -15.886 27.355 -14.901 QT
27.355 -10.792 L
27.355 -9.995 29.792 -9.995 QT
29.792 -9.12 L
23.652 -9.12 L
cp
f
GR
GS
[0 -0.75 0.75 0 55.55 208.12484] CT
N
39.183 -8.839 M
37.683 -8.839 36.402 -9.604 QT
35.121 -10.37 34.379 -11.651 QT
33.636 -12.933 33.636 -14.448 QT
33.636 -15.589 34.043 -16.651 QT
34.449 -17.714 35.215 -18.55 QT
35.98 -19.386 36.988 -19.854 QT
37.996 -20.323 39.183 -20.323 QT
40.715 -20.323 41.98 -19.511 QT
43.246 -18.698 43.98 -17.339 QT
44.715 -15.979 44.715 -14.448 QT
44.715 -12.948 43.972 -11.659 QT
43.23 -10.37 41.949 -9.604 QT
40.668 -8.839 39.183 -8.839 QT
cp
39.183 -9.573 M
41.183 -9.573 41.855 -11.026 QT
42.527 -12.479 42.527 -14.729 QT
42.527 -15.979 42.394 -16.808 QT
42.261 -17.636 41.808 -18.308 QT
41.527 -18.714 41.097 -19.026 QT
40.668 -19.339 40.183 -19.503 QT
39.699 -19.667 39.183 -19.667 QT
38.402 -19.667 37.699 -19.315 QT
36.996 -18.964 36.527 -18.308 QT
36.074 -17.589 35.941 -16.745 QT
35.808 -15.901 35.808 -14.729 QT
35.808 -13.323 36.058 -12.206 QT
36.308 -11.089 37.043 -10.331 QT
37.777 -9.573 39.183 -9.573 QT
cp
f
GR
GS
[0 -0.75 0.75 0 55.55 208.12484] CT
N
48.194 -9.12 M
48.194 -23.917 L
48.194 -24.589 47.999 -24.886 QT
47.803 -25.183 47.42 -25.253 QT
47.038 -25.323 46.241 -25.323 QT
46.241 -26.198 L
49.944 -26.464 L
49.944 -18.636 L
50.366 -19.104 50.92 -19.456 QT
51.475 -19.808 52.108 -19.987 QT
52.741 -20.167 53.397 -20.167 QT
54.522 -20.167 55.483 -19.714 QT
56.444 -19.261 57.147 -18.472 QT
57.85 -17.683 58.249 -16.651 QT
58.647 -15.62 58.647 -14.511 QT
58.647 -12.995 57.913 -11.69 QT
57.178 -10.386 55.897 -9.612 QT
54.616 -8.839 53.1 -8.839 QT
52.147 -8.839 51.256 -9.331 QT
50.366 -9.823 49.772 -10.62 QT
48.928 -9.12 L
48.194 -9.12 L
cp
50.022 -11.573 M
50.428 -10.651 51.209 -10.073 QT
51.991 -9.495 52.944 -9.495 QT
54.241 -9.495 55.038 -10.245 QT
55.834 -10.995 56.155 -12.128 QT
56.475 -13.261 56.475 -14.511 QT
56.475 -16.62 55.928 -17.729 QT
55.678 -18.214 55.256 -18.628 QT
54.834 -19.042 54.319 -19.284 QT
53.803 -19.526 53.225 -19.526 QT
52.225 -19.526 51.374 -18.995 QT
50.522 -18.464 50.022 -17.573 QT
50.022 -11.573 L
cp
f
GR
GS
[0 -0.75 0.75 0 55.55 208.12484] CT
N
60.674 -11.573 M
60.674 -13.058 61.846 -13.995 QT
63.018 -14.933 64.659 -15.315 QT
66.299 -15.698 67.784 -15.698 QT
67.784 -16.729 L
67.784 -17.448 67.463 -18.128 QT
67.143 -18.808 66.549 -19.237 QT
65.955 -19.667 65.221 -19.667 QT
63.565 -19.667 62.705 -18.917 QT
63.174 -18.917 63.487 -18.558 QT
63.799 -18.198 63.799 -17.729 QT
63.799 -17.229 63.448 -16.87 QT
63.096 -16.511 62.612 -16.511 QT
62.096 -16.511 61.745 -16.87 QT
61.393 -17.229 61.393 -17.729 QT
61.393 -19.042 62.588 -19.683 QT
63.784 -20.323 65.221 -20.323 QT
66.237 -20.323 67.268 -19.894 QT
68.299 -19.464 68.948 -18.659 QT
69.596 -17.854 69.596 -16.776 QT
69.596 -11.151 L
69.596 -10.651 69.807 -10.245 QT
70.018 -9.839 70.455 -9.839 QT
70.862 -9.839 71.065 -10.253 QT
71.268 -10.667 71.268 -11.151 QT
71.268 -12.745 L
72.002 -12.745 L
72.002 -11.151 L
72.002 -10.589 71.713 -10.081 QT
71.424 -9.573 70.924 -9.276 QT
70.424 -8.979 69.862 -8.979 QT
69.127 -8.979 68.596 -9.542 QT
68.065 -10.104 68.002 -10.886 QT
67.534 -9.948 66.635 -9.394 QT
65.737 -8.839 64.705 -8.839 QT
63.752 -8.839 62.83 -9.12 QT
61.909 -9.401 61.291 -10.003 QT
60.674 -10.604 60.674 -11.573 QT
cp
62.705 -11.573 M
62.705 -10.698 63.354 -10.097 QT
64.002 -9.495 64.877 -9.495 QT
65.674 -9.495 66.338 -9.901 QT
67.002 -10.308 67.393 -11.003 QT
67.784 -11.698 67.784 -12.464 QT
67.784 -15.058 L
66.643 -15.058 65.455 -14.69 QT
64.268 -14.323 63.487 -13.526 QT
62.705 -12.729 62.705 -11.573 QT
cp
f
GR
GS
[0 -0.75 0.75 0 55.55 208.12484] CT
N
74.935 -9.12 M
74.935 -23.917 L
74.935 -24.589 74.739 -24.886 QT
74.544 -25.183 74.161 -25.253 QT
73.778 -25.323 72.982 -25.323 QT
72.982 -26.198 L
76.685 -26.464 L
76.685 -18.636 L
77.107 -19.104 77.661 -19.456 QT
78.216 -19.808 78.849 -19.987 QT
79.482 -20.167 80.138 -20.167 QT
81.263 -20.167 82.224 -19.714 QT
83.185 -19.261 83.888 -18.472 QT
84.591 -17.683 84.989 -16.651 QT
85.388 -15.62 85.388 -14.511 QT
85.388 -12.995 84.653 -11.69 QT
83.919 -10.386 82.638 -9.612 QT
81.357 -8.839 79.841 -8.839 QT
78.888 -8.839 77.997 -9.331 QT
77.107 -9.823 76.513 -10.62 QT
75.669 -9.12 L
74.935 -9.12 L
cp
76.763 -11.573 M
77.169 -10.651 77.95 -10.073 QT
78.732 -9.495 79.685 -9.495 QT
80.982 -9.495 81.778 -10.245 QT
82.575 -10.995 82.896 -12.128 QT
83.216 -13.261 83.216 -14.511 QT
83.216 -16.62 82.669 -17.729 QT
82.419 -18.214 81.997 -18.628 QT
81.575 -19.042 81.06 -19.284 QT
80.544 -19.526 79.966 -19.526 QT
78.966 -19.526 78.114 -18.995 QT
77.263 -18.464 76.763 -17.573 QT
76.763 -11.573 L
cp
f
GR
GS
[0 -0.75 0.75 0 55.55 208.12484] CT
N
87.181 -9.12 M
87.181 -9.995 L
88.04 -9.995 88.587 -10.128 QT
89.134 -10.261 89.134 -10.792 QT
89.134 -17.62 L
89.134 -18.573 88.767 -18.8 QT
88.399 -19.026 87.29 -19.026 QT
87.29 -19.901 L
90.899 -20.167 L
90.899 -10.792 L
90.899 -10.261 91.376 -10.128 QT
91.853 -9.995 92.634 -9.995 QT
92.634 -9.12 L
87.181 -9.12 L
cp
88.243 -24.464 M
88.243 -25.011 88.657 -25.425 QT
89.071 -25.839 89.618 -25.839 QT
89.962 -25.839 90.298 -25.659 QT
90.634 -25.479 90.813 -25.151 QT
90.993 -24.823 90.993 -24.464 QT
90.993 -23.933 90.579 -23.519 QT
90.165 -23.104 89.618 -23.104 QT
89.071 -23.104 88.657 -23.519 QT
88.243 -23.933 88.243 -24.464 QT
cp
f
GR
GS
[0 -0.75 0.75 0 55.55 208.12484] CT
N
94.218 -9.12 M
94.218 -9.995 L
95.077 -9.995 95.624 -10.128 QT
96.171 -10.261 96.171 -10.792 QT
96.171 -23.917 L
96.171 -24.589 95.968 -24.886 QT
95.765 -25.183 95.39 -25.253 QT
95.015 -25.323 94.218 -25.323 QT
94.218 -26.198 L
97.936 -26.464 L
97.936 -10.792 L
97.936 -10.261 98.483 -10.128 QT
99.03 -9.995 99.874 -9.995 QT
99.874 -9.12 L
94.218 -9.12 L
cp
f
GR
GS
[0 -0.75 0.75 0 55.55 208.12484] CT
N
101.255 -9.12 M
101.255 -9.995 L
102.114 -9.995 102.661 -10.128 QT
103.208 -10.261 103.208 -10.792 QT
103.208 -17.62 L
103.208 -18.573 102.841 -18.8 QT
102.474 -19.026 101.364 -19.026 QT
101.364 -19.901 L
104.974 -20.167 L
104.974 -10.792 L
104.974 -10.261 105.45 -10.128 QT
105.927 -9.995 106.708 -9.995 QT
106.708 -9.12 L
101.255 -9.12 L
cp
102.317 -24.464 M
102.317 -25.011 102.731 -25.425 QT
103.145 -25.839 103.692 -25.839 QT
104.036 -25.839 104.372 -25.659 QT
104.708 -25.479 104.888 -25.151 QT
105.067 -24.823 105.067 -24.464 QT
105.067 -23.933 104.653 -23.519 QT
104.239 -23.104 103.692 -23.104 QT
103.145 -23.104 102.731 -23.519 QT
102.317 -23.933 102.317 -24.464 QT
cp
f
GR
GS
[0 -0.75 0.75 0 55.55 208.12484] CT
N
110.073 -12.12 M
110.073 -19.026 L
107.995 -19.026 L
107.995 -19.667 L
109.636 -19.667 110.409 -21.19 QT
111.182 -22.714 111.182 -24.495 QT
111.901 -24.495 L
111.901 -19.901 L
115.417 -19.901 L
115.417 -19.026 L
111.901 -19.026 L
111.901 -12.167 L
111.901 -11.136 112.245 -10.354 QT
112.589 -9.573 113.495 -9.573 QT
114.354 -9.573 114.729 -10.394 QT
115.104 -11.214 115.104 -12.167 QT
115.104 -13.651 L
115.823 -13.651 L
115.823 -12.12 L
115.823 -11.339 115.542 -10.581 QT
115.261 -9.823 114.698 -9.331 QT
114.136 -8.839 113.323 -8.839 QT
111.823 -8.839 110.948 -9.737 QT
110.073 -10.636 110.073 -12.12 QT
cp
f
GR
GS
[0 -0.75 0.75 0 55.55 208.12484] CT
N
118.393 -5.011 M
118.877 -4.636 119.44 -4.636 QT
121.018 -4.636 122.018 -7.026 QT
122.877 -9.12 L
119.127 -18.308 L
118.893 -18.761 118.417 -18.894 QT
117.94 -19.026 117.143 -19.026 QT
117.143 -19.901 L
122.393 -19.901 L
122.393 -19.026 L
121.018 -19.026 121.018 -18.417 QT
121.018 -18.323 121.049 -18.276 QT
123.831 -11.433 L
126.331 -17.589 L
126.409 -17.792 126.409 -18.026 QT
126.409 -18.323 126.245 -18.55 QT
126.081 -18.776 125.815 -18.901 QT
125.549 -19.026 125.221 -19.026 QT
125.221 -19.901 L
129.377 -19.901 L
129.377 -19.026 L
128.596 -19.026 128.018 -18.667 QT
127.44 -18.308 127.127 -17.62 QT
122.799 -7.026 L
122.456 -6.214 122.002 -5.534 QT
121.549 -4.854 120.885 -4.425 QT
120.221 -3.995 119.44 -3.995 QT
118.534 -3.995 117.838 -4.597 QT
117.143 -5.198 117.143 -6.089 QT
117.143 -6.558 117.463 -6.878 QT
117.784 -7.198 118.252 -7.198 QT
118.565 -7.198 118.815 -7.058 QT
119.065 -6.917 119.206 -6.667 QT
119.346 -6.417 119.346 -6.089 QT
119.346 -5.683 119.081 -5.37 QT
118.815 -5.058 118.393 -5.011 QT
cp
f
GR
GS
[0.75 0 0 0.75 0 0] CT
0 0.447 0.741 RC
[10 6] 0 setdash
2 LJ
0.667 LW
N
112 512 M
125.973 502.219 L
142.455 490.682 L
158.397 479.522 L
172.909 469.364 L
187.85 458.905 L
203.364 448.045 L
220.165 436.284 L
233.818 426.727 L
250.789 414.848 L
264.273 405.409 L
278.963 395.126 L
294.727 384.091 L
309.365 373.844 L
325.182 362.773 L
342.168 350.882 L
355.636 341.455 L
371.968 330.023 L
386.091 320.136 L
402.119 308.917 L
416.545 298.818 L
431.632 288.258 L
447 277.5 L
462.231 266.838 L
477.455 256.182 L
493.287 245.099 L
507.909 234.864 L
524.357 223.35 L
538.364 213.545 L
553.33 203.069 L
568.818 192.227 L
584.145 181.498 L
599.273 170.909 L
614.512 160.242 L
629.727 149.591 L
646.065 138.154 L
660.182 128.273 L
674.691 118.116 L
690.636 106.955 L
706.615 95.769 L
721.091 85.636 L
732.585 77.591 L
751.545 64.318 L
766.49 53.857 L
782 43 L
S
GR
GS
[0.75 0 0 0.75 0 0] CT
0.851 0.325 0.098 RC
1 LJ
0.667 LW
N
112 512 M
125.973 511.787 L
142.455 510.939 L
158.397 509.418 L
172.909 507.356 L
187.85 504.479 L
203.364 500.592 L
220.165 495.238 L
233.818 489.929 L
250.789 482.031 L
264.273 474.659 L
278.963 465.46 L
294.727 454.178 L
309.365 442.36 L
325.182 428.128 L
342.168 411.175 L
355.636 396.554 L
371.968 377.527 L
386.091 360.044 L
402.119 339.226 L
416.545 319.787 L
431.632 298.971 L
447 277.5 L
462.231 256.22 L
477.455 235.213 L
493.287 213.912 L
507.909 194.956 L
524.357 174.683 L
538.364 158.446 L
553.33 142.263 L
568.818 126.872 L
584.145 113.057 L
599.273 100.822 L
614.512 89.892 L
629.727 80.341 L
646.065 71.535 L
660.182 65.071 L
674.691 59.459 L
690.636 54.408 L
706.615 50.419 L
721.091 47.644 L
732.585 45.955 L
751.545 44.061 L
766.49 43.263 L
782 43 L
S
GR
GS
[0.75 0 0 0.75 0 0] CT
0.929 0.694 0.125 RC
1 LJ
0.667 LW
N
112 512 M
125.973 512 L
142.455 511.998 L
158.397 511.986 L
172.909 511.953 L
187.85 511.875 L
203.364 511.709 L
220.165 511.357 L
233.818 510.859 L
250.789 509.825 L
264.273 508.516 L
278.963 506.376 L
286.845 504.82 L
294.727 502.905 L
302.046 500.747 L
309.365 498.16 L
317.274 494.801 L
325.182 490.764 L
333.675 485.548 L
342.168 479.281 L
348.902 473.464 L
355.636 466.812 L
363.802 457.518 L
371.968 446.758 L
379.029 436.187 L
386.091 424.388 L
394.105 409.475 L
402.119 392.953 L
416.545 359.41 L
431.632 320.084 L
447 277.5 L
462.231 235.288 L
477.455 195.59 L
493.287 159.035 L
500.598 144.152 L
507.909 130.612 L
516.133 116.989 L
524.357 105.023 L
531.36 96.072 L
538.364 88.188 L
545.847 80.85 L
553.33 74.531 L
561.074 68.952 L
568.818 64.236 L
576.482 60.313 L
584.145 57.03 L
591.709 54.332 L
599.273 52.095 L
606.892 50.238 L
614.512 48.717 L
629.727 46.484 L
646.065 44.96 L
660.182 44.141 L
674.691 43.62 L
690.636 43.291 L
706.615 43.121 L
721.091 43.047 L
732.585 43.019 L
751.545 43.002 L
766.49 43 L
782 43 L
S
GR
GS
[0.75 0 0 0.75 0 0] CT
0.494 0.184 0.557 RC
1 LJ
0.667 LW
N
112 512 M
125.973 512 L
142.455 512 L
158.397 512 L
172.909 512 L
187.85 511.998 L
203.364 511.993 L
220.165 511.976 L
233.818 511.944 L
250.789 511.851 L
264.273 511.697 L
278.963 511.374 L
294.727 510.699 L
309.365 509.526 L
317.274 508.542 L
325.182 507.205 L
333.675 505.245 L
337.921 504.007 L
342.168 502.562 L
345.535 501.247 L
348.902 499.765 L
352.269 498.097 L
355.636 496.221 L
359.719 493.636 L
363.802 490.669 L
367.885 487.272 L
371.968 483.395 L
375.499 479.611 L
379.029 475.391 L
382.56 470.695 L
386.091 465.484 L
390.098 458.898 L
394.105 451.547 L
402.119 434.352 L
409.332 415.832 L
416.545 394.338 L
431.632 340.508 L
447 277.5 L
462.231 215.029 L
477.455 160.662 L
485.371 137.233 L
493.287 117.381 L
500.598 102.106 L
504.254 95.494 L
507.909 89.516 L
512.021 83.498 L
516.133 78.169 L
520.245 73.468 L
524.357 69.336 L
527.859 66.222 L
531.36 63.445 L
534.862 60.974 L
538.364 58.779 L
542.105 56.708 L
545.847 54.89 L
549.588 53.296 L
553.33 51.903 L
561.074 49.556 L
568.818 47.795 L
576.482 46.493 L
584.145 45.526 L
599.273 44.301 L
614.512 43.642 L
629.727 43.303 L
646.065 43.128 L
660.182 43.056 L
674.691 43.023 L
690.636 43.007 L
706.615 43.002 L
721.091 43 L
732.585 43 L
751.545 43 L
766.49 43 L
782 43 L
S
GR
GS
[0.75 0 0 0.75 0 0] CT
0.467 0.675 0.188 RC
1 LJ
0.667 LW
N
112 512 M
125.973 512 L
142.455 512 L
158.397 512 L
172.909 512 L
187.85 512 L
203.364 512 L
220.165 511.999 L
233.818 511.997 L
250.789 511.99 L
264.273 511.974 L
278.963 511.931 L
294.727 511.817 L
309.365 511.567 L
325.182 510.947 L
333.675 510.33 L
342.168 509.377 L
348.902 508.271 L
352.269 507.563 L
355.636 506.728 L
359.719 505.514 L
363.802 504.036 L
367.885 502.24 L
371.968 500.066 L
375.499 497.823 L
379.029 495.189 L
382.56 492.1 L
386.091 488.491 L
390.098 483.668 L
394.105 477.958 L
398.112 471.232 L
402.119 463.355 L
405.725 455.171 L
409.332 445.854 L
416.545 423.506 L
424.088 394.52 L
431.632 359.95 L
439.316 320.063 L
447 277.5 L
454.616 235.309 L
462.231 195.726 L
469.843 160.771 L
477.455 131.494 L
481.413 118.598 L
485.371 107.237 L
489.329 97.323 L
493.287 88.742 L
496.943 81.893 L
500.598 75.971 L
504.254 70.875 L
507.909 66.509 L
509.965 64.34 L
512.021 62.357 L
514.077 60.548 L
516.133 58.897 L
518.189 57.393 L
520.245 56.024 L
524.357 53.645 L
527.859 51.95 L
531.36 50.514 L
534.862 49.298 L
538.364 48.272 L
542.105 47.352 L
545.847 46.587 L
553.33 45.424 L
561.074 44.604 L
568.818 44.053 L
584.145 43.446 L
599.273 43.183 L
614.512 43.071 L
629.727 43.026 L
646.065 43.008 L
660.182 43.003 L
674.691 43.001 L
690.636 43 L
706.615 43 L
721.091 43 L
732.585 43 L
751.545 43 L
766.49 43 L
782 43 L
S
GR
GS
[0.75 0 0 0.75 0 0] CT
0.302 0.745 0.933 RC
1 LJ
0.667 LW
N
112 512 M
125.973 512 L
142.455 512 L
158.397 512 L
172.909 512 L
187.85 512 L
203.364 512 L
220.165 512 L
233.818 512 L
250.789 511.999 L
264.273 511.998 L
278.963 511.992 L
294.727 511.974 L
309.365 511.924 L
325.182 511.77 L
342.168 511.279 L
348.902 510.878 L
355.636 510.265 L
359.719 509.747 L
363.802 509.081 L
367.885 508.225 L
371.968 507.129 L
375.499 505.937 L
379.029 504.467 L
380.795 503.608 L
382.56 502.656 L
384.326 501.6 L
386.091 500.43 L
388.094 498.951 L
390.098 497.293 L
392.101 495.435 L
394.105 493.357 L
396.108 491.035 L
398.112 488.444 L
400.115 485.557 L
402.119 482.346 L
405.725 475.65 L
409.332 467.619 L
412.939 458.06 L
416.545 446.786 L
420.317 432.98 L
424.088 416.971 L
427.86 398.69 L
431.632 378.18 L
435.474 355.173 L
439.316 330.375 L
447 277.5 L
454.616 225.082 L
458.423 200.47 L
462.231 177.607 L
466.037 156.841 L
469.843 138.342 L
473.649 122.155 L
477.455 108.214 L
481.413 95.936 L
485.371 85.702 L
489.329 77.263 L
491.308 73.637 L
493.287 70.366 L
495.115 67.634 L
496.943 65.157 L
498.77 62.915 L
500.598 60.887 L
502.426 59.056 L
504.254 57.403 L
506.081 55.912 L
507.909 54.57 L
509.965 53.219 L
512.021 52.02 L
514.077 50.957 L
516.133 50.015 L
518.189 49.181 L
520.245 48.443 L
524.357 47.214 L
527.859 46.383 L
531.36 45.712 L
538.364 44.735 L
545.847 44.068 L
553.33 43.653 L
568.818 43.23 L
584.145 43.078 L
599.273 43.026 L
614.512 43.008 L
629.727 43.002 L
646.065 43.001 L
660.182 43 L
674.691 43 L
690.636 43 L
706.615 43 L
721.091 43 L
732.585 43 L
751.545 43 L
766.49 43 L
782 43 L
S
GR
GS
[0.75 0 0 0.75 0 0] CT
0.635 0.078 0.184 RC
1 LJ
0.667 LW
N
112 512 M
125.973 512 L
142.455 512 L
158.397 512 L
172.909 512 L
187.85 512 L
203.364 512 L
220.165 512 L
233.818 512 L
250.789 512 L
264.273 512 L
278.963 512 L
294.727 512 L
309.365 512 L
325.182 512 L
342.168 512 L
355.636 512 L
371.968 512 L
386.091 512 L
402.119 511.999 L
409.332 511.994 L
416.545 511.948 L
420.317 511.84 L
422.203 511.718 L
424.088 511.504 L
425.031 511.342 L
425.974 511.127 L
426.917 510.843 L
427.389 510.668 L
427.86 510.466 L
428.331 510.235 L
428.803 509.968 L
429.274 509.662 L
429.746 509.309 L
430.217 508.904 L
430.689 508.439 L
431.16 507.904 L
431.632 507.29 L
432.112 506.571 L
432.592 505.743 L
433.072 504.792 L
433.553 503.699 L
434.033 502.443 L
434.513 501.002 L
434.993 499.35 L
435.474 497.458 L
435.954 495.294 L
436.434 492.821 L
436.914 490 L
437.395 486.788 L
437.635 485.021 L
437.875 483.138 L
438.115 481.133 L
438.355 478.999 L
438.595 476.73 L
438.835 474.318 L
439.076 471.756 L
439.316 469.038 L
439.556 466.156 L
439.796 463.103 L
440.036 459.871 L
440.276 456.455 L
440.516 452.846 L
440.757 449.039 L
440.997 445.027 L
441.237 440.804 L
441.477 436.365 L
441.717 431.706 L
441.957 426.821 L
442.197 421.709 L
442.437 416.366 L
442.678 410.792 L
442.918 404.986 L
443.158 398.95 L
443.398 392.685 L
443.638 386.196 L
443.878 379.488 L
444.118 372.567 L
444.359 365.443 L
444.599 358.125 L
444.839 350.624 L
445.079 342.954 L
445.319 335.129 L
445.559 327.165 L
445.799 319.079 L
446.039 310.89 L
446.52 294.281 L
447 277.5 L
447.476 260.869 L
447.952 244.404 L
448.428 228.265 L
448.666 220.365 L
448.904 212.6 L
449.142 204.986 L
449.38 197.538 L
449.618 190.267 L
449.856 183.187 L
450.094 176.305 L
450.332 169.631 L
450.57 163.172 L
450.808 156.932 L
451.046 150.916 L
451.284 145.126 L
451.522 139.563 L
451.76 134.228 L
451.998 129.12 L
452.236 124.236 L
452.474 119.574 L
452.712 115.129 L
452.95 110.897 L
453.188 106.874 L
453.426 103.053 L
453.664 99.429 L
453.902 95.995 L
454.14 92.745 L
454.378 89.672 L
454.616 86.769 L
454.854 84.028 L
455.092 81.444 L
455.33 79.009 L
455.568 76.715 L
455.806 74.557 L
456.044 72.528 L
456.282 70.621 L
456.52 68.83 L
456.996 65.571 L
457.471 62.704 L
457.947 60.188 L
458.423 57.982 L
458.899 56.05 L
459.375 54.362 L
459.851 52.887 L
460.327 51.599 L
460.803 50.477 L
461.279 49.499 L
461.755 48.647 L
462.231 47.905 L
462.707 47.26 L
463.183 46.7 L
463.658 46.212 L
464.134 45.788 L
464.61 45.42 L
465.086 45.1 L
465.561 44.823 L
466.037 44.582 L
466.513 44.372 L
466.989 44.19 L
467.464 44.033 L
467.94 43.896 L
468.891 43.674 L
469.843 43.507 L
471.746 43.286 L
473.649 43.162 L
477.455 43.052 L
485.371 43.005 L
493.287 43 L
507.909 43 L
524.357 43 L
538.364 43 L
553.33 43 L
568.818 43 L
584.145 43 L
599.273 43 L
614.512 43 L
629.727 43 L
646.065 43 L
660.182 43 L
674.691 43 L
690.636 43 L
706.615 43 L
721.091 43 L
732.585 43 L
751.545 43 L
766.49 43 L
782 43 L
S
GR
GS
[0.75 0 0 0.75 0 0] CT
0 0.447 0.741 RC
1 LJ
0.667 LW
N
112 512 M
125.973 512 L
142.455 512 L
158.397 512 L
172.909 512 L
187.85 512 L
203.364 512 L
220.165 512 L
233.818 512 L
250.789 512 L
264.273 512 L
278.963 512 L
294.727 512 L
309.365 512 L
325.182 512 L
342.168 512 L
355.636 512 L
371.968 512 L
386.091 512 L
402.119 512 L
416.545 512 L
424.088 511.999 L
427.86 511.995 L
429.746 511.984 L
431.632 511.952 L
432.592 511.914 L
433.553 511.848 L
434.033 511.797 L
434.513 511.73 L
434.993 511.64 L
435.474 511.52 L
435.714 511.446 L
435.954 511.361 L
436.194 511.263 L
436.434 511.149 L
436.674 511.018 L
436.914 510.867 L
437.155 510.692 L
437.395 510.491 L
437.635 510.259 L
437.875 509.992 L
438.115 509.684 L
438.355 509.328 L
438.595 508.919 L
438.835 508.447 L
439.076 507.904 L
439.316 507.279 L
439.556 506.559 L
439.796 505.731 L
440.036 504.779 L
440.276 503.685 L
440.516 502.429 L
440.757 500.988 L
440.997 499.336 L
441.117 498.422 L
441.237 497.444 L
441.357 496.398 L
441.477 495.279 L
441.597 494.084 L
441.717 492.807 L
441.837 491.442 L
441.957 489.986 L
442.077 488.432 L
442.197 486.774 L
442.317 485.007 L
442.377 484.081 L
442.437 483.125 L
442.497 482.138 L
442.558 481.12 L
442.618 480.069 L
442.678 478.986 L
442.738 477.869 L
442.798 476.717 L
442.858 475.529 L
442.918 474.305 L
442.978 473.044 L
443.038 471.744 L
443.098 470.405 L
443.158 469.026 L
443.218 467.606 L
443.278 466.145 L
443.338 464.64 L
443.398 463.092 L
443.458 461.499 L
443.518 459.861 L
443.578 458.177 L
443.638 456.445 L
443.698 454.665 L
443.758 452.837 L
443.818 450.959 L
443.878 449.03 L
443.938 447.05 L
443.998 445.019 L
444.058 442.934 L
444.118 440.797 L
444.178 438.605 L
444.238 436.358 L
444.299 434.057 L
444.359 431.699 L
444.419 429.286 L
444.479 426.815 L
444.539 424.288 L
444.599 421.703 L
444.659 419.061 L
444.719 416.361 L
444.779 413.604 L
444.839 410.788 L
444.899 407.914 L
444.959 404.982 L
445.019 401.993 L
445.079 398.946 L
445.139 395.843 L
445.199 392.682 L
445.259 389.466 L
445.319 386.194 L
445.379 382.867 L
445.439 379.486 L
445.499 376.052 L
445.559 372.566 L
445.619 369.029 L
445.679 365.442 L
445.739 361.806 L
445.799 358.124 L
445.859 354.396 L
445.919 350.623 L
445.979 346.809 L
446.039 342.954 L
446.1 339.059 L
446.16 335.129 L
446.22 331.163 L
446.28 327.165 L
446.34 323.136 L
446.4 319.079 L
446.52 310.89 L
446.64 302.617 L
446.76 294.281 L
447 277.5 L
447.238 260.869 L
447.357 252.605 L
447.476 244.404 L
447.595 236.284 L
447.714 228.266 L
447.773 224.299 L
447.833 220.365 L
447.892 216.465 L
447.952 212.601 L
448.011 208.774 L
448.071 204.987 L
448.13 201.241 L
448.19 197.539 L
448.249 193.881 L
448.309 190.269 L
448.368 186.704 L
448.428 183.188 L
448.487 179.722 L
448.547 176.307 L
448.606 172.944 L
448.666 169.633 L
448.725 166.377 L
448.785 163.174 L
448.844 160.027 L
448.904 156.935 L
448.963 153.899 L
449.023 150.919 L
449.082 147.996 L
449.142 145.13 L
449.201 142.321 L
449.261 139.568 L
449.32 136.873 L
449.38 134.234 L
449.439 131.652 L
449.499 129.126 L
449.558 126.656 L
449.618 124.243 L
449.677 121.884 L
449.737 119.581 L
449.796 117.332 L
449.856 115.136 L
449.915 112.995 L
449.975 110.905 L
450.034 108.868 L
450.094 106.883 L
450.153 104.948 L
450.213 103.063 L
450.272 101.227 L
450.332 99.439 L
450.391 97.699 L
450.451 96.006 L
450.51 94.358 L
450.57 92.756 L
450.629 91.198 L
450.689 89.683 L
450.748 88.211 L
450.808 86.78 L
450.867 85.39 L
450.927 84.04 L
450.986 82.729 L
451.046 81.456 L
451.105 80.221 L
451.165 79.021 L
451.224 77.858 L
451.284 76.728 L
451.343 75.633 L
451.403 74.571 L
451.462 73.541 L
451.522 72.542 L
451.581 71.574 L
451.641 70.635 L
451.76 68.844 L
451.879 67.163 L
451.998 65.585 L
452.117 64.106 L
452.236 62.719 L
452.355 61.419 L
452.474 60.202 L
452.593 59.063 L
452.712 57.996 L
452.831 56.998 L
452.95 56.065 L
453.069 55.192 L
453.188 54.376 L
453.426 52.9 L
453.664 51.613 L
453.902 50.49 L
454.14 49.511 L
454.378 48.659 L
454.616 47.917 L
454.854 47.271 L
455.092 46.71 L
455.33 46.221 L
455.568 45.797 L
455.806 45.428 L
456.044 45.108 L
456.282 44.83 L
456.52 44.588 L
456.758 44.378 L
456.996 44.196 L
457.233 44.038 L
457.471 43.9 L
457.709 43.781 L
457.947 43.678 L
458.185 43.588 L
458.423 43.51 L
458.899 43.384 L
459.375 43.289 L
459.851 43.217 L
460.327 43.164 L
461.279 43.093 L
462.231 43.052 L
464.134 43.017 L
466.037 43.005 L
469.843 43.001 L
477.455 43 L
493.287 43 L
507.909 43 L
524.357 43 L
538.364 43 L
553.33 43 L
568.818 43 L
584.145 43 L
599.273 43 L
614.512 43 L
629.727 43 L
646.065 43 L
660.182 43 L
674.691 43 L
690.636 43 L
706.615 43 L
721.091 43 L
732.585 43 L
751.545 43 L
766.49 43 L
782 43 L
S
GR
GS
[0.75 0 0 0.75 0 0] CT
0.851 0.325 0.098 RC
1 LJ
0.667 LW
N
112 512 M
125.973 512 L
142.455 512 L
158.397 512 L
172.909 512 L
187.85 512 L
203.364 512 L
220.165 512 L
233.818 512 L
250.789 512 L
264.273 512 L
278.963 512 L
294.727 512 L
309.365 512 L
325.182 512 L
342.168 512 L
355.636 512 L
371.968 512 L
386.091 512 L
402.119 512 L
416.545 512 L
424.088 512 L
431.632 512 L
435.474 512 L
439.316 512 L
441.237 512 L
442.197 512 L
443.158 511.995 L
443.398 511.99 L
443.638 511.979 L
443.758 511.971 L
443.878 511.958 L
443.998 511.94 L
444.118 511.914 L
444.178 511.897 L
444.238 511.877 L
444.299 511.853 L
444.359 511.824 L
444.419 511.789 L
444.479 511.748 L
444.509 511.724 L
444.539 511.698 L
444.569 511.67 L
444.599 511.639 L
444.629 511.605 L
444.659 511.568 L
444.719 511.483 L
444.779 511.382 L
444.839 511.261 L
444.899 511.116 L
444.959 510.943 L
445.019 510.736 L
445.079 510.489 L
445.139 510.194 L
445.169 510.025 L
445.199 509.841 L
445.229 509.639 L
445.259 509.419 L
445.289 509.179 L
445.319 508.916 L
445.349 508.629 L
445.379 508.315 L
445.409 507.973 L
445.439 507.599 L
445.469 507.191 L
445.499 506.745 L
445.529 506.258 L
445.559 505.727 L
445.589 505.148 L
445.619 504.516 L
445.649 503.826 L
445.679 503.075 L
445.709 502.255 L
445.739 501.363 L
445.769 500.39 L
445.799 499.331 L
445.829 498.179 L
445.859 496.925 L
445.889 495.561 L
445.919 494.079 L
445.949 492.469 L
445.979 490.721 L
446.009 488.825 L
446.039 486.77 L
446.069 484.543 L
446.1 482.133 L
446.13 479.528 L
446.16 476.713 L
446.19 473.675 L
446.22 470.401 L
446.25 466.877 L
446.28 463.088 L
446.31 459.021 L
446.34 454.662 L
446.37 449.998 L
446.4 445.016 L
446.43 439.705 L
446.46 434.054 L
446.49 428.056 L
446.52 421.702 L
446.55 414.988 L
446.58 407.913 L
446.61 400.476 L
446.64 392.681 L
446.67 384.536 L
446.7 376.051 L
446.73 367.241 L
446.76 358.124 L
446.79 348.721 L
446.82 339.059 L
446.85 329.168 L
446.88 319.079 L
446.91 308.829 L
446.94 298.456 L
446.97 287.999 L
447 277.5 L
447.03 267.095 L
447.06 256.731 L
447.089 246.447 L
447.119 236.284 L
447.149 226.279 L
447.178 216.465 L
447.208 206.876 L
447.238 197.539 L
447.268 188.481 L
447.297 179.723 L
447.327 171.283 L
447.357 163.175 L
447.387 155.411 L
447.416 147.998 L
447.446 140.939 L
447.476 134.235 L
447.506 127.886 L
447.535 121.886 L
447.565 116.23 L
447.595 110.908 L
447.625 105.912 L
447.654 101.23 L
447.684 96.85 L
447.714 92.759 L
447.744 88.945 L
447.773 85.394 L
447.803 82.092 L
447.833 79.025 L
447.863 76.181 L
447.892 73.545 L
447.922 71.105 L
447.952 68.848 L
447.982 66.763 L
448.011 64.838 L
448.041 63.062 L
448.071 61.424 L
448.101 59.915 L
448.13 58.525 L
448.16 57.246 L
448.19 56.069 L
448.22 54.987 L
448.249 53.992 L
448.279 53.078 L
448.309 52.239 L
448.339 51.468 L
448.368 50.76 L
448.398 50.111 L
448.428 49.515 L
448.458 48.968 L
448.487 48.467 L
448.517 48.008 L
448.547 47.586 L
448.577 47.2 L
448.606 46.846 L
448.636 46.522 L
448.666 46.224 L
448.696 45.952 L
448.725 45.703 L
448.755 45.474 L
448.785 45.265 L
448.815 45.073 L
448.844 44.898 L
448.904 44.59 L
448.963 44.332 L
449.023 44.116 L
449.082 43.935 L
449.142 43.783 L
449.201 43.656 L
449.261 43.549 L
449.32 43.46 L
449.35 43.421 L
449.38 43.385 L
449.41 43.352 L
449.439 43.322 L
449.469 43.295 L
449.499 43.27 L
449.558 43.226 L
449.618 43.189 L
449.677 43.159 L
449.737 43.133 L
449.796 43.111 L
449.856 43.093 L
449.915 43.078 L
449.975 43.065 L
450.094 43.046 L
450.213 43.032 L
450.332 43.022 L
450.57 43.011 L
450.808 43.005 L
451.76 43 L
452.712 43 L
454.616 43 L
458.423 43 L
462.231 43 L
469.843 43 L
477.455 43 L
493.287 43 L
507.909 43 L
524.357 43 L
538.364 43 L
553.33 43 L
568.818 43 L
584.145 43 L
599.273 43 L
614.512 43 L
629.727 43 L
646.065 43 L
660.182 43 L
674.691 43 L
690.636 43 L
706.615 43 L
721.091 43 L
732.585 43 L
751.545 43 L
766.49 43 L
782 43 L
S
GR
GS
[0.75 0 0 0.75 0 0] CT
0.929 0.694 0.125 RC
[10 6] 0 setdash
2 LJ
0.667 LW
N
112 512 M
125.973 512 L
142.455 512 L
158.397 512 L
172.909 512 L
187.85 512 L
203.364 512 L
220.165 512 L
233.818 512 L
250.789 512 L
264.273 512 L
278.963 512 L
294.727 512 L
309.365 512 L
325.182 512 L
342.168 512 L
355.636 512 L
371.968 512 L
386.091 512 L
402.119 512 L
416.545 512 L
424.088 512 L
431.632 512 L
435.474 512 L
439.316 512 L
441.237 512 L
443.158 512 L
444.118 512 L
445.079 512 L
445.559 512 L
446.039 512 L
446.28 512 L
446.52 512 L
446.64 512 L
446.7 512 L
446.73 512 L
446.76 512 L
446.79 511.998 L
446.82 511.99 L
446.85 511.94 L
446.88 511.639 L
446.91 509.841 L
446.94 499.331 L
446.97 445.016 L
447 277.5 L
447.03 110.908 L
447.06 56.069 L
447.089 45.265 L
447.119 43.385 L
447.149 43.065 L
447.178 43.011 L
447.208 43.002 L
447.238 43 L
447.268 43 L
447.297 43 L
447.357 43 L
447.476 43 L
447.714 43 L
447.952 43 L
448.428 43 L
448.904 43 L
449.856 43 L
450.808 43 L
452.712 43 L
454.616 43 L
458.423 43 L
462.231 43 L
469.843 43 L
477.455 43 L
493.287 43 L
507.909 43 L
524.357 43 L
538.364 43 L
553.33 43 L
568.818 43 L
584.145 43 L
599.273 43 L
614.512 43 L
629.727 43 L
646.065 43 L
660.182 43 L
674.691 43 L
690.636 43 L
706.615 43 L
721.091 43 L
732.585 43 L
751.545 43 L
766.49 43 L
782 43 L
S
GR
GS
[0.75 0 0 0.75 0 0] CT
1 GC
N
771 501 M
771 273 L
651 273 L
651 501 L
cp
f
GR
GS
[0.75 0 0 0.75 523.5 214.47867] CT
/Times-Roman 19.2 F
GS
[1 0 0 1 0 0] CT
0 7 moveto 
1 -1 scale
(b=1) t 
GR
GR
GS
[0.75 0 0 0.75 0 0] CT
0 0.447 0.741 RC
[10 6] 0 setdash
2 LJ
0.667 LW
N
655 285.972 M
695 285.972 L
S
GR
GS
[0.75 0 0 0.75 523.5 231.31675] CT
/Times-Roman 19.2 F
GS
[1 0 0 1 0 0] CT
0 7 moveto 
1 -1 scale
(b=2) t 
GR
GR
GS
[0.75 0 0 0.75 0 0] CT
0.851 0.325 0.098 RC
1 LJ
0.667 LW
N
655 308.422 M
695 308.422 L
S
GR
GS
[0.75 0 0 0.75 523.5 248.15481] CT
/Times-Roman 19.2 F
GS
[1 0 0 1 0 0] CT
0 7 moveto 
1 -1 scale
(b=4) t 
GR
GR
GS
[0.75 0 0 0.75 0 0] CT
0.929 0.694 0.125 RC
1 LJ
0.667 LW
N
655 330.873 M
695 330.873 L
S
GR
GS
[0.75 0 0 0.75 523.5 264.99289] CT
/Times-Roman 19.2 F
GS
[1 0 0 1 0 0] CT
0 7 moveto 
1 -1 scale
(b=6) t 
GR
GR
GS
[0.75 0 0 0.75 0 0] CT
0.494 0.184 0.557 RC
1 LJ
0.667 LW
N
655 353.324 M
695 353.324 L
S
GR
GS
[0.75 0 0 0.75 523.5 281.83097] CT
/Times-Roman 19.2 F
GS
[1 0 0 1 0 0] CT
0 7 moveto 
1 -1 scale
(b=8) t 
GR
GR
GS
[0.75 0 0 0.75 0 0] CT
0.467 0.675 0.188 RC
1 LJ
0.667 LW
N
655 375.775 M
695 375.775 L
S
GR
GS
[0.75 0 0 0.75 523.5 298.66903] CT
/Times-Roman 19.2 F
GS
[1 0 0 1 0 0] CT
0 7 moveto 
1 -1 scale
(b=10) t 
GR
GR
GS
[0.75 0 0 0.75 0 0] CT
0.302 0.745 0.933 RC
1 LJ
0.667 LW
N
655 398.225 M
695 398.225 L
S
GR
GS
[0.75 0 0 0.75 523.5 315.50711] CT
/Times-Roman 19.2 F
GS
[1 0 0 1 0 0] CT
0 7 moveto 
1 -1 scale
(b=50) t 
GR
GR
GS
[0.75 0 0 0.75 0 0] CT
0.635 0.078 0.184 RC
1 LJ
0.667 LW
N
655 420.676 M
695 420.676 L
S
GR
GS
[0.75 0 0 0.75 523.5 332.34519] CT
/Times-Roman 19.2 F
GS
[1 0 0 1 0 0] CT
0 7 moveto 
1 -1 scale
(b=100) t 
GR
GR
GS
[0.75 0 0 0.75 0 0] CT
0 0.447 0.741 RC
1 LJ
0.667 LW
N
655 443.127 M
695 443.127 L
S
GR
GS
[0.75 0 0 0.75 523.5 349.18325] CT
/Times-Roman 19.2 F
GS
[1 0 0 1 0 0] CT
0 7 moveto 
1 -1 scale
(b=500) t 
GR
GR
GS
[0.75 0 0 0.75 0 0] CT
0.851 0.325 0.098 RC
1 LJ
0.667 LW
N
655 465.578 M
695 465.578 L
S
GR
GS
[0.75 0 0 0.75 523.5 366.02133] CT
/Times-Roman 19.2 F
GS
[1 0 0 1 0 0] CT
0 7 moveto 
1 -1 scale
(b=10000) t 
GR
GR
GS
[0.75 0 0 0.75 0 0] CT
0.929 0.694 0.125 RC
[10 6] 0 setdash
2 LJ
0.667 LW
N
655 488.028 M
695 488.028 L
S
GR
GS
[0.75 0 0 0.75 0 0] CT
0.149 GC
10.0 ML
0.667 LW
N
651 501 M
651 273 L
771 273 L
771 501 L
cp
S
GR
%%Trailer
%%Pages: 1
%%EOF
