%!PS-Adobe-3.0 EPSF-3.0
%%Creator: (MATLAB, The Mathworks, Inc. Version 9.14.0.2206163 \(R2023a\). Operating System: Mac OS X)
%%Title: /Users/A/Library/CloudStorage/OneDrive-ETHZ/Research_MasterThesis/AllCodeFiles/Figures/new2.eps
%%CreationDate: 2023-05-02T22:12:24
%%Pages: (atend)
%%BoundingBox:    17     2   607   406
%%LanguageLevel: 3
%%EndComments
%%BeginProlog
%%BeginResource: procset (Apache XML Graphics Std ProcSet) 1.2 0
%%Version: 1.2 0
%%Copyright: (Copyright 2001-2003,2010 The Apache Software Foundation. License terms: http://www.apache.org/licenses/LICENSE-2.0)
/bd{bind def}bind def
/ld{load def}bd
/GR/grestore ld
/GS/gsave ld
/RM/rmoveto ld
/C/curveto ld
/t/show ld
/L/lineto ld
/ML/setmiterlimit ld
/CT/concat ld
/f/fill ld
/N/newpath ld
/S/stroke ld
/CC/setcmykcolor ld
/A/ashow ld
/cp/closepath ld
/RC/setrgbcolor ld
/LJ/setlinejoin ld
/GC/setgray ld
/LW/setlinewidth ld
/M/moveto ld
/re {4 2 roll M
1 index 0 rlineto
0 exch rlineto
neg 0 rlineto
cp } bd
/_ctm matrix def
/_tm matrix def
/BT { _ctm currentmatrix pop matrix _tm copy pop 0 0 moveto } bd
/ET { _ctm setmatrix } bd
/iTm { _ctm setmatrix _tm concat } bd
/Tm { _tm astore pop iTm 0 0 moveto } bd
/ux 0.0 def
/uy 0.0 def
/F {
  /Tp exch def
  /Tf exch def
  Tf findfont Tp scalefont setfont
  /cf Tf def  /cs Tp def
} bd
/ULS {currentpoint /uy exch def /ux exch def} bd
/ULE {
  /Tcx currentpoint pop def
  gsave
  newpath
  cf findfont cs scalefont dup
  /FontMatrix get 0 get /Ts exch def /FontInfo get dup
  /UnderlinePosition get Ts mul /To exch def
  /UnderlineThickness get Ts mul /Tt exch def
  ux uy To add moveto  Tcx uy To add lineto
  Tt setlinewidth stroke
  grestore
} bd
/OLE {
  /Tcx currentpoint pop def
  gsave
  newpath
  cf findfont cs scalefont dup
  /FontMatrix get 0 get /Ts exch def /FontInfo get dup
  /UnderlinePosition get Ts mul /To exch def
  /UnderlineThickness get Ts mul /Tt exch def
  ux uy To add cs add moveto Tcx uy To add cs add lineto
  Tt setlinewidth stroke
  grestore
} bd
/SOE {
  /Tcx currentpoint pop def
  gsave
  newpath
  cf findfont cs scalefont dup
  /FontMatrix get 0 get /Ts exch def /FontInfo get dup
  /UnderlinePosition get Ts mul /To exch def
  /UnderlineThickness get Ts mul /Tt exch def
  ux uy To add cs 10 mul 26 idiv add moveto Tcx uy To add cs 10 mul 26 idiv add lineto
  Tt setlinewidth stroke
  grestore
} bd
/QT {
/Y22 exch store
/X22 exch store
/Y21 exch store
/X21 exch store
currentpoint
/Y21 load 2 mul add 3 div exch
/X21 load 2 mul add 3 div exch
/X21 load 2 mul /X22 load add 3 div
/Y21 load 2 mul /Y22 load add 3 div
/X22 load /Y22 load curveto
} bd
/SSPD {
dup length /d exch dict def
{
/v exch def
/k exch def
currentpagedevice k known {
/cpdv currentpagedevice k get def
v cpdv ne {
/upd false def
/nullv v type /nulltype eq def
/nullcpdv cpdv type /nulltype eq def
nullv nullcpdv or
{
/upd true def
} {
/sametype v type cpdv type eq def
sametype {
v type /arraytype eq {
/vlen v length def
/cpdvlen cpdv length def
vlen cpdvlen eq {
0 1 vlen 1 sub {
/i exch def
/obj v i get def
/cpdobj cpdv i get def
obj cpdobj ne {
/upd true def
exit
} if
} for
} {
/upd true def
} ifelse
} {
v type /dicttype eq {
v {
/dv exch def
/dk exch def
/cpddv cpdv dk get def
dv cpddv ne {
/upd true def
exit
} if
} forall
} {
/upd true def
} ifelse
} ifelse
} if
} ifelse
upd true eq {
d k v put
} if
} if
} if
} forall
d length 0 gt {
d setpagedevice
} if
} bd
/RE { % /NewFontName [NewEncodingArray] /FontName RE -
  findfont dup length dict begin
  {
    1 index /FID ne
    {def} {pop pop} ifelse
  } forall
  /Encoding exch def
  /FontName 1 index def
  currentdict definefont pop
  end
} bind def
%%EndResource
%%BeginResource: procset (Apache XML Graphics EPS ProcSet) 1.0 0
%%Version: 1.0 0
%%Copyright: (Copyright 2002-2003 The Apache Software Foundation. License terms: http://www.apache.org/licenses/LICENSE-2.0)
/BeginEPSF { %def
/b4_Inc_state save def         % Save state for cleanup
/dict_count countdictstack def % Count objects on dict stack
/op_count count 1 sub def      % Count objects on operand stack
userdict begin                 % Push userdict on dict stack
/showpage { } def              % Redefine showpage, { } = null proc
0 setgray 0 setlinecap         % Prepare graphics state
1 setlinewidth 0 setlinejoin
10 setmiterlimit [ ] 0 setdash newpath
/languagelevel where           % If level not equal to 1 then
{pop languagelevel             % set strokeadjust and
1 ne                           % overprint to their defaults.
{false setstrokeadjust false setoverprint
} if
} if
} bd
/EndEPSF { %def
count op_count sub {pop} repeat            % Clean up stacks
countdictstack dict_count sub {end} repeat
b4_Inc_state restore
} bd
%%EndResource
%FOPBeginFontDict
%%IncludeResource: font Courier-Oblique
%%IncludeResource: font Courier-BoldOblique
%%IncludeResource: font Courier-Bold
%%IncludeResource: font ZapfDingbats
%%IncludeResource: font Symbol
%%IncludeResource: font Helvetica
%%IncludeResource: font Helvetica-Oblique
%%IncludeResource: font Helvetica-Bold
%%IncludeResource: font Helvetica-BoldOblique
%%IncludeResource: font Times-Roman
%%IncludeResource: font Times-Italic
%%IncludeResource: font Times-Bold
%%IncludeResource: font Times-BoldItalic
%%IncludeResource: font Courier
%FOPEndFontDict
%%BeginResource: encoding WinAnsiEncoding
/WinAnsiEncoding [
/.notdef /.notdef /.notdef /.notdef /.notdef
/.notdef /.notdef /.notdef /.notdef /.notdef
/.notdef /.notdef /.notdef /.notdef /.notdef
/.notdef /.notdef /.notdef /.notdef /.notdef
/.notdef /.notdef /.notdef /.notdef /.notdef
/.notdef /.notdef /.notdef /.notdef /.notdef
/.notdef /.notdef /space /exclam /quotedbl
/numbersign /dollar /percent /ampersand /quotesingle
/parenleft /parenright /asterisk /plus /comma
/hyphen /period /slash /zero /one
/two /three /four /five /six
/seven /eight /nine /colon /semicolon
/less /equal /greater /question /at
/A /B /C /D /E
/F /G /H /I /J
/K /L /M /N /O
/P /Q /R /S /T
/U /V /W /X /Y
/Z /bracketleft /backslash /bracketright /asciicircum
/underscore /quoteleft /a /b /c
/d /e /f /g /h
/i /j /k /l /m
/n /o /p /q /r
/s /t /u /v /w
/x /y /z /braceleft /bar
/braceright /asciitilde /bullet /Euro /bullet
/quotesinglbase /florin /quotedblbase /ellipsis /dagger
/daggerdbl /circumflex /perthousand /Scaron /guilsinglleft
/OE /bullet /Zcaron /bullet /bullet
/quoteleft /quoteright /quotedblleft /quotedblright /bullet
/endash /emdash /asciitilde /trademark /scaron
/guilsinglright /oe /bullet /zcaron /Ydieresis
/space /exclamdown /cent /sterling /currency
/yen /brokenbar /section /dieresis /copyright
/ordfeminine /guillemotleft /logicalnot /sfthyphen /registered
/macron /degree /plusminus /twosuperior /threesuperior
/acute /mu /paragraph /middot /cedilla
/onesuperior /ordmasculine /guillemotright /onequarter /onehalf
/threequarters /questiondown /Agrave /Aacute /Acircumflex
/Atilde /Adieresis /Aring /AE /Ccedilla
/Egrave /Eacute /Ecircumflex /Edieresis /Igrave
/Iacute /Icircumflex /Idieresis /Eth /Ntilde
/Ograve /Oacute /Ocircumflex /Otilde /Odieresis
/multiply /Oslash /Ugrave /Uacute /Ucircumflex
/Udieresis /Yacute /Thorn /germandbls /agrave
/aacute /acircumflex /atilde /adieresis /aring
/ae /ccedilla /egrave /eacute /ecircumflex
/edieresis /igrave /iacute /icircumflex /idieresis
/eth /ntilde /ograve /oacute /ocircumflex
/otilde /odieresis /divide /oslash /ugrave
/uacute /ucircumflex /udieresis /yacute /thorn
/ydieresis
] def
%%EndResource
%FOPBeginFontReencode
/Courier-Oblique findfont
dup length dict begin
  {1 index /FID ne {def} {pop pop} ifelse} forall
  /Encoding WinAnsiEncoding def
  currentdict
end
/Courier-Oblique exch definefont pop
/Courier-BoldOblique findfont
dup length dict begin
  {1 index /FID ne {def} {pop pop} ifelse} forall
  /Encoding WinAnsiEncoding def
  currentdict
end
/Courier-BoldOblique exch definefont pop
/Courier-Bold findfont
dup length dict begin
  {1 index /FID ne {def} {pop pop} ifelse} forall
  /Encoding WinAnsiEncoding def
  currentdict
end
/Courier-Bold exch definefont pop
/Helvetica findfont
dup length dict begin
  {1 index /FID ne {def} {pop pop} ifelse} forall
  /Encoding WinAnsiEncoding def
  currentdict
end
/Helvetica exch definefont pop
/Helvetica-Oblique findfont
dup length dict begin
  {1 index /FID ne {def} {pop pop} ifelse} forall
  /Encoding WinAnsiEncoding def
  currentdict
end
/Helvetica-Oblique exch definefont pop
/Helvetica-Bold findfont
dup length dict begin
  {1 index /FID ne {def} {pop pop} ifelse} forall
  /Encoding WinAnsiEncoding def
  currentdict
end
/Helvetica-Bold exch definefont pop
/Helvetica-BoldOblique findfont
dup length dict begin
  {1 index /FID ne {def} {pop pop} ifelse} forall
  /Encoding WinAnsiEncoding def
  currentdict
end
/Helvetica-BoldOblique exch definefont pop
/Times-Roman findfont
dup length dict begin
  {1 index /FID ne {def} {pop pop} ifelse} forall
  /Encoding WinAnsiEncoding def
  currentdict
end
/Times-Roman exch definefont pop
/Times-Italic findfont
dup length dict begin
  {1 index /FID ne {def} {pop pop} ifelse} forall
  /Encoding WinAnsiEncoding def
  currentdict
end
/Times-Italic exch definefont pop
/Times-Bold findfont
dup length dict begin
  {1 index /FID ne {def} {pop pop} ifelse} forall
  /Encoding WinAnsiEncoding def
  currentdict
end
/Times-Bold exch definefont pop
/Times-BoldItalic findfont
dup length dict begin
  {1 index /FID ne {def} {pop pop} ifelse} forall
  /Encoding WinAnsiEncoding def
  currentdict
end
/Times-BoldItalic exch definefont pop
/Courier findfont
dup length dict begin
  {1 index /FID ne {def} {pop pop} ifelse} forall
  /Encoding WinAnsiEncoding def
  currentdict
end
/Courier exch definefont pop
%FOPEndFontReencode
%%EndProlog
%%Page: 1 1
%%PageBoundingBox: 0 0 648 432
%%BeginPageSetup
N
   17     2 M
  624     2 L
  624   408 L
   17   408 L
cp
clip
[1 0 0 -1 0 432] CT
%%EndPageSetup
GS
1 GC
N
0 0 648 432 re
f
GR
GS
1 GC
N
0 0 648 432 re
f
GR
GS
1 GC
N
65.5 384.5 M
457 384.5 L
457 32.5 L
65.5 32.5 L
cp
f
GR
GS
0.873 GC
1 LJ
0.5 LW
N
65.5 384.5 M
65.5 32.5 L
S
GR
GS
0.873 GC
1 LJ
0.5 LW
N
143.8 384.5 M
143.8 32.5 L
S
GR
GS
0.873 GC
1 LJ
0.5 LW
N
222.1 384.5 M
222.1 32.5 L
S
GR
GS
0.873 GC
1 LJ
0.5 LW
N
300.4 384.5 M
300.4 32.5 L
S
GR
GS
0.873 GC
1 LJ
0.5 LW
N
378.7 384.5 M
378.7 32.5 L
S
GR
GS
0.873 GC
1 LJ
0.5 LW
N
457 384.5 M
457 32.5 L
S
GR
GS
0.851 GC
1 LJ
0.5 LW
N
457 384.5 M
65.5 384.5 L
S
GR
GS
0.851 GC
1 LJ
0.5 LW
N
457 349.3 M
65.5 349.3 L
S
GR
GS
0.851 GC
1 LJ
0.5 LW
N
457 314.1 M
65.5 314.1 L
S
GR
GS
0.851 GC
1 LJ
0.5 LW
N
457 278.9 M
65.5 278.9 L
S
GR
GS
0.851 GC
1 LJ
0.5 LW
N
457 243.7 M
65.5 243.7 L
S
GR
GS
0.851 GC
1 LJ
0.5 LW
N
457 208.5 M
65.5 208.5 L
S
GR
GS
0.851 GC
1 LJ
0.5 LW
N
457 173.3 M
65.5 173.3 L
S
GR
GS
0.851 GC
1 LJ
0.5 LW
N
457 138.1 M
65.5 138.1 L
S
GR
GS
0.851 GC
1 LJ
0.5 LW
N
457 102.9 M
65.5 102.9 L
S
GR
GS
0.851 GC
1 LJ
0.5 LW
N
457 67.7 M
65.5 67.7 L
S
GR
GS
0.851 GC
1 LJ
0.5 LW
N
457 32.5 M
65.5 32.5 L
S
GR
GS
0.149 GC
2 setlinecap
1 LJ
0.5 LW
N
65.5 384.5 M
457 384.5 L
S
GR
GS
0.149 GC
2 setlinecap
1 LJ
0.5 LW
N
65.5 32.5 M
457 32.5 L
S
GR
GS
0.149 GC
2 setlinecap
1 LJ
0.5 LW
N
65.5 384.5 M
65.5 380.585 L
S
GR
GS
0.149 GC
2 setlinecap
1 LJ
0.5 LW
N
143.8 384.5 M
143.8 380.585 L
S
GR
GS
0.149 GC
2 setlinecap
1 LJ
0.5 LW
N
222.1 384.5 M
222.1 380.585 L
S
GR
GS
0.149 GC
2 setlinecap
1 LJ
0.5 LW
N
300.4 384.5 M
300.4 380.585 L
S
GR
GS
0.149 GC
2 setlinecap
1 LJ
0.5 LW
N
378.7 384.5 M
378.7 380.585 L
S
GR
GS
0.149 GC
2 setlinecap
1 LJ
0.5 LW
N
457 384.5 M
457 380.585 L
S
GR
GS
0.149 GC
2 setlinecap
1 LJ
0.5 LW
N
65.5 32.5 M
65.5 36.415 L
S
GR
GS
0.149 GC
2 setlinecap
1 LJ
0.5 LW
N
143.8 32.5 M
143.8 36.415 L
S
GR
GS
0.149 GC
2 setlinecap
1 LJ
0.5 LW
N
222.1 32.5 M
222.1 36.415 L
S
GR
GS
0.149 GC
2 setlinecap
1 LJ
0.5 LW
N
300.4 32.5 M
300.4 36.415 L
S
GR
GS
0.149 GC
2 setlinecap
1 LJ
0.5 LW
N
378.7 32.5 M
378.7 36.415 L
S
GR
GS
0.149 GC
2 setlinecap
1 LJ
0.5 LW
N
457 32.5 M
457 36.415 L
S
GR
GS
[1 0 0 1 65.5 389.70001] CT
0.149 GC
/Times-Roman 16 F
GS
[1 0 0 1 0 0] CT
-4 15 moveto 
1 -1 scale
(0) t 
GR
GR
GS
[1 0 0 1 143.8 389.70001] CT
0.149 GC
/Times-Roman 16 F
GS
[1 0 0 1 0 0] CT
-10 15 moveto 
1 -1 scale
(0.2) t 
GR
GR
GS
[1 0 0 1 222.10001 389.70001] CT
0.149 GC
/Times-Roman 16 F
GS
[1 0 0 1 0 0] CT
-10 15 moveto 
1 -1 scale
(0.4) t 
GR
GR
GS
[1 0 0 1 300.40002 389.70001] CT
0.149 GC
/Times-Roman 16 F
GS
[1 0 0 1 0 0] CT
-10 15 moveto 
1 -1 scale
(0.6) t 
GR
GR
GS
[1 0 0 1 378.70001 389.70001] CT
0.149 GC
/Times-Roman 16 F
GS
[1 0 0 1 0 0] CT
-10 15 moveto 
1 -1 scale
(0.8) t 
GR
GR
GS
[1 0 0 1 457 389.70001] CT
0.149 GC
/Times-Roman 16 F
GS
[1 0 0 1 0 0] CT
-4 15 moveto 
1 -1 scale
(1) t 
GR
GR
GS
[1 0 0 1 261.25018 408.70001] CT
0.149 GC
N
-150.923 16.179 M
-154.798 4.257 L
-154.939 3.851 -155.369 3.749 QT
-155.798 3.647 -156.486 3.647 QT
-156.486 2.976 L
-151.392 2.976 L
-151.392 3.647 L
-152.986 3.647 -152.986 4.163 QT
-152.986 4.257 L
-149.954 13.601 L
-147.361 5.601 L
-147.798 4.257 L
-147.954 3.851 -148.376 3.749 QT
-148.798 3.647 -149.486 3.647 QT
-149.486 2.976 L
-144.408 2.976 L
-144.408 3.647 L
-146.017 3.647 -146.017 4.163 QT
-146.017 4.194 -146.001 4.249 QT
-145.986 4.304 -145.986 4.319 QT
-142.954 13.601 L
-140.111 4.772 L
-140.095 4.71 -140.095 4.601 QT
-140.095 4.101 -140.626 3.874 QT
-141.158 3.647 -141.72 3.647 QT
-141.72 2.976 L
-137.658 2.976 L
-137.658 3.647 L
-139.158 3.647 -139.517 4.772 QT
-143.236 16.179 L
-143.298 16.382 -143.501 16.382 QT
-143.642 16.382 L
-143.861 16.382 -143.923 16.179 QT
-147.064 6.491 L
-150.22 16.179 L
-150.283 16.382 -150.501 16.382 QT
-150.626 16.382 L
-150.861 16.382 -150.923 16.179 QT
cp
f
GR
GS
[1 0 0 1 261.25018 408.70001] CT
0.149 GC
N
-136.724 15.96 M
-136.724 15.288 L
-136.067 15.288 -135.653 15.186 QT
-135.239 15.085 -135.239 14.694 QT
-135.239 9.507 L
-135.239 8.772 -135.52 8.601 QT
-135.802 8.429 -136.63 8.429 QT
-136.63 7.772 L
-133.895 7.569 L
-133.895 14.694 L
-133.895 15.085 -133.536 15.186 QT
-133.177 15.288 -132.567 15.288 QT
-132.567 15.96 L
-136.724 15.96 L
cp
-135.911 4.304 M
-135.911 3.882 -135.599 3.569 QT
-135.286 3.257 -134.864 3.257 QT
-134.599 3.257 -134.349 3.39 QT
-134.099 3.522 -133.958 3.772 QT
-133.817 4.022 -133.817 4.304 QT
-133.817 4.71 -134.138 5.022 QT
-134.458 5.335 -134.864 5.335 QT
-135.286 5.335 -135.599 5.022 QT
-135.911 4.71 -135.911 4.304 QT
cp
f
GR
GS
[1 0 0 1 261.25018 408.70001] CT
0.149 GC
N
-131.461 15.96 M
-131.461 15.288 L
-130.805 15.288 -130.391 15.186 QT
-129.977 15.085 -129.977 14.694 QT
-129.977 9.507 L
-129.977 8.991 -130.125 8.765 QT
-130.274 8.538 -130.563 8.483 QT
-130.852 8.429 -131.461 8.429 QT
-131.461 7.772 L
-128.696 7.569 L
-128.696 9.413 L
-128.321 8.601 -127.571 8.085 QT
-126.821 7.569 -125.946 7.569 QT
-124.633 7.569 -123.969 8.194 QT
-123.305 8.819 -123.305 10.132 QT
-123.305 14.694 L
-123.305 15.085 -122.883 15.186 QT
-122.461 15.288 -121.821 15.288 QT
-121.821 15.96 L
-126.164 15.96 L
-126.164 15.288 L
-125.524 15.288 -125.102 15.186 QT
-124.68 15.085 -124.68 14.694 QT
-124.68 10.179 L
-124.68 9.257 -124.954 8.655 QT
-125.227 8.054 -126.055 8.054 QT
-127.164 8.054 -127.875 8.936 QT
-128.586 9.819 -128.586 10.944 QT
-128.586 14.694 L
-128.586 15.085 -128.164 15.186 QT
-127.743 15.288 -127.102 15.288 QT
-127.102 15.96 L
-131.461 15.96 L
cp
f
GR
GS
[1 0 0 1 261.25018 408.70001] CT
0.149 GC
N
-116.828 16.179 M
-117.953 16.179 -118.882 15.569 QT
-119.812 14.96 -120.328 13.968 QT
-120.843 12.976 -120.843 11.866 QT
-120.843 10.71 -120.281 9.718 QT
-119.718 8.726 -118.75 8.147 QT
-117.781 7.569 -116.625 7.569 QT
-115.937 7.569 -115.312 7.858 QT
-114.687 8.147 -114.234 8.663 QT
-114.234 4.71 L
-114.234 4.21 -114.382 3.983 QT
-114.531 3.757 -114.82 3.702 QT
-115.109 3.647 -115.703 3.647 QT
-115.703 2.976 L
-112.89 2.772 L
-112.89 14.241 L
-112.89 14.741 -112.742 14.968 QT
-112.593 15.194 -112.312 15.241 QT
-112.031 15.288 -111.421 15.288 QT
-111.421 15.96 L
-114.281 16.179 L
-114.281 14.976 L
-114.781 15.538 -115.46 15.858 QT
-116.14 16.179 -116.828 16.179 QT
cp
-118.765 14.304 M
-118.437 14.929 -117.898 15.304 QT
-117.359 15.679 -116.718 15.679 QT
-115.937 15.679 -115.273 15.218 QT
-114.609 14.757 -114.281 14.038 QT
-114.281 9.491 L
-114.515 9.069 -114.851 8.741 QT
-115.187 8.413 -115.609 8.233 QT
-116.031 8.054 -116.5 8.054 QT
-117.5 8.054 -118.101 8.616 QT
-118.703 9.179 -118.945 10.054 QT
-119.187 10.929 -119.187 11.882 QT
-119.187 12.632 -119.109 13.202 QT
-119.031 13.772 -118.765 14.304 QT
cp
f
GR
GS
[1 0 0 1 261.25018 408.70001] CT
0.149 GC
N
-103.954 15.96 M
-103.954 15.288 L
-101.986 15.288 -101.986 14.694 QT
-101.986 4.257 L
-101.986 3.647 -103.954 3.647 QT
-103.954 2.976 L
-97.189 2.976 L
-96.142 2.976 -95.103 3.405 QT
-94.064 3.835 -93.392 4.647 QT
-92.72 5.46 -92.72 6.554 QT
-92.72 7.616 -93.4 8.413 QT
-94.079 9.21 -95.111 9.624 QT
-96.142 10.038 -97.189 10.038 QT
-100.236 10.038 L
-100.236 14.694 L
-100.236 15.288 -98.267 15.288 QT
-98.267 15.96 L
-103.954 15.96 L
cp
-100.282 9.46 M
-97.704 9.46 L
-96.657 9.46 -96.009 9.163 QT
-95.361 8.866 -95.056 8.226 QT
-94.751 7.585 -94.751 6.554 QT
-94.751 5.007 -95.431 4.327 QT
-96.111 3.647 -97.704 3.647 QT
-99.314 3.647 L
-99.657 3.647 -99.853 3.679 QT
-100.048 3.71 -100.165 3.843 QT
-100.282 3.976 -100.282 4.257 QT
-100.282 9.46 L
cp
f
GR
GS
[1 0 0 1 261.25018 408.70001] CT
0.149 GC
N
-87.427 16.179 M
-88.567 16.179 -89.544 15.593 QT
-90.52 15.007 -91.083 14.038 QT
-91.645 13.069 -91.645 11.913 QT
-91.645 11.038 -91.333 10.233 QT
-91.02 9.429 -90.442 8.796 QT
-89.864 8.163 -89.098 7.804 QT
-88.333 7.444 -87.427 7.444 QT
-86.255 7.444 -85.294 8.061 QT
-84.333 8.679 -83.778 9.71 QT
-83.223 10.741 -83.223 11.913 QT
-83.223 13.054 -83.786 14.03 QT
-84.348 15.007 -85.325 15.593 QT
-86.302 16.179 -87.427 16.179 QT
cp
-87.427 15.616 M
-85.911 15.616 -85.395 14.515 QT
-84.88 13.413 -84.88 11.694 QT
-84.88 10.741 -84.981 10.116 QT
-85.083 9.491 -85.427 8.976 QT
-85.645 8.663 -85.973 8.429 QT
-86.302 8.194 -86.669 8.069 QT
-87.036 7.944 -87.427 7.944 QT
-88.02 7.944 -88.552 8.21 QT
-89.083 8.476 -89.442 8.976 QT
-89.786 9.522 -89.887 10.163 QT
-89.989 10.804 -89.989 11.694 QT
-89.989 12.772 -89.802 13.616 QT
-89.614 14.46 -89.052 15.038 QT
-88.489 15.616 -87.427 15.616 QT
cp
f
GR
GS
[1 0 0 1 261.25018 408.70001] CT
0.149 GC
N
-79.001 15.96 M
-81.454 9.054 L
-81.626 8.632 -81.939 8.53 QT
-82.251 8.429 -82.861 8.429 QT
-82.861 7.772 L
-78.939 7.772 L
-78.939 8.429 L
-80.064 8.429 -80.064 8.913 QT
-80.064 8.944 -80.056 8.968 QT
-80.048 8.991 -80.048 9.054 QT
-78.22 14.163 L
-76.642 9.71 L
-76.892 9.054 L
-77.048 8.632 -77.368 8.53 QT
-77.689 8.429 -78.282 8.429 QT
-78.282 7.772 L
-74.532 7.772 L
-74.532 8.429 L
-75.657 8.429 -75.657 8.913 QT
-75.657 8.976 -75.642 9.054 QT
-73.736 14.397 L
-72.017 9.554 L
-71.986 9.413 -71.986 9.288 QT
-71.986 8.897 -72.322 8.663 QT
-72.657 8.429 -73.079 8.429 QT
-73.079 7.772 L
-69.845 7.772 L
-69.845 8.429 L
-70.423 8.429 -70.837 8.733 QT
-71.251 9.038 -71.439 9.554 QT
-73.704 15.96 L
-73.767 16.179 -73.986 16.179 QT
-74.142 16.179 L
-74.361 16.179 -74.423 15.96 QT
-76.345 10.538 L
-78.267 15.96 L
-78.361 16.179 -78.564 16.179 QT
-78.704 16.179 L
-78.939 16.179 -79.001 15.96 QT
cp
f
GR
GS
[1 0 0 1 261.25018 408.70001] CT
0.149 GC
N
-65.276 16.179 M
-66.432 16.179 -67.401 15.569 QT
-68.369 14.96 -68.924 13.944 QT
-69.479 12.929 -69.479 11.788 QT
-69.479 10.679 -68.971 9.679 QT
-68.463 8.679 -67.565 8.061 QT
-66.666 7.444 -65.541 7.444 QT
-64.682 7.444 -64.033 7.733 QT
-63.385 8.022 -62.971 8.546 QT
-62.557 9.069 -62.338 9.772 QT
-62.119 10.476 -62.119 11.319 QT
-62.119 11.569 -62.322 11.569 QT
-67.822 11.569 L
-67.822 11.772 L
-67.822 13.351 -67.19 14.483 QT
-66.557 15.616 -65.104 15.616 QT
-64.526 15.616 -64.033 15.358 QT
-63.541 15.101 -63.174 14.632 QT
-62.807 14.163 -62.666 13.647 QT
-62.651 13.569 -62.604 13.522 QT
-62.557 13.476 -62.479 13.476 QT
-62.322 13.476 L
-62.119 13.476 -62.119 13.71 QT
-62.401 14.788 -63.291 15.483 QT
-64.182 16.179 -65.276 16.179 QT
cp
-67.807 11.101 M
-63.463 11.101 L
-63.463 10.382 -63.666 9.647 QT
-63.869 8.913 -64.33 8.429 QT
-64.791 7.944 -65.541 7.944 QT
-66.619 7.944 -67.213 8.952 QT
-67.807 9.96 -67.807 11.101 QT
cp
f
GR
GS
[1 0 0 1 261.25018 408.70001] CT
0.149 GC
N
-61.081 15.96 M
-61.081 15.288 L
-60.425 15.288 -60.011 15.186 QT
-59.597 15.085 -59.597 14.694 QT
-59.597 9.507 L
-59.597 8.991 -59.745 8.765 QT
-59.894 8.538 -60.183 8.483 QT
-60.472 8.429 -61.081 8.429 QT
-61.081 7.772 L
-58.362 7.569 L
-58.362 9.413 L
-58.05 8.601 -57.487 8.085 QT
-56.925 7.569 -56.112 7.569 QT
-55.55 7.569 -55.104 7.897 QT
-54.659 8.226 -54.659 8.772 QT
-54.659 9.116 -54.901 9.374 QT
-55.144 9.632 -55.503 9.632 QT
-55.862 9.632 -56.112 9.382 QT
-56.362 9.132 -56.362 8.772 QT
-56.362 8.272 -56.003 8.054 QT
-56.112 8.054 L
-56.878 8.054 -57.362 8.608 QT
-57.847 9.163 -58.058 9.991 QT
-58.269 10.819 -58.269 11.569 QT
-58.269 14.694 L
-58.269 15.288 -56.409 15.288 QT
-56.409 15.96 L
-61.081 15.96 L
cp
f
GR
GS
[1 0 0 1 261.25018 408.70001] CT
0.149 GC
N
-47.165 15.96 M
-47.165 15.288 L
-45.197 15.288 -45.197 14.694 QT
-45.197 4.257 L
-45.197 3.647 -47.165 3.647 QT
-47.165 2.976 L
-40.4 2.976 L
-39.353 2.976 -38.314 3.405 QT
-37.275 3.835 -36.603 4.647 QT
-35.931 5.46 -35.931 6.554 QT
-35.931 7.616 -36.611 8.413 QT
-37.29 9.21 -38.322 9.624 QT
-39.353 10.038 -40.4 10.038 QT
-43.447 10.038 L
-43.447 14.694 L
-43.447 15.288 -41.478 15.288 QT
-41.478 15.96 L
-47.165 15.96 L
cp
-43.494 9.46 M
-40.915 9.46 L
-39.869 9.46 -39.22 9.163 QT
-38.572 8.866 -38.267 8.226 QT
-37.962 7.585 -37.962 6.554 QT
-37.962 5.007 -38.642 4.327 QT
-39.322 3.647 -40.915 3.647 QT
-42.525 3.647 L
-42.869 3.647 -43.064 3.679 QT
-43.259 3.71 -43.376 3.843 QT
-43.494 3.976 -43.494 4.257 QT
-43.494 9.46 L
cp
f
GR
GS
[1 0 0 1 261.25018 408.70001] CT
0.149 GC
N
-34.375 15.96 M
-34.375 15.288 L
-33.719 15.288 -33.305 15.186 QT
-32.891 15.085 -32.891 14.694 QT
-32.891 9.507 L
-32.891 8.991 -33.04 8.765 QT
-33.188 8.538 -33.477 8.483 QT
-33.766 8.429 -34.375 8.429 QT
-34.375 7.772 L
-31.657 7.569 L
-31.657 9.413 L
-31.344 8.601 -30.782 8.085 QT
-30.219 7.569 -29.407 7.569 QT
-28.844 7.569 -28.399 7.897 QT
-27.954 8.226 -27.954 8.772 QT
-27.954 9.116 -28.196 9.374 QT
-28.438 9.632 -28.797 9.632 QT
-29.157 9.632 -29.407 9.382 QT
-29.657 9.132 -29.657 8.772 QT
-29.657 8.272 -29.297 8.054 QT
-29.407 8.054 L
-30.172 8.054 -30.657 8.608 QT
-31.141 9.163 -31.352 9.991 QT
-31.563 10.819 -31.563 11.569 QT
-31.563 14.694 L
-31.563 15.288 -29.704 15.288 QT
-29.704 15.96 L
-34.375 15.96 L
cp
f
GR
GS
[1 0 0 1 261.25018 408.70001] CT
0.149 GC
N
-22.668 16.179 M
-23.809 16.179 -24.785 15.593 QT
-25.762 15.007 -26.324 14.038 QT
-26.887 13.069 -26.887 11.913 QT
-26.887 11.038 -26.574 10.233 QT
-26.262 9.429 -25.684 8.796 QT
-25.106 8.163 -24.34 7.804 QT
-23.574 7.444 -22.668 7.444 QT
-21.496 7.444 -20.535 8.061 QT
-19.574 8.679 -19.02 9.71 QT
-18.465 10.741 -18.465 11.913 QT
-18.465 13.054 -19.028 14.03 QT
-19.59 15.007 -20.567 15.593 QT
-21.543 16.179 -22.668 16.179 QT
cp
-22.668 15.616 M
-21.153 15.616 -20.637 14.515 QT
-20.121 13.413 -20.121 11.694 QT
-20.121 10.741 -20.223 10.116 QT
-20.324 9.491 -20.668 8.976 QT
-20.887 8.663 -21.215 8.429 QT
-21.543 8.194 -21.91 8.069 QT
-22.278 7.944 -22.668 7.944 QT
-23.262 7.944 -23.793 8.21 QT
-24.324 8.476 -24.684 8.976 QT
-25.028 9.522 -25.129 10.163 QT
-25.231 10.804 -25.231 11.694 QT
-25.231 12.772 -25.043 13.616 QT
-24.856 14.46 -24.293 15.038 QT
-23.731 15.616 -22.668 15.616 QT
cp
f
GR
GS
[1 0 0 1 261.25018 408.70001] CT
0.149 GC
N
-12.75 16.179 M
-13.875 16.179 -14.804 15.569 QT
-15.734 14.96 -16.25 13.968 QT
-16.765 12.976 -16.765 11.866 QT
-16.765 10.71 -16.203 9.718 QT
-15.64 8.726 -14.672 8.147 QT
-13.703 7.569 -12.547 7.569 QT
-11.859 7.569 -11.234 7.858 QT
-10.609 8.147 -10.156 8.663 QT
-10.156 4.71 L
-10.156 4.21 -10.304 3.983 QT
-10.453 3.757 -10.742 3.702 QT
-11.031 3.647 -11.625 3.647 QT
-11.625 2.976 L
-8.812 2.772 L
-8.812 14.241 L
-8.812 14.741 -8.664 14.968 QT
-8.515 15.194 -8.234 15.241 QT
-7.953 15.288 -7.343 15.288 QT
-7.343 15.96 L
-10.203 16.179 L
-10.203 14.976 L
-10.703 15.538 -11.383 15.858 QT
-12.062 16.179 -12.75 16.179 QT
cp
-14.687 14.304 M
-14.359 14.929 -13.82 15.304 QT
-13.281 15.679 -12.64 15.679 QT
-11.859 15.679 -11.195 15.218 QT
-10.531 14.757 -10.203 14.038 QT
-10.203 9.491 L
-10.437 9.069 -10.773 8.741 QT
-11.109 8.413 -11.531 8.233 QT
-11.953 8.054 -12.422 8.054 QT
-13.422 8.054 -14.023 8.616 QT
-14.625 9.179 -14.867 10.054 QT
-15.109 10.929 -15.109 11.882 QT
-15.109 12.632 -15.031 13.202 QT
-14.953 13.772 -14.687 14.304 QT
cp
f
GR
GS
[1 0 0 1 261.25018 408.70001] CT
0.149 GC
N
-4.788 13.694 M
-4.788 9.507 L
-4.788 8.991 -4.936 8.765 QT
-5.085 8.538 -5.374 8.483 QT
-5.663 8.429 -6.272 8.429 QT
-6.272 7.772 L
-3.397 7.569 L
-3.397 13.694 L
-3.397 14.444 -3.288 14.851 QT
-3.179 15.257 -2.835 15.468 QT
-2.491 15.679 -1.725 15.679 QT
-0.71 15.679 -0.1 14.819 QT
0.509 13.96 0.509 12.882 QT
0.509 9.507 L
0.509 8.991 0.345 8.765 QT
0.181 8.538 -0.1 8.483 QT
-0.382 8.429 -0.975 8.429 QT
-0.975 7.772 L
1.884 7.569 L
1.884 14.241 L
1.884 14.741 2.04 14.968 QT
2.196 15.194 2.486 15.241 QT
2.775 15.288 3.368 15.288 QT
3.368 15.96 L
0.556 16.179 L
0.556 14.569 L
0.212 15.288 -0.421 15.733 QT
-1.054 16.179 -1.819 16.179 QT
-3.179 16.179 -3.983 15.593 QT
-4.788 15.007 -4.788 13.694 QT
cp
f
GR
GS
[1 0 0 1 261.25018 408.70001] CT
0.149 GC
N
8.455 16.179 M
7.299 16.179 6.361 15.577 QT
5.424 14.976 4.885 13.976 QT
4.346 12.976 4.346 11.866 QT
4.346 10.741 4.885 9.71 QT
5.424 8.679 6.361 8.061 QT
7.299 7.444 8.455 7.444 QT
9.565 7.444 10.479 7.882 QT
11.393 8.319 11.393 9.304 QT
11.393 9.679 11.127 9.952 QT
10.861 10.226 10.486 10.226 QT
10.111 10.226 9.846 9.952 QT
9.58 9.679 9.58 9.304 QT
9.58 8.976 9.791 8.726 QT
10.002 8.476 10.315 8.413 QT
9.658 8.007 8.471 8.007 QT
7.565 8.007 7.01 8.608 QT
6.455 9.21 6.229 10.101 QT
6.002 10.991 6.002 11.866 QT
6.002 12.772 6.276 13.632 QT
6.549 14.491 7.158 15.054 QT
7.768 15.616 8.69 15.616 QT
9.58 15.616 10.213 15.061 QT
10.846 14.507 11.08 13.616 QT
11.08 13.507 11.221 13.507 QT
11.455 13.507 L
11.518 13.507 11.565 13.561 QT
11.611 13.616 11.611 13.679 QT
11.611 13.726 L
11.315 14.851 10.463 15.515 QT
9.611 16.179 8.455 16.179 QT
cp
f
GR
GS
[1 0 0 1 261.25018 408.70001] CT
0.149 GC
N
14.103 13.679 M
14.103 8.429 L
12.525 8.429 L
12.525 7.944 L
13.775 7.944 14.361 6.788 QT
14.947 5.632 14.947 4.272 QT
15.493 4.272 L
15.493 7.772 L
18.165 7.772 L
18.165 8.429 L
15.493 8.429 L
15.493 13.647 L
15.493 14.429 15.751 15.022 QT
16.009 15.616 16.697 15.616 QT
17.353 15.616 17.642 14.991 QT
17.931 14.366 17.931 13.647 QT
17.931 12.522 L
18.478 12.522 L
18.478 13.679 L
18.478 14.272 18.259 14.851 QT
18.04 15.429 17.611 15.804 QT
17.181 16.179 16.572 16.179 QT
15.431 16.179 14.767 15.491 QT
14.103 14.804 14.103 13.679 QT
cp
f
GR
GS
[1 0 0 1 261.25018 408.70001] CT
0.149 GC
N
20.132 15.96 M
20.132 15.288 L
20.789 15.288 21.203 15.186 QT
21.617 15.085 21.617 14.694 QT
21.617 9.507 L
21.617 8.772 21.335 8.601 QT
21.054 8.429 20.226 8.429 QT
20.226 7.772 L
22.96 7.569 L
22.96 14.694 L
22.96 15.085 23.32 15.186 QT
23.679 15.288 24.289 15.288 QT
24.289 15.96 L
20.132 15.96 L
cp
20.945 4.304 M
20.945 3.882 21.257 3.569 QT
21.57 3.257 21.992 3.257 QT
22.257 3.257 22.507 3.39 QT
22.757 3.522 22.898 3.772 QT
23.039 4.022 23.039 4.304 QT
23.039 4.71 22.718 5.022 QT
22.398 5.335 21.992 5.335 QT
21.57 5.335 21.257 5.022 QT
20.945 4.71 20.945 4.304 QT
cp
f
GR
GS
[1 0 0 1 261.25018 408.70001] CT
0.149 GC
N
29.582 16.179 M
28.441 16.179 27.465 15.593 QT
26.488 15.007 25.926 14.038 QT
25.363 13.069 25.363 11.913 QT
25.363 11.038 25.676 10.233 QT
25.988 9.429 26.566 8.796 QT
27.144 8.163 27.91 7.804 QT
28.676 7.444 29.582 7.444 QT
30.754 7.444 31.715 8.061 QT
32.676 8.679 33.23 9.71 QT
33.785 10.741 33.785 11.913 QT
33.785 13.054 33.223 14.03 QT
32.66 15.007 31.684 15.593 QT
30.707 16.179 29.582 16.179 QT
cp
29.582 15.616 M
31.098 15.616 31.613 14.515 QT
32.129 13.413 32.129 11.694 QT
32.129 10.741 32.027 10.116 QT
31.926 9.491 31.582 8.976 QT
31.363 8.663 31.035 8.429 QT
30.707 8.194 30.34 8.069 QT
29.973 7.944 29.582 7.944 QT
28.988 7.944 28.457 8.21 QT
27.926 8.476 27.566 8.976 QT
27.223 9.522 27.121 10.163 QT
27.019 10.804 27.019 11.694 QT
27.019 12.772 27.207 13.616 QT
27.394 14.46 27.957 15.038 QT
28.519 15.616 29.582 15.616 QT
cp
f
GR
GS
[1 0 0 1 261.25018 408.70001] CT
0.149 GC
N
34.894 15.96 M
34.894 15.288 L
35.551 15.288 35.965 15.186 QT
36.379 15.085 36.379 14.694 QT
36.379 9.507 L
36.379 8.991 36.23 8.765 QT
36.082 8.538 35.793 8.483 QT
35.504 8.429 34.894 8.429 QT
34.894 7.772 L
37.66 7.569 L
37.66 9.413 L
38.035 8.601 38.785 8.085 QT
39.535 7.569 40.41 7.569 QT
41.723 7.569 42.387 8.194 QT
43.051 8.819 43.051 10.132 QT
43.051 14.694 L
43.051 15.085 43.473 15.186 QT
43.894 15.288 44.535 15.288 QT
44.535 15.96 L
40.191 15.96 L
40.191 15.288 L
40.832 15.288 41.254 15.186 QT
41.676 15.085 41.676 14.694 QT
41.676 10.179 L
41.676 9.257 41.402 8.655 QT
41.129 8.054 40.301 8.054 QT
39.191 8.054 38.48 8.936 QT
37.769 9.819 37.769 10.944 QT
37.769 14.694 L
37.769 15.085 38.191 15.186 QT
38.613 15.288 39.254 15.288 QT
39.254 15.96 L
34.894 15.96 L
cp
f
GR
GS
[1 0 0 1 261.25018 408.70001] CT
0.149 GC
N
57.112 20.679 M
56.049 19.835 55.283 18.757 QT
54.518 17.679 54.033 16.452 QT
53.549 15.226 53.307 13.89 QT
53.065 12.554 53.065 11.21 QT
53.065 9.851 53.307 8.515 QT
53.549 7.179 54.049 5.944 QT
54.549 4.71 55.315 3.632 QT
56.08 2.554 57.112 1.741 QT
57.112 1.71 57.205 1.71 QT
57.377 1.71 L
57.44 1.71 57.487 1.765 QT
57.533 1.819 57.533 1.882 QT
57.533 1.96 57.487 1.991 QT
56.565 2.913 55.947 3.952 QT
55.33 4.991 54.955 6.163 QT
54.58 7.335 54.416 8.593 QT
54.252 9.851 54.252 11.21 QT
54.252 17.257 57.471 20.382 QT
57.533 20.444 57.533 20.538 QT
57.533 20.585 57.479 20.647 QT
57.424 20.71 57.377 20.71 QT
57.205 20.71 L
57.112 20.71 57.112 20.679 QT
cp
f
GR
GS
[1 0 0 1 261.25018 408.70001] CT
0.149 GC
N
59.172 15.96 M
59.172 15.288 L
59.829 15.288 60.243 15.186 QT
60.657 15.085 60.657 14.694 QT
60.657 9.507 L
60.657 8.991 60.508 8.765 QT
60.36 8.538 60.071 8.483 QT
59.782 8.429 59.172 8.429 QT
59.172 7.772 L
61.938 7.569 L
61.938 9.413 L
62.313 8.601 63.063 8.085 QT
63.813 7.569 64.688 7.569 QT
66 7.569 66.665 8.194 QT
67.329 8.819 67.329 10.132 QT
67.329 14.694 L
67.329 15.085 67.75 15.186 QT
68.172 15.288 68.813 15.288 QT
68.813 15.96 L
64.469 15.96 L
64.469 15.288 L
65.11 15.288 65.532 15.186 QT
65.954 15.085 65.954 14.694 QT
65.954 10.179 L
65.954 9.257 65.68 8.655 QT
65.407 8.054 64.579 8.054 QT
63.469 8.054 62.758 8.936 QT
62.047 9.819 62.047 10.944 QT
62.047 14.694 L
62.047 15.085 62.469 15.186 QT
62.891 15.288 63.532 15.288 QT
63.532 15.96 L
59.172 15.96 L
cp
f
GR
GS
[1 0 0 1 261.25018 408.70001] CT
0.149 GC
N
73.915 16.179 M
72.775 16.179 71.798 15.593 QT
70.822 15.007 70.259 14.038 QT
69.697 13.069 69.697 11.913 QT
69.697 11.038 70.009 10.233 QT
70.322 9.429 70.9 8.796 QT
71.478 8.163 72.244 7.804 QT
73.009 7.444 73.915 7.444 QT
75.087 7.444 76.048 8.061 QT
77.009 8.679 77.564 9.71 QT
78.119 10.741 78.119 11.913 QT
78.119 13.054 77.556 14.03 QT
76.994 15.007 76.017 15.593 QT
75.04 16.179 73.915 16.179 QT
cp
73.915 15.616 M
75.431 15.616 75.947 14.515 QT
76.462 13.413 76.462 11.694 QT
76.462 10.741 76.361 10.116 QT
76.259 9.491 75.915 8.976 QT
75.697 8.663 75.369 8.429 QT
75.04 8.194 74.673 8.069 QT
74.306 7.944 73.915 7.944 QT
73.322 7.944 72.79 8.21 QT
72.259 8.476 71.9 8.976 QT
71.556 9.522 71.454 10.163 QT
71.353 10.804 71.353 11.694 QT
71.353 12.772 71.54 13.616 QT
71.728 14.46 72.29 15.038 QT
72.853 15.616 73.915 15.616 QT
cp
f
GR
GS
[1 0 0 1 261.25018 408.70001] CT
0.149 GC
N
79.15 15.96 M
79.15 15.288 L
79.806 15.288 80.22 15.186 QT
80.634 15.085 80.634 14.694 QT
80.634 9.507 L
80.634 8.991 80.486 8.765 QT
80.337 8.538 80.048 8.483 QT
79.759 8.429 79.15 8.429 QT
79.15 7.772 L
81.869 7.569 L
81.869 9.413 L
82.181 8.601 82.744 8.085 QT
83.306 7.569 84.119 7.569 QT
84.681 7.569 85.126 7.897 QT
85.572 8.226 85.572 8.772 QT
85.572 9.116 85.329 9.374 QT
85.087 9.632 84.728 9.632 QT
84.369 9.632 84.119 9.382 QT
83.869 9.132 83.869 8.772 QT
83.869 8.272 84.228 8.054 QT
84.119 8.054 L
83.353 8.054 82.869 8.608 QT
82.384 9.163 82.173 9.991 QT
81.962 10.819 81.962 11.569 QT
81.962 14.694 L
81.962 15.288 83.822 15.288 QT
83.822 15.96 L
79.15 15.96 L
cp
f
GR
GS
[1 0 0 1 261.25018 408.70001] CT
0.149 GC
N
86.67 15.96 M
86.67 15.288 L
87.326 15.288 87.74 15.186 QT
88.154 15.085 88.154 14.694 QT
88.154 9.507 L
88.154 8.991 88.006 8.765 QT
87.857 8.538 87.568 8.483 QT
87.279 8.429 86.67 8.429 QT
86.67 7.772 L
89.435 7.569 L
89.435 9.413 L
89.81 8.601 90.56 8.085 QT
91.31 7.569 92.185 7.569 QT
94.373 7.569 94.748 9.351 QT
95.138 8.554 95.873 8.061 QT
96.607 7.569 97.466 7.569 QT
98.341 7.569 98.927 7.843 QT
99.513 8.116 99.81 8.686 QT
100.107 9.257 100.107 10.132 QT
100.107 14.694 L
100.107 15.085 100.529 15.186 QT
100.951 15.288 101.591 15.288 QT
101.591 15.96 L
97.248 15.96 L
97.248 15.288 L
97.888 15.288 98.31 15.186 QT
98.732 15.085 98.732 14.694 QT
98.732 10.179 L
98.732 9.226 98.459 8.64 QT
98.185 8.054 97.357 8.054 QT
96.263 8.054 95.545 8.936 QT
94.826 9.819 94.826 10.944 QT
94.826 14.694 L
94.826 15.085 95.248 15.186 QT
95.67 15.288 96.31 15.288 QT
96.31 15.96 L
91.966 15.96 L
91.966 15.288 L
92.607 15.288 93.029 15.186 QT
93.451 15.085 93.451 14.694 QT
93.451 10.179 L
93.451 9.257 93.177 8.655 QT
92.904 8.054 92.076 8.054 QT
90.966 8.054 90.256 8.936 QT
89.545 9.819 89.545 10.944 QT
89.545 14.694 L
89.545 15.085 89.966 15.186 QT
90.388 15.288 91.029 15.288 QT
91.029 15.96 L
86.67 15.96 L
cp
f
GR
GS
[1 0 0 1 261.25018 408.70001] CT
0.149 GC
N
102.706 14.101 M
102.706 12.96 103.597 12.249 QT
104.487 11.538 105.73 11.249 QT
106.972 10.96 108.097 10.96 QT
108.097 10.179 L
108.097 9.632 107.855 9.116 QT
107.612 8.601 107.159 8.272 QT
106.706 7.944 106.159 7.944 QT
104.894 7.944 104.237 8.507 QT
104.597 8.507 104.839 8.78 QT
105.081 9.054 105.081 9.413 QT
105.081 9.804 104.808 10.069 QT
104.534 10.335 104.175 10.335 QT
103.784 10.335 103.519 10.069 QT
103.253 9.804 103.253 9.413 QT
103.253 8.413 104.159 7.929 QT
105.065 7.444 106.159 7.444 QT
106.925 7.444 107.706 7.772 QT
108.487 8.101 108.987 8.71 QT
109.487 9.319 109.487 10.147 QT
109.487 14.413 L
109.487 14.788 109.644 15.101 QT
109.8 15.413 110.128 15.413 QT
110.44 15.413 110.597 15.101 QT
110.753 14.788 110.753 14.413 QT
110.753 13.21 L
111.315 13.21 L
111.315 14.413 L
111.315 14.851 111.089 15.233 QT
110.862 15.616 110.487 15.843 QT
110.112 16.069 109.675 16.069 QT
109.128 16.069 108.722 15.64 QT
108.315 15.21 108.269 14.616 QT
107.909 15.335 107.23 15.757 QT
106.55 16.179 105.769 16.179 QT
105.034 16.179 104.339 15.96 QT
103.644 15.741 103.175 15.288 QT
102.706 14.835 102.706 14.101 QT
cp
104.237 14.101 M
104.237 14.757 104.73 15.218 QT
105.222 15.679 105.894 15.679 QT
106.503 15.679 107.003 15.366 QT
107.503 15.054 107.8 14.53 QT
108.097 14.007 108.097 13.413 QT
108.097 11.444 L
107.237 11.444 106.331 11.726 QT
105.425 12.007 104.831 12.608 QT
104.237 13.21 104.237 14.101 QT
cp
f
GR
GS
[1 0 0 1 261.25018 408.70001] CT
0.149 GC
N
112.019 15.96 M
112.019 15.288 L
112.675 15.288 113.089 15.186 QT
113.503 15.085 113.503 14.694 QT
113.503 4.71 L
113.503 4.21 113.355 3.983 QT
113.206 3.757 112.917 3.702 QT
112.628 3.647 112.019 3.647 QT
112.019 2.976 L
114.847 2.772 L
114.847 14.694 L
114.847 15.085 115.261 15.186 QT
115.675 15.288 116.316 15.288 QT
116.316 15.96 L
112.019 15.96 L
cp
f
GR
GS
[1 0 0 1 261.25018 408.70001] CT
0.149 GC
N
117.296 15.96 M
117.296 15.288 L
117.953 15.288 118.367 15.186 QT
118.781 15.085 118.781 14.694 QT
118.781 9.507 L
118.781 8.772 118.5 8.601 QT
118.218 8.429 117.39 8.429 QT
117.39 7.772 L
120.125 7.569 L
120.125 14.694 L
120.125 15.085 120.484 15.186 QT
120.843 15.288 121.453 15.288 QT
121.453 15.96 L
117.296 15.96 L
cp
118.109 4.304 M
118.109 3.882 118.421 3.569 QT
118.734 3.257 119.156 3.257 QT
119.421 3.257 119.671 3.39 QT
119.921 3.522 120.062 3.772 QT
120.203 4.022 120.203 4.304 QT
120.203 4.71 119.882 5.022 QT
119.562 5.335 119.156 5.335 QT
118.734 5.335 118.421 5.022 QT
118.109 4.71 118.109 4.304 QT
cp
f
GR
GS
[1 0 0 1 261.25018 408.70001] CT
0.149 GC
N
122.746 15.96 M
122.527 15.96 122.527 15.741 QT
122.527 15.601 L
122.527 15.522 122.574 15.476 QT
127.887 8.272 L
126.184 8.272 L
125.371 8.272 124.848 8.374 QT
124.324 8.476 123.988 8.757 QT
123.652 9.038 123.496 9.538 QT
123.34 10.038 123.34 10.897 QT
122.793 10.897 L
123.012 7.772 L
129.371 7.772 L
129.449 7.772 129.512 7.827 QT
129.574 7.882 129.574 7.976 QT
129.574 8.085 L
129.574 8.147 129.543 8.226 QT
124.23 15.413 L
126.043 15.413 L
126.871 15.413 127.418 15.311 QT
127.965 15.21 128.355 14.819 QT
128.715 14.46 128.855 13.843 QT
128.996 13.226 129.059 12.335 QT
129.605 12.335 L
129.293 15.96 L
122.746 15.96 L
cp
f
GR
GS
[1 0 0 1 261.25018 408.70001] CT
0.149 GC
N
135.175 16.179 M
134.019 16.179 133.05 15.569 QT
132.081 14.96 131.526 13.944 QT
130.972 12.929 130.972 11.788 QT
130.972 10.679 131.48 9.679 QT
131.987 8.679 132.886 8.061 QT
133.784 7.444 134.909 7.444 QT
135.769 7.444 136.417 7.733 QT
137.066 8.022 137.48 8.546 QT
137.894 9.069 138.112 9.772 QT
138.331 10.476 138.331 11.319 QT
138.331 11.569 138.128 11.569 QT
132.628 11.569 L
132.628 11.772 L
132.628 13.351 133.261 14.483 QT
133.894 15.616 135.347 15.616 QT
135.925 15.616 136.417 15.358 QT
136.909 15.101 137.276 14.632 QT
137.644 14.163 137.784 13.647 QT
137.8 13.569 137.847 13.522 QT
137.894 13.476 137.972 13.476 QT
138.128 13.476 L
138.331 13.476 138.331 13.71 QT
138.05 14.788 137.159 15.483 QT
136.269 16.179 135.175 16.179 QT
cp
132.644 11.101 M
136.987 11.101 L
136.987 10.382 136.784 9.647 QT
136.581 8.913 136.12 8.429 QT
135.659 7.944 134.909 7.944 QT
133.831 7.944 133.237 8.952 QT
132.644 9.96 132.644 11.101 QT
cp
f
GR
GS
[1 0 0 1 261.25018 408.70001] CT
0.149 GC
N
143.526 16.179 M
142.401 16.179 141.471 15.569 QT
140.541 14.96 140.026 13.968 QT
139.51 12.976 139.51 11.866 QT
139.51 10.71 140.072 9.718 QT
140.635 8.726 141.604 8.147 QT
142.572 7.569 143.729 7.569 QT
144.416 7.569 145.041 7.858 QT
145.666 8.147 146.119 8.663 QT
146.119 4.71 L
146.119 4.21 145.971 3.983 QT
145.822 3.757 145.533 3.702 QT
145.244 3.647 144.651 3.647 QT
144.651 2.976 L
147.463 2.772 L
147.463 14.241 L
147.463 14.741 147.612 14.968 QT
147.76 15.194 148.041 15.241 QT
148.322 15.288 148.932 15.288 QT
148.932 15.96 L
146.072 16.179 L
146.072 14.976 L
145.572 15.538 144.893 15.858 QT
144.213 16.179 143.526 16.179 QT
cp
141.588 14.304 M
141.916 14.929 142.455 15.304 QT
142.994 15.679 143.635 15.679 QT
144.416 15.679 145.08 15.218 QT
145.744 14.757 146.072 14.038 QT
146.072 9.491 L
145.838 9.069 145.502 8.741 QT
145.166 8.413 144.744 8.233 QT
144.322 8.054 143.854 8.054 QT
142.854 8.054 142.252 8.616 QT
141.651 9.179 141.408 10.054 QT
141.166 10.929 141.166 11.882 QT
141.166 12.632 141.244 13.202 QT
141.322 13.772 141.588 14.304 QT
cp
f
GR
GS
[1 0 0 1 261.25018 408.70001] CT
0.149 GC
N
150.675 20.71 M
150.503 20.71 150.503 20.538 QT
150.503 20.46 150.55 20.429 QT
153.784 17.257 153.784 11.21 QT
153.784 5.163 150.581 2.038 QT
150.503 1.991 150.503 1.882 QT
150.503 1.819 150.558 1.765 QT
150.612 1.71 150.675 1.71 QT
150.847 1.71 L
150.909 1.71 150.941 1.741 QT
152.3 2.819 153.214 4.358 QT
154.128 5.897 154.55 7.647 QT
154.972 9.397 154.972 11.21 QT
154.972 12.554 154.745 13.858 QT
154.519 15.163 154.019 16.429 QT
153.519 17.694 152.761 18.765 QT
152.003 19.835 150.941 20.679 QT
150.909 20.71 150.847 20.71 QT
150.675 20.71 L
cp
f
GR
GS
2 setlinecap
1 LJ
0.5 LW
N
65.5 384.5 M
65.5 32.5 L
S
GR
GS
2 setlinecap
1 LJ
0.5 LW
N
457 384.5 M
457 32.5 L
S
GR
GS
2 setlinecap
1 LJ
0.5 LW
N
65.5 384.5 M
69.415 384.5 L
S
GR
GS
2 setlinecap
1 LJ
0.5 LW
N
65.5 349.3 M
69.415 349.3 L
S
GR
GS
2 setlinecap
1 LJ
0.5 LW
N
65.5 314.1 M
69.415 314.1 L
S
GR
GS
2 setlinecap
1 LJ
0.5 LW
N
65.5 278.9 M
69.415 278.9 L
S
GR
GS
2 setlinecap
1 LJ
0.5 LW
N
65.5 243.7 M
69.415 243.7 L
S
GR
GS
2 setlinecap
1 LJ
0.5 LW
N
65.5 208.5 M
69.415 208.5 L
S
GR
GS
2 setlinecap
1 LJ
0.5 LW
N
65.5 173.3 M
69.415 173.3 L
S
GR
GS
2 setlinecap
1 LJ
0.5 LW
N
65.5 138.1 M
69.415 138.1 L
S
GR
GS
2 setlinecap
1 LJ
0.5 LW
N
65.5 102.9 M
69.415 102.9 L
S
GR
GS
2 setlinecap
1 LJ
0.5 LW
N
65.5 67.7 M
69.415 67.7 L
S
GR
GS
2 setlinecap
1 LJ
0.5 LW
N
65.5 32.5 M
69.415 32.5 L
S
GR
GS
2 setlinecap
1 LJ
0.5 LW
N
457 384.5 M
453.085 384.5 L
S
GR
GS
2 setlinecap
1 LJ
0.5 LW
N
457 349.3 M
453.085 349.3 L
S
GR
GS
2 setlinecap
1 LJ
0.5 LW
N
457 314.1 M
453.085 314.1 L
S
GR
GS
2 setlinecap
1 LJ
0.5 LW
N
457 278.9 M
453.085 278.9 L
S
GR
GS
2 setlinecap
1 LJ
0.5 LW
N
457 243.7 M
453.085 243.7 L
S
GR
GS
2 setlinecap
1 LJ
0.5 LW
N
457 208.5 M
453.085 208.5 L
S
GR
GS
2 setlinecap
1 LJ
0.5 LW
N
457 173.3 M
453.085 173.3 L
S
GR
GS
2 setlinecap
1 LJ
0.5 LW
N
457 138.1 M
453.085 138.1 L
S
GR
GS
2 setlinecap
1 LJ
0.5 LW
N
457 102.9 M
453.085 102.9 L
S
GR
GS
2 setlinecap
1 LJ
0.5 LW
N
457 67.7 M
453.085 67.7 L
S
GR
GS
2 setlinecap
1 LJ
0.5 LW
N
457 32.5 M
453.085 32.5 L
S
GR
GS
[1 0 0 1 60.3 384.5] CT
/Times-Roman 16 F
GS
[1 0 0 1 0 0] CT
-8 5.5 moveto 
1 -1 scale
(0) t 
GR
GR
GS
[1 0 0 1 60.3 349.29999] CT
/Times-Roman 16 F
GS
[1 0 0 1 0 0] CT
-20 5.5 moveto 
1 -1 scale
(0.1) t 
GR
GR
GS
[1 0 0 1 60.3 314.10001] CT
/Times-Roman 16 F
GS
[1 0 0 1 0 0] CT
-20 5.5 moveto 
1 -1 scale
(0.2) t 
GR
GR
GS
[1 0 0 1 60.3 278.89999] CT
/Times-Roman 16 F
GS
[1 0 0 1 0 0] CT
-20 5.5 moveto 
1 -1 scale
(0.3) t 
GR
GR
GS
[1 0 0 1 60.3 243.7] CT
/Times-Roman 16 F
GS
[1 0 0 1 0 0] CT
-20 5.5 moveto 
1 -1 scale
(0.4) t 
GR
GR
GS
[1 0 0 1 60.3 208.5] CT
/Times-Roman 16 F
GS
[1 0 0 1 0 0] CT
-20 5.5 moveto 
1 -1 scale
(0.5) t 
GR
GR
GS
[1 0 0 1 60.3 173.29999] CT
/Times-Roman 16 F
GS
[1 0 0 1 0 0] CT
-20 5.5 moveto 
1 -1 scale
(0.6) t 
GR
GR
GS
[1 0 0 1 60.3 138.10001] CT
/Times-Roman 16 F
GS
[1 0 0 1 0 0] CT
-20 5.5 moveto 
1 -1 scale
(0.7) t 
GR
GR
GS
[1 0 0 1 60.3 102.89999] CT
/Times-Roman 16 F
GS
[1 0 0 1 0 0] CT
-20 5.5 moveto 
1 -1 scale
(0.8) t 
GR
GR
GS
[1 0 0 1 60.3 67.70001] CT
/Times-Roman 16 F
GS
[1 0 0 1 0 0] CT
-20 5.5 moveto 
1 -1 scale
(0.9) t 
GR
GR
GS
[1 0 0 1 60.3 32.5] CT
/Times-Roman 16 F
GS
[1 0 0 1 0 0] CT
-8 5.5 moveto 
1 -1 scale
(1) t 
GR
GR
GS
[0 -1 1 0 37.3 208.49983] CT
N
-117.905 -8.871 M
-117.249 -8.043 -116.273 -7.567 QT
-115.296 -7.09 -114.249 -7.09 QT
-113.374 -7.09 -112.624 -7.442 QT
-111.874 -7.793 -111.312 -8.41 QT
-110.749 -9.028 -110.445 -9.817 QT
-110.14 -10.606 -110.14 -11.481 QT
-110.14 -11.621 -109.984 -11.621 QT
-109.749 -11.621 L
-109.593 -11.621 -109.593 -11.449 QT
-109.593 -10.449 -109.976 -9.528 QT
-110.359 -8.606 -111.054 -7.903 QT
-111.749 -7.199 -112.655 -6.809 QT
-113.562 -6.418 -114.546 -6.418 QT
-115.905 -6.418 -117.124 -6.973 QT
-118.343 -7.528 -119.249 -8.489 QT
-120.155 -9.449 -120.663 -10.707 QT
-121.171 -11.965 -121.171 -13.34 QT
-121.171 -14.699 -120.663 -15.957 QT
-120.155 -17.215 -119.249 -18.184 QT
-118.343 -19.153 -117.124 -19.692 QT
-115.905 -20.231 -114.546 -20.231 QT
-113.562 -20.231 -112.671 -19.809 QT
-111.78 -19.387 -111.124 -18.621 QT
-110.015 -20.184 L
-109.905 -20.231 -109.89 -20.231 QT
-109.749 -20.231 L
-109.687 -20.231 -109.64 -20.184 QT
-109.593 -20.137 -109.593 -20.074 QT
-109.593 -14.949 L
-109.593 -14.778 -109.749 -14.778 QT
-110.093 -14.778 L
-110.265 -14.778 -110.265 -14.949 QT
-110.265 -15.496 -110.484 -16.176 QT
-110.702 -16.856 -111.038 -17.457 QT
-111.374 -18.059 -111.827 -18.528 QT
-112.89 -19.574 -114.28 -19.574 QT
-115.327 -19.574 -116.288 -19.098 QT
-117.249 -18.621 -117.905 -17.793 QT
-118.593 -16.903 -118.866 -15.762 QT
-119.14 -14.621 -119.14 -13.34 QT
-119.14 -12.043 -118.866 -10.903 QT
-118.593 -9.762 -117.905 -8.871 QT
cp
f
GR
GS
[0 -1 1 0 37.3 208.49983] CT
N
-106.464 -9.106 M
-106.464 -13.293 L
-106.464 -13.809 -106.613 -14.035 QT
-106.761 -14.262 -107.05 -14.317 QT
-107.339 -14.371 -107.949 -14.371 QT
-107.949 -15.028 L
-105.074 -15.231 L
-105.074 -9.106 L
-105.074 -8.356 -104.964 -7.949 QT
-104.855 -7.543 -104.511 -7.332 QT
-104.168 -7.121 -103.402 -7.121 QT
-102.386 -7.121 -101.777 -7.981 QT
-101.168 -8.84 -101.168 -9.918 QT
-101.168 -13.293 L
-101.168 -13.809 -101.332 -14.035 QT
-101.496 -14.262 -101.777 -14.317 QT
-102.058 -14.371 -102.652 -14.371 QT
-102.652 -15.028 L
-99.793 -15.231 L
-99.793 -8.559 L
-99.793 -8.059 -99.636 -7.832 QT
-99.48 -7.606 -99.191 -7.559 QT
-98.902 -7.512 -98.308 -7.512 QT
-98.308 -6.84 L
-101.121 -6.621 L
-101.121 -8.231 L
-101.464 -7.512 -102.097 -7.067 QT
-102.73 -6.621 -103.496 -6.621 QT
-104.855 -6.621 -105.66 -7.207 QT
-106.464 -7.793 -106.464 -9.106 QT
cp
f
GR
GS
[0 -1 1 0 37.3 208.49983] CT
N
-97.393 -6.84 M
-97.393 -7.512 L
-96.737 -7.512 -96.323 -7.614 QT
-95.909 -7.715 -95.909 -8.106 QT
-95.909 -13.293 L
-95.909 -13.809 -96.057 -14.035 QT
-96.206 -14.262 -96.495 -14.317 QT
-96.784 -14.371 -97.393 -14.371 QT
-97.393 -15.028 L
-94.628 -15.231 L
-94.628 -13.387 L
-94.253 -14.199 -93.503 -14.715 QT
-92.753 -15.231 -91.878 -15.231 QT
-89.69 -15.231 -89.315 -13.449 QT
-88.925 -14.246 -88.19 -14.739 QT
-87.456 -15.231 -86.596 -15.231 QT
-85.721 -15.231 -85.135 -14.957 QT
-84.55 -14.684 -84.253 -14.114 QT
-83.956 -13.543 -83.956 -12.668 QT
-83.956 -8.106 L
-83.956 -7.715 -83.534 -7.614 QT
-83.112 -7.512 -82.471 -7.512 QT
-82.471 -6.84 L
-86.815 -6.84 L
-86.815 -7.512 L
-86.175 -7.512 -85.753 -7.614 QT
-85.331 -7.715 -85.331 -8.106 QT
-85.331 -12.621 L
-85.331 -13.574 -85.604 -14.16 QT
-85.878 -14.746 -86.706 -14.746 QT
-87.8 -14.746 -88.518 -13.864 QT
-89.237 -12.981 -89.237 -11.856 QT
-89.237 -8.106 L
-89.237 -7.715 -88.815 -7.614 QT
-88.393 -7.512 -87.753 -7.512 QT
-87.753 -6.84 L
-92.096 -6.84 L
-92.096 -7.512 L
-91.456 -7.512 -91.034 -7.614 QT
-90.612 -7.715 -90.612 -8.106 QT
-90.612 -12.621 L
-90.612 -13.543 -90.885 -14.145 QT
-91.159 -14.746 -91.987 -14.746 QT
-93.096 -14.746 -93.807 -13.864 QT
-94.518 -12.981 -94.518 -11.856 QT
-94.518 -8.106 L
-94.518 -7.715 -94.096 -7.614 QT
-93.675 -7.512 -93.034 -7.512 QT
-93.034 -6.84 L
-97.393 -6.84 L
cp
f
GR
GS
[0 -1 1 0 37.3 208.49983] CT
N
-80.603 -9.106 M
-80.603 -13.293 L
-80.603 -13.809 -80.752 -14.035 QT
-80.9 -14.262 -81.189 -14.317 QT
-81.478 -14.371 -82.088 -14.371 QT
-82.088 -15.028 L
-79.213 -15.231 L
-79.213 -9.106 L
-79.213 -8.356 -79.103 -7.949 QT
-78.994 -7.543 -78.65 -7.332 QT
-78.306 -7.121 -77.541 -7.121 QT
-76.525 -7.121 -75.916 -7.981 QT
-75.306 -8.84 -75.306 -9.918 QT
-75.306 -13.293 L
-75.306 -13.809 -75.47 -14.035 QT
-75.635 -14.262 -75.916 -14.317 QT
-76.197 -14.371 -76.791 -14.371 QT
-76.791 -15.028 L
-73.931 -15.231 L
-73.931 -8.559 L
-73.931 -8.059 -73.775 -7.832 QT
-73.619 -7.606 -73.33 -7.559 QT
-73.041 -7.512 -72.447 -7.512 QT
-72.447 -6.84 L
-75.26 -6.621 L
-75.26 -8.231 L
-75.603 -7.512 -76.236 -7.067 QT
-76.869 -6.621 -77.635 -6.621 QT
-78.994 -6.621 -79.799 -7.207 QT
-80.603 -7.793 -80.603 -9.106 QT
cp
f
GR
GS
[0 -1 1 0 37.3 208.49983] CT
N
-71.516 -6.84 M
-71.516 -7.512 L
-70.86 -7.512 -70.446 -7.614 QT
-70.032 -7.715 -70.032 -8.106 QT
-70.032 -18.09 L
-70.032 -18.59 -70.181 -18.817 QT
-70.329 -19.043 -70.618 -19.098 QT
-70.907 -19.153 -71.516 -19.153 QT
-71.516 -19.824 L
-68.688 -20.028 L
-68.688 -8.106 L
-68.688 -7.715 -68.274 -7.614 QT
-67.86 -7.512 -67.22 -7.512 QT
-67.22 -6.84 L
-71.516 -6.84 L
cp
f
GR
GS
[0 -1 1 0 37.3 208.49983] CT
N
-66.051 -8.699 M
-66.051 -9.84 -65.161 -10.551 QT
-64.27 -11.262 -63.028 -11.551 QT
-61.786 -11.84 -60.661 -11.84 QT
-60.661 -12.621 L
-60.661 -13.168 -60.903 -13.684 QT
-61.145 -14.199 -61.598 -14.528 QT
-62.051 -14.856 -62.598 -14.856 QT
-63.864 -14.856 -64.52 -14.293 QT
-64.161 -14.293 -63.918 -14.02 QT
-63.676 -13.746 -63.676 -13.387 QT
-63.676 -12.996 -63.95 -12.731 QT
-64.223 -12.465 -64.582 -12.465 QT
-64.973 -12.465 -65.239 -12.731 QT
-65.504 -12.996 -65.504 -13.387 QT
-65.504 -14.387 -64.598 -14.871 QT
-63.692 -15.356 -62.598 -15.356 QT
-61.832 -15.356 -61.051 -15.028 QT
-60.27 -14.699 -59.77 -14.09 QT
-59.27 -13.481 -59.27 -12.653 QT
-59.27 -8.387 L
-59.27 -8.012 -59.114 -7.699 QT
-58.957 -7.387 -58.629 -7.387 QT
-58.317 -7.387 -58.161 -7.699 QT
-58.004 -8.012 -58.004 -8.387 QT
-58.004 -9.59 L
-57.442 -9.59 L
-57.442 -8.387 L
-57.442 -7.949 -57.668 -7.567 QT
-57.895 -7.184 -58.27 -6.957 QT
-58.645 -6.731 -59.082 -6.731 QT
-59.629 -6.731 -60.036 -7.16 QT
-60.442 -7.59 -60.489 -8.184 QT
-60.848 -7.465 -61.528 -7.043 QT
-62.207 -6.621 -62.989 -6.621 QT
-63.723 -6.621 -64.418 -6.84 QT
-65.114 -7.059 -65.582 -7.512 QT
-66.051 -7.965 -66.051 -8.699 QT
cp
-64.52 -8.699 M
-64.52 -8.043 -64.028 -7.582 QT
-63.536 -7.121 -62.864 -7.121 QT
-62.254 -7.121 -61.754 -7.434 QT
-61.254 -7.746 -60.957 -8.27 QT
-60.661 -8.793 -60.661 -9.387 QT
-60.661 -11.356 L
-61.52 -11.356 -62.426 -11.074 QT
-63.332 -10.793 -63.926 -10.192 QT
-64.52 -9.59 -64.52 -8.699 QT
cp
f
GR
GS
[0 -1 1 0 37.3 208.49983] CT
N
-55.379 -9.121 M
-55.379 -14.371 L
-56.957 -14.371 L
-56.957 -14.856 L
-55.707 -14.856 -55.121 -16.012 QT
-54.536 -17.168 -54.536 -18.528 QT
-53.989 -18.528 L
-53.989 -15.028 L
-51.317 -15.028 L
-51.317 -14.371 L
-53.989 -14.371 L
-53.989 -9.153 L
-53.989 -8.371 -53.731 -7.778 QT
-53.473 -7.184 -52.786 -7.184 QT
-52.129 -7.184 -51.84 -7.809 QT
-51.551 -8.434 -51.551 -9.153 QT
-51.551 -10.278 L
-51.004 -10.278 L
-51.004 -9.121 L
-51.004 -8.528 -51.223 -7.949 QT
-51.442 -7.371 -51.871 -6.996 QT
-52.301 -6.621 -52.911 -6.621 QT
-54.051 -6.621 -54.715 -7.309 QT
-55.379 -7.996 -55.379 -9.121 QT
cp
f
GR
GS
[0 -1 1 0 37.3 208.49983] CT
N
-49.35 -6.84 M
-49.35 -7.512 L
-48.693 -7.512 -48.279 -7.614 QT
-47.865 -7.715 -47.865 -8.106 QT
-47.865 -13.293 L
-47.865 -14.028 -48.147 -14.199 QT
-48.428 -14.371 -49.256 -14.371 QT
-49.256 -15.028 L
-46.522 -15.231 L
-46.522 -8.106 L
-46.522 -7.715 -46.162 -7.614 QT
-45.803 -7.512 -45.193 -7.512 QT
-45.193 -6.84 L
-49.35 -6.84 L
cp
-48.537 -18.496 M
-48.537 -18.918 -48.225 -19.231 QT
-47.912 -19.543 -47.49 -19.543 QT
-47.225 -19.543 -46.975 -19.41 QT
-46.725 -19.278 -46.584 -19.028 QT
-46.443 -18.778 -46.443 -18.496 QT
-46.443 -18.09 -46.764 -17.778 QT
-47.084 -17.465 -47.49 -17.465 QT
-47.912 -17.465 -48.225 -17.778 QT
-48.537 -18.09 -48.537 -18.496 QT
cp
f
GR
GS
[0 -1 1 0 37.3 208.49983] CT
N
-40.009 -6.84 M
-42.791 -13.824 L
-42.963 -14.168 -43.33 -14.27 QT
-43.697 -14.371 -44.291 -14.371 QT
-44.291 -15.028 L
-40.306 -15.028 L
-40.306 -14.371 L
-41.369 -14.371 -41.369 -13.903 QT
-41.369 -13.84 -41.353 -13.793 QT
-39.213 -8.434 L
-37.291 -13.278 L
-37.244 -13.434 -37.244 -13.59 QT
-37.244 -13.949 -37.517 -14.16 QT
-37.791 -14.371 -38.15 -14.371 QT
-38.15 -15.028 L
-34.994 -15.028 L
-34.994 -14.371 L
-35.588 -14.371 -36.025 -14.098 QT
-36.463 -13.824 -36.713 -13.293 QT
-39.275 -6.84 L
-39.338 -6.621 -39.572 -6.621 QT
-39.713 -6.621 L
-39.947 -6.621 -40.009 -6.84 QT
cp
f
GR
GS
[0 -1 1 0 37.3 208.49983] CT
N
-30.416 -6.621 M
-31.572 -6.621 -32.541 -7.231 QT
-33.509 -7.84 -34.064 -8.856 QT
-34.619 -9.871 -34.619 -11.012 QT
-34.619 -12.121 -34.111 -13.121 QT
-33.603 -14.121 -32.705 -14.739 QT
-31.806 -15.356 -30.681 -15.356 QT
-29.822 -15.356 -29.173 -15.067 QT
-28.525 -14.778 -28.111 -14.254 QT
-27.697 -13.731 -27.478 -13.028 QT
-27.259 -12.324 -27.259 -11.481 QT
-27.259 -11.231 -27.463 -11.231 QT
-32.963 -11.231 L
-32.963 -11.028 L
-32.963 -9.449 -32.33 -8.317 QT
-31.697 -7.184 -30.244 -7.184 QT
-29.666 -7.184 -29.173 -7.442 QT
-28.681 -7.699 -28.314 -8.168 QT
-27.947 -8.637 -27.806 -9.153 QT
-27.791 -9.231 -27.744 -9.278 QT
-27.697 -9.324 -27.619 -9.324 QT
-27.463 -9.324 L
-27.259 -9.324 -27.259 -9.09 QT
-27.541 -8.012 -28.431 -7.317 QT
-29.322 -6.621 -30.416 -6.621 QT
cp
-32.947 -11.699 M
-28.603 -11.699 L
-28.603 -12.418 -28.806 -13.153 QT
-29.009 -13.887 -29.47 -14.371 QT
-29.931 -14.856 -30.681 -14.856 QT
-31.759 -14.856 -32.353 -13.848 QT
-32.947 -12.84 -32.947 -11.699 QT
cp
f
GR
GS
[0 -1 1 0 37.3 208.49983] CT
N
-19.747 -6.84 M
-19.747 -7.512 L
-17.779 -7.512 -17.779 -8.106 QT
-17.779 -18.543 L
-17.779 -19.153 -19.747 -19.153 QT
-19.747 -19.824 L
-12.732 -19.824 L
-11.435 -19.824 -10.357 -19.262 QT
-9.279 -18.699 -8.521 -17.762 QT
-7.763 -16.824 -7.349 -15.637 QT
-6.935 -14.449 -6.935 -13.199 QT
-6.935 -11.996 -7.357 -10.864 QT
-7.779 -9.731 -8.56 -8.817 QT
-9.341 -7.903 -10.411 -7.371 QT
-11.482 -6.84 -12.732 -6.84 QT
-19.747 -6.84 L
cp
-16.075 -8.106 M
-16.075 -7.699 -15.841 -7.606 QT
-15.607 -7.512 -15.107 -7.512 QT
-13.232 -7.512 L
-12.247 -7.512 -11.372 -7.934 QT
-10.497 -8.356 -9.919 -9.106 QT
-9.325 -9.903 -9.122 -10.887 QT
-8.919 -11.871 -8.919 -13.199 QT
-8.919 -14.59 -9.122 -15.629 QT
-9.325 -16.668 -9.919 -17.481 QT
-10.497 -18.293 -11.364 -18.723 QT
-12.232 -19.153 -13.232 -19.153 QT
-15.107 -19.153 L
-15.45 -19.153 -15.646 -19.121 QT
-15.841 -19.09 -15.958 -18.957 QT
-16.075 -18.824 -16.075 -18.543 QT
-16.075 -8.106 L
cp
f
GR
GS
[0 -1 1 0 37.3 208.49983] CT
N
-1.124 -6.621 M
-2.28 -6.621 -3.249 -7.231 QT
-4.218 -7.84 -4.772 -8.856 QT
-5.327 -9.871 -5.327 -11.012 QT
-5.327 -12.121 -4.819 -13.121 QT
-4.311 -14.121 -3.413 -14.739 QT
-2.515 -15.356 -1.39 -15.356 QT
-0.53 -15.356 0.118 -15.067 QT
0.767 -14.778 1.181 -14.254 QT
1.595 -13.731 1.814 -13.028 QT
2.032 -12.324 2.032 -11.481 QT
2.032 -11.231 1.829 -11.231 QT
-3.671 -11.231 L
-3.671 -11.028 L
-3.671 -9.449 -3.038 -8.317 QT
-2.405 -7.184 -0.952 -7.184 QT
-0.374 -7.184 0.118 -7.442 QT
0.61 -7.699 0.978 -8.168 QT
1.345 -8.637 1.485 -9.153 QT
1.501 -9.231 1.548 -9.278 QT
1.595 -9.324 1.673 -9.324 QT
1.829 -9.324 L
2.032 -9.324 2.032 -9.09 QT
1.751 -8.012 0.86 -7.317 QT
-0.03 -6.621 -1.124 -6.621 QT
cp
-3.655 -11.699 M
0.689 -11.699 L
0.689 -12.418 0.485 -13.153 QT
0.282 -13.887 -0.179 -14.371 QT
-0.64 -14.856 -1.39 -14.856 QT
-2.468 -14.856 -3.061 -13.848 QT
-3.655 -12.84 -3.655 -11.699 QT
cp
f
GR
GS
[0 -1 1 0 37.3 208.49983] CT
N
3.149 -6.84 M
3.149 -7.512 L
3.805 -7.512 4.219 -7.614 QT
4.633 -7.715 4.633 -8.106 QT
4.633 -13.293 L
4.633 -13.809 4.485 -14.035 QT
4.336 -14.262 4.047 -14.317 QT
3.758 -14.371 3.149 -14.371 QT
3.149 -15.028 L
5.914 -15.231 L
5.914 -13.387 L
6.289 -14.199 7.039 -14.715 QT
7.789 -15.231 8.664 -15.231 QT
9.977 -15.231 10.641 -14.606 QT
11.305 -13.981 11.305 -12.668 QT
11.305 -8.106 L
11.305 -7.715 11.727 -7.614 QT
12.149 -7.512 12.789 -7.512 QT
12.789 -6.84 L
8.445 -6.84 L
8.445 -7.512 L
9.086 -7.512 9.508 -7.614 QT
9.93 -7.715 9.93 -8.106 QT
9.93 -12.621 L
9.93 -13.543 9.656 -14.145 QT
9.383 -14.746 8.555 -14.746 QT
7.445 -14.746 6.735 -13.864 QT
6.024 -12.981 6.024 -11.856 QT
6.024 -8.106 L
6.024 -7.715 6.445 -7.614 QT
6.867 -7.512 7.508 -7.512 QT
7.508 -6.84 L
3.149 -6.84 L
cp
f
GR
GS
[0 -1 1 0 37.3 208.49983] CT
N
13.767 -6.778 M
13.767 -9.887 L
13.767 -10.028 13.939 -10.028 QT
14.173 -10.028 L
14.282 -10.028 14.314 -9.887 QT
14.845 -7.121 16.876 -7.121 QT
17.782 -7.121 18.392 -7.535 QT
19.001 -7.949 19.001 -8.793 QT
19.001 -9.403 18.524 -9.84 QT
18.048 -10.278 17.407 -10.434 QT
16.126 -10.684 L
15.485 -10.824 14.962 -11.114 QT
14.439 -11.403 14.103 -11.879 QT
13.767 -12.356 13.767 -12.981 QT
13.767 -13.824 14.212 -14.356 QT
14.657 -14.887 15.36 -15.121 QT
16.064 -15.356 16.876 -15.356 QT
17.86 -15.356 18.579 -14.84 QT
19.126 -15.309 L
19.126 -15.356 19.22 -15.356 QT
19.36 -15.356 L
19.407 -15.356 19.454 -15.309 QT
19.501 -15.262 19.501 -15.199 QT
19.501 -12.715 L
19.501 -12.543 19.36 -12.543 QT
19.126 -12.543 L
18.954 -12.543 18.954 -12.715 QT
18.954 -13.699 18.407 -14.309 QT
17.86 -14.918 16.86 -14.918 QT
16.001 -14.918 15.376 -14.598 QT
14.751 -14.278 14.751 -13.512 QT
14.751 -12.981 15.204 -12.645 QT
15.657 -12.309 16.267 -12.153 QT
17.548 -11.918 L
18.204 -11.762 18.759 -11.41 QT
19.314 -11.059 19.649 -10.52 QT
19.985 -9.981 19.985 -9.309 QT
19.985 -8.621 19.743 -8.114 QT
19.501 -7.606 19.079 -7.278 QT
18.657 -6.949 18.087 -6.785 QT
17.517 -6.621 16.876 -6.621 QT
15.689 -6.621 14.845 -7.418 QT
14.157 -6.668 L
14.157 -6.621 14.048 -6.621 QT
13.939 -6.621 L
13.767 -6.621 13.767 -6.778 QT
cp
f
GR
GS
[0 -1 1 0 37.3 208.49983] CT
N
21.214 -6.84 M
21.214 -7.512 L
21.87 -7.512 22.285 -7.614 QT
22.699 -7.715 22.699 -8.106 QT
22.699 -13.293 L
22.699 -14.028 22.417 -14.199 QT
22.136 -14.371 21.308 -14.371 QT
21.308 -15.028 L
24.042 -15.231 L
24.042 -8.106 L
24.042 -7.715 24.402 -7.614 QT
24.761 -7.512 25.37 -7.512 QT
25.37 -6.84 L
21.214 -6.84 L
cp
22.027 -18.496 M
22.027 -18.918 22.339 -19.231 QT
22.652 -19.543 23.074 -19.543 QT
23.339 -19.543 23.589 -19.41 QT
23.839 -19.278 23.98 -19.028 QT
24.12 -18.778 24.12 -18.496 QT
24.12 -18.09 23.8 -17.778 QT
23.48 -17.465 23.074 -17.465 QT
22.652 -17.465 22.339 -17.778 QT
22.027 -18.09 22.027 -18.496 QT
cp
f
GR
GS
[0 -1 1 0 37.3 208.49983] CT
N
27.851 -9.121 M
27.851 -14.371 L
26.273 -14.371 L
26.273 -14.856 L
27.523 -14.856 28.109 -16.012 QT
28.695 -17.168 28.695 -18.528 QT
29.242 -18.528 L
29.242 -15.028 L
31.914 -15.028 L
31.914 -14.371 L
29.242 -14.371 L
29.242 -9.153 L
29.242 -8.371 29.5 -7.778 QT
29.758 -7.184 30.445 -7.184 QT
31.101 -7.184 31.39 -7.809 QT
31.68 -8.434 31.68 -9.153 QT
31.68 -10.278 L
32.226 -10.278 L
32.226 -9.121 L
32.226 -8.528 32.008 -7.949 QT
31.789 -7.371 31.359 -6.996 QT
30.93 -6.621 30.32 -6.621 QT
29.18 -6.621 28.515 -7.309 QT
27.851 -7.996 27.851 -9.121 QT
cp
f
GR
GS
[0 -1 1 0 37.3 208.49983] CT
N
34.088 -3.715 M
34.447 -3.434 34.884 -3.434 QT
36.072 -3.434 36.838 -5.246 QT
37.494 -6.84 L
34.634 -13.824 L
34.463 -14.168 34.103 -14.27 QT
33.744 -14.371 33.134 -14.371 QT
33.134 -15.028 L
37.119 -15.028 L
37.119 -14.371 L
36.072 -14.371 36.072 -13.903 QT
36.072 -13.84 36.103 -13.793 QT
38.213 -8.606 L
40.119 -13.278 L
40.166 -13.434 40.166 -13.606 QT
40.166 -13.84 40.041 -14.012 QT
39.916 -14.184 39.72 -14.278 QT
39.525 -14.371 39.275 -14.371 QT
39.275 -15.028 L
42.431 -15.028 L
42.431 -14.371 L
41.838 -14.371 41.4 -14.098 QT
40.963 -13.824 40.713 -13.293 QT
37.431 -5.246 L
37.166 -4.637 36.822 -4.121 QT
36.478 -3.606 35.978 -3.278 QT
35.478 -2.949 34.884 -2.949 QT
34.181 -2.949 33.658 -3.403 QT
33.134 -3.856 33.134 -4.543 QT
33.134 -4.887 33.377 -5.129 QT
33.619 -5.371 33.978 -5.371 QT
34.213 -5.371 34.4 -5.27 QT
34.588 -5.168 34.697 -4.981 QT
34.806 -4.793 34.806 -4.543 QT
34.806 -4.231 34.603 -3.989 QT
34.4 -3.746 34.088 -3.715 QT
cp
f
GR
GS
[0 -1 1 0 37.3 208.49983] CT
N
49.714 -6.84 M
49.714 -7.512 L
51.683 -7.512 51.683 -8.106 QT
51.683 -18.543 L
51.683 -19.153 49.714 -19.153 QT
49.714 -19.824 L
60.199 -19.824 L
60.73 -15.465 L
60.183 -15.465 L
60.042 -16.668 59.824 -17.356 QT
59.605 -18.043 59.191 -18.442 QT
58.777 -18.84 58.074 -18.996 QT
57.371 -19.153 56.152 -19.153 QT
54.417 -19.153 L
54.074 -19.153 53.886 -19.121 QT
53.699 -19.09 53.574 -18.957 QT
53.449 -18.824 53.449 -18.543 QT
53.449 -13.653 L
54.792 -13.653 L
55.777 -13.653 56.23 -13.824 QT
56.683 -13.996 56.855 -14.457 QT
57.027 -14.918 57.027 -15.887 QT
57.574 -15.887 L
57.574 -10.778 L
57.027 -10.778 L
57.027 -11.746 56.855 -12.199 QT
56.683 -12.653 56.23 -12.824 QT
55.777 -12.996 54.792 -12.996 QT
53.449 -12.996 L
53.449 -8.106 L
53.449 -7.512 55.886 -7.512 QT
55.886 -6.84 L
49.714 -6.84 L
cp
f
GR
GS
[0 -1 1 0 37.3 208.49983] CT
N
62.003 -9.106 M
62.003 -13.293 L
62.003 -13.809 61.854 -14.035 QT
61.706 -14.262 61.417 -14.317 QT
61.128 -14.371 60.518 -14.371 QT
60.518 -15.028 L
63.393 -15.231 L
63.393 -9.106 L
63.393 -8.356 63.503 -7.949 QT
63.612 -7.543 63.956 -7.332 QT
64.299 -7.121 65.065 -7.121 QT
66.081 -7.121 66.69 -7.981 QT
67.299 -8.84 67.299 -9.918 QT
67.299 -13.293 L
67.299 -13.809 67.135 -14.035 QT
66.971 -14.262 66.69 -14.317 QT
66.409 -14.371 65.815 -14.371 QT
65.815 -15.028 L
68.674 -15.231 L
68.674 -8.559 L
68.674 -8.059 68.831 -7.832 QT
68.987 -7.606 69.276 -7.559 QT
69.565 -7.512 70.159 -7.512 QT
70.159 -6.84 L
67.346 -6.621 L
67.346 -8.231 L
67.003 -7.512 66.37 -7.067 QT
65.737 -6.621 64.971 -6.621 QT
63.612 -6.621 62.807 -7.207 QT
62.003 -7.793 62.003 -9.106 QT
cp
f
GR
GS
[0 -1 1 0 37.3 208.49983] CT
N
71.074 -6.84 M
71.074 -7.512 L
71.73 -7.512 72.144 -7.614 QT
72.558 -7.715 72.558 -8.106 QT
72.558 -13.293 L
72.558 -13.809 72.41 -14.035 QT
72.261 -14.262 71.972 -14.317 QT
71.683 -14.371 71.074 -14.371 QT
71.074 -15.028 L
73.839 -15.231 L
73.839 -13.387 L
74.214 -14.199 74.964 -14.715 QT
75.714 -15.231 76.589 -15.231 QT
77.902 -15.231 78.566 -14.606 QT
79.23 -13.981 79.23 -12.668 QT
79.23 -8.106 L
79.23 -7.715 79.652 -7.614 QT
80.074 -7.512 80.714 -7.512 QT
80.714 -6.84 L
76.371 -6.84 L
76.371 -7.512 L
77.011 -7.512 77.433 -7.614 QT
77.855 -7.715 77.855 -8.106 QT
77.855 -12.621 L
77.855 -13.543 77.582 -14.145 QT
77.308 -14.746 76.48 -14.746 QT
75.371 -14.746 74.66 -13.864 QT
73.949 -12.981 73.949 -11.856 QT
73.949 -8.106 L
73.949 -7.715 74.371 -7.614 QT
74.792 -7.512 75.433 -7.512 QT
75.433 -6.84 L
71.074 -6.84 L
cp
f
GR
GS
[0 -1 1 0 37.3 208.49983] CT
N
85.801 -6.621 M
84.645 -6.621 83.707 -7.223 QT
82.77 -7.824 82.231 -8.824 QT
81.692 -9.824 81.692 -10.934 QT
81.692 -12.059 82.231 -13.09 QT
82.77 -14.121 83.707 -14.739 QT
84.645 -15.356 85.801 -15.356 QT
86.911 -15.356 87.825 -14.918 QT
88.739 -14.481 88.739 -13.496 QT
88.739 -13.121 88.473 -12.848 QT
88.207 -12.574 87.832 -12.574 QT
87.457 -12.574 87.192 -12.848 QT
86.926 -13.121 86.926 -13.496 QT
86.926 -13.824 87.137 -14.074 QT
87.348 -14.324 87.661 -14.387 QT
87.004 -14.793 85.817 -14.793 QT
84.911 -14.793 84.356 -14.192 QT
83.801 -13.59 83.575 -12.699 QT
83.348 -11.809 83.348 -10.934 QT
83.348 -10.028 83.622 -9.168 QT
83.895 -8.309 84.504 -7.746 QT
85.114 -7.184 86.036 -7.184 QT
86.926 -7.184 87.559 -7.739 QT
88.192 -8.293 88.426 -9.184 QT
88.426 -9.293 88.567 -9.293 QT
88.801 -9.293 L
88.864 -9.293 88.911 -9.239 QT
88.957 -9.184 88.957 -9.121 QT
88.957 -9.074 L
88.661 -7.949 87.809 -7.285 QT
86.957 -6.621 85.801 -6.621 QT
cp
f
GR
GS
[0 -1 1 0 37.3 208.49983] CT
N
91.449 -9.121 M
91.449 -14.371 L
89.871 -14.371 L
89.871 -14.856 L
91.121 -14.856 91.707 -16.012 QT
92.293 -17.168 92.293 -18.528 QT
92.839 -18.528 L
92.839 -15.028 L
95.511 -15.028 L
95.511 -14.371 L
92.839 -14.371 L
92.839 -9.153 L
92.839 -8.371 93.097 -7.778 QT
93.355 -7.184 94.043 -7.184 QT
94.699 -7.184 94.988 -7.809 QT
95.277 -8.434 95.277 -9.153 QT
95.277 -10.278 L
95.824 -10.278 L
95.824 -9.121 L
95.824 -8.528 95.605 -7.949 QT
95.386 -7.371 94.957 -6.996 QT
94.527 -6.621 93.918 -6.621 QT
92.777 -6.621 92.113 -7.309 QT
91.449 -7.996 91.449 -9.121 QT
cp
f
GR
GS
[0 -1 1 0 37.3 208.49983] CT
N
97.478 -6.84 M
97.478 -7.512 L
98.135 -7.512 98.549 -7.614 QT
98.963 -7.715 98.963 -8.106 QT
98.963 -13.293 L
98.963 -14.028 98.681 -14.199 QT
98.4 -14.371 97.572 -14.371 QT
97.572 -15.028 L
100.306 -15.231 L
100.306 -8.106 L
100.306 -7.715 100.666 -7.614 QT
101.025 -7.512 101.635 -7.512 QT
101.635 -6.84 L
97.478 -6.84 L
cp
98.291 -18.496 M
98.291 -18.918 98.603 -19.231 QT
98.916 -19.543 99.338 -19.543 QT
99.603 -19.543 99.853 -19.41 QT
100.103 -19.278 100.244 -19.028 QT
100.385 -18.778 100.385 -18.496 QT
100.385 -18.09 100.064 -17.778 QT
99.744 -17.465 99.338 -17.465 QT
98.916 -17.465 98.603 -17.778 QT
98.291 -18.09 98.291 -18.496 QT
cp
f
GR
GS
[0 -1 1 0 37.3 208.49983] CT
N
106.928 -6.621 M
105.787 -6.621 104.811 -7.207 QT
103.834 -7.793 103.272 -8.762 QT
102.709 -9.731 102.709 -10.887 QT
102.709 -11.762 103.022 -12.567 QT
103.334 -13.371 103.912 -14.004 QT
104.49 -14.637 105.256 -14.996 QT
106.022 -15.356 106.928 -15.356 QT
108.1 -15.356 109.061 -14.739 QT
110.022 -14.121 110.576 -13.09 QT
111.131 -12.059 111.131 -10.887 QT
111.131 -9.746 110.569 -8.77 QT
110.006 -7.793 109.03 -7.207 QT
108.053 -6.621 106.928 -6.621 QT
cp
106.928 -7.184 M
108.444 -7.184 108.959 -8.285 QT
109.475 -9.387 109.475 -11.106 QT
109.475 -12.059 109.373 -12.684 QT
109.272 -13.309 108.928 -13.824 QT
108.709 -14.137 108.381 -14.371 QT
108.053 -14.606 107.686 -14.731 QT
107.319 -14.856 106.928 -14.856 QT
106.334 -14.856 105.803 -14.59 QT
105.272 -14.324 104.912 -13.824 QT
104.569 -13.278 104.467 -12.637 QT
104.365 -11.996 104.365 -11.106 QT
104.365 -10.028 104.553 -9.184 QT
104.74 -8.34 105.303 -7.762 QT
105.865 -7.184 106.928 -7.184 QT
cp
f
GR
GS
[0 -1 1 0 37.3 208.49983] CT
N
112.24 -6.84 M
112.24 -7.512 L
112.897 -7.512 113.311 -7.614 QT
113.725 -7.715 113.725 -8.106 QT
113.725 -13.293 L
113.725 -13.809 113.576 -14.035 QT
113.428 -14.262 113.139 -14.317 QT
112.85 -14.371 112.24 -14.371 QT
112.24 -15.028 L
115.006 -15.231 L
115.006 -13.387 L
115.381 -14.199 116.131 -14.715 QT
116.881 -15.231 117.756 -15.231 QT
119.069 -15.231 119.733 -14.606 QT
120.397 -13.981 120.397 -12.668 QT
120.397 -8.106 L
120.397 -7.715 120.819 -7.614 QT
121.24 -7.512 121.881 -7.512 QT
121.881 -6.84 L
117.537 -6.84 L
117.537 -7.512 L
118.178 -7.512 118.6 -7.614 QT
119.022 -7.715 119.022 -8.106 QT
119.022 -12.621 L
119.022 -13.543 118.748 -14.145 QT
118.475 -14.746 117.647 -14.746 QT
116.537 -14.746 115.826 -13.864 QT
115.115 -12.981 115.115 -11.856 QT
115.115 -8.106 L
115.115 -7.715 115.537 -7.614 QT
115.959 -7.512 116.6 -7.512 QT
116.6 -6.84 L
112.24 -6.84 L
cp
f
GR
GS
0 0.447 0.741 RC
1 LJ
0.5 LW
N
65.5 384.5 M
65.516 383.619 L
65.532 383.133 L
65.548 382.729 L
65.564 382.369 L
65.58 382.038 L
65.596 381.729 L
65.612 381.436 L
65.628 381.157 L
65.644 380.888 L
65.659 380.629 L
65.675 380.378 L
65.691 380.134 L
65.723 379.665 L
65.755 379.216 L
65.787 378.784 L
65.819 378.366 L
65.883 377.567 L
65.947 376.806 L
66.01 376.077 L
66.138 374.692 L
66.265 373.385 L
66.521 370.938 L
66.776 368.655 L
67.031 366.492 L
67.541 362.429 L
68.052 358.625 L
68.562 355.013 L
69.582 348.218 L
71.624 335.816 L
73.665 324.499 L
78.48 300.66 L
83.295 279.694 L
92.611 244.961 L
101.091 218.448 L
109.821 195.125 L
118.886 174.379 L
128.704 155.188 L
136.682 141.691 L
146.599 127.109 L
154.477 117.005 L
163.061 107.275 L
172.273 98.111 L
180.826 90.625 L
190.068 83.493 L
199.994 76.791 L
207.864 72.089 L
217.406 67.021 L
225.659 63.133 L
235.024 59.209 L
243.455 56.069 L
252.27 53.138 L
261.25 50.482 L
270.15 48.141 L
279.045 46.061 L
288.297 44.142 L
296.841 42.569 L
306.452 41.003 L
314.636 39.822 L
323.381 38.701 L
332.432 37.679 L
341.388 36.792 L
350.227 36.027 L
359.132 35.357 L
368.023 34.778 L
377.569 34.248 L
385.818 33.86 L
394.296 33.522 L
403.614 33.215 L
412.951 32.971 L
421.409 32.798 L
428.125 32.692 L
439.205 32.57 L
447.937 32.518 L
457 32.5 L
S
GR
GS
0.851 0.325 0.098 RC
1 LJ
0.5 LW
N
65.5 384.5 M
73.665 384.34 L
83.295 383.704 L
92.611 382.562 L
101.091 381.015 L
109.821 378.855 L
118.886 375.938 L
128.704 371.92 L
136.682 367.935 L
146.599 362.007 L
154.477 356.475 L
163.061 349.57 L
172.273 341.103 L
180.826 332.233 L
190.068 321.551 L
199.994 308.827 L
207.864 297.854 L
217.406 283.574 L
225.659 270.452 L
235.024 254.827 L
243.455 240.238 L
252.27 224.615 L
261.25 208.5 L
270.15 192.529 L
279.045 176.762 L
288.297 160.775 L
296.841 146.548 L
306.452 131.332 L
314.636 119.146 L
323.381 107 L
332.432 95.449 L
341.388 85.08 L
350.227 75.897 L
359.132 67.694 L
368.023 60.525 L
377.569 53.917 L
385.818 49.065 L
394.296 44.853 L
403.614 41.062 L
412.951 38.068 L
421.409 35.985 L
428.125 34.718 L
439.205 33.296 L
447.937 32.698 L
457 32.5 L
S
GR
GS
0.929 0.694 0.125 RC
1 LJ
0.5 LW
N
65.5 384.5 M
73.665 384.5 L
83.295 384.5 L
92.611 384.5 L
101.091 384.5 L
109.821 384.5 L
118.886 384.5 L
128.704 384.5 L
136.682 384.5 L
146.599 384.5 L
154.477 384.5 L
163.061 384.5 L
172.273 384.5 L
180.826 384.5 L
190.068 384.5 L
199.994 384.5 L
207.864 384.499 L
217.406 384.499 L
225.659 384.497 L
235.024 384.494 L
243.455 384.489 L
252.27 384.479 L
261.25 384.461 L
270.15 384.429 L
279.045 384.374 L
288.297 384.278 L
296.841 384.131 L
306.452 383.857 L
314.636 383.481 L
323.381 382.854 L
332.432 381.823 L
336.91 381.107 L
341.388 380.207 L
345.808 379.094 L
350.227 377.702 L
354.68 375.948 L
356.906 374.913 L
359.132 373.755 L
361.355 372.463 L
363.577 371.019 L
365.8 369.405 L
368.023 367.602 L
370.409 365.431 L
372.796 362.988 L
375.183 360.239 L
377.569 357.147 L
379.632 354.17 L
381.694 350.879 L
383.756 347.245 L
385.818 343.234 L
390.057 333.66 L
394.296 322.032 L
398.955 306.493 L
403.614 287.676 L
408.282 265.255 L
412.951 239.24 L
417.18 212.881 L
421.409 184.551 L
428.125 138.268 L
430.895 119.864 L
433.665 102.506 L
436.435 86.603 L
439.205 72.498 L
441.388 62.816 L
443.571 54.489 L
445.754 47.553 L
446.845 44.607 L
447.937 42.005 L
449.07 39.662 L
450.203 37.673 L
450.769 36.808 L
451.336 36.029 L
451.902 35.332 L
452.468 34.716 L
453.035 34.181 L
453.601 33.723 L
453.885 33.522 L
454.168 33.341 L
454.451 33.177 L
454.734 33.032 L
455.017 32.906 L
455.301 32.796 L
455.584 32.705 L
455.867 32.63 L
456.15 32.573 L
456.434 32.532 L
456.717 32.508 L
457 32.5 L
S
GR
GS
0.635 0.078 0.184 RC
[10 6] 0 setdash
2 LJ
0.5 LW
N
65.5 384.5 M
69.582 384.493 L
71.624 384.462 L
73.665 384.371 L
74.869 384.263 L
76.072 384.093 L
76.674 383.976 L
77.276 383.833 L
77.878 383.66 L
78.48 383.452 L
79.082 383.203 L
79.684 382.908 L
80.286 382.559 L
80.888 382.151 L
81.49 381.674 L
82.092 381.12 L
82.694 380.48 L
83.295 379.743 L
83.878 378.927 L
84.46 378.001 L
85.042 376.951 L
85.624 375.767 L
86.207 374.436 L
86.789 372.944 L
87.953 369.426 L
89.118 365.099 L
90.282 359.851 L
91.447 353.573 L
92.611 346.168 L
93.671 338.384 L
94.731 329.569 L
95.791 319.717 L
96.851 308.851 L
97.911 297.033 L
98.971 284.36 L
100.031 270.963 L
101.091 257.005 L
103.273 227.291 L
105.456 197.684 L
106.547 183.418 L
107.639 169.731 L
108.73 156.746 L
109.821 144.556 L
110.954 132.801 L
112.087 121.995 L
113.221 112.139 L
114.354 103.212 L
115.487 95.173 L
116.62 87.969 L
117.753 81.541 L
118.886 75.825 L
120.114 70.363 L
121.341 65.579 L
122.568 61.399 L
123.795 57.75 L
125.022 54.57 L
126.25 51.799 L
127.477 49.386 L
128.704 47.284 L
129.701 45.778 L
130.699 44.431 L
131.696 43.227 L
132.693 42.15 L
133.69 41.186 L
134.687 40.323 L
135.685 39.55 L
136.682 38.857 L
137.921 38.094 L
139.161 37.428 L
140.401 36.845 L
141.64 36.334 L
142.88 35.887 L
144.119 35.494 L
146.599 34.846 L
148.568 34.437 L
150.538 34.103 L
154.477 33.604 L
163.061 33.002 L
172.273 32.722 L
180.826 32.607 L
190.068 32.549 L
199.994 32.522 L
207.864 32.511 L
217.406 32.505 L
225.659 32.503 L
235.024 32.501 L
243.455 32.501 L
252.27 32.5 L
261.25 32.5 L
270.15 32.5 L
279.045 32.5 L
288.297 32.5 L
296.841 32.5 L
306.452 32.5 L
314.636 32.5 L
323.381 32.5 L
332.432 32.5 L
341.388 32.5 L
350.227 32.5 L
359.132 32.5 L
368.023 32.5 L
377.569 32.5 L
385.818 32.5 L
394.296 32.5 L
403.614 32.5 L
412.951 32.5 L
421.409 32.5 L
428.125 32.5 L
439.205 32.5 L
447.937 32.5 L
457 32.5 L
S
GR
GS
0 0.447 0.741 RC
[10 6] 0 setdash
2 LJ
0.5 LW
N
65.5 384.5 M
73.665 384.5 L
83.295 384.5 L
92.611 384.5 L
101.091 384.5 L
109.821 384.5 L
118.886 384.5 L
128.704 384.5 L
136.682 384.5 L
146.599 384.499 L
154.477 384.498 L
163.061 384.494 L
172.273 384.481 L
180.826 384.443 L
190.068 384.328 L
199.994 383.959 L
203.929 383.658 L
207.864 383.198 L
210.249 382.809 L
212.635 382.309 L
215.021 381.667 L
217.406 380.844 L
219.47 379.95 L
220.501 379.427 L
221.533 378.846 L
222.564 378.201 L
223.596 377.487 L
224.628 376.694 L
225.659 375.817 L
226.83 374.706 L
228 373.462 L
229.171 372.068 L
230.342 370.508 L
231.512 368.765 L
232.683 366.821 L
233.854 364.654 L
235.024 362.244 L
237.132 357.218 L
239.24 351.191 L
241.347 344.017 L
243.455 335.555 L
245.658 325.193 L
247.862 313.177 L
250.066 299.457 L
252.27 284.063 L
254.515 266.796 L
256.76 248.184 L
261.25 208.5 L
265.7 169.158 L
267.925 150.686 L
270.15 133.527 L
272.374 117.941 L
274.598 104.057 L
276.822 91.909 L
279.045 81.445 L
281.358 72.23 L
283.671 64.549 L
285.984 58.215 L
288.297 53.039 L
289.365 50.989 L
290.433 49.13 L
291.501 47.447 L
292.569 45.925 L
293.637 44.55 L
294.705 43.31 L
295.773 42.191 L
296.841 41.183 L
298.042 40.17 L
299.244 39.27 L
300.445 38.472 L
301.646 37.765 L
302.848 37.139 L
304.049 36.585 L
305.25 36.096 L
306.452 35.663 L
308.498 35.039 L
310.544 34.535 L
312.59 34.129 L
314.636 33.802 L
319.009 33.302 L
323.381 32.99 L
332.432 32.672 L
341.388 32.559 L
350.227 32.519 L
359.132 32.506 L
368.023 32.502 L
377.569 32.5 L
385.818 32.5 L
394.296 32.5 L
403.614 32.5 L
412.951 32.5 L
421.409 32.5 L
428.125 32.5 L
439.205 32.5 L
447.937 32.5 L
457 32.5 L
S
GR
GS
0.851 0.325 0.098 RC
[10 6] 0 setdash
2 LJ
0.5 LW
N
65.5 384.5 M
73.665 384.5 L
83.295 384.5 L
92.611 384.5 L
101.091 384.5 L
109.821 384.5 L
118.886 384.5 L
128.704 384.5 L
136.682 384.5 L
146.599 384.5 L
154.477 384.5 L
163.061 384.5 L
172.273 384.5 L
180.826 384.5 L
190.068 384.5 L
199.994 384.5 L
207.864 384.5 L
217.406 384.5 L
225.659 384.5 L
235.024 384.5 L
243.455 384.5 L
252.27 384.5 L
261.25 384.5 L
270.15 384.5 L
279.045 384.5 L
288.297 384.5 L
296.841 384.5 L
306.452 384.5 L
314.636 384.5 L
323.381 384.5 L
332.432 384.5 L
341.388 384.5 L
350.227 384.5 L
359.132 384.5 L
368.023 384.5 L
377.569 384.499 L
385.818 384.485 L
390.057 384.452 L
394.296 384.336 L
396.626 384.173 L
397.79 384.037 L
398.955 383.843 L
399.537 383.716 L
400.12 383.564 L
400.702 383.382 L
401.284 383.164 L
401.867 382.902 L
402.449 382.587 L
402.74 382.407 L
403.031 382.209 L
403.322 381.991 L
403.614 381.753 L
403.905 381.491 L
404.197 381.203 L
404.489 380.888 L
404.781 380.541 L
405.073 380.161 L
405.364 379.743 L
405.948 378.78 L
406.531 377.62 L
407.115 376.22 L
407.699 374.533 L
408.282 372.5 L
408.866 370.053 L
409.157 368.65 L
409.449 367.113 L
409.741 365.429 L
410.033 363.585 L
410.324 361.569 L
410.616 359.365 L
410.908 356.959 L
411.2 354.333 L
411.492 351.473 L
411.783 348.36 L
412.075 344.977 L
412.221 343.179 L
412.367 341.307 L
412.513 339.359 L
412.659 337.332 L
412.805 335.225 L
412.951 333.036 L
413.083 330.98 L
413.215 328.853 L
413.347 326.654 L
413.479 324.382 L
413.611 322.035 L
413.743 319.613 L
413.876 317.115 L
414.008 314.538 L
414.14 311.884 L
414.272 309.151 L
414.404 306.339 L
414.536 303.447 L
414.669 300.475 L
414.801 297.424 L
414.933 294.294 L
415.065 291.084 L
415.197 287.797 L
415.329 284.432 L
415.462 280.991 L
415.594 277.475 L
415.726 273.886 L
415.858 270.225 L
415.99 266.496 L
416.122 262.699 L
416.387 254.917 L
416.651 246.903 L
416.915 238.686 L
417.18 230.296 L
417.444 221.77 L
417.708 213.145 L
418.237 195.762 L
418.766 178.48 L
419.03 169.982 L
419.294 161.633 L
419.559 153.469 L
419.823 145.524 L
419.955 141.643 L
420.087 137.829 L
420.22 134.083 L
420.352 130.409 L
420.484 126.81 L
420.616 123.288 L
420.748 119.845 L
420.88 116.482 L
421.013 113.202 L
421.145 110.006 L
421.277 106.893 L
421.409 103.867 L
421.514 101.524 L
421.619 99.236 L
421.724 97.003 L
421.829 94.823 L
421.934 92.698 L
422.039 90.626 L
422.144 88.608 L
422.249 86.644 L
422.354 84.732 L
422.458 82.873 L
422.668 79.309 L
422.878 75.948 L
423.088 72.784 L
423.298 69.811 L
423.508 67.021 L
423.718 64.408 L
423.928 61.965 L
424.138 59.683 L
424.347 57.556 L
424.557 55.574 L
424.767 53.732 L
424.977 52.02 L
425.187 50.432 L
425.397 48.961 L
425.607 47.598 L
426.026 45.175 L
426.446 43.11 L
426.866 41.357 L
427.286 39.875 L
427.705 38.624 L
428.125 37.573 L
428.471 36.835 L
428.818 36.198 L
429.164 35.649 L
429.51 35.178 L
429.856 34.772 L
430.203 34.425 L
430.549 34.128 L
430.895 33.875 L
431.241 33.659 L
431.587 33.475 L
431.934 33.318 L
432.28 33.186 L
432.626 33.074 L
432.972 32.979 L
433.665 32.832 L
434.357 32.728 L
435.05 32.655 L
436.435 32.57 L
439.205 32.512 L
443.571 32.5 L
447.937 32.5 L
457 32.5 L
S
GR
GS
1 GC
N
600 174 M
600 32.5 L
475 32.5 L
475 174 L
cp
f
GR
GS
[1 0 0 1 512 48] CT
/Times-Roman 14.4 F
GS
[1 0 0 1 0 0] CT
0 0 moveto 
1 -1 scale
(b=2, x) t 
GR
GR
GS
[1 0 0 1 549 55] CT
/Times-Roman 11.52 F
GS
[1 0 0 1 0 0] CT
0 0 moveto 
1 -1 scale
(0) t 
GR
GR
GS
[1 0 0 1 555 48] CT
/Times-Roman 14.4 F
GS
[1 0 0 1 0 0] CT
0 0 moveto 
1 -1 scale
( = 0.1) t 
GR
GR
GS
0 0.447 0.741 RC
1 LJ
0.5 LW
N
479 45.75 M
509 45.75 L
S
GR
GS
[1 0 0 1 512 71] CT
/Times-Roman 14.4 F
GS
[1 0 0 1 0 0] CT
0 0 moveto 
1 -1 scale
(b=2, x) t 
GR
GR
GS
[1 0 0 1 549 78] CT
/Times-Roman 11.52 F
GS
[1 0 0 1 0 0] CT
0 0 moveto 
1 -1 scale
(0) t 
GR
GR
GS
[1 0 0 1 555 71] CT
/Times-Roman 14.4 F
GS
[1 0 0 1 0 0] CT
0 0 moveto 
1 -1 scale
( = 0.5) t 
GR
GR
GS
0.851 0.325 0.098 RC
1 LJ
0.5 LW
N
479 68.75 M
509 68.75 L
S
GR
GS
[1 0 0 1 512 94] CT
/Times-Roman 14.4 F
GS
[1 0 0 1 0 0] CT
0 0 moveto 
1 -1 scale
(b=2, x) t 
GR
GR
GS
[1 0 0 1 549 101] CT
/Times-Roman 11.52 F
GS
[1 0 0 1 0 0] CT
0 0 moveto 
1 -1 scale
(0) t 
GR
GR
GS
[1 0 0 1 555 94] CT
/Times-Roman 14.4 F
GS
[1 0 0 1 0 0] CT
0 0 moveto 
1 -1 scale
( = 0.9) t 
GR
GR
GS
0.929 0.694 0.125 RC
1 LJ
0.5 LW
N
479 91.75 M
509 91.75 L
S
GR
GS
[1 0 0 1 512 117] CT
/Times-Roman 14.4 F
GS
[1 0 0 1 0 0] CT
0 0 moveto 
1 -1 scale
(b=10, x) t 
GR
GR
GS
[1 0 0 1 557 124] CT
/Times-Roman 11.52 F
GS
[1 0 0 1 0 0] CT
0 0 moveto 
1 -1 scale
(0) t 
GR
GR
GS
[1 0 0 1 563 117] CT
/Times-Roman 14.4 F
GS
[1 0 0 1 0 0] CT
0 0 moveto 
1 -1 scale
( = 0.1) t 
GR
GR
GS
0.635 0.078 0.184 RC
[10 6] 0 setdash
2 LJ
0.5 LW
N
479 114.75 M
509 114.75 L
S
GR
GS
[1 0 0 1 512 140] CT
/Times-Roman 14.4 F
GS
[1 0 0 1 0 0] CT
0 0 moveto 
1 -1 scale
(b=10, x) t 
GR
GR
GS
[1 0 0 1 557 147] CT
/Times-Roman 11.52 F
GS
[1 0 0 1 0 0] CT
0 0 moveto 
1 -1 scale
(0) t 
GR
GR
GS
[1 0 0 1 563 140] CT
/Times-Roman 14.4 F
GS
[1 0 0 1 0 0] CT
0 0 moveto 
1 -1 scale
( = 0.5) t 
GR
GR
GS
0 0.447 0.741 RC
[10 6] 0 setdash
2 LJ
0.5 LW
N
479 137.75 M
509 137.75 L
S
GR
GS
[1 0 0 1 512 163] CT
/Times-Roman 14.4 F
GS
[1 0 0 1 0 0] CT
0 0 moveto 
1 -1 scale
(b=10, x) t 
GR
GR
GS
[1 0 0 1 557 170] CT
/Times-Roman 11.52 F
GS
[1 0 0 1 0 0] CT
0 0 moveto 
1 -1 scale
(0) t 
GR
GR
GS
[1 0 0 1 563 163] CT
/Times-Roman 14.4 F
GS
[1 0 0 1 0 0] CT
0 0 moveto 
1 -1 scale
( = 0.9) t 
GR
GR
GS
0.851 0.325 0.098 RC
[10 6] 0 setdash
2 LJ
0.5 LW
N
479 160.75 M
509 160.75 L
S
GR
GS
0.149 GC
10.0 ML
0.5 LW
N
475 174 M
475 32.5 L
600 32.5 L
600 174 L
cp
S
GR
%%Trailer
%%Pages: 1
%%EOF
