%!PS-Adobe-3.0 EPSF-3.0
%%Creator: (MATLAB, The Mathworks, Inc. Version 9.6.0.1472908 \(R2019a\) Update 9. Operating System: Windows 10)
%%Title: (C:/Users/A/OneDrive - ETHZ/Research_MasterThesis/AllCodeFiles/Figure/ObjectiveFunctionVSPayment.eps)
%%CreationDate: 2022-11-17T20:30:57
%%Pages: (atend)
%%BoundingBox:    23     2   601   406
%%LanguageLevel: 3
%%EndComments
%%BeginProlog
%%BeginResource: procset (Apache XML Graphics Std ProcSet) 1.2 0
%%Version: 1.2 0
%%Copyright: (Copyright 2001-2003,2010 The Apache Software Foundation. License terms: http://www.apache.org/licenses/LICENSE-2.0)
/bd{bind def}bind def
/ld{load def}bd
/GR/grestore ld
/GS/gsave ld
/RM/rmoveto ld
/C/curveto ld
/t/show ld
/L/lineto ld
/ML/setmiterlimit ld
/CT/concat ld
/f/fill ld
/N/newpath ld
/S/stroke ld
/CC/setcmykcolor ld
/A/ashow ld
/cp/closepath ld
/RC/setrgbcolor ld
/LJ/setlinejoin ld
/GC/setgray ld
/LW/setlinewidth ld
/M/moveto ld
/re {4 2 roll M
1 index 0 rlineto
0 exch rlineto
neg 0 rlineto
cp } bd
/_ctm matrix def
/_tm matrix def
/BT { _ctm currentmatrix pop matrix _tm copy pop 0 0 moveto } bd
/ET { _ctm setmatrix } bd
/iTm { _ctm setmatrix _tm concat } bd
/Tm { _tm astore pop iTm 0 0 moveto } bd
/ux 0.0 def
/uy 0.0 def
/F {
  /Tp exch def
  /Tf exch def
  Tf findfont Tp scalefont setfont
  /cf Tf def  /cs Tp def
} bd
/ULS {currentpoint /uy exch def /ux exch def} bd
/ULE {
  /Tcx currentpoint pop def
  gsave
  newpath
  cf findfont cs scalefont dup
  /FontMatrix get 0 get /Ts exch def /FontInfo get dup
  /UnderlinePosition get Ts mul /To exch def
  /UnderlineThickness get Ts mul /Tt exch def
  ux uy To add moveto  Tcx uy To add lineto
  Tt setlinewidth stroke
  grestore
} bd
/OLE {
  /Tcx currentpoint pop def
  gsave
  newpath
  cf findfont cs scalefont dup
  /FontMatrix get 0 get /Ts exch def /FontInfo get dup
  /UnderlinePosition get Ts mul /To exch def
  /UnderlineThickness get Ts mul /Tt exch def
  ux uy To add cs add moveto Tcx uy To add cs add lineto
  Tt setlinewidth stroke
  grestore
} bd
/SOE {
  /Tcx currentpoint pop def
  gsave
  newpath
  cf findfont cs scalefont dup
  /FontMatrix get 0 get /Ts exch def /FontInfo get dup
  /UnderlinePosition get Ts mul /To exch def
  /UnderlineThickness get Ts mul /Tt exch def
  ux uy To add cs 10 mul 26 idiv add moveto Tcx uy To add cs 10 mul 26 idiv add lineto
  Tt setlinewidth stroke
  grestore
} bd
/QT {
/Y22 exch store
/X22 exch store
/Y21 exch store
/X21 exch store
currentpoint
/Y21 load 2 mul add 3 div exch
/X21 load 2 mul add 3 div exch
/X21 load 2 mul /X22 load add 3 div
/Y21 load 2 mul /Y22 load add 3 div
/X22 load /Y22 load curveto
} bd
/SSPD {
dup length /d exch dict def
{
/v exch def
/k exch def
currentpagedevice k known {
/cpdv currentpagedevice k get def
v cpdv ne {
/upd false def
/nullv v type /nulltype eq def
/nullcpdv cpdv type /nulltype eq def
nullv nullcpdv or
{
/upd true def
} {
/sametype v type cpdv type eq def
sametype {
v type /arraytype eq {
/vlen v length def
/cpdvlen cpdv length def
vlen cpdvlen eq {
0 1 vlen 1 sub {
/i exch def
/obj v i get def
/cpdobj cpdv i get def
obj cpdobj ne {
/upd true def
exit
} if
} for
} {
/upd true def
} ifelse
} {
v type /dicttype eq {
v {
/dv exch def
/dk exch def
/cpddv cpdv dk get def
dv cpddv ne {
/upd true def
exit
} if
} forall
} {
/upd true def
} ifelse
} ifelse
} if
} ifelse
upd true eq {
d k v put
} if
} if
} if
} forall
d length 0 gt {
d setpagedevice
} if
} bd
/RE { % /NewFontName [NewEncodingArray] /FontName RE -
  findfont dup length dict begin
  {
    1 index /FID ne
    {def} {pop pop} ifelse
  } forall
  /Encoding exch def
  /FontName 1 index def
  currentdict definefont pop
  end
} bind def
%%EndResource
%%BeginResource: procset (Apache XML Graphics EPS ProcSet) 1.0 0
%%Version: 1.0 0
%%Copyright: (Copyright 2002-2003 The Apache Software Foundation. License terms: http://www.apache.org/licenses/LICENSE-2.0)
/BeginEPSF { %def
/b4_Inc_state save def         % Save state for cleanup
/dict_count countdictstack def % Count objects on dict stack
/op_count count 1 sub def      % Count objects on operand stack
userdict begin                 % Push userdict on dict stack
/showpage { } def              % Redefine showpage, { } = null proc
0 setgray 0 setlinecap         % Prepare graphics state
1 setlinewidth 0 setlinejoin
10 setmiterlimit [ ] 0 setdash newpath
/languagelevel where           % If level not equal to 1 then
{pop languagelevel             % set strokeadjust and
1 ne                           % overprint to their defaults.
{false setstrokeadjust false setoverprint
} if
} if
} bd
/EndEPSF { %def
count op_count sub {pop} repeat            % Clean up stacks
countdictstack dict_count sub {end} repeat
b4_Inc_state restore
} bd
%%EndResource
%FOPBeginFontDict
%%IncludeResource: font Courier-Oblique
%%IncludeResource: font Courier-BoldOblique
%%IncludeResource: font Courier-Bold
%%IncludeResource: font ZapfDingbats
%%IncludeResource: font Symbol
%%IncludeResource: font Helvetica
%%IncludeResource: font Helvetica-Oblique
%%IncludeResource: font Helvetica-Bold
%%IncludeResource: font Helvetica-BoldOblique
%%IncludeResource: font Times-Roman
%%IncludeResource: font Times-Italic
%%IncludeResource: font Times-Bold
%%IncludeResource: font Times-BoldItalic
%%IncludeResource: font Courier
%FOPEndFontDict
%%BeginResource: encoding WinAnsiEncoding
/WinAnsiEncoding [
/.notdef /.notdef /.notdef /.notdef /.notdef
/.notdef /.notdef /.notdef /.notdef /.notdef
/.notdef /.notdef /.notdef /.notdef /.notdef
/.notdef /.notdef /.notdef /.notdef /.notdef
/.notdef /.notdef /.notdef /.notdef /.notdef
/.notdef /.notdef /.notdef /.notdef /.notdef
/.notdef /.notdef /space /exclam /quotedbl
/numbersign /dollar /percent /ampersand /quotesingle
/parenleft /parenright /asterisk /plus /comma
/hyphen /period /slash /zero /one
/two /three /four /five /six
/seven /eight /nine /colon /semicolon
/less /equal /greater /question /at
/A /B /C /D /E
/F /G /H /I /J
/K /L /M /N /O
/P /Q /R /S /T
/U /V /W /X /Y
/Z /bracketleft /backslash /bracketright /asciicircum
/underscore /quoteleft /a /b /c
/d /e /f /g /h
/i /j /k /l /m
/n /o /p /q /r
/s /t /u /v /w
/x /y /z /braceleft /bar
/braceright /asciitilde /bullet /Euro /bullet
/quotesinglbase /florin /quotedblbase /ellipsis /dagger
/daggerdbl /circumflex /perthousand /Scaron /guilsinglleft
/OE /bullet /Zcaron /bullet /bullet
/quoteleft /quoteright /quotedblleft /quotedblright /bullet
/endash /emdash /asciitilde /trademark /scaron
/guilsinglright /oe /bullet /zcaron /Ydieresis
/space /exclamdown /cent /sterling /currency
/yen /brokenbar /section /dieresis /copyright
/ordfeminine /guillemotleft /logicalnot /sfthyphen /registered
/macron /degree /plusminus /twosuperior /threesuperior
/acute /mu /paragraph /middot /cedilla
/onesuperior /ordmasculine /guillemotright /onequarter /onehalf
/threequarters /questiondown /Agrave /Aacute /Acircumflex
/Atilde /Adieresis /Aring /AE /Ccedilla
/Egrave /Eacute /Ecircumflex /Edieresis /Igrave
/Iacute /Icircumflex /Idieresis /Eth /Ntilde
/Ograve /Oacute /Ocircumflex /Otilde /Odieresis
/multiply /Oslash /Ugrave /Uacute /Ucircumflex
/Udieresis /Yacute /Thorn /germandbls /agrave
/aacute /acircumflex /atilde /adieresis /aring
/ae /ccedilla /egrave /eacute /ecircumflex
/edieresis /igrave /iacute /icircumflex /idieresis
/eth /ntilde /ograve /oacute /ocircumflex
/otilde /odieresis /divide /oslash /ugrave
/uacute /ucircumflex /udieresis /yacute /thorn
/ydieresis
] def
%%EndResource
%FOPBeginFontReencode
/Courier-Oblique findfont
dup length dict begin
  {1 index /FID ne {def} {pop pop} ifelse} forall
  /Encoding WinAnsiEncoding def
  currentdict
end
/Courier-Oblique exch definefont pop
/Courier-BoldOblique findfont
dup length dict begin
  {1 index /FID ne {def} {pop pop} ifelse} forall
  /Encoding WinAnsiEncoding def
  currentdict
end
/Courier-BoldOblique exch definefont pop
/Courier-Bold findfont
dup length dict begin
  {1 index /FID ne {def} {pop pop} ifelse} forall
  /Encoding WinAnsiEncoding def
  currentdict
end
/Courier-Bold exch definefont pop
/Helvetica findfont
dup length dict begin
  {1 index /FID ne {def} {pop pop} ifelse} forall
  /Encoding WinAnsiEncoding def
  currentdict
end
/Helvetica exch definefont pop
/Helvetica-Oblique findfont
dup length dict begin
  {1 index /FID ne {def} {pop pop} ifelse} forall
  /Encoding WinAnsiEncoding def
  currentdict
end
/Helvetica-Oblique exch definefont pop
/Helvetica-Bold findfont
dup length dict begin
  {1 index /FID ne {def} {pop pop} ifelse} forall
  /Encoding WinAnsiEncoding def
  currentdict
end
/Helvetica-Bold exch definefont pop
/Helvetica-BoldOblique findfont
dup length dict begin
  {1 index /FID ne {def} {pop pop} ifelse} forall
  /Encoding WinAnsiEncoding def
  currentdict
end
/Helvetica-BoldOblique exch definefont pop
/Times-Roman findfont
dup length dict begin
  {1 index /FID ne {def} {pop pop} ifelse} forall
  /Encoding WinAnsiEncoding def
  currentdict
end
/Times-Roman exch definefont pop
/Times-Italic findfont
dup length dict begin
  {1 index /FID ne {def} {pop pop} ifelse} forall
  /Encoding WinAnsiEncoding def
  currentdict
end
/Times-Italic exch definefont pop
/Times-Bold findfont
dup length dict begin
  {1 index /FID ne {def} {pop pop} ifelse} forall
  /Encoding WinAnsiEncoding def
  currentdict
end
/Times-Bold exch definefont pop
/Times-BoldItalic findfont
dup length dict begin
  {1 index /FID ne {def} {pop pop} ifelse} forall
  /Encoding WinAnsiEncoding def
  currentdict
end
/Times-BoldItalic exch definefont pop
/Courier findfont
dup length dict begin
  {1 index /FID ne {def} {pop pop} ifelse} forall
  /Encoding WinAnsiEncoding def
  currentdict
end
/Courier exch definefont pop
%FOPEndFontReencode
%%EndProlog
%%Page: 1 1
%%PageBoundingBox: 0 0 648 432
%%BeginPageSetup
[1 0 0 -1 0 432] CT
%%EndPageSetup
GS
[0.6 0 0 0.6 0 0] CT
1 GC
N
0 0 1080 720 re
f
GR
GS
[0.6 0 0 0.6 0 0] CT
1 GC
N
0 0 1080 720 re
f
GR
GS
[0.6 0 0 0.6 0 0] CT
1 GC
N
140 640 M
977 640 L
977 54 L
140 54 L
cp
f
GR
GS
[0.6 0 0 0.6 0 0] CT
0.873 GC
1 LJ
0.833 LW
N
140 640 M
140 54 L
S
GR
GS
[0.6 0 0 0.6 0 0] CT
0.873 GC
1 LJ
0.833 LW
N
307.4 640 M
307.4 54 L
S
GR
GS
[0.6 0 0 0.6 0 0] CT
0.873 GC
1 LJ
0.833 LW
N
474.8 640 M
474.8 54 L
S
GR
GS
[0.6 0 0 0.6 0 0] CT
0.873 GC
1 LJ
0.833 LW
N
642.2 640 M
642.2 54 L
S
GR
GS
[0.6 0 0 0.6 0 0] CT
0.873 GC
1 LJ
0.833 LW
N
809.6 640 M
809.6 54 L
S
GR
GS
[0.6 0 0 0.6 0 0] CT
0.873 GC
1 LJ
0.833 LW
N
977 640 M
977 54 L
S
GR
GS
[0.6 0 0 0.6 0 0] CT
0.851 GC
1 LJ
0.833 LW
N
977 640 M
140 640 L
S
GR
GS
[0.6 0 0 0.6 0 0] CT
0.851 GC
1 LJ
0.833 LW
N
977 522.8 M
140 522.8 L
S
GR
GS
[0.6 0 0 0.6 0 0] CT
0.851 GC
1 LJ
0.833 LW
N
977 405.6 M
140 405.6 L
S
GR
GS
[0.6 0 0 0.6 0 0] CT
0.851 GC
1 LJ
0.833 LW
N
977 288.4 M
140 288.4 L
S
GR
GS
[0.6 0 0 0.6 0 0] CT
0.851 GC
1 LJ
0.833 LW
N
977 171.2 M
140 171.2 L
S
GR
GS
[0.6 0 0 0.6 0 0] CT
0.851 GC
1 LJ
0.833 LW
N
977 54 M
140 54 L
S
GR
GS
[0.6 0 0 0.6 0 0] CT
0.149 GC
2 setlinecap
1 LJ
0.833 LW
N
140 640 M
977 640 L
S
GR
GS
[0.6 0 0 0.6 0 0] CT
0.149 GC
2 setlinecap
1 LJ
0.833 LW
N
140 54 M
977 54 L
S
GR
GS
[0.6 0 0 0.6 0 0] CT
0.149 GC
2 setlinecap
1 LJ
0.833 LW
N
140 640 M
140 631.63 L
S
GR
GS
[0.6 0 0 0.6 0 0] CT
0.149 GC
2 setlinecap
1 LJ
0.833 LW
N
307.4 640 M
307.4 631.63 L
S
GR
GS
[0.6 0 0 0.6 0 0] CT
0.149 GC
2 setlinecap
1 LJ
0.833 LW
N
474.8 640 M
474.8 631.63 L
S
GR
GS
[0.6 0 0 0.6 0 0] CT
0.149 GC
2 setlinecap
1 LJ
0.833 LW
N
642.2 640 M
642.2 631.63 L
S
GR
GS
[0.6 0 0 0.6 0 0] CT
0.149 GC
2 setlinecap
1 LJ
0.833 LW
N
809.6 640 M
809.6 631.63 L
S
GR
GS
[0.6 0 0 0.6 0 0] CT
0.149 GC
2 setlinecap
1 LJ
0.833 LW
N
977 640 M
977 631.63 L
S
GR
GS
[0.6 0 0 0.6 0 0] CT
0.149 GC
2 setlinecap
1 LJ
0.833 LW
N
140 54 M
140 62.37 L
S
GR
GS
[0.6 0 0 0.6 0 0] CT
0.149 GC
2 setlinecap
1 LJ
0.833 LW
N
307.4 54 M
307.4 62.37 L
S
GR
GS
[0.6 0 0 0.6 0 0] CT
0.149 GC
2 setlinecap
1 LJ
0.833 LW
N
474.8 54 M
474.8 62.37 L
S
GR
GS
[0.6 0 0 0.6 0 0] CT
0.149 GC
2 setlinecap
1 LJ
0.833 LW
N
642.2 54 M
642.2 62.37 L
S
GR
GS
[0.6 0 0 0.6 0 0] CT
0.149 GC
2 setlinecap
1 LJ
0.833 LW
N
809.6 54 M
809.6 62.37 L
S
GR
GS
[0.6 0 0 0.6 0 0] CT
0.149 GC
2 setlinecap
1 LJ
0.833 LW
N
977 54 M
977 62.37 L
S
GR
GS
[0.6 0 0 0.6 84 389.19983] CT
0.149 GC
/Times-Roman 26.667 F
GS
[1 0 0 1 0 0] CT
-7 25 moveto 
1 -1 scale
(0) t 
GR
GR
GS
[0.6 0 0 0.6 184.44 389.19983] CT
0.149 GC
/Times-Roman 26.667 F
GS
[1 0 0 1 0 0] CT
-13.5 25 moveto 
1 -1 scale
(50) t 
GR
GR
GS
[0.6 0 0 0.6 284.87999 389.19983] CT
0.149 GC
/Times-Roman 26.667 F
GS
[1 0 0 1 0 0] CT
-20 25 moveto 
1 -1 scale
(100) t 
GR
GR
GS
[0.6 0 0 0.6 385.32001 389.19983] CT
0.149 GC
/Times-Roman 26.667 F
GS
[1 0 0 1 0 0] CT
-20 25 moveto 
1 -1 scale
(150) t 
GR
GR
GS
[0.6 0 0 0.6 485.75999 389.19983] CT
0.149 GC
/Times-Roman 26.667 F
GS
[1 0 0 1 0 0] CT
-20 25 moveto 
1 -1 scale
(200) t 
GR
GR
GS
[0.6 0 0 0.6 586.2 389.19983] CT
0.149 GC
/Times-Roman 26.667 F
GS
[1 0 0 1 0 0] CT
-20 25 moveto 
1 -1 scale
(250) t 
GR
GR
GS
[0.6 0 0 0.6 335.10026 409.40002] CT
0.149 GC
N
-59.852 26.6 M
-59.852 25.475 L
-56.555 25.475 -56.555 24.459 QT
-56.555 6.881 L
-56.555 5.866 -59.852 5.866 QT
-59.852 4.741 L
-48.461 4.741 L
-46.711 4.741 -44.961 5.459 QT
-43.211 6.178 -42.079 7.553 QT
-40.946 8.928 -40.946 10.756 QT
-40.946 12.537 -42.086 13.881 QT
-43.227 15.225 -44.961 15.92 QT
-46.696 16.616 -48.461 16.616 QT
-53.586 16.616 L
-53.586 24.459 L
-53.586 25.475 -50.289 25.475 QT
-50.289 26.6 L
-59.852 26.6 L
cp
-53.68 15.662 M
-49.336 15.662 L
-47.571 15.662 -46.477 15.155 QT
-45.383 14.647 -44.875 13.576 QT
-44.368 12.506 -44.368 10.756 QT
-44.368 8.147 -45.516 7.006 QT
-46.664 5.866 -49.336 5.866 QT
-52.055 5.866 L
-52.633 5.866 -52.954 5.912 QT
-53.274 5.959 -53.477 6.186 QT
-53.68 6.412 -53.68 6.881 QT
-53.68 15.662 L
cp
f
GR
GS
[0.6 0 0 0.6 335.10026 409.40002] CT
0.149 GC
N
-38.962 23.459 M
-38.962 21.553 -37.462 20.358 QT
-35.962 19.162 -33.86 18.67 QT
-31.759 18.178 -29.868 18.178 QT
-29.868 16.866 L
-29.868 15.944 -30.274 15.076 QT
-30.681 14.209 -31.446 13.655 QT
-32.212 13.1 -33.134 13.1 QT
-35.259 13.1 -36.368 14.053 QT
-35.759 14.053 -35.36 14.514 QT
-34.962 14.975 -34.962 15.584 QT
-34.962 16.225 -35.415 16.678 QT
-35.868 17.131 -36.493 17.131 QT
-37.134 17.131 -37.587 16.678 QT
-38.04 16.225 -38.04 15.584 QT
-38.04 13.897 -36.509 13.076 QT
-34.978 12.256 -33.134 12.256 QT
-31.837 12.256 -30.524 12.811 QT
-29.212 13.366 -28.376 14.397 QT
-27.54 15.428 -27.54 16.803 QT
-27.54 24.006 L
-27.54 24.631 -27.274 25.155 QT
-27.009 25.678 -26.446 25.678 QT
-25.915 25.678 -25.657 25.147 QT
-25.399 24.616 -25.399 24.006 QT
-25.399 21.959 L
-24.462 21.959 L
-24.462 24.006 L
-24.462 24.725 -24.837 25.373 QT
-25.212 26.022 -25.845 26.405 QT
-26.478 26.787 -27.212 26.787 QT
-28.149 26.787 -28.829 26.061 QT
-29.509 25.334 -29.587 24.334 QT
-30.181 25.537 -31.337 26.248 QT
-32.493 26.959 -33.806 26.959 QT
-35.024 26.959 -36.204 26.6 QT
-37.384 26.241 -38.173 25.467 QT
-38.962 24.694 -38.962 23.459 QT
cp
-36.368 23.459 M
-36.368 24.584 -35.54 25.35 QT
-34.712 26.116 -33.587 26.116 QT
-32.556 26.116 -31.712 25.6 QT
-30.868 25.084 -30.368 24.194 QT
-29.868 23.303 -29.868 22.319 QT
-29.868 18.991 L
-31.321 18.991 -32.845 19.467 QT
-34.368 19.944 -35.368 20.959 QT
-36.368 21.975 -36.368 23.459 QT
cp
f
GR
GS
[0.6 0 0 0.6 335.10026 409.40002] CT
0.149 GC
N
-23.086 31.85 M
-22.477 32.334 -21.743 32.334 QT
-19.727 32.334 -18.446 29.287 QT
-17.352 26.6 L
-22.149 14.85 L
-22.446 14.256 -23.055 14.092 QT
-23.664 13.928 -24.68 13.928 QT
-24.68 12.803 L
-17.961 12.803 L
-17.961 13.928 L
-19.727 13.928 -19.727 14.694 QT
-19.727 14.819 -19.696 14.881 QT
-16.133 23.631 L
-12.93 15.756 L
-12.836 15.506 -12.836 15.209 QT
-12.836 14.819 -13.047 14.53 QT
-13.258 14.241 -13.594 14.084 QT
-13.93 13.928 -14.352 13.928 QT
-14.352 12.803 L
-9.039 12.803 L
-9.039 13.928 L
-10.024 13.928 -10.766 14.381 QT
-11.508 14.834 -11.914 15.725 QT
-17.446 29.287 L
-17.883 30.319 -18.469 31.186 QT
-19.055 32.053 -19.899 32.608 QT
-20.743 33.162 -21.743 33.162 QT
-22.914 33.162 -23.797 32.389 QT
-24.68 31.616 -24.68 30.475 QT
-24.68 29.881 -24.274 29.475 QT
-23.868 29.069 -23.274 29.069 QT
-22.868 29.069 -22.547 29.248 QT
-22.227 29.428 -22.047 29.741 QT
-21.868 30.053 -21.868 30.475 QT
-21.868 30.991 -22.211 31.397 QT
-22.555 31.803 -23.086 31.85 QT
cp
f
GR
GS
[0.6 0 0 0.6 335.10026 409.40002] CT
0.149 GC
N
-7.623 26.6 M
-7.623 25.475 L
-6.529 25.475 -5.826 25.303 QT
-5.123 25.131 -5.123 24.459 QT
-5.123 15.725 L
-5.123 14.866 -5.381 14.483 QT
-5.639 14.1 -6.123 14.014 QT
-6.608 13.928 -7.623 13.928 QT
-7.623 12.803 L
-2.983 12.459 L
-2.983 15.584 L
-2.342 14.209 -1.084 13.334 QT
0.174 12.459 1.658 12.459 QT
5.346 12.459 5.986 15.459 QT
6.627 14.116 7.861 13.287 QT
9.096 12.459 10.564 12.459 QT
12.017 12.459 13.01 12.928 QT
14.002 13.397 14.502 14.358 QT
15.002 15.319 15.002 16.772 QT
15.002 24.459 L
15.002 25.131 15.713 25.303 QT
16.424 25.475 17.502 25.475 QT
17.502 26.6 L
10.174 26.6 L
10.174 25.475 L
11.267 25.475 11.971 25.303 QT
12.674 25.131 12.674 24.459 QT
12.674 16.866 L
12.674 15.256 12.221 14.272 QT
11.767 13.287 10.361 13.287 QT
8.517 13.287 7.314 14.772 QT
6.111 16.256 6.111 18.147 QT
6.111 24.459 L
6.111 25.131 6.814 25.303 QT
7.517 25.475 8.611 25.475 QT
8.611 26.6 L
1.283 26.6 L
1.283 25.475 L
2.377 25.475 3.08 25.303 QT
3.783 25.131 3.783 24.459 QT
3.783 16.866 L
3.783 15.303 3.33 14.295 QT
2.877 13.287 1.471 13.287 QT
-0.389 13.287 -1.584 14.772 QT
-2.779 16.256 -2.779 18.147 QT
-2.779 24.459 L
-2.779 25.131 -2.076 25.303 QT
-1.373 25.475 -0.295 25.475 QT
-0.295 26.6 L
-7.623 26.6 L
cp
f
GR
GS
[0.6 0 0 0.6 335.10026 409.40002] CT
0.149 GC
N
25.781 26.959 M
23.828 26.959 22.195 25.936 QT
20.563 24.912 19.633 23.201 QT
18.703 21.491 18.703 19.584 QT
18.703 17.709 19.555 16.022 QT
20.406 14.334 21.93 13.295 QT
23.453 12.256 25.328 12.256 QT
26.797 12.256 27.883 12.748 QT
28.969 13.241 29.672 14.116 QT
30.375 14.991 30.734 16.178 QT
31.094 17.366 31.094 18.787 QT
31.094 19.209 30.766 19.209 QT
21.5 19.209 L
21.5 19.553 L
21.5 22.209 22.57 24.116 QT
23.641 26.022 26.063 26.022 QT
27.047 26.022 27.883 25.584 QT
28.719 25.147 29.336 24.366 QT
29.953 23.584 30.172 22.694 QT
30.203 22.584 30.289 22.498 QT
30.375 22.412 30.484 22.412 QT
30.766 22.412 L
31.094 22.412 31.094 22.819 QT
30.641 24.631 29.141 25.795 QT
27.641 26.959 25.781 26.959 QT
cp
21.531 18.412 M
28.828 18.412 L
28.828 17.209 28.492 15.975 QT
28.156 14.741 27.375 13.92 QT
26.594 13.1 25.328 13.1 QT
23.516 13.1 22.524 14.795 QT
21.531 16.491 21.531 18.412 QT
cp
f
GR
GS
[0.6 0 0 0.6 335.10026 409.40002] CT
0.149 GC
N
32.84 26.6 M
32.84 25.475 L
33.934 25.475 34.637 25.303 QT
35.34 25.131 35.34 24.459 QT
35.34 15.725 L
35.34 14.866 35.082 14.483 QT
34.824 14.1 34.34 14.014 QT
33.855 13.928 32.84 13.928 QT
32.84 12.803 L
37.48 12.459 L
37.48 15.584 L
38.121 14.209 39.379 13.334 QT
40.637 12.459 42.121 12.459 QT
44.34 12.459 45.457 13.522 QT
46.574 14.584 46.574 16.772 QT
46.574 24.459 L
46.574 25.131 47.277 25.303 QT
47.98 25.475 49.074 25.475 QT
49.074 26.6 L
41.746 26.6 L
41.746 25.475 L
42.84 25.475 43.543 25.303 QT
44.246 25.131 44.246 24.459 QT
44.246 16.866 L
44.246 15.303 43.793 14.295 QT
43.34 13.287 41.934 13.287 QT
40.074 13.287 38.879 14.772 QT
37.684 16.256 37.684 18.147 QT
37.684 24.459 L
37.684 25.131 38.387 25.303 QT
39.09 25.475 40.168 25.475 QT
40.168 26.6 L
32.84 26.6 L
cp
f
GR
GS
[0.6 0 0 0.6 335.10026 409.40002] CT
0.149 GC
N
51.865 22.756 M
51.865 13.928 L
49.209 13.928 L
49.209 13.1 L
51.303 13.1 52.287 11.147 QT
53.272 9.194 53.272 6.912 QT
54.193 6.912 L
54.193 12.803 L
58.709 12.803 L
58.709 13.928 L
54.193 13.928 L
54.193 22.694 L
54.193 24.022 54.639 25.022 QT
55.084 26.022 56.24 26.022 QT
57.334 26.022 57.818 24.967 QT
58.303 23.912 58.303 22.694 QT
58.303 20.803 L
59.225 20.803 L
59.225 22.756 L
59.225 23.756 58.857 24.733 QT
58.49 25.709 57.772 26.334 QT
57.053 26.959 56.022 26.959 QT
54.1 26.959 52.982 25.811 QT
51.865 24.662 51.865 22.756 QT
cp
f
GR
GS
[0.6 0 0 0.6 0 0] CT
2 setlinecap
1 LJ
0.833 LW
N
140 640 M
140 54 L
S
GR
GS
[0.6 0 0 0.6 0 0] CT
2 setlinecap
1 LJ
0.833 LW
N
977 640 M
977 54 L
S
GR
GS
[0.6 0 0 0.6 0 0] CT
2 setlinecap
1 LJ
0.833 LW
N
140 640 M
148.37 640 L
S
GR
GS
[0.6 0 0 0.6 0 0] CT
2 setlinecap
1 LJ
0.833 LW
N
140 522.8 M
148.37 522.8 L
S
GR
GS
[0.6 0 0 0.6 0 0] CT
2 setlinecap
1 LJ
0.833 LW
N
140 405.6 M
148.37 405.6 L
S
GR
GS
[0.6 0 0 0.6 0 0] CT
2 setlinecap
1 LJ
0.833 LW
N
140 288.4 M
148.37 288.4 L
S
GR
GS
[0.6 0 0 0.6 0 0] CT
2 setlinecap
1 LJ
0.833 LW
N
140 171.2 M
148.37 171.2 L
S
GR
GS
[0.6 0 0 0.6 0 0] CT
2 setlinecap
1 LJ
0.833 LW
N
140 54 M
148.37 54 L
S
GR
GS
[0.6 0 0 0.6 0 0] CT
2 setlinecap
1 LJ
0.833 LW
N
977 640 M
968.63 640 L
S
GR
GS
[0.6 0 0 0.6 0 0] CT
2 setlinecap
1 LJ
0.833 LW
N
977 522.8 M
968.63 522.8 L
S
GR
GS
[0.6 0 0 0.6 0 0] CT
2 setlinecap
1 LJ
0.833 LW
N
977 405.6 M
968.63 405.6 L
S
GR
GS
[0.6 0 0 0.6 0 0] CT
2 setlinecap
1 LJ
0.833 LW
N
977 288.4 M
968.63 288.4 L
S
GR
GS
[0.6 0 0 0.6 0 0] CT
2 setlinecap
1 LJ
0.833 LW
N
977 171.2 M
968.63 171.2 L
S
GR
GS
[0.6 0 0 0.6 0 0] CT
2 setlinecap
1 LJ
0.833 LW
N
977 54 M
968.63 54 L
S
GR
GS
[0.6 0 0 0.6 78.8 384] CT
/Times-Roman 26.667 F
GS
[1 0 0 1 0 0] CT
-54 9.5 moveto 
1 -1 scale
(2750) t 
GR
GR
GS
[0.6 0 0 0.6 78.8 313.67999] CT
/Times-Roman 26.667 F
GS
[1 0 0 1 0 0] CT
-54 9.5 moveto 
1 -1 scale
(2800) t 
GR
GR
GS
[0.6 0 0 0.6 78.8 243.36] CT
/Times-Roman 26.667 F
GS
[1 0 0 1 0 0] CT
-54 9.5 moveto 
1 -1 scale
(2850) t 
GR
GR
GS
[0.6 0 0 0.6 78.8 173.04] CT
/Times-Roman 26.667 F
GS
[1 0 0 1 0 0] CT
-54 9.5 moveto 
1 -1 scale
(2900) t 
GR
GR
GS
[0.6 0 0 0.6 78.8 102.72] CT
/Times-Roman 26.667 F
GS
[1 0 0 1 0 0] CT
-54 9.5 moveto 
1 -1 scale
(2950) t 
GR
GR
GS
[0.6 0 0 0.6 78.8 32.4] CT
/Times-Roman 26.667 F
GS
[1 0 0 1 0 0] CT
-54 9.5 moveto 
1 -1 scale
(3000) t 
GR
GR
GS
[0 -0.6 0.6 0 43.4 208.2] CT
N
-164.133 -10.697 M
-167.18 -10.697 -169.609 -12.314 QT
-172.039 -13.931 -173.414 -16.611 QT
-174.789 -19.291 -174.789 -22.244 QT
-174.789 -24.431 -174 -26.572 QT
-173.211 -28.713 -171.797 -30.369 QT
-170.383 -32.025 -168.398 -32.994 QT
-166.414 -33.963 -164.133 -33.963 QT
-161.867 -33.963 -159.875 -32.986 QT
-157.883 -32.009 -156.461 -30.338 QT
-155.039 -28.666 -154.273 -26.588 QT
-153.508 -24.509 -153.508 -22.244 QT
-153.508 -19.291 -154.883 -16.611 QT
-156.258 -13.931 -158.695 -12.314 QT
-161.133 -10.697 -164.133 -10.697 QT
cp
-169.445 -14.853 M
-168.508 -13.384 -167.133 -12.517 QT
-165.758 -11.65 -164.133 -11.65 QT
-163.086 -11.65 -162.078 -12.072 QT
-161.07 -12.494 -160.25 -13.228 QT
-159.43 -13.963 -158.852 -14.853 QT
-156.945 -17.728 -156.945 -22.759 QT
-156.945 -27.369 -158.852 -30.056 QT
-159.789 -31.4 -161.188 -32.213 QT
-162.586 -33.025 -164.133 -33.025 QT
-165.695 -33.025 -167.102 -32.213 QT
-168.508 -31.4 -169.445 -30.056 QT
-170.195 -29.009 -170.609 -27.83 QT
-171.023 -26.65 -171.195 -25.384 QT
-171.367 -24.119 -171.367 -22.759 QT
-171.367 -21.306 -171.203 -19.924 QT
-171.039 -18.541 -170.594 -17.213 QT
-170.148 -15.884 -169.445 -14.853 QT
cp
f
GR
GS
[0 -0.6 0.6 0 43.4 208.2] CT
N
-148.628 -11.4 M
-148.628 -30.338 L
-148.628 -31.197 -148.886 -31.58 QT
-149.144 -31.963 -149.628 -32.049 QT
-150.113 -32.134 -151.128 -32.134 QT
-151.128 -33.259 L
-146.394 -33.603 L
-146.394 -23.588 L
-145.863 -24.181 -145.152 -24.627 QT
-144.441 -25.072 -143.628 -25.306 QT
-142.816 -25.541 -141.972 -25.541 QT
-140.534 -25.541 -139.308 -24.963 QT
-138.081 -24.384 -137.175 -23.369 QT
-136.269 -22.353 -135.761 -21.033 QT
-135.253 -19.713 -135.253 -18.306 QT
-135.253 -16.369 -136.198 -14.697 QT
-137.144 -13.025 -138.777 -12.033 QT
-140.409 -11.041 -142.363 -11.041 QT
-143.581 -11.041 -144.722 -11.666 QT
-145.863 -12.291 -146.613 -13.322 QT
-147.706 -11.4 L
-148.628 -11.4 L
cp
-146.3 -14.541 M
-145.769 -13.369 -144.769 -12.627 QT
-143.769 -11.884 -142.55 -11.884 QT
-140.894 -11.884 -139.87 -12.838 QT
-138.847 -13.791 -138.441 -15.244 QT
-138.034 -16.697 -138.034 -18.306 QT
-138.034 -21.009 -138.738 -22.416 QT
-139.05 -23.041 -139.589 -23.572 QT
-140.128 -24.103 -140.792 -24.408 QT
-141.456 -24.713 -142.191 -24.713 QT
-143.472 -24.713 -144.566 -24.033 QT
-145.659 -23.353 -146.3 -22.213 QT
-146.3 -14.541 L
cp
f
GR
GS
[0 -0.6 0.6 0 43.4 208.2] CT
N
-131.964 -6.025 M
-131.229 -5.666 -130.308 -5.666 QT
-129.042 -5.666 -128.55 -6.955 QT
-128.058 -8.244 -128.058 -9.744 QT
-128.058 -22.275 L
-128.058 -23.134 -128.37 -23.517 QT
-128.683 -23.9 -129.222 -23.986 QT
-129.761 -24.072 -130.808 -24.072 QT
-130.808 -25.197 L
-125.823 -25.541 L
-125.823 -9.603 L
-125.823 -8.369 -126.433 -7.267 QT
-127.042 -6.166 -128.089 -5.502 QT
-129.136 -4.838 -130.37 -4.838 QT
-131.761 -4.838 -132.886 -5.525 QT
-134.011 -6.213 -134.011 -7.463 QT
-134.011 -8.088 -133.558 -8.541 QT
-133.104 -8.994 -132.479 -8.994 QT
-131.854 -8.994 -131.401 -8.541 QT
-130.948 -8.088 -130.948 -7.463 QT
-130.948 -6.978 -131.222 -6.572 QT
-131.495 -6.166 -131.964 -6.025 QT
cp
-129.339 -31.041 M
-129.339 -31.744 -128.808 -32.275 QT
-128.276 -32.806 -127.573 -32.806 QT
-127.136 -32.806 -126.714 -32.572 QT
-126.292 -32.338 -126.058 -31.916 QT
-125.823 -31.494 -125.823 -31.041 QT
-125.823 -30.353 -126.339 -29.822 QT
-126.854 -29.291 -127.573 -29.291 QT
-128.276 -29.291 -128.808 -29.822 QT
-129.339 -30.353 -129.339 -31.041 QT
cp
f
GR
GS
[0 -0.6 0.6 0 43.4 208.2] CT
N
-114.96 -11.041 M
-116.913 -11.041 -118.546 -12.064 QT
-120.178 -13.088 -121.108 -14.799 QT
-122.038 -16.509 -122.038 -18.416 QT
-122.038 -20.291 -121.186 -21.978 QT
-120.335 -23.666 -118.811 -24.705 QT
-117.288 -25.744 -115.413 -25.744 QT
-113.944 -25.744 -112.858 -25.252 QT
-111.772 -24.759 -111.069 -23.884 QT
-110.366 -23.009 -110.007 -21.822 QT
-109.647 -20.634 -109.647 -19.213 QT
-109.647 -18.791 -109.975 -18.791 QT
-119.241 -18.791 L
-119.241 -18.447 L
-119.241 -15.791 -118.171 -13.884 QT
-117.1 -11.978 -114.678 -11.978 QT
-113.694 -11.978 -112.858 -12.416 QT
-112.022 -12.853 -111.405 -13.634 QT
-110.788 -14.416 -110.569 -15.306 QT
-110.538 -15.416 -110.452 -15.502 QT
-110.366 -15.588 -110.257 -15.588 QT
-109.975 -15.588 L
-109.647 -15.588 -109.647 -15.181 QT
-110.1 -13.369 -111.6 -12.205 QT
-113.1 -11.041 -114.96 -11.041 QT
cp
-119.21 -19.588 M
-111.913 -19.588 L
-111.913 -20.791 -112.249 -22.025 QT
-112.585 -23.259 -113.366 -24.08 QT
-114.147 -24.9 -115.413 -24.9 QT
-117.225 -24.9 -118.217 -23.205 QT
-119.21 -21.509 -119.21 -19.588 QT
cp
f
GR
GS
[0 -0.6 0.6 0 43.4 208.2] CT
N
-100.886 -11.041 M
-102.823 -11.041 -104.401 -12.049 QT
-105.979 -13.056 -106.886 -14.736 QT
-107.792 -16.416 -107.792 -18.306 QT
-107.792 -20.197 -106.893 -21.931 QT
-105.995 -23.666 -104.409 -24.705 QT
-102.823 -25.744 -100.886 -25.744 QT
-99.011 -25.744 -97.472 -25.009 QT
-95.932 -24.275 -95.932 -22.603 QT
-95.932 -21.978 -96.378 -21.517 QT
-96.823 -21.056 -97.464 -21.056 QT
-98.104 -21.056 -98.55 -21.517 QT
-98.995 -21.978 -98.995 -22.603 QT
-98.995 -23.166 -98.636 -23.58 QT
-98.276 -23.994 -97.745 -24.103 QT
-98.854 -24.806 -100.854 -24.806 QT
-102.386 -24.806 -103.323 -23.791 QT
-104.261 -22.775 -104.636 -21.275 QT
-105.011 -19.775 -105.011 -18.306 QT
-105.011 -16.759 -104.55 -15.314 QT
-104.089 -13.869 -103.065 -12.924 QT
-102.042 -11.978 -100.495 -11.978 QT
-98.979 -11.978 -97.917 -12.908 QT
-96.854 -13.838 -96.464 -15.338 QT
-96.464 -15.525 -96.214 -15.525 QT
-95.823 -15.525 L
-95.729 -15.525 -95.651 -15.439 QT
-95.573 -15.353 -95.573 -15.244 QT
-95.573 -15.15 L
-96.057 -13.259 -97.495 -12.15 QT
-98.932 -11.041 -100.886 -11.041 QT
cp
f
GR
GS
[0 -0.6 0.6 0 43.4 208.2] CT
N
-91.515 -15.244 M
-91.515 -24.072 L
-94.171 -24.072 L
-94.171 -24.9 L
-92.077 -24.9 -91.093 -26.853 QT
-90.108 -28.806 -90.108 -31.088 QT
-89.187 -31.088 L
-89.187 -25.197 L
-84.671 -25.197 L
-84.671 -24.072 L
-89.187 -24.072 L
-89.187 -15.306 L
-89.187 -13.978 -88.741 -12.978 QT
-88.296 -11.978 -87.14 -11.978 QT
-86.046 -11.978 -85.562 -13.033 QT
-85.077 -14.088 -85.077 -15.306 QT
-85.077 -17.197 L
-84.155 -17.197 L
-84.155 -15.244 L
-84.155 -14.244 -84.522 -13.267 QT
-84.89 -12.291 -85.608 -11.666 QT
-86.327 -11.041 -87.358 -11.041 QT
-89.28 -11.041 -90.397 -12.189 QT
-91.515 -13.338 -91.515 -15.244 QT
cp
f
GR
GS
[0 -0.6 0.6 0 43.4 208.2] CT
N
-81.481 -11.4 M
-81.481 -12.525 L
-80.387 -12.525 -79.684 -12.697 QT
-78.981 -12.869 -78.981 -13.541 QT
-78.981 -22.275 L
-78.981 -23.509 -79.458 -23.791 QT
-79.934 -24.072 -81.34 -24.072 QT
-81.34 -25.197 L
-76.731 -25.541 L
-76.731 -13.541 L
-76.731 -12.869 -76.122 -12.697 QT
-75.512 -12.525 -74.497 -12.525 QT
-74.497 -11.4 L
-81.481 -11.4 L
cp
-80.122 -31.041 M
-80.122 -31.744 -79.59 -32.275 QT
-79.059 -32.806 -78.372 -32.806 QT
-77.919 -32.806 -77.497 -32.572 QT
-77.075 -32.338 -76.84 -31.916 QT
-76.606 -31.494 -76.606 -31.041 QT
-76.606 -30.353 -77.137 -29.822 QT
-77.669 -29.291 -78.372 -29.291 QT
-79.059 -29.291 -79.59 -29.822 QT
-80.122 -30.353 -80.122 -31.041 QT
cp
f
GR
GS
[0 -0.6 0.6 0 43.4 208.2] CT
N
-65.857 -11.4 M
-70.528 -23.15 L
-70.825 -23.744 -71.443 -23.908 QT
-72.06 -24.072 -73.06 -24.072 QT
-73.06 -25.197 L
-66.341 -25.197 L
-66.341 -24.072 L
-68.138 -24.072 -68.138 -23.306 QT
-68.138 -23.181 -68.107 -23.119 QT
-64.513 -14.088 L
-61.278 -22.244 L
-61.185 -22.494 -61.185 -22.759 QT
-61.185 -23.369 -61.646 -23.72 QT
-62.107 -24.072 -62.732 -24.072 QT
-62.732 -25.197 L
-57.419 -25.197 L
-57.419 -24.072 L
-58.403 -24.072 -59.146 -23.619 QT
-59.888 -23.166 -60.294 -22.275 QT
-64.607 -11.4 L
-64.732 -11.041 -65.122 -11.041 QT
-65.357 -11.041 L
-65.747 -11.041 -65.857 -11.4 QT
cp
f
GR
GS
[0 -0.6 0.6 0 43.4 208.2] CT
N
-49.867 -11.041 M
-51.82 -11.041 -53.453 -12.064 QT
-55.086 -13.088 -56.015 -14.799 QT
-56.945 -16.509 -56.945 -18.416 QT
-56.945 -20.291 -56.094 -21.978 QT
-55.242 -23.666 -53.719 -24.705 QT
-52.195 -25.744 -50.32 -25.744 QT
-48.851 -25.744 -47.765 -25.252 QT
-46.679 -24.759 -45.976 -23.884 QT
-45.273 -23.009 -44.914 -21.822 QT
-44.554 -20.634 -44.554 -19.213 QT
-44.554 -18.791 -44.883 -18.791 QT
-54.148 -18.791 L
-54.148 -18.447 L
-54.148 -15.791 -53.078 -13.884 QT
-52.008 -11.978 -49.586 -11.978 QT
-48.601 -11.978 -47.765 -12.416 QT
-46.929 -12.853 -46.312 -13.634 QT
-45.695 -14.416 -45.476 -15.306 QT
-45.445 -15.416 -45.359 -15.502 QT
-45.273 -15.588 -45.164 -15.588 QT
-44.883 -15.588 L
-44.554 -15.588 -44.554 -15.181 QT
-45.008 -13.369 -46.508 -12.205 QT
-48.008 -11.041 -49.867 -11.041 QT
cp
-54.117 -19.588 M
-46.82 -19.588 L
-46.82 -20.791 -47.156 -22.025 QT
-47.492 -23.259 -48.273 -24.08 QT
-49.054 -24.9 -50.32 -24.9 QT
-52.133 -24.9 -53.125 -23.205 QT
-54.117 -21.509 -54.117 -19.588 QT
cp
f
GR
GS
[0 -0.6 0.6 0 43.4 208.2] CT
N
-32.222 -11.4 M
-32.222 -12.525 L
-28.925 -12.525 -28.925 -13.541 QT
-28.925 -31.119 L
-28.925 -32.134 -32.222 -32.134 QT
-32.222 -33.259 L
-14.581 -33.259 L
-13.69 -25.931 L
-14.612 -25.931 L
-14.831 -27.947 -15.198 -29.111 QT
-15.565 -30.275 -16.269 -30.939 QT
-16.972 -31.603 -18.151 -31.869 QT
-19.331 -32.134 -21.394 -32.134 QT
-24.315 -32.134 L
-24.894 -32.134 -25.214 -32.088 QT
-25.534 -32.041 -25.737 -31.814 QT
-25.94 -31.588 -25.94 -31.119 QT
-25.94 -22.884 L
-23.675 -22.884 L
-22.034 -22.884 -21.269 -23.174 QT
-20.503 -23.463 -20.214 -24.228 QT
-19.925 -24.994 -19.925 -26.634 QT
-19.003 -26.634 L
-19.003 -18.025 L
-19.925 -18.025 L
-19.925 -19.666 -20.214 -20.431 QT
-20.503 -21.197 -21.269 -21.486 QT
-22.034 -21.775 -23.675 -21.775 QT
-25.94 -21.775 L
-25.94 -13.541 L
-25.94 -12.525 -21.847 -12.525 QT
-21.847 -11.4 L
-32.222 -11.4 L
cp
f
GR
GS
[0 -0.6 0.6 0 43.4 208.2] CT
N
-11.721 -15.213 M
-11.721 -22.275 L
-11.721 -23.134 -11.978 -23.517 QT
-12.236 -23.9 -12.721 -23.986 QT
-13.205 -24.072 -14.221 -24.072 QT
-14.221 -25.197 L
-9.377 -25.541 L
-9.377 -15.213 L
-9.377 -13.963 -9.197 -13.267 QT
-9.017 -12.572 -8.431 -12.228 QT
-7.846 -11.884 -6.564 -11.884 QT
-4.846 -11.884 -3.83 -13.322 QT
-2.814 -14.759 -2.814 -16.588 QT
-2.814 -22.275 L
-2.814 -23.134 -3.08 -23.517 QT
-3.346 -23.9 -3.822 -23.986 QT
-4.299 -24.072 -5.314 -24.072 QT
-5.314 -25.197 L
-0.486 -25.541 L
-0.486 -14.306 L
-0.486 -13.463 -0.228 -13.08 QT
0.029 -12.697 0.514 -12.611 QT
0.998 -12.525 2.014 -12.525 QT
2.014 -11.4 L
-2.721 -11.041 L
-2.721 -13.744 L
-3.314 -12.541 -4.377 -11.791 QT
-5.439 -11.041 -6.721 -11.041 QT
-9.017 -11.041 -10.369 -12.017 QT
-11.721 -12.994 -11.721 -15.213 QT
cp
f
GR
GS
[0 -0.6 0.6 0 43.4 208.2] CT
N
3.372 -11.4 M
3.372 -12.525 L
4.466 -12.525 5.169 -12.697 QT
5.872 -12.869 5.872 -13.541 QT
5.872 -22.275 L
5.872 -23.134 5.614 -23.517 QT
5.356 -23.9 4.872 -23.986 QT
4.388 -24.072 3.372 -24.072 QT
3.372 -25.197 L
8.013 -25.541 L
8.013 -22.416 L
8.653 -23.791 9.911 -24.666 QT
11.169 -25.541 12.653 -25.541 QT
14.872 -25.541 15.989 -24.478 QT
17.106 -23.416 17.106 -21.228 QT
17.106 -13.541 L
17.106 -12.869 17.81 -12.697 QT
18.513 -12.525 19.606 -12.525 QT
19.606 -11.4 L
12.278 -11.4 L
12.278 -12.525 L
13.372 -12.525 14.075 -12.697 QT
14.778 -12.869 14.778 -13.541 QT
14.778 -21.134 L
14.778 -22.697 14.325 -23.705 QT
13.872 -24.713 12.466 -24.713 QT
10.606 -24.713 9.411 -23.228 QT
8.216 -21.744 8.216 -19.853 QT
8.216 -13.541 L
8.216 -12.869 8.919 -12.697 QT
9.622 -12.525 10.7 -12.525 QT
10.7 -11.4 L
3.372 -11.4 L
cp
f
GR
GS
[0 -0.6 0.6 0 43.4 208.2] CT
N
27.98 -11.041 M
26.043 -11.041 24.465 -12.049 QT
22.887 -13.056 21.98 -14.736 QT
21.074 -16.416 21.074 -18.306 QT
21.074 -20.197 21.973 -21.931 QT
22.871 -23.666 24.457 -24.705 QT
26.043 -25.744 27.98 -25.744 QT
29.855 -25.744 31.394 -25.009 QT
32.933 -24.275 32.933 -22.603 QT
32.933 -21.978 32.488 -21.517 QT
32.043 -21.056 31.402 -21.056 QT
30.762 -21.056 30.316 -21.517 QT
29.871 -21.978 29.871 -22.603 QT
29.871 -23.166 30.23 -23.58 QT
30.59 -23.994 31.121 -24.103 QT
30.012 -24.806 28.012 -24.806 QT
26.48 -24.806 25.543 -23.791 QT
24.605 -22.775 24.23 -21.275 QT
23.855 -19.775 23.855 -18.306 QT
23.855 -16.759 24.316 -15.314 QT
24.777 -13.869 25.801 -12.924 QT
26.824 -11.978 28.371 -11.978 QT
29.887 -11.978 30.949 -12.908 QT
32.012 -13.838 32.402 -15.338 QT
32.402 -15.525 32.652 -15.525 QT
33.043 -15.525 L
33.137 -15.525 33.215 -15.439 QT
33.293 -15.353 33.293 -15.244 QT
33.293 -15.15 L
32.808 -13.259 31.371 -12.15 QT
29.933 -11.041 27.98 -11.041 QT
cp
f
GR
GS
[0 -0.6 0.6 0 43.4 208.2] CT
N
37.351 -15.244 M
37.351 -24.072 L
34.695 -24.072 L
34.695 -24.9 L
36.789 -24.9 37.773 -26.853 QT
38.758 -28.806 38.758 -31.088 QT
39.679 -31.088 L
39.679 -25.197 L
44.195 -25.197 L
44.195 -24.072 L
39.679 -24.072 L
39.679 -15.306 L
39.679 -13.978 40.125 -12.978 QT
40.57 -11.978 41.726 -11.978 QT
42.82 -11.978 43.304 -13.033 QT
43.789 -14.088 43.789 -15.306 QT
43.789 -17.197 L
44.711 -17.197 L
44.711 -15.244 L
44.711 -14.244 44.343 -13.267 QT
43.976 -12.291 43.258 -11.666 QT
42.539 -11.041 41.508 -11.041 QT
39.586 -11.041 38.468 -12.189 QT
37.351 -13.338 37.351 -15.244 QT
cp
f
GR
GS
[0 -0.6 0.6 0 43.4 208.2] CT
N
47.385 -11.4 M
47.385 -12.525 L
48.479 -12.525 49.182 -12.697 QT
49.885 -12.869 49.885 -13.541 QT
49.885 -22.275 L
49.885 -23.509 49.408 -23.791 QT
48.932 -24.072 47.526 -24.072 QT
47.526 -25.197 L
52.135 -25.541 L
52.135 -13.541 L
52.135 -12.869 52.744 -12.697 QT
53.354 -12.525 54.369 -12.525 QT
54.369 -11.4 L
47.385 -11.4 L
cp
48.744 -31.041 M
48.744 -31.744 49.276 -32.275 QT
49.807 -32.806 50.494 -32.806 QT
50.947 -32.806 51.369 -32.572 QT
51.791 -32.338 52.026 -31.916 QT
52.26 -31.494 52.26 -31.041 QT
52.26 -30.353 51.729 -29.822 QT
51.197 -29.291 50.494 -29.291 QT
49.807 -29.291 49.276 -29.822 QT
48.744 -30.353 48.744 -31.041 QT
cp
f
GR
GS
[0 -0.6 0.6 0 43.4 208.2] CT
N
63.197 -11.041 M
61.275 -11.041 59.634 -12.017 QT
57.994 -12.994 57.041 -14.634 QT
56.087 -16.275 56.087 -18.213 QT
56.087 -19.681 56.611 -21.041 QT
57.134 -22.4 58.111 -23.47 QT
59.087 -24.541 60.384 -25.142 QT
61.681 -25.744 63.197 -25.744 QT
65.166 -25.744 66.783 -24.705 QT
68.4 -23.666 69.337 -21.924 QT
70.275 -20.181 70.275 -18.213 QT
70.275 -16.291 69.322 -14.642 QT
68.369 -12.994 66.736 -12.017 QT
65.103 -11.041 63.197 -11.041 QT
cp
63.197 -11.978 M
65.759 -11.978 66.619 -13.838 QT
67.478 -15.697 67.478 -18.572 QT
67.478 -20.181 67.306 -21.236 QT
67.134 -22.291 66.556 -23.15 QT
66.197 -23.681 65.642 -24.08 QT
65.087 -24.478 64.47 -24.689 QT
63.853 -24.9 63.197 -24.9 QT
62.197 -24.9 61.298 -24.447 QT
60.4 -23.994 59.806 -23.15 QT
59.212 -22.244 59.048 -21.158 QT
58.884 -20.072 58.884 -18.572 QT
58.884 -16.775 59.197 -15.345 QT
59.509 -13.916 60.455 -12.947 QT
61.4 -11.978 63.197 -11.978 QT
cp
f
GR
GS
[0 -0.6 0.6 0 43.4 208.2] CT
N
71.983 -11.4 M
71.983 -12.525 L
73.077 -12.525 73.78 -12.697 QT
74.483 -12.869 74.483 -13.541 QT
74.483 -22.275 L
74.483 -23.134 74.226 -23.517 QT
73.968 -23.9 73.483 -23.986 QT
72.999 -24.072 71.983 -24.072 QT
71.983 -25.197 L
76.624 -25.541 L
76.624 -22.416 L
77.265 -23.791 78.522 -24.666 QT
79.78 -25.541 81.265 -25.541 QT
83.483 -25.541 84.601 -24.478 QT
85.718 -23.416 85.718 -21.228 QT
85.718 -13.541 L
85.718 -12.869 86.421 -12.697 QT
87.124 -12.525 88.218 -12.525 QT
88.218 -11.4 L
80.89 -11.4 L
80.89 -12.525 L
81.983 -12.525 82.686 -12.697 QT
83.39 -12.869 83.39 -13.541 QT
83.39 -21.134 L
83.39 -22.697 82.936 -23.705 QT
82.483 -24.713 81.077 -24.713 QT
79.218 -24.713 78.022 -23.228 QT
76.827 -21.744 76.827 -19.853 QT
76.827 -13.541 L
76.827 -12.869 77.53 -12.697 QT
78.233 -12.525 79.311 -12.525 QT
79.311 -11.4 L
71.983 -11.4 L
cp
f
GR
GS
[0 -0.6 0.6 0 43.4 208.2] CT
N
110.444 -11.041 M
102.897 -31.119 L
102.616 -31.791 101.819 -31.963 QT
101.022 -32.134 99.788 -32.134 QT
99.788 -33.259 L
108.585 -33.259 L
108.585 -32.134 L
105.928 -32.134 105.928 -31.306 QT
105.944 -31.259 105.952 -31.22 QT
105.96 -31.181 105.96 -31.119 QT
112.1 -14.791 L
117.897 -30.244 L
117.96 -30.369 117.96 -30.634 QT
117.96 -31.416 117.241 -31.775 QT
116.522 -32.134 115.632 -32.134 QT
115.632 -33.259 L
122.538 -33.259 L
122.538 -32.134 L
121.335 -32.134 120.421 -31.689 QT
119.507 -31.244 119.116 -30.244 QT
111.882 -11.041 L
111.788 -10.697 111.366 -10.697 QT
110.96 -10.697 L
110.538 -10.697 110.444 -11.041 QT
cp
f
GR
GS
[0 -0.6 0.6 0 43.4 208.2] CT
N
121.571 -14.541 M
121.571 -16.447 123.071 -17.642 QT
124.571 -18.838 126.672 -19.33 QT
128.774 -19.822 130.665 -19.822 QT
130.665 -21.134 L
130.665 -22.056 130.258 -22.924 QT
129.852 -23.791 129.086 -24.345 QT
128.321 -24.9 127.399 -24.9 QT
125.274 -24.9 124.165 -23.947 QT
124.774 -23.947 125.172 -23.486 QT
125.571 -23.025 125.571 -22.416 QT
125.571 -21.775 125.118 -21.322 QT
124.665 -20.869 124.04 -20.869 QT
123.399 -20.869 122.946 -21.322 QT
122.493 -21.775 122.493 -22.416 QT
122.493 -24.103 124.024 -24.924 QT
125.555 -25.744 127.399 -25.744 QT
128.696 -25.744 130.008 -25.189 QT
131.321 -24.634 132.157 -23.603 QT
132.993 -22.572 132.993 -21.197 QT
132.993 -13.994 L
132.993 -13.369 133.258 -12.845 QT
133.524 -12.322 134.086 -12.322 QT
134.618 -12.322 134.875 -12.853 QT
135.133 -13.384 135.133 -13.994 QT
135.133 -16.041 L
136.071 -16.041 L
136.071 -13.994 L
136.071 -13.275 135.696 -12.627 QT
135.321 -11.978 134.688 -11.595 QT
134.055 -11.213 133.321 -11.213 QT
132.383 -11.213 131.704 -11.939 QT
131.024 -12.666 130.946 -13.666 QT
130.352 -12.463 129.196 -11.752 QT
128.04 -11.041 126.727 -11.041 QT
125.508 -11.041 124.329 -11.4 QT
123.149 -11.759 122.36 -12.533 QT
121.571 -13.306 121.571 -14.541 QT
cp
124.165 -14.541 M
124.165 -13.416 124.993 -12.65 QT
125.821 -11.884 126.946 -11.884 QT
127.977 -11.884 128.821 -12.4 QT
129.665 -12.916 130.165 -13.806 QT
130.665 -14.697 130.665 -15.681 QT
130.665 -19.009 L
129.211 -19.009 127.688 -18.533 QT
126.165 -18.056 125.165 -17.041 QT
124.165 -16.025 124.165 -14.541 QT
cp
f
GR
GS
[0 -0.6 0.6 0 43.4 208.2] CT
N
137.107 -11.4 M
137.107 -12.525 L
138.201 -12.525 138.904 -12.697 QT
139.607 -12.869 139.607 -13.541 QT
139.607 -30.338 L
139.607 -31.197 139.349 -31.58 QT
139.092 -31.963 138.607 -32.049 QT
138.123 -32.134 137.107 -32.134 QT
137.107 -33.259 L
141.857 -33.603 L
141.857 -13.541 L
141.857 -12.869 142.56 -12.697 QT
143.264 -12.525 144.342 -12.525 QT
144.342 -11.4 L
137.107 -11.4 L
cp
f
GR
GS
[0 -0.6 0.6 0 43.4 208.2] CT
N
148.372 -15.213 M
148.372 -22.275 L
148.372 -23.134 148.115 -23.517 QT
147.857 -23.9 147.372 -23.986 QT
146.888 -24.072 145.872 -24.072 QT
145.872 -25.197 L
150.716 -25.541 L
150.716 -15.213 L
150.716 -13.963 150.896 -13.267 QT
151.076 -12.572 151.661 -12.228 QT
152.247 -11.884 153.529 -11.884 QT
155.247 -11.884 156.263 -13.322 QT
157.279 -14.759 157.279 -16.588 QT
157.279 -22.275 L
157.279 -23.134 157.013 -23.517 QT
156.747 -23.9 156.271 -23.986 QT
155.794 -24.072 154.779 -24.072 QT
154.779 -25.197 L
159.607 -25.541 L
159.607 -14.306 L
159.607 -13.463 159.865 -13.08 QT
160.122 -12.697 160.607 -12.611 QT
161.091 -12.525 162.107 -12.525 QT
162.107 -11.4 L
157.372 -11.041 L
157.372 -13.744 L
156.779 -12.541 155.716 -11.791 QT
154.654 -11.041 153.372 -11.041 QT
151.076 -11.041 149.724 -12.017 QT
148.372 -12.994 148.372 -15.213 QT
cp
f
GR
GS
[0 -0.6 0.6 0 43.4 208.2] CT
N
170.481 -11.041 M
168.528 -11.041 166.895 -12.064 QT
165.262 -13.088 164.332 -14.799 QT
163.403 -16.509 163.403 -18.416 QT
163.403 -20.291 164.254 -21.978 QT
165.106 -23.666 166.629 -24.705 QT
168.153 -25.744 170.028 -25.744 QT
171.496 -25.744 172.582 -25.252 QT
173.668 -24.759 174.371 -23.884 QT
175.074 -23.009 175.434 -21.822 QT
175.793 -20.634 175.793 -19.213 QT
175.793 -18.791 175.465 -18.791 QT
166.199 -18.791 L
166.199 -18.447 L
166.199 -15.791 167.27 -13.884 QT
168.34 -11.978 170.762 -11.978 QT
171.746 -11.978 172.582 -12.416 QT
173.418 -12.853 174.035 -13.634 QT
174.653 -14.416 174.871 -15.306 QT
174.903 -15.416 174.988 -15.502 QT
175.074 -15.588 175.184 -15.588 QT
175.465 -15.588 L
175.793 -15.588 175.793 -15.181 QT
175.34 -13.369 173.84 -12.205 QT
172.34 -11.041 170.481 -11.041 QT
cp
166.231 -19.588 M
173.528 -19.588 L
173.528 -20.791 173.192 -22.025 QT
172.856 -23.259 172.074 -24.08 QT
171.293 -24.9 170.028 -24.9 QT
168.215 -24.9 167.223 -23.205 QT
166.231 -21.509 166.231 -19.588 QT
cp
f
GR
GS
[0.6 0 0 0.6 0 0] CT
0 0.447 0.741 RC
1 LJ
2.167 LW
N
146.696 123.361 M
150.044 266.023 L
153.392 346.387 L
156.74 396.903 L
160.088 432.106 L
163.436 457.541 L
166.784 476.654 L
170.132 491.48 L
173.48 503.27 L
176.828 513.38 L
180.176 521.894 L
183.524 529.104 L
186.872 535.287 L
190.22 540.646 L
193.568 545.334 L
196.916 549.467 L
200.264 553.138 L
203.612 556.418 L
206.96 559.367 L
210.308 562.031 L
213.656 564.448 L
247.136 580.131 L
314.096 592.693 L
347.576 595.589 L
381.056 597.468 L
414.536 598.709 L
448.016 599.535 L
481.496 600.087 L
514.976 600.456 L
548.456 600.704 L
581.936 600.87 L
615.416 600.981 L
648.896 601.055 L
682.376 601.105 L
715.856 601.139 L
749.336 601.161 L
782.816 601.176 L
816.296 601.186 L
849.776 601.193 L
883.256 601.198 L
916.736 601.2 L
950.216 601.202 L
S
GR
GS
[0.6 0 0 0.6 88.0176 74.01687] CT
0 0.447 0.741 RC
10.0 ML
2.167 LW
N
5 0 M
5 -2.761 2.761 -5 0 -5 C
-2.761 -5 -5 -2.761 -5 0 C
-5 2.761 -2.761 5 0 5 C
2.761 5 5 2.761 5 0 C
cp
S
GR
GS
[0.6 0 0 0.6 90.0264 159.61362] CT
0 0.447 0.741 RC
10.0 ML
2.167 LW
N
5 0 M
5 -2.761 2.761 -5 0 -5 C
-2.761 -5 -5 -2.761 -5 0 C
-5 2.761 -2.761 5 0 5 C
2.761 5 5 2.761 5 0 C
cp
S
GR
GS
[0.6 0 0 0.6 92.0352 207.83227] CT
0 0.447 0.741 RC
10.0 ML
2.167 LW
N
5 0 M
5 -2.761 2.761 -5 0 -5 C
-2.761 -5 -5 -2.761 -5 0 C
-5 2.761 -2.761 5 0 5 C
2.761 5 5 2.761 5 0 C
cp
S
GR
GS
[0.6 0 0 0.6 94.044 238.14197] CT
0 0.447 0.741 RC
10.0 ML
2.167 LW
N
5 0 M
5 -2.761 2.761 -5 0 -5 C
-2.761 -5 -5 -2.761 -5 0 C
-5 2.761 -2.761 5 0 5 C
2.761 5 5 2.761 5 0 C
cp
S
GR
GS
[0.6 0 0 0.6 96.0528 259.26337] CT
0 0.447 0.741 RC
10.0 ML
2.167 LW
N
5 0 M
5 -2.761 2.761 -5 0 -5 C
-2.761 -5 -5 -2.761 -5 0 C
-5 2.761 -2.761 5 0 5 C
2.761 5 5 2.761 5 0 C
cp
S
GR
GS
[0.6 0 0 0.6 98.0616 274.52433] CT
0 0.447 0.741 RC
10.0 ML
2.167 LW
N
5 0 M
5 -2.761 2.761 -5 0 -5 C
-2.761 -5 -5 -2.761 -5 0 C
-5 2.761 -2.761 5 0 5 C
2.761 5 5 2.761 5 0 C
cp
S
GR
GS
[0.6 0 0 0.6 100.0704 285.99252] CT
0 0.447 0.741 RC
10.0 ML
2.167 LW
N
5 0 M
5 -2.761 2.761 -5 0 -5 C
-2.761 -5 -5 -2.761 -5 0 C
-5 2.761 -2.761 5 0 5 C
2.761 5 5 2.761 5 0 C
cp
S
GR
GS
[0.6 0 0 0.6 102.0792 294.88793] CT
0 0.447 0.741 RC
10.0 ML
2.167 LW
N
5 0 M
5 -2.761 2.761 -5 0 -5 C
-2.761 -5 -5 -2.761 -5 0 C
-5 2.761 -2.761 5 0 5 C
2.761 5 5 2.761 5 0 C
cp
S
GR
GS
[0.6 0 0 0.6 104.088 301.96183] CT
0 0.447 0.741 RC
10.0 ML
2.167 LW
N
5 0 M
5 -2.761 2.761 -5 0 -5 C
-2.761 -5 -5 -2.761 -5 0 C
-5 2.761 -2.761 5 0 5 C
2.761 5 5 2.761 5 0 C
cp
S
GR
GS
[0.6 0 0 0.6 106.0968 308.0283] CT
0 0.447 0.741 RC
10.0 ML
2.167 LW
N
5 0 M
5 -2.761 2.761 -5 0 -5 C
-2.761 -5 -5 -2.761 -5 0 C
-5 2.761 -2.761 5 0 5 C
2.761 5 5 2.761 5 0 C
cp
S
GR
GS
[0.6 0 0 0.6 108.1056 313.13613] CT
0 0.447 0.741 RC
10.0 ML
2.167 LW
N
5 0 M
5 -2.761 2.761 -5 0 -5 C
-2.761 -5 -5 -2.761 -5 0 C
-5 2.761 -2.761 5 0 5 C
2.761 5 5 2.761 5 0 C
cp
S
GR
GS
[0.6 0 0 0.6 110.1144 317.46244] CT
0 0.447 0.741 RC
10.0 ML
2.167 LW
N
5 0 M
5 -2.761 2.761 -5 0 -5 C
-2.761 -5 -5 -2.761 -5 0 C
-5 2.761 -2.761 5 0 5 C
2.761 5 5 2.761 5 0 C
cp
S
GR
GS
[0.6 0 0 0.6 112.1232 321.17245] CT
0 0.447 0.741 RC
10.0 ML
2.167 LW
N
5 0 M
5 -2.761 2.761 -5 0 -5 C
-2.761 -5 -5 -2.761 -5 0 C
-5 2.761 -2.761 5 0 5 C
2.761 5 5 2.761 5 0 C
cp
S
GR
GS
[0.6 0 0 0.6 114.132 324.38767] CT
0 0.447 0.741 RC
10.0 ML
2.167 LW
N
5 0 M
5 -2.761 2.761 -5 0 -5 C
-2.761 -5 -5 -2.761 -5 0 C
-5 2.761 -2.761 5 0 5 C
2.761 5 5 2.761 5 0 C
cp
S
GR
GS
[0.6 0 0 0.6 116.1408 327.20013] CT
0 0.447 0.741 RC
10.0 ML
2.167 LW
N
5 0 M
5 -2.761 2.761 -5 0 -5 C
-2.761 -5 -5 -2.761 -5 0 C
-5 2.761 -2.761 5 0 5 C
2.761 5 5 2.761 5 0 C
cp
S
GR
GS
[0.6 0 0 0.6 118.1496 329.68019] CT
0 0.447 0.741 RC
10.0 ML
2.167 LW
N
5 0 M
5 -2.761 2.761 -5 0 -5 C
-2.761 -5 -5 -2.761 -5 0 C
-5 2.761 -2.761 5 0 5 C
2.761 5 5 2.761 5 0 C
cp
S
GR
GS
[0.6 0 0 0.6 120.1584 331.88251] CT
0 0.447 0.741 RC
10.0 ML
2.167 LW
N
5 0 M
5 -2.761 2.761 -5 0 -5 C
-2.761 -5 -5 -2.761 -5 0 C
-5 2.761 -2.761 5 0 5 C
2.761 5 5 2.761 5 0 C
cp
S
GR
GS
[0.6 0 0 0.6 122.1672 333.851] CT
0 0.447 0.741 RC
10.0 ML
2.167 LW
N
5 0 M
5 -2.761 2.761 -5 0 -5 C
-2.761 -5 -5 -2.761 -5 0 C
-5 2.761 -2.761 5 0 5 C
2.761 5 5 2.761 5 0 C
cp
S
GR
GS
[0.6 0 0 0.6 124.176 335.61998] CT
0 0.447 0.741 RC
10.0 ML
2.167 LW
N
5 0 M
5 -2.761 2.761 -5 0 -5 C
-2.761 -5 -5 -2.761 -5 0 C
-5 2.761 -2.761 5 0 5 C
2.761 5 5 2.761 5 0 C
cp
S
GR
GS
[0.6 0 0 0.6 126.1848 337.21831] CT
0 0.447 0.741 RC
10.0 ML
2.167 LW
N
5 0 M
5 -2.761 2.761 -5 0 -5 C
-2.761 -5 -5 -2.761 -5 0 C
-5 2.761 -2.761 5 0 5 C
2.761 5 5 2.761 5 0 C
cp
S
GR
GS
[0.6 0 0 0.6 128.1936 338.66865] CT
0 0.447 0.741 RC
10.0 ML
2.167 LW
N
5 0 M
5 -2.761 2.761 -5 0 -5 C
-2.761 -5 -5 -2.761 -5 0 C
-5 2.761 -2.761 5 0 5 C
2.761 5 5 2.761 5 0 C
cp
S
GR
GS
[0.6 0 0 0.6 148.2816 348.07877] CT
0 0.447 0.741 RC
10.0 ML
2.167 LW
N
5 0 M
5 -2.761 2.761 -5 0 -5 C
-2.761 -5 -5 -2.761 -5 0 C
-5 2.761 -2.761 5 0 5 C
2.761 5 5 2.761 5 0 C
cp
S
GR
GS
[0.6 0 0 0.6 188.4576 355.6155] CT
0 0.447 0.741 RC
10.0 ML
2.167 LW
N
5 0 M
5 -2.761 2.761 -5 0 -5 C
-2.761 -5 -5 -2.761 -5 0 C
-5 2.761 -2.761 5 0 5 C
2.761 5 5 2.761 5 0 C
cp
S
GR
GS
[0.6 0 0 0.6 208.54559 357.35325] CT
0 0.447 0.741 RC
10.0 ML
2.167 LW
N
5 0 M
5 -2.761 2.761 -5 0 -5 C
-2.761 -5 -5 -2.761 -5 0 C
-5 2.761 -2.761 5 0 5 C
2.761 5 5 2.761 5 0 C
cp
S
GR
GS
[0.6 0 0 0.6 228.6336 358.48085] CT
0 0.447 0.741 RC
10.0 ML
2.167 LW
N
5 0 M
5 -2.761 2.761 -5 0 -5 C
-2.761 -5 -5 -2.761 -5 0 C
-5 2.761 -2.761 5 0 5 C
2.761 5 5 2.761 5 0 C
cp
S
GR
GS
[0.6 0 0 0.6 248.72161 359.22557] CT
0 0.447 0.741 RC
10.0 ML
2.167 LW
N
5 0 M
5 -2.761 2.761 -5 0 -5 C
-2.761 -5 -5 -2.761 -5 0 C
-5 2.761 -2.761 5 0 5 C
2.761 5 5 2.761 5 0 C
cp
S
GR
GS
[0.6 0 0 0.6 268.80959 359.72106] CT
0 0.447 0.741 RC
10.0 ML
2.167 LW
N
5 0 M
5 -2.761 2.761 -5 0 -5 C
-2.761 -5 -5 -2.761 -5 0 C
-5 2.761 -2.761 5 0 5 C
2.761 5 5 2.761 5 0 C
cp
S
GR
GS
[0.6 0 0 0.6 288.8976 360.05208] CT
0 0.447 0.741 RC
10.0 ML
2.167 LW
N
5 0 M
5 -2.761 2.761 -5 0 -5 C
-2.761 -5 -5 -2.761 -5 0 C
-5 2.761 -2.761 5 0 5 C
2.761 5 5 2.761 5 0 C
cp
S
GR
GS
[0.6 0 0 0.6 308.98561 360.27385] CT
0 0.447 0.741 RC
10.0 ML
2.167 LW
N
5 0 M
5 -2.761 2.761 -5 0 -5 C
-2.761 -5 -5 -2.761 -5 0 C
-5 2.761 -2.761 5 0 5 C
2.761 5 5 2.761 5 0 C
cp
S
GR
GS
[0.6 0 0 0.6 329.0736 360.4222] CT
0 0.447 0.741 RC
10.0 ML
2.167 LW
N
5 0 M
5 -2.761 2.761 -5 0 -5 C
-2.761 -5 -5 -2.761 -5 0 C
-5 2.761 -2.761 5 0 5 C
2.761 5 5 2.761 5 0 C
cp
S
GR
GS
[0.6 0 0 0.6 349.16158 360.52178] CT
0 0.447 0.741 RC
10.0 ML
2.167 LW
N
5 0 M
5 -2.761 2.761 -5 0 -5 C
-2.761 -5 -5 -2.761 -5 0 C
-5 2.761 -2.761 5 0 5 C
2.761 5 5 2.761 5 0 C
cp
S
GR
GS
[0.6 0 0 0.6 369.24961 360.58839] CT
0 0.447 0.741 RC
10.0 ML
2.167 LW
N
5 0 M
5 -2.761 2.761 -5 0 -5 C
-2.761 -5 -5 -2.761 -5 0 C
-5 2.761 -2.761 5 0 5 C
2.761 5 5 2.761 5 0 C
cp
S
GR
GS
[0.6 0 0 0.6 389.3376 360.63303] CT
0 0.447 0.741 RC
10.0 ML
2.167 LW
N
5 0 M
5 -2.761 2.761 -5 0 -5 C
-2.761 -5 -5 -2.761 -5 0 C
-5 2.761 -2.761 5 0 5 C
2.761 5 5 2.761 5 0 C
cp
S
GR
GS
[0.6 0 0 0.6 409.42559 360.66288] CT
0 0.447 0.741 RC
10.0 ML
2.167 LW
N
5 0 M
5 -2.761 2.761 -5 0 -5 C
-2.761 -5 -5 -2.761 -5 0 C
-5 2.761 -2.761 5 0 5 C
2.761 5 5 2.761 5 0 C
cp
S
GR
GS
[0.6 0 0 0.6 429.51361 360.68317] CT
0 0.447 0.741 RC
10.0 ML
2.167 LW
N
5 0 M
5 -2.761 2.761 -5 0 -5 C
-2.761 -5 -5 -2.761 -5 0 C
-5 2.761 -2.761 5 0 5 C
2.761 5 5 2.761 5 0 C
cp
S
GR
GS
[0.6 0 0 0.6 449.6016 360.69653] CT
0 0.447 0.741 RC
10.0 ML
2.167 LW
N
5 0 M
5 -2.761 2.761 -5 0 -5 C
-2.761 -5 -5 -2.761 -5 0 C
-5 2.761 -2.761 5 0 5 C
2.761 5 5 2.761 5 0 C
cp
S
GR
GS
[0.6 0 0 0.6 469.68959 360.70547] CT
0 0.447 0.741 RC
10.0 ML
2.167 LW
N
5 0 M
5 -2.761 2.761 -5 0 -5 C
-2.761 -5 -5 -2.761 -5 0 C
-5 2.761 -2.761 5 0 5 C
2.761 5 5 2.761 5 0 C
cp
S
GR
GS
[0.6 0 0 0.6 489.77761 360.71166] CT
0 0.447 0.741 RC
10.0 ML
2.167 LW
N
5 0 M
5 -2.761 2.761 -5 0 -5 C
-2.761 -5 -5 -2.761 -5 0 C
-5 2.761 -2.761 5 0 5 C
2.761 5 5 2.761 5 0 C
cp
S
GR
GS
[0.6 0 0 0.6 509.8656 360.71576] CT
0 0.447 0.741 RC
10.0 ML
2.167 LW
N
5 0 M
5 -2.761 2.761 -5 0 -5 C
-2.761 -5 -5 -2.761 -5 0 C
-5 2.761 -2.761 5 0 5 C
2.761 5 5 2.761 5 0 C
cp
S
GR
GS
[0.6 0 0 0.6 529.95359 360.71851] CT
0 0.447 0.741 RC
10.0 ML
2.167 LW
N
5 0 M
5 -2.761 2.761 -5 0 -5 C
-2.761 -5 -5 -2.761 -5 0 C
-5 2.761 -2.761 5 0 5 C
2.761 5 5 2.761 5 0 C
cp
S
GR
GS
[0.6 0 0 0.6 550.04161 360.72023] CT
0 0.447 0.741 RC
10.0 ML
2.167 LW
N
5 0 M
5 -2.761 2.761 -5 0 -5 C
-2.761 -5 -5 -2.761 -5 0 C
-5 2.761 -2.761 5 0 5 C
2.761 5 5 2.761 5 0 C
cp
S
GR
GS
[0.6 0 0 0.6 570.1296 360.72125] CT
0 0.447 0.741 RC
10.0 ML
2.167 LW
N
5 0 M
5 -2.761 2.761 -5 0 -5 C
-2.761 -5 -5 -2.761 -5 0 C
-5 2.761 -2.761 5 0 5 C
2.761 5 5 2.761 5 0 C
cp
S
GR
%%Trailer
%%Pages: 1
%%EOF
