%!PS-Adobe-3.0 EPSF-3.0
%%Creator: (MATLAB, The Mathworks, Inc. Version 9.6.0.1472908 \(R2019a\) Update 9. Operating System: Windows 10)
%%Title: (C:/Users/A/OneDrive - ETHZ/Research_MasterThesis/AllCodeFiles/Figure/ObjectiveFunctionPlusPaymentVSPayment.eps)
%%CreationDate: 2022-11-17T20:27:31
%%Pages: (atend)
%%BoundingBox:    23     2   601   406
%%LanguageLevel: 3
%%EndComments
%%BeginProlog
%%BeginResource: procset (Apache XML Graphics Std ProcSet) 1.2 0
%%Version: 1.2 0
%%Copyright: (Copyright 2001-2003,2010 The Apache Software Foundation. License terms: http://www.apache.org/licenses/LICENSE-2.0)
/bd{bind def}bind def
/ld{load def}bd
/GR/grestore ld
/GS/gsave ld
/RM/rmoveto ld
/C/curveto ld
/t/show ld
/L/lineto ld
/ML/setmiterlimit ld
/CT/concat ld
/f/fill ld
/N/newpath ld
/S/stroke ld
/CC/setcmykcolor ld
/A/ashow ld
/cp/closepath ld
/RC/setrgbcolor ld
/LJ/setlinejoin ld
/GC/setgray ld
/LW/setlinewidth ld
/M/moveto ld
/re {4 2 roll M
1 index 0 rlineto
0 exch rlineto
neg 0 rlineto
cp } bd
/_ctm matrix def
/_tm matrix def
/BT { _ctm currentmatrix pop matrix _tm copy pop 0 0 moveto } bd
/ET { _ctm setmatrix } bd
/iTm { _ctm setmatrix _tm concat } bd
/Tm { _tm astore pop iTm 0 0 moveto } bd
/ux 0.0 def
/uy 0.0 def
/F {
  /Tp exch def
  /Tf exch def
  Tf findfont Tp scalefont setfont
  /cf Tf def  /cs Tp def
} bd
/ULS {currentpoint /uy exch def /ux exch def} bd
/ULE {
  /Tcx currentpoint pop def
  gsave
  newpath
  cf findfont cs scalefont dup
  /FontMatrix get 0 get /Ts exch def /FontInfo get dup
  /UnderlinePosition get Ts mul /To exch def
  /UnderlineThickness get Ts mul /Tt exch def
  ux uy To add moveto  Tcx uy To add lineto
  Tt setlinewidth stroke
  grestore
} bd
/OLE {
  /Tcx currentpoint pop def
  gsave
  newpath
  cf findfont cs scalefont dup
  /FontMatrix get 0 get /Ts exch def /FontInfo get dup
  /UnderlinePosition get Ts mul /To exch def
  /UnderlineThickness get Ts mul /Tt exch def
  ux uy To add cs add moveto Tcx uy To add cs add lineto
  Tt setlinewidth stroke
  grestore
} bd
/SOE {
  /Tcx currentpoint pop def
  gsave
  newpath
  cf findfont cs scalefont dup
  /FontMatrix get 0 get /Ts exch def /FontInfo get dup
  /UnderlinePosition get Ts mul /To exch def
  /UnderlineThickness get Ts mul /Tt exch def
  ux uy To add cs 10 mul 26 idiv add moveto Tcx uy To add cs 10 mul 26 idiv add lineto
  Tt setlinewidth stroke
  grestore
} bd
/QT {
/Y22 exch store
/X22 exch store
/Y21 exch store
/X21 exch store
currentpoint
/Y21 load 2 mul add 3 div exch
/X21 load 2 mul add 3 div exch
/X21 load 2 mul /X22 load add 3 div
/Y21 load 2 mul /Y22 load add 3 div
/X22 load /Y22 load curveto
} bd
/SSPD {
dup length /d exch dict def
{
/v exch def
/k exch def
currentpagedevice k known {
/cpdv currentpagedevice k get def
v cpdv ne {
/upd false def
/nullv v type /nulltype eq def
/nullcpdv cpdv type /nulltype eq def
nullv nullcpdv or
{
/upd true def
} {
/sametype v type cpdv type eq def
sametype {
v type /arraytype eq {
/vlen v length def
/cpdvlen cpdv length def
vlen cpdvlen eq {
0 1 vlen 1 sub {
/i exch def
/obj v i get def
/cpdobj cpdv i get def
obj cpdobj ne {
/upd true def
exit
} if
} for
} {
/upd true def
} ifelse
} {
v type /dicttype eq {
v {
/dv exch def
/dk exch def
/cpddv cpdv dk get def
dv cpddv ne {
/upd true def
exit
} if
} forall
} {
/upd true def
} ifelse
} ifelse
} if
} ifelse
upd true eq {
d k v put
} if
} if
} if
} forall
d length 0 gt {
d setpagedevice
} if
} bd
/RE { % /NewFontName [NewEncodingArray] /FontName RE -
  findfont dup length dict begin
  {
    1 index /FID ne
    {def} {pop pop} ifelse
  } forall
  /Encoding exch def
  /FontName 1 index def
  currentdict definefont pop
  end
} bind def
%%EndResource
%%BeginResource: procset (Apache XML Graphics EPS ProcSet) 1.0 0
%%Version: 1.0 0
%%Copyright: (Copyright 2002-2003 The Apache Software Foundation. License terms: http://www.apache.org/licenses/LICENSE-2.0)
/BeginEPSF { %def
/b4_Inc_state save def         % Save state for cleanup
/dict_count countdictstack def % Count objects on dict stack
/op_count count 1 sub def      % Count objects on operand stack
userdict begin                 % Push userdict on dict stack
/showpage { } def              % Redefine showpage, { } = null proc
0 setgray 0 setlinecap         % Prepare graphics state
1 setlinewidth 0 setlinejoin
10 setmiterlimit [ ] 0 setdash newpath
/languagelevel where           % If level not equal to 1 then
{pop languagelevel             % set strokeadjust and
1 ne                           % overprint to their defaults.
{false setstrokeadjust false setoverprint
} if
} if
} bd
/EndEPSF { %def
count op_count sub {pop} repeat            % Clean up stacks
countdictstack dict_count sub {end} repeat
b4_Inc_state restore
} bd
%%EndResource
%FOPBeginFontDict
%%IncludeResource: font Courier-Oblique
%%IncludeResource: font Courier-BoldOblique
%%IncludeResource: font Courier-Bold
%%IncludeResource: font ZapfDingbats
%%IncludeResource: font Symbol
%%IncludeResource: font Helvetica
%%IncludeResource: font Helvetica-Oblique
%%IncludeResource: font Helvetica-Bold
%%IncludeResource: font Helvetica-BoldOblique
%%IncludeResource: font Times-Roman
%%IncludeResource: font Times-Italic
%%IncludeResource: font Times-Bold
%%IncludeResource: font Times-BoldItalic
%%IncludeResource: font Courier
%FOPEndFontDict
%%BeginResource: encoding WinAnsiEncoding
/WinAnsiEncoding [
/.notdef /.notdef /.notdef /.notdef /.notdef
/.notdef /.notdef /.notdef /.notdef /.notdef
/.notdef /.notdef /.notdef /.notdef /.notdef
/.notdef /.notdef /.notdef /.notdef /.notdef
/.notdef /.notdef /.notdef /.notdef /.notdef
/.notdef /.notdef /.notdef /.notdef /.notdef
/.notdef /.notdef /space /exclam /quotedbl
/numbersign /dollar /percent /ampersand /quotesingle
/parenleft /parenright /asterisk /plus /comma
/hyphen /period /slash /zero /one
/two /three /four /five /six
/seven /eight /nine /colon /semicolon
/less /equal /greater /question /at
/A /B /C /D /E
/F /G /H /I /J
/K /L /M /N /O
/P /Q /R /S /T
/U /V /W /X /Y
/Z /bracketleft /backslash /bracketright /asciicircum
/underscore /quoteleft /a /b /c
/d /e /f /g /h
/i /j /k /l /m
/n /o /p /q /r
/s /t /u /v /w
/x /y /z /braceleft /bar
/braceright /asciitilde /bullet /Euro /bullet
/quotesinglbase /florin /quotedblbase /ellipsis /dagger
/daggerdbl /circumflex /perthousand /Scaron /guilsinglleft
/OE /bullet /Zcaron /bullet /bullet
/quoteleft /quoteright /quotedblleft /quotedblright /bullet
/endash /emdash /asciitilde /trademark /scaron
/guilsinglright /oe /bullet /zcaron /Ydieresis
/space /exclamdown /cent /sterling /currency
/yen /brokenbar /section /dieresis /copyright
/ordfeminine /guillemotleft /logicalnot /sfthyphen /registered
/macron /degree /plusminus /twosuperior /threesuperior
/acute /mu /paragraph /middot /cedilla
/onesuperior /ordmasculine /guillemotright /onequarter /onehalf
/threequarters /questiondown /Agrave /Aacute /Acircumflex
/Atilde /Adieresis /Aring /AE /Ccedilla
/Egrave /Eacute /Ecircumflex /Edieresis /Igrave
/Iacute /Icircumflex /Idieresis /Eth /Ntilde
/Ograve /Oacute /Ocircumflex /Otilde /Odieresis
/multiply /Oslash /Ugrave /Uacute /Ucircumflex
/Udieresis /Yacute /Thorn /germandbls /agrave
/aacute /acircumflex /atilde /adieresis /aring
/ae /ccedilla /egrave /eacute /ecircumflex
/edieresis /igrave /iacute /icircumflex /idieresis
/eth /ntilde /ograve /oacute /ocircumflex
/otilde /odieresis /divide /oslash /ugrave
/uacute /ucircumflex /udieresis /yacute /thorn
/ydieresis
] def
%%EndResource
%FOPBeginFontReencode
/Courier-Oblique findfont
dup length dict begin
  {1 index /FID ne {def} {pop pop} ifelse} forall
  /Encoding WinAnsiEncoding def
  currentdict
end
/Courier-Oblique exch definefont pop
/Courier-BoldOblique findfont
dup length dict begin
  {1 index /FID ne {def} {pop pop} ifelse} forall
  /Encoding WinAnsiEncoding def
  currentdict
end
/Courier-BoldOblique exch definefont pop
/Courier-Bold findfont
dup length dict begin
  {1 index /FID ne {def} {pop pop} ifelse} forall
  /Encoding WinAnsiEncoding def
  currentdict
end
/Courier-Bold exch definefont pop
/Helvetica findfont
dup length dict begin
  {1 index /FID ne {def} {pop pop} ifelse} forall
  /Encoding WinAnsiEncoding def
  currentdict
end
/Helvetica exch definefont pop
/Helvetica-Oblique findfont
dup length dict begin
  {1 index /FID ne {def} {pop pop} ifelse} forall
  /Encoding WinAnsiEncoding def
  currentdict
end
/Helvetica-Oblique exch definefont pop
/Helvetica-Bold findfont
dup length dict begin
  {1 index /FID ne {def} {pop pop} ifelse} forall
  /Encoding WinAnsiEncoding def
  currentdict
end
/Helvetica-Bold exch definefont pop
/Helvetica-BoldOblique findfont
dup length dict begin
  {1 index /FID ne {def} {pop pop} ifelse} forall
  /Encoding WinAnsiEncoding def
  currentdict
end
/Helvetica-BoldOblique exch definefont pop
/Times-Roman findfont
dup length dict begin
  {1 index /FID ne {def} {pop pop} ifelse} forall
  /Encoding WinAnsiEncoding def
  currentdict
end
/Times-Roman exch definefont pop
/Times-Italic findfont
dup length dict begin
  {1 index /FID ne {def} {pop pop} ifelse} forall
  /Encoding WinAnsiEncoding def
  currentdict
end
/Times-Italic exch definefont pop
/Times-Bold findfont
dup length dict begin
  {1 index /FID ne {def} {pop pop} ifelse} forall
  /Encoding WinAnsiEncoding def
  currentdict
end
/Times-Bold exch definefont pop
/Times-BoldItalic findfont
dup length dict begin
  {1 index /FID ne {def} {pop pop} ifelse} forall
  /Encoding WinAnsiEncoding def
  currentdict
end
/Times-BoldItalic exch definefont pop
/Courier findfont
dup length dict begin
  {1 index /FID ne {def} {pop pop} ifelse} forall
  /Encoding WinAnsiEncoding def
  currentdict
end
/Courier exch definefont pop
%FOPEndFontReencode
%%EndProlog
%%Page: 1 1
%%PageBoundingBox: 0 0 648 432
%%BeginPageSetup
[1 0 0 -1 0 432] CT
%%EndPageSetup
GS
[0.6 0 0 0.6 0 0] CT
1 GC
N
0 0 1080 720 re
f
GR
GS
[0.6 0 0 0.6 0 0] CT
1 GC
N
0 0 1080 720 re
f
GR
GS
[0.6 0 0 0.6 0 0] CT
1 GC
N
140 640 M
977 640 L
977 54 L
140 54 L
cp
f
GR
GS
[0.6 0 0 0.6 0 0] CT
0.873 GC
1 LJ
0.833 LW
N
140 640 M
140 54 L
S
GR
GS
[0.6 0 0 0.6 0 0] CT
0.873 GC
1 LJ
0.833 LW
N
307.4 640 M
307.4 54 L
S
GR
GS
[0.6 0 0 0.6 0 0] CT
0.873 GC
1 LJ
0.833 LW
N
474.8 640 M
474.8 54 L
S
GR
GS
[0.6 0 0 0.6 0 0] CT
0.873 GC
1 LJ
0.833 LW
N
642.2 640 M
642.2 54 L
S
GR
GS
[0.6 0 0 0.6 0 0] CT
0.873 GC
1 LJ
0.833 LW
N
809.6 640 M
809.6 54 L
S
GR
GS
[0.6 0 0 0.6 0 0] CT
0.873 GC
1 LJ
0.833 LW
N
977 640 M
977 54 L
S
GR
GS
[0.6 0 0 0.6 0 0] CT
0.851 GC
1 LJ
0.833 LW
N
977 640 M
140 640 L
S
GR
GS
[0.6 0 0 0.6 0 0] CT
0.851 GC
1 LJ
0.833 LW
N
977 522.8 M
140 522.8 L
S
GR
GS
[0.6 0 0 0.6 0 0] CT
0.851 GC
1 LJ
0.833 LW
N
977 405.6 M
140 405.6 L
S
GR
GS
[0.6 0 0 0.6 0 0] CT
0.851 GC
1 LJ
0.833 LW
N
977 288.4 M
140 288.4 L
S
GR
GS
[0.6 0 0 0.6 0 0] CT
0.851 GC
1 LJ
0.833 LW
N
977 171.2 M
140 171.2 L
S
GR
GS
[0.6 0 0 0.6 0 0] CT
0.851 GC
1 LJ
0.833 LW
N
977 54 M
140 54 L
S
GR
GS
[0.6 0 0 0.6 0 0] CT
0.149 GC
2 setlinecap
1 LJ
0.833 LW
N
140 640 M
977 640 L
S
GR
GS
[0.6 0 0 0.6 0 0] CT
0.149 GC
2 setlinecap
1 LJ
0.833 LW
N
140 54 M
977 54 L
S
GR
GS
[0.6 0 0 0.6 0 0] CT
0.149 GC
2 setlinecap
1 LJ
0.833 LW
N
140 640 M
140 631.63 L
S
GR
GS
[0.6 0 0 0.6 0 0] CT
0.149 GC
2 setlinecap
1 LJ
0.833 LW
N
307.4 640 M
307.4 631.63 L
S
GR
GS
[0.6 0 0 0.6 0 0] CT
0.149 GC
2 setlinecap
1 LJ
0.833 LW
N
474.8 640 M
474.8 631.63 L
S
GR
GS
[0.6 0 0 0.6 0 0] CT
0.149 GC
2 setlinecap
1 LJ
0.833 LW
N
642.2 640 M
642.2 631.63 L
S
GR
GS
[0.6 0 0 0.6 0 0] CT
0.149 GC
2 setlinecap
1 LJ
0.833 LW
N
809.6 640 M
809.6 631.63 L
S
GR
GS
[0.6 0 0 0.6 0 0] CT
0.149 GC
2 setlinecap
1 LJ
0.833 LW
N
977 640 M
977 631.63 L
S
GR
GS
[0.6 0 0 0.6 0 0] CT
0.149 GC
2 setlinecap
1 LJ
0.833 LW
N
140 54 M
140 62.37 L
S
GR
GS
[0.6 0 0 0.6 0 0] CT
0.149 GC
2 setlinecap
1 LJ
0.833 LW
N
307.4 54 M
307.4 62.37 L
S
GR
GS
[0.6 0 0 0.6 0 0] CT
0.149 GC
2 setlinecap
1 LJ
0.833 LW
N
474.8 54 M
474.8 62.37 L
S
GR
GS
[0.6 0 0 0.6 0 0] CT
0.149 GC
2 setlinecap
1 LJ
0.833 LW
N
642.2 54 M
642.2 62.37 L
S
GR
GS
[0.6 0 0 0.6 0 0] CT
0.149 GC
2 setlinecap
1 LJ
0.833 LW
N
809.6 54 M
809.6 62.37 L
S
GR
GS
[0.6 0 0 0.6 0 0] CT
0.149 GC
2 setlinecap
1 LJ
0.833 LW
N
977 54 M
977 62.37 L
S
GR
GS
[0.6 0 0 0.6 84 389.19983] CT
0.149 GC
/Times-Roman 26.667 F
GS
[1 0 0 1 0 0] CT
-7 25 moveto 
1 -1 scale
(0) t 
GR
GR
GS
[0.6 0 0 0.6 184.44 389.19983] CT
0.149 GC
/Times-Roman 26.667 F
GS
[1 0 0 1 0 0] CT
-13.5 25 moveto 
1 -1 scale
(50) t 
GR
GR
GS
[0.6 0 0 0.6 284.87999 389.19983] CT
0.149 GC
/Times-Roman 26.667 F
GS
[1 0 0 1 0 0] CT
-20 25 moveto 
1 -1 scale
(100) t 
GR
GR
GS
[0.6 0 0 0.6 385.32001 389.19983] CT
0.149 GC
/Times-Roman 26.667 F
GS
[1 0 0 1 0 0] CT
-20 25 moveto 
1 -1 scale
(150) t 
GR
GR
GS
[0.6 0 0 0.6 485.75999 389.19983] CT
0.149 GC
/Times-Roman 26.667 F
GS
[1 0 0 1 0 0] CT
-20 25 moveto 
1 -1 scale
(200) t 
GR
GR
GS
[0.6 0 0 0.6 586.2 389.19983] CT
0.149 GC
/Times-Roman 26.667 F
GS
[1 0 0 1 0 0] CT
-20 25 moveto 
1 -1 scale
(250) t 
GR
GR
GS
[0.6 0 0 0.6 335.10026 409.40002] CT
0.149 GC
N
-59.852 26.6 M
-59.852 25.475 L
-56.555 25.475 -56.555 24.459 QT
-56.555 6.881 L
-56.555 5.866 -59.852 5.866 QT
-59.852 4.741 L
-48.461 4.741 L
-46.711 4.741 -44.961 5.459 QT
-43.211 6.178 -42.079 7.553 QT
-40.946 8.928 -40.946 10.756 QT
-40.946 12.537 -42.086 13.881 QT
-43.227 15.225 -44.961 15.92 QT
-46.696 16.616 -48.461 16.616 QT
-53.586 16.616 L
-53.586 24.459 L
-53.586 25.475 -50.289 25.475 QT
-50.289 26.6 L
-59.852 26.6 L
cp
-53.68 15.662 M
-49.336 15.662 L
-47.571 15.662 -46.477 15.155 QT
-45.383 14.647 -44.875 13.576 QT
-44.368 12.506 -44.368 10.756 QT
-44.368 8.147 -45.516 7.006 QT
-46.664 5.866 -49.336 5.866 QT
-52.055 5.866 L
-52.633 5.866 -52.954 5.912 QT
-53.274 5.959 -53.477 6.186 QT
-53.68 6.412 -53.68 6.881 QT
-53.68 15.662 L
cp
f
GR
GS
[0.6 0 0 0.6 335.10026 409.40002] CT
0.149 GC
N
-38.962 23.459 M
-38.962 21.553 -37.462 20.358 QT
-35.962 19.162 -33.86 18.67 QT
-31.759 18.178 -29.868 18.178 QT
-29.868 16.866 L
-29.868 15.944 -30.274 15.076 QT
-30.681 14.209 -31.446 13.655 QT
-32.212 13.1 -33.134 13.1 QT
-35.259 13.1 -36.368 14.053 QT
-35.759 14.053 -35.36 14.514 QT
-34.962 14.975 -34.962 15.584 QT
-34.962 16.225 -35.415 16.678 QT
-35.868 17.131 -36.493 17.131 QT
-37.134 17.131 -37.587 16.678 QT
-38.04 16.225 -38.04 15.584 QT
-38.04 13.897 -36.509 13.076 QT
-34.978 12.256 -33.134 12.256 QT
-31.837 12.256 -30.524 12.811 QT
-29.212 13.366 -28.376 14.397 QT
-27.54 15.428 -27.54 16.803 QT
-27.54 24.006 L
-27.54 24.631 -27.274 25.155 QT
-27.009 25.678 -26.446 25.678 QT
-25.915 25.678 -25.657 25.147 QT
-25.399 24.616 -25.399 24.006 QT
-25.399 21.959 L
-24.462 21.959 L
-24.462 24.006 L
-24.462 24.725 -24.837 25.373 QT
-25.212 26.022 -25.845 26.405 QT
-26.478 26.787 -27.212 26.787 QT
-28.149 26.787 -28.829 26.061 QT
-29.509 25.334 -29.587 24.334 QT
-30.181 25.537 -31.337 26.248 QT
-32.493 26.959 -33.806 26.959 QT
-35.024 26.959 -36.204 26.6 QT
-37.384 26.241 -38.173 25.467 QT
-38.962 24.694 -38.962 23.459 QT
cp
-36.368 23.459 M
-36.368 24.584 -35.54 25.35 QT
-34.712 26.116 -33.587 26.116 QT
-32.556 26.116 -31.712 25.6 QT
-30.868 25.084 -30.368 24.194 QT
-29.868 23.303 -29.868 22.319 QT
-29.868 18.991 L
-31.321 18.991 -32.845 19.467 QT
-34.368 19.944 -35.368 20.959 QT
-36.368 21.975 -36.368 23.459 QT
cp
f
GR
GS
[0.6 0 0 0.6 335.10026 409.40002] CT
0.149 GC
N
-23.086 31.85 M
-22.477 32.334 -21.743 32.334 QT
-19.727 32.334 -18.446 29.287 QT
-17.352 26.6 L
-22.149 14.85 L
-22.446 14.256 -23.055 14.092 QT
-23.664 13.928 -24.68 13.928 QT
-24.68 12.803 L
-17.961 12.803 L
-17.961 13.928 L
-19.727 13.928 -19.727 14.694 QT
-19.727 14.819 -19.696 14.881 QT
-16.133 23.631 L
-12.93 15.756 L
-12.836 15.506 -12.836 15.209 QT
-12.836 14.819 -13.047 14.53 QT
-13.258 14.241 -13.594 14.084 QT
-13.93 13.928 -14.352 13.928 QT
-14.352 12.803 L
-9.039 12.803 L
-9.039 13.928 L
-10.024 13.928 -10.766 14.381 QT
-11.508 14.834 -11.914 15.725 QT
-17.446 29.287 L
-17.883 30.319 -18.469 31.186 QT
-19.055 32.053 -19.899 32.608 QT
-20.743 33.162 -21.743 33.162 QT
-22.914 33.162 -23.797 32.389 QT
-24.68 31.616 -24.68 30.475 QT
-24.68 29.881 -24.274 29.475 QT
-23.868 29.069 -23.274 29.069 QT
-22.868 29.069 -22.547 29.248 QT
-22.227 29.428 -22.047 29.741 QT
-21.868 30.053 -21.868 30.475 QT
-21.868 30.991 -22.211 31.397 QT
-22.555 31.803 -23.086 31.85 QT
cp
f
GR
GS
[0.6 0 0 0.6 335.10026 409.40002] CT
0.149 GC
N
-7.623 26.6 M
-7.623 25.475 L
-6.529 25.475 -5.826 25.303 QT
-5.123 25.131 -5.123 24.459 QT
-5.123 15.725 L
-5.123 14.866 -5.381 14.483 QT
-5.639 14.1 -6.123 14.014 QT
-6.608 13.928 -7.623 13.928 QT
-7.623 12.803 L
-2.983 12.459 L
-2.983 15.584 L
-2.342 14.209 -1.084 13.334 QT
0.174 12.459 1.658 12.459 QT
5.346 12.459 5.986 15.459 QT
6.627 14.116 7.861 13.287 QT
9.096 12.459 10.564 12.459 QT
12.017 12.459 13.01 12.928 QT
14.002 13.397 14.502 14.358 QT
15.002 15.319 15.002 16.772 QT
15.002 24.459 L
15.002 25.131 15.713 25.303 QT
16.424 25.475 17.502 25.475 QT
17.502 26.6 L
10.174 26.6 L
10.174 25.475 L
11.267 25.475 11.971 25.303 QT
12.674 25.131 12.674 24.459 QT
12.674 16.866 L
12.674 15.256 12.221 14.272 QT
11.767 13.287 10.361 13.287 QT
8.517 13.287 7.314 14.772 QT
6.111 16.256 6.111 18.147 QT
6.111 24.459 L
6.111 25.131 6.814 25.303 QT
7.517 25.475 8.611 25.475 QT
8.611 26.6 L
1.283 26.6 L
1.283 25.475 L
2.377 25.475 3.08 25.303 QT
3.783 25.131 3.783 24.459 QT
3.783 16.866 L
3.783 15.303 3.33 14.295 QT
2.877 13.287 1.471 13.287 QT
-0.389 13.287 -1.584 14.772 QT
-2.779 16.256 -2.779 18.147 QT
-2.779 24.459 L
-2.779 25.131 -2.076 25.303 QT
-1.373 25.475 -0.295 25.475 QT
-0.295 26.6 L
-7.623 26.6 L
cp
f
GR
GS
[0.6 0 0 0.6 335.10026 409.40002] CT
0.149 GC
N
25.781 26.959 M
23.828 26.959 22.195 25.936 QT
20.563 24.912 19.633 23.201 QT
18.703 21.491 18.703 19.584 QT
18.703 17.709 19.555 16.022 QT
20.406 14.334 21.93 13.295 QT
23.453 12.256 25.328 12.256 QT
26.797 12.256 27.883 12.748 QT
28.969 13.241 29.672 14.116 QT
30.375 14.991 30.734 16.178 QT
31.094 17.366 31.094 18.787 QT
31.094 19.209 30.766 19.209 QT
21.5 19.209 L
21.5 19.553 L
21.5 22.209 22.57 24.116 QT
23.641 26.022 26.063 26.022 QT
27.047 26.022 27.883 25.584 QT
28.719 25.147 29.336 24.366 QT
29.953 23.584 30.172 22.694 QT
30.203 22.584 30.289 22.498 QT
30.375 22.412 30.484 22.412 QT
30.766 22.412 L
31.094 22.412 31.094 22.819 QT
30.641 24.631 29.141 25.795 QT
27.641 26.959 25.781 26.959 QT
cp
21.531 18.412 M
28.828 18.412 L
28.828 17.209 28.492 15.975 QT
28.156 14.741 27.375 13.92 QT
26.594 13.1 25.328 13.1 QT
23.516 13.1 22.524 14.795 QT
21.531 16.491 21.531 18.412 QT
cp
f
GR
GS
[0.6 0 0 0.6 335.10026 409.40002] CT
0.149 GC
N
32.84 26.6 M
32.84 25.475 L
33.934 25.475 34.637 25.303 QT
35.34 25.131 35.34 24.459 QT
35.34 15.725 L
35.34 14.866 35.082 14.483 QT
34.824 14.1 34.34 14.014 QT
33.855 13.928 32.84 13.928 QT
32.84 12.803 L
37.48 12.459 L
37.48 15.584 L
38.121 14.209 39.379 13.334 QT
40.637 12.459 42.121 12.459 QT
44.34 12.459 45.457 13.522 QT
46.574 14.584 46.574 16.772 QT
46.574 24.459 L
46.574 25.131 47.277 25.303 QT
47.98 25.475 49.074 25.475 QT
49.074 26.6 L
41.746 26.6 L
41.746 25.475 L
42.84 25.475 43.543 25.303 QT
44.246 25.131 44.246 24.459 QT
44.246 16.866 L
44.246 15.303 43.793 14.295 QT
43.34 13.287 41.934 13.287 QT
40.074 13.287 38.879 14.772 QT
37.684 16.256 37.684 18.147 QT
37.684 24.459 L
37.684 25.131 38.387 25.303 QT
39.09 25.475 40.168 25.475 QT
40.168 26.6 L
32.84 26.6 L
cp
f
GR
GS
[0.6 0 0 0.6 335.10026 409.40002] CT
0.149 GC
N
51.865 22.756 M
51.865 13.928 L
49.209 13.928 L
49.209 13.1 L
51.303 13.1 52.287 11.147 QT
53.272 9.194 53.272 6.912 QT
54.193 6.912 L
54.193 12.803 L
58.709 12.803 L
58.709 13.928 L
54.193 13.928 L
54.193 22.694 L
54.193 24.022 54.639 25.022 QT
55.084 26.022 56.24 26.022 QT
57.334 26.022 57.818 24.967 QT
58.303 23.912 58.303 22.694 QT
58.303 20.803 L
59.225 20.803 L
59.225 22.756 L
59.225 23.756 58.857 24.733 QT
58.49 25.709 57.772 26.334 QT
57.053 26.959 56.022 26.959 QT
54.1 26.959 52.982 25.811 QT
51.865 24.662 51.865 22.756 QT
cp
f
GR
GS
[0.6 0 0 0.6 0 0] CT
2 setlinecap
1 LJ
0.833 LW
N
140 640 M
140 54 L
S
GR
GS
[0.6 0 0 0.6 0 0] CT
2 setlinecap
1 LJ
0.833 LW
N
977 640 M
977 54 L
S
GR
GS
[0.6 0 0 0.6 0 0] CT
2 setlinecap
1 LJ
0.833 LW
N
140 640 M
148.37 640 L
S
GR
GS
[0.6 0 0 0.6 0 0] CT
2 setlinecap
1 LJ
0.833 LW
N
140 522.8 M
148.37 522.8 L
S
GR
GS
[0.6 0 0 0.6 0 0] CT
2 setlinecap
1 LJ
0.833 LW
N
140 405.6 M
148.37 405.6 L
S
GR
GS
[0.6 0 0 0.6 0 0] CT
2 setlinecap
1 LJ
0.833 LW
N
140 288.4 M
148.37 288.4 L
S
GR
GS
[0.6 0 0 0.6 0 0] CT
2 setlinecap
1 LJ
0.833 LW
N
140 171.2 M
148.37 171.2 L
S
GR
GS
[0.6 0 0 0.6 0 0] CT
2 setlinecap
1 LJ
0.833 LW
N
140 54 M
148.37 54 L
S
GR
GS
[0.6 0 0 0.6 0 0] CT
2 setlinecap
1 LJ
0.833 LW
N
977 640 M
968.63 640 L
S
GR
GS
[0.6 0 0 0.6 0 0] CT
2 setlinecap
1 LJ
0.833 LW
N
977 522.8 M
968.63 522.8 L
S
GR
GS
[0.6 0 0 0.6 0 0] CT
2 setlinecap
1 LJ
0.833 LW
N
977 405.6 M
968.63 405.6 L
S
GR
GS
[0.6 0 0 0.6 0 0] CT
2 setlinecap
1 LJ
0.833 LW
N
977 288.4 M
968.63 288.4 L
S
GR
GS
[0.6 0 0 0.6 0 0] CT
2 setlinecap
1 LJ
0.833 LW
N
977 171.2 M
968.63 171.2 L
S
GR
GS
[0.6 0 0 0.6 0 0] CT
2 setlinecap
1 LJ
0.833 LW
N
977 54 M
968.63 54 L
S
GR
GS
[0.6 0 0 0.6 78.8 384] CT
/Times-Roman 26.667 F
GS
[1 0 0 1 0 0] CT
-54 9.5 moveto 
1 -1 scale
(2800) t 
GR
GR
GS
[0.6 0 0 0.6 78.8 313.67999] CT
/Times-Roman 26.667 F
GS
[1 0 0 1 0 0] CT
-54 9.5 moveto 
1 -1 scale
(2850) t 
GR
GR
GS
[0.6 0 0 0.6 78.8 243.36] CT
/Times-Roman 26.667 F
GS
[1 0 0 1 0 0] CT
-54 9.5 moveto 
1 -1 scale
(2900) t 
GR
GR
GS
[0.6 0 0 0.6 78.8 173.04] CT
/Times-Roman 26.667 F
GS
[1 0 0 1 0 0] CT
-54 9.5 moveto 
1 -1 scale
(2950) t 
GR
GR
GS
[0.6 0 0 0.6 78.8 102.72] CT
/Times-Roman 26.667 F
GS
[1 0 0 1 0 0] CT
-54 9.5 moveto 
1 -1 scale
(3000) t 
GR
GR
GS
[0.6 0 0 0.6 78.8 32.4] CT
/Times-Roman 26.667 F
GS
[1 0 0 1 0 0] CT
-54 9.5 moveto 
1 -1 scale
(3050) t 
GR
GR
GS
[0 -0.6 0.6 0 43.4 208.2] CT
N
-247.918 -10.697 M
-250.965 -10.697 -253.394 -12.314 QT
-255.824 -13.931 -257.199 -16.611 QT
-258.574 -19.291 -258.574 -22.244 QT
-258.574 -24.431 -257.785 -26.572 QT
-256.996 -28.713 -255.582 -30.369 QT
-254.168 -32.025 -252.183 -32.994 QT
-250.199 -33.963 -247.918 -33.963 QT
-245.652 -33.963 -243.66 -32.986 QT
-241.668 -32.009 -240.246 -30.338 QT
-238.824 -28.666 -238.058 -26.588 QT
-237.293 -24.509 -237.293 -22.244 QT
-237.293 -19.291 -238.668 -16.611 QT
-240.043 -13.931 -242.48 -12.314 QT
-244.918 -10.697 -247.918 -10.697 QT
cp
-253.23 -14.853 M
-252.293 -13.384 -250.918 -12.517 QT
-249.543 -11.65 -247.918 -11.65 QT
-246.871 -11.65 -245.863 -12.072 QT
-244.855 -12.494 -244.035 -13.228 QT
-243.215 -13.963 -242.636 -14.853 QT
-240.73 -17.728 -240.73 -22.759 QT
-240.73 -27.369 -242.636 -30.056 QT
-243.574 -31.4 -244.972 -32.213 QT
-246.371 -33.025 -247.918 -33.025 QT
-249.48 -33.025 -250.886 -32.213 QT
-252.293 -31.4 -253.23 -30.056 QT
-253.98 -29.009 -254.394 -27.83 QT
-254.808 -26.65 -254.98 -25.384 QT
-255.152 -24.119 -255.152 -22.759 QT
-255.152 -21.306 -254.988 -19.924 QT
-254.824 -18.541 -254.379 -17.213 QT
-253.933 -15.884 -253.23 -14.853 QT
cp
f
GR
GS
[0 -0.6 0.6 0 43.4 208.2] CT
N
-232.413 -11.4 M
-232.413 -30.338 L
-232.413 -31.197 -232.671 -31.58 QT
-232.929 -31.963 -233.413 -32.049 QT
-233.897 -32.134 -234.913 -32.134 QT
-234.913 -33.259 L
-230.179 -33.603 L
-230.179 -23.588 L
-229.647 -24.181 -228.936 -24.627 QT
-228.225 -25.072 -227.413 -25.306 QT
-226.6 -25.541 -225.757 -25.541 QT
-224.319 -25.541 -223.093 -24.963 QT
-221.866 -24.384 -220.96 -23.369 QT
-220.054 -22.353 -219.546 -21.033 QT
-219.038 -19.713 -219.038 -18.306 QT
-219.038 -16.369 -219.983 -14.697 QT
-220.929 -13.025 -222.561 -12.033 QT
-224.194 -11.041 -226.147 -11.041 QT
-227.366 -11.041 -228.507 -11.666 QT
-229.647 -12.291 -230.397 -13.322 QT
-231.491 -11.4 L
-232.413 -11.4 L
cp
-230.085 -14.541 M
-229.554 -13.369 -228.554 -12.627 QT
-227.554 -11.884 -226.335 -11.884 QT
-224.679 -11.884 -223.655 -12.838 QT
-222.632 -13.791 -222.225 -15.244 QT
-221.819 -16.697 -221.819 -18.306 QT
-221.819 -21.009 -222.522 -22.416 QT
-222.835 -23.041 -223.374 -23.572 QT
-223.913 -24.103 -224.577 -24.408 QT
-225.241 -24.713 -225.975 -24.713 QT
-227.257 -24.713 -228.35 -24.033 QT
-229.444 -23.353 -230.085 -22.213 QT
-230.085 -14.541 L
cp
f
GR
GS
[0 -0.6 0.6 0 43.4 208.2] CT
N
-215.749 -6.025 M
-215.014 -5.666 -214.092 -5.666 QT
-212.827 -5.666 -212.335 -6.955 QT
-211.842 -8.244 -211.842 -9.744 QT
-211.842 -22.275 L
-211.842 -23.134 -212.155 -23.517 QT
-212.467 -23.9 -213.006 -23.986 QT
-213.546 -24.072 -214.592 -24.072 QT
-214.592 -25.197 L
-209.608 -25.541 L
-209.608 -9.603 L
-209.608 -8.369 -210.217 -7.267 QT
-210.827 -6.166 -211.874 -5.502 QT
-212.921 -4.838 -214.155 -4.838 QT
-215.546 -4.838 -216.671 -5.525 QT
-217.796 -6.213 -217.796 -7.463 QT
-217.796 -8.088 -217.342 -8.541 QT
-216.889 -8.994 -216.264 -8.994 QT
-215.639 -8.994 -215.186 -8.541 QT
-214.733 -8.088 -214.733 -7.463 QT
-214.733 -6.978 -215.006 -6.572 QT
-215.28 -6.166 -215.749 -6.025 QT
cp
-213.124 -31.041 M
-213.124 -31.744 -212.592 -32.275 QT
-212.061 -32.806 -211.358 -32.806 QT
-210.921 -32.806 -210.499 -32.572 QT
-210.077 -32.338 -209.842 -31.916 QT
-209.608 -31.494 -209.608 -31.041 QT
-209.608 -30.353 -210.124 -29.822 QT
-210.639 -29.291 -211.358 -29.291 QT
-212.061 -29.291 -212.592 -29.822 QT
-213.124 -30.353 -213.124 -31.041 QT
cp
f
GR
GS
[0 -0.6 0.6 0 43.4 208.2] CT
N
-198.745 -11.041 M
-200.698 -11.041 -202.33 -12.064 QT
-203.963 -13.088 -204.893 -14.799 QT
-205.823 -16.509 -205.823 -18.416 QT
-205.823 -20.291 -204.971 -21.978 QT
-204.12 -23.666 -202.596 -24.705 QT
-201.073 -25.744 -199.198 -25.744 QT
-197.729 -25.744 -196.643 -25.252 QT
-195.557 -24.759 -194.854 -23.884 QT
-194.151 -23.009 -193.791 -21.822 QT
-193.432 -20.634 -193.432 -19.213 QT
-193.432 -18.791 -193.76 -18.791 QT
-203.026 -18.791 L
-203.026 -18.447 L
-203.026 -15.791 -201.955 -13.884 QT
-200.885 -11.978 -198.463 -11.978 QT
-197.479 -11.978 -196.643 -12.416 QT
-195.807 -12.853 -195.19 -13.634 QT
-194.573 -14.416 -194.354 -15.306 QT
-194.323 -15.416 -194.237 -15.502 QT
-194.151 -15.588 -194.041 -15.588 QT
-193.76 -15.588 L
-193.432 -15.588 -193.432 -15.181 QT
-193.885 -13.369 -195.385 -12.205 QT
-196.885 -11.041 -198.745 -11.041 QT
cp
-202.995 -19.588 M
-195.698 -19.588 L
-195.698 -20.791 -196.034 -22.025 QT
-196.37 -23.259 -197.151 -24.08 QT
-197.932 -24.9 -199.198 -24.9 QT
-201.01 -24.9 -202.002 -23.205 QT
-202.995 -21.509 -202.995 -19.588 QT
cp
f
GR
GS
[0 -0.6 0.6 0 43.4 208.2] CT
N
-184.67 -11.041 M
-186.608 -11.041 -188.186 -12.049 QT
-189.764 -13.056 -190.67 -14.736 QT
-191.577 -16.416 -191.577 -18.306 QT
-191.577 -20.197 -190.678 -21.931 QT
-189.78 -23.666 -188.194 -24.705 QT
-186.608 -25.744 -184.67 -25.744 QT
-182.795 -25.744 -181.256 -25.009 QT
-179.717 -24.275 -179.717 -22.603 QT
-179.717 -21.978 -180.163 -21.517 QT
-180.608 -21.056 -181.249 -21.056 QT
-181.889 -21.056 -182.335 -21.517 QT
-182.78 -21.978 -182.78 -22.603 QT
-182.78 -23.166 -182.42 -23.58 QT
-182.061 -23.994 -181.53 -24.103 QT
-182.639 -24.806 -184.639 -24.806 QT
-186.17 -24.806 -187.108 -23.791 QT
-188.045 -22.775 -188.42 -21.275 QT
-188.795 -19.775 -188.795 -18.306 QT
-188.795 -16.759 -188.335 -15.314 QT
-187.874 -13.869 -186.85 -12.924 QT
-185.827 -11.978 -184.28 -11.978 QT
-182.764 -11.978 -181.702 -12.908 QT
-180.639 -13.838 -180.249 -15.338 QT
-180.249 -15.525 -179.999 -15.525 QT
-179.608 -15.525 L
-179.514 -15.525 -179.436 -15.439 QT
-179.358 -15.353 -179.358 -15.244 QT
-179.358 -15.15 L
-179.842 -13.259 -181.28 -12.15 QT
-182.717 -11.041 -184.67 -11.041 QT
cp
f
GR
GS
[0 -0.6 0.6 0 43.4 208.2] CT
N
-175.3 -15.244 M
-175.3 -24.072 L
-177.956 -24.072 L
-177.956 -24.9 L
-175.862 -24.9 -174.878 -26.853 QT
-173.893 -28.806 -173.893 -31.088 QT
-172.971 -31.088 L
-172.971 -25.197 L
-168.456 -25.197 L
-168.456 -24.072 L
-172.971 -24.072 L
-172.971 -15.306 L
-172.971 -13.978 -172.526 -12.978 QT
-172.081 -11.978 -170.925 -11.978 QT
-169.831 -11.978 -169.346 -13.033 QT
-168.862 -14.088 -168.862 -15.306 QT
-168.862 -17.197 L
-167.94 -17.197 L
-167.94 -15.244 L
-167.94 -14.244 -168.307 -13.267 QT
-168.675 -12.291 -169.393 -11.666 QT
-170.112 -11.041 -171.143 -11.041 QT
-173.065 -11.041 -174.182 -12.189 QT
-175.3 -13.338 -175.3 -15.244 QT
cp
f
GR
GS
[0 -0.6 0.6 0 43.4 208.2] CT
N
-165.266 -11.4 M
-165.266 -12.525 L
-164.172 -12.525 -163.469 -12.697 QT
-162.766 -12.869 -162.766 -13.541 QT
-162.766 -22.275 L
-162.766 -23.509 -163.242 -23.791 QT
-163.719 -24.072 -165.125 -24.072 QT
-165.125 -25.197 L
-160.516 -25.541 L
-160.516 -13.541 L
-160.516 -12.869 -159.907 -12.697 QT
-159.297 -12.525 -158.282 -12.525 QT
-158.282 -11.4 L
-165.266 -11.4 L
cp
-163.907 -31.041 M
-163.907 -31.744 -163.375 -32.275 QT
-162.844 -32.806 -162.157 -32.806 QT
-161.703 -32.806 -161.282 -32.572 QT
-160.86 -32.338 -160.625 -31.916 QT
-160.391 -31.494 -160.391 -31.041 QT
-160.391 -30.353 -160.922 -29.822 QT
-161.453 -29.291 -162.157 -29.291 QT
-162.844 -29.291 -163.375 -29.822 QT
-163.907 -30.353 -163.907 -31.041 QT
cp
f
GR
GS
[0 -0.6 0.6 0 43.4 208.2] CT
N
-149.641 -11.4 M
-154.313 -23.15 L
-154.61 -23.744 -155.227 -23.908 QT
-155.845 -24.072 -156.845 -24.072 QT
-156.845 -25.197 L
-150.126 -25.197 L
-150.126 -24.072 L
-151.923 -24.072 -151.923 -23.306 QT
-151.923 -23.181 -151.891 -23.119 QT
-148.298 -14.088 L
-145.063 -22.244 L
-144.97 -22.494 -144.97 -22.759 QT
-144.97 -23.369 -145.431 -23.72 QT
-145.891 -24.072 -146.516 -24.072 QT
-146.516 -25.197 L
-141.204 -25.197 L
-141.204 -24.072 L
-142.188 -24.072 -142.931 -23.619 QT
-143.673 -23.166 -144.079 -22.275 QT
-148.391 -11.4 L
-148.516 -11.041 -148.907 -11.041 QT
-149.141 -11.041 L
-149.532 -11.041 -149.641 -11.4 QT
cp
f
GR
GS
[0 -0.6 0.6 0 43.4 208.2] CT
N
-133.652 -11.041 M
-135.605 -11.041 -137.238 -12.064 QT
-138.871 -13.088 -139.8 -14.799 QT
-140.73 -16.509 -140.73 -18.416 QT
-140.73 -20.291 -139.878 -21.978 QT
-139.027 -23.666 -137.503 -24.705 QT
-135.98 -25.744 -134.105 -25.744 QT
-132.636 -25.744 -131.55 -25.252 QT
-130.464 -24.759 -129.761 -23.884 QT
-129.058 -23.009 -128.699 -21.822 QT
-128.339 -20.634 -128.339 -19.213 QT
-128.339 -18.791 -128.667 -18.791 QT
-137.933 -18.791 L
-137.933 -18.447 L
-137.933 -15.791 -136.863 -13.884 QT
-135.792 -11.978 -133.371 -11.978 QT
-132.386 -11.978 -131.55 -12.416 QT
-130.714 -12.853 -130.097 -13.634 QT
-129.48 -14.416 -129.261 -15.306 QT
-129.23 -15.416 -129.144 -15.502 QT
-129.058 -15.588 -128.949 -15.588 QT
-128.667 -15.588 L
-128.339 -15.588 -128.339 -15.181 QT
-128.792 -13.369 -130.292 -12.205 QT
-131.792 -11.041 -133.652 -11.041 QT
cp
-137.902 -19.588 M
-130.605 -19.588 L
-130.605 -20.791 -130.941 -22.025 QT
-131.277 -23.259 -132.058 -24.08 QT
-132.839 -24.9 -134.105 -24.9 QT
-135.917 -24.9 -136.91 -23.205 QT
-137.902 -21.509 -137.902 -19.588 QT
cp
f
GR
GS
[0 -0.6 0.6 0 43.4 208.2] CT
N
-116.007 -11.4 M
-116.007 -12.525 L
-112.71 -12.525 -112.71 -13.541 QT
-112.71 -31.119 L
-112.71 -32.134 -116.007 -32.134 QT
-116.007 -33.259 L
-98.366 -33.259 L
-97.475 -25.931 L
-98.397 -25.931 L
-98.616 -27.947 -98.983 -29.111 QT
-99.35 -30.275 -100.053 -30.939 QT
-100.757 -31.603 -101.936 -31.869 QT
-103.116 -32.134 -105.178 -32.134 QT
-108.1 -32.134 L
-108.678 -32.134 -108.999 -32.088 QT
-109.319 -32.041 -109.522 -31.814 QT
-109.725 -31.588 -109.725 -31.119 QT
-109.725 -22.884 L
-107.46 -22.884 L
-105.819 -22.884 -105.053 -23.174 QT
-104.288 -23.463 -103.999 -24.228 QT
-103.71 -24.994 -103.71 -26.634 QT
-102.788 -26.634 L
-102.788 -18.025 L
-103.71 -18.025 L
-103.71 -19.666 -103.999 -20.431 QT
-104.288 -21.197 -105.053 -21.486 QT
-105.819 -21.775 -107.46 -21.775 QT
-109.725 -21.775 L
-109.725 -13.541 L
-109.725 -12.525 -105.632 -12.525 QT
-105.632 -11.4 L
-116.007 -11.4 L
cp
f
GR
GS
[0 -0.6 0.6 0 43.4 208.2] CT
N
-95.505 -15.213 M
-95.505 -22.275 L
-95.505 -23.134 -95.763 -23.517 QT
-96.021 -23.9 -96.505 -23.986 QT
-96.99 -24.072 -98.005 -24.072 QT
-98.005 -25.197 L
-93.162 -25.541 L
-93.162 -15.213 L
-93.162 -13.963 -92.982 -13.267 QT
-92.802 -12.572 -92.216 -12.228 QT
-91.63 -11.884 -90.349 -11.884 QT
-88.63 -11.884 -87.615 -13.322 QT
-86.599 -14.759 -86.599 -16.588 QT
-86.599 -22.275 L
-86.599 -23.134 -86.865 -23.517 QT
-87.13 -23.9 -87.607 -23.986 QT
-88.084 -24.072 -89.099 -24.072 QT
-89.099 -25.197 L
-84.271 -25.541 L
-84.271 -14.306 L
-84.271 -13.463 -84.013 -13.08 QT
-83.755 -12.697 -83.271 -12.611 QT
-82.787 -12.525 -81.771 -12.525 QT
-81.771 -11.4 L
-86.505 -11.041 L
-86.505 -13.744 L
-87.099 -12.541 -88.162 -11.791 QT
-89.224 -11.041 -90.505 -11.041 QT
-92.802 -11.041 -94.154 -12.017 QT
-95.505 -12.994 -95.505 -15.213 QT
cp
f
GR
GS
[0 -0.6 0.6 0 43.4 208.2] CT
N
-80.413 -11.4 M
-80.413 -12.525 L
-79.319 -12.525 -78.616 -12.697 QT
-77.913 -12.869 -77.913 -13.541 QT
-77.913 -22.275 L
-77.913 -23.134 -78.171 -23.517 QT
-78.428 -23.9 -78.913 -23.986 QT
-79.397 -24.072 -80.413 -24.072 QT
-80.413 -25.197 L
-75.772 -25.541 L
-75.772 -22.416 L
-75.132 -23.791 -73.874 -24.666 QT
-72.616 -25.541 -71.132 -25.541 QT
-68.913 -25.541 -67.796 -24.478 QT
-66.678 -23.416 -66.678 -21.228 QT
-66.678 -13.541 L
-66.678 -12.869 -65.975 -12.697 QT
-65.272 -12.525 -64.178 -12.525 QT
-64.178 -11.4 L
-71.507 -11.4 L
-71.507 -12.525 L
-70.413 -12.525 -69.71 -12.697 QT
-69.007 -12.869 -69.007 -13.541 QT
-69.007 -21.134 L
-69.007 -22.697 -69.46 -23.705 QT
-69.913 -24.713 -71.319 -24.713 QT
-73.178 -24.713 -74.374 -23.228 QT
-75.569 -21.744 -75.569 -19.853 QT
-75.569 -13.541 L
-75.569 -12.869 -74.866 -12.697 QT
-74.163 -12.525 -73.085 -12.525 QT
-73.085 -11.4 L
-80.413 -11.4 L
cp
f
GR
GS
[0 -0.6 0.6 0 43.4 208.2] CT
N
-55.804 -11.041 M
-57.742 -11.041 -59.32 -12.049 QT
-60.898 -13.056 -61.804 -14.736 QT
-62.711 -16.416 -62.711 -18.306 QT
-62.711 -20.197 -61.812 -21.931 QT
-60.914 -23.666 -59.328 -24.705 QT
-57.742 -25.744 -55.804 -25.744 QT
-53.929 -25.744 -52.39 -25.009 QT
-50.851 -24.275 -50.851 -22.603 QT
-50.851 -21.978 -51.297 -21.517 QT
-51.742 -21.056 -52.383 -21.056 QT
-53.023 -21.056 -53.469 -21.517 QT
-53.914 -21.978 -53.914 -22.603 QT
-53.914 -23.166 -53.554 -23.58 QT
-53.195 -23.994 -52.664 -24.103 QT
-53.773 -24.806 -55.773 -24.806 QT
-57.304 -24.806 -58.242 -23.791 QT
-59.179 -22.775 -59.554 -21.275 QT
-59.929 -19.775 -59.929 -18.306 QT
-59.929 -16.759 -59.469 -15.314 QT
-59.008 -13.869 -57.984 -12.924 QT
-56.961 -11.978 -55.414 -11.978 QT
-53.898 -11.978 -52.836 -12.908 QT
-51.773 -13.838 -51.383 -15.338 QT
-51.383 -15.525 -51.133 -15.525 QT
-50.742 -15.525 L
-50.648 -15.525 -50.57 -15.439 QT
-50.492 -15.353 -50.492 -15.244 QT
-50.492 -15.15 L
-50.976 -13.259 -52.414 -12.15 QT
-53.851 -11.041 -55.804 -11.041 QT
cp
f
GR
GS
[0 -0.6 0.6 0 43.4 208.2] CT
N
-46.434 -15.244 M
-46.434 -24.072 L
-49.09 -24.072 L
-49.09 -24.9 L
-46.996 -24.9 -46.012 -26.853 QT
-45.027 -28.806 -45.027 -31.088 QT
-44.105 -31.088 L
-44.105 -25.197 L
-39.59 -25.197 L
-39.59 -24.072 L
-44.105 -24.072 L
-44.105 -15.306 L
-44.105 -13.978 -43.66 -12.978 QT
-43.215 -11.978 -42.059 -11.978 QT
-40.965 -11.978 -40.48 -13.033 QT
-39.996 -14.088 -39.996 -15.306 QT
-39.996 -17.197 L
-39.074 -17.197 L
-39.074 -15.244 L
-39.074 -14.244 -39.441 -13.267 QT
-39.809 -12.291 -40.527 -11.666 QT
-41.246 -11.041 -42.277 -11.041 QT
-44.199 -11.041 -45.316 -12.189 QT
-46.434 -13.338 -46.434 -15.244 QT
cp
f
GR
GS
[0 -0.6 0.6 0 43.4 208.2] CT
N
-36.4 -11.4 M
-36.4 -12.525 L
-35.306 -12.525 -34.603 -12.697 QT
-33.9 -12.869 -33.9 -13.541 QT
-33.9 -22.275 L
-33.9 -23.509 -34.376 -23.791 QT
-34.853 -24.072 -36.259 -24.072 QT
-36.259 -25.197 L
-31.65 -25.541 L
-31.65 -13.541 L
-31.65 -12.869 -31.041 -12.697 QT
-30.431 -12.525 -29.416 -12.525 QT
-29.416 -11.4 L
-36.4 -11.4 L
cp
-35.041 -31.041 M
-35.041 -31.744 -34.509 -32.275 QT
-33.978 -32.806 -33.291 -32.806 QT
-32.837 -32.806 -32.416 -32.572 QT
-31.994 -32.338 -31.759 -31.916 QT
-31.525 -31.494 -31.525 -31.041 QT
-31.525 -30.353 -32.056 -29.822 QT
-32.587 -29.291 -33.291 -29.291 QT
-33.978 -29.291 -34.509 -29.822 QT
-35.041 -30.353 -35.041 -31.041 QT
cp
f
GR
GS
[0 -0.6 0.6 0 43.4 208.2] CT
N
-20.588 -11.041 M
-22.51 -11.041 -24.15 -12.017 QT
-25.791 -12.994 -26.744 -14.634 QT
-27.697 -16.275 -27.697 -18.213 QT
-27.697 -19.681 -27.174 -21.041 QT
-26.65 -22.4 -25.674 -23.47 QT
-24.697 -24.541 -23.4 -25.142 QT
-22.104 -25.744 -20.588 -25.744 QT
-18.619 -25.744 -17.002 -24.705 QT
-15.385 -23.666 -14.447 -21.924 QT
-13.51 -20.181 -13.51 -18.213 QT
-13.51 -16.291 -14.463 -14.642 QT
-15.416 -12.994 -17.049 -12.017 QT
-18.682 -11.041 -20.588 -11.041 QT
cp
-20.588 -11.978 M
-18.025 -11.978 -17.166 -13.838 QT
-16.307 -15.697 -16.307 -18.572 QT
-16.307 -20.181 -16.479 -21.236 QT
-16.65 -22.291 -17.229 -23.15 QT
-17.588 -23.681 -18.143 -24.08 QT
-18.697 -24.478 -19.315 -24.689 QT
-19.932 -24.9 -20.588 -24.9 QT
-21.588 -24.9 -22.486 -24.447 QT
-23.385 -23.994 -23.979 -23.15 QT
-24.572 -22.244 -24.736 -21.158 QT
-24.9 -20.072 -24.9 -18.572 QT
-24.9 -16.775 -24.588 -15.345 QT
-24.275 -13.916 -23.33 -12.947 QT
-22.385 -11.978 -20.588 -11.978 QT
cp
f
GR
GS
[0 -0.6 0.6 0 43.4 208.2] CT
N
-11.801 -11.4 M
-11.801 -12.525 L
-10.708 -12.525 -10.005 -12.697 QT
-9.301 -12.869 -9.301 -13.541 QT
-9.301 -22.275 L
-9.301 -23.134 -9.559 -23.517 QT
-9.817 -23.9 -10.301 -23.986 QT
-10.786 -24.072 -11.801 -24.072 QT
-11.801 -25.197 L
-7.161 -25.541 L
-7.161 -22.416 L
-6.52 -23.791 -5.262 -24.666 QT
-4.005 -25.541 -2.52 -25.541 QT
-0.301 -25.541 0.816 -24.478 QT
1.933 -23.416 1.933 -21.228 QT
1.933 -13.541 L
1.933 -12.869 2.636 -12.697 QT
3.339 -12.525 4.433 -12.525 QT
4.433 -11.4 L
-2.895 -11.4 L
-2.895 -12.525 L
-1.801 -12.525 -1.098 -12.697 QT
-0.395 -12.869 -0.395 -13.541 QT
-0.395 -21.134 L
-0.395 -22.697 -0.848 -23.705 QT
-1.301 -24.713 -2.708 -24.713 QT
-4.567 -24.713 -5.762 -23.228 QT
-6.958 -21.744 -6.958 -19.853 QT
-6.958 -13.541 L
-6.958 -12.869 -6.255 -12.697 QT
-5.551 -12.525 -4.473 -12.525 QT
-4.473 -11.4 L
-11.801 -11.4 L
cp
f
GR
GS
[0 -0.6 0.6 0 43.4 208.2] CT
N
26.659 -11.041 M
19.112 -31.119 L
18.831 -31.791 18.034 -31.963 QT
17.237 -32.134 16.003 -32.134 QT
16.003 -33.259 L
24.8 -33.259 L
24.8 -32.134 L
22.144 -32.134 22.144 -31.306 QT
22.159 -31.259 22.167 -31.22 QT
22.175 -31.181 22.175 -31.119 QT
28.315 -14.791 L
34.112 -30.244 L
34.175 -30.369 34.175 -30.634 QT
34.175 -31.416 33.456 -31.775 QT
32.737 -32.134 31.847 -32.134 QT
31.847 -33.259 L
38.753 -33.259 L
38.753 -32.134 L
37.55 -32.134 36.636 -31.689 QT
35.722 -31.244 35.331 -30.244 QT
28.097 -11.041 L
28.003 -10.697 27.581 -10.697 QT
27.175 -10.697 L
26.753 -10.697 26.659 -11.041 QT
cp
f
GR
GS
[0 -0.6 0.6 0 43.4 208.2] CT
N
37.786 -14.541 M
37.786 -16.447 39.286 -17.642 QT
40.786 -18.838 42.888 -19.33 QT
44.989 -19.822 46.88 -19.822 QT
46.88 -21.134 L
46.88 -22.056 46.473 -22.924 QT
46.067 -23.791 45.302 -24.345 QT
44.536 -24.9 43.614 -24.9 QT
41.489 -24.9 40.38 -23.947 QT
40.989 -23.947 41.388 -23.486 QT
41.786 -23.025 41.786 -22.416 QT
41.786 -21.775 41.333 -21.322 QT
40.88 -20.869 40.255 -20.869 QT
39.614 -20.869 39.161 -21.322 QT
38.708 -21.775 38.708 -22.416 QT
38.708 -24.103 40.239 -24.924 QT
41.77 -25.744 43.614 -25.744 QT
44.911 -25.744 46.223 -25.189 QT
47.536 -24.634 48.372 -23.603 QT
49.208 -22.572 49.208 -21.197 QT
49.208 -13.994 L
49.208 -13.369 49.473 -12.845 QT
49.739 -12.322 50.302 -12.322 QT
50.833 -12.322 51.091 -12.853 QT
51.348 -13.384 51.348 -13.994 QT
51.348 -16.041 L
52.286 -16.041 L
52.286 -13.994 L
52.286 -13.275 51.911 -12.627 QT
51.536 -11.978 50.903 -11.595 QT
50.27 -11.213 49.536 -11.213 QT
48.598 -11.213 47.919 -11.939 QT
47.239 -12.666 47.161 -13.666 QT
46.567 -12.463 45.411 -11.752 QT
44.255 -11.041 42.942 -11.041 QT
41.723 -11.041 40.544 -11.4 QT
39.364 -11.759 38.575 -12.533 QT
37.786 -13.306 37.786 -14.541 QT
cp
40.38 -14.541 M
40.38 -13.416 41.208 -12.65 QT
42.036 -11.884 43.161 -11.884 QT
44.192 -11.884 45.036 -12.4 QT
45.88 -12.916 46.38 -13.806 QT
46.88 -14.697 46.88 -15.681 QT
46.88 -19.009 L
45.427 -19.009 43.903 -18.533 QT
42.38 -18.056 41.38 -17.041 QT
40.38 -16.025 40.38 -14.541 QT
cp
f
GR
GS
[0 -0.6 0.6 0 43.4 208.2] CT
N
53.322 -11.4 M
53.322 -12.525 L
54.416 -12.525 55.119 -12.697 QT
55.822 -12.869 55.822 -13.541 QT
55.822 -30.338 L
55.822 -31.197 55.565 -31.58 QT
55.307 -31.963 54.822 -32.049 QT
54.338 -32.134 53.322 -32.134 QT
53.322 -33.259 L
58.072 -33.603 L
58.072 -13.541 L
58.072 -12.869 58.776 -12.697 QT
59.479 -12.525 60.557 -12.525 QT
60.557 -11.4 L
53.322 -11.4 L
cp
f
GR
GS
[0 -0.6 0.6 0 43.4 208.2] CT
N
64.588 -15.213 M
64.588 -22.275 L
64.588 -23.134 64.33 -23.517 QT
64.072 -23.9 63.588 -23.986 QT
63.103 -24.072 62.088 -24.072 QT
62.088 -25.197 L
66.931 -25.541 L
66.931 -15.213 L
66.931 -13.963 67.111 -13.267 QT
67.291 -12.572 67.877 -12.228 QT
68.463 -11.884 69.744 -11.884 QT
71.463 -11.884 72.478 -13.322 QT
73.494 -14.759 73.494 -16.588 QT
73.494 -22.275 L
73.494 -23.134 73.228 -23.517 QT
72.963 -23.9 72.486 -23.986 QT
72.009 -24.072 70.994 -24.072 QT
70.994 -25.197 L
75.822 -25.541 L
75.822 -14.306 L
75.822 -13.463 76.08 -13.08 QT
76.338 -12.697 76.822 -12.611 QT
77.306 -12.525 78.322 -12.525 QT
78.322 -11.4 L
73.588 -11.041 L
73.588 -13.744 L
72.994 -12.541 71.931 -11.791 QT
70.869 -11.041 69.588 -11.041 QT
67.291 -11.041 65.939 -12.017 QT
64.588 -12.994 64.588 -15.213 QT
cp
f
GR
GS
[0 -0.6 0.6 0 43.4 208.2] CT
N
86.696 -11.041 M
84.743 -11.041 83.11 -12.064 QT
81.477 -13.088 80.547 -14.799 QT
79.618 -16.509 79.618 -18.416 QT
79.618 -20.291 80.469 -21.978 QT
81.321 -23.666 82.844 -24.705 QT
84.368 -25.744 86.243 -25.744 QT
87.711 -25.744 88.797 -25.252 QT
89.883 -24.759 90.586 -23.884 QT
91.29 -23.009 91.649 -21.822 QT
92.008 -20.634 92.008 -19.213 QT
92.008 -18.791 91.68 -18.791 QT
82.415 -18.791 L
82.415 -18.447 L
82.415 -15.791 83.485 -13.884 QT
84.555 -11.978 86.977 -11.978 QT
87.961 -11.978 88.797 -12.416 QT
89.633 -12.853 90.25 -13.634 QT
90.868 -14.416 91.086 -15.306 QT
91.118 -15.416 91.204 -15.502 QT
91.29 -15.588 91.399 -15.588 QT
91.68 -15.588 L
92.008 -15.588 92.008 -15.181 QT
91.555 -13.369 90.055 -12.205 QT
88.555 -11.041 86.696 -11.041 QT
cp
82.446 -19.588 M
89.743 -19.588 L
89.743 -20.791 89.407 -22.025 QT
89.071 -23.259 88.29 -24.08 QT
87.508 -24.9 86.243 -24.9 QT
84.43 -24.9 83.438 -23.205 QT
82.446 -21.509 82.446 -19.588 QT
cp
f
GR
GS
[0 -0.6 0.6 0 43.4 208.2] CT
N
105.763 -18.759 M
105.497 -18.759 105.325 -18.963 QT
105.154 -19.166 105.154 -19.4 QT
105.154 -19.634 105.325 -19.838 QT
105.497 -20.041 105.763 -20.041 QT
115.169 -20.041 L
115.169 -29.478 L
115.169 -29.728 115.357 -29.892 QT
115.544 -30.056 115.81 -30.056 QT
116.044 -30.056 116.247 -29.892 QT
116.45 -29.728 116.45 -29.478 QT
116.45 -20.041 L
125.857 -20.041 L
126.091 -20.041 126.263 -19.838 QT
126.435 -19.634 126.435 -19.4 QT
126.435 -19.166 126.263 -18.963 QT
126.091 -18.759 125.857 -18.759 QT
116.45 -18.759 L
116.45 -9.322 L
116.45 -9.072 116.247 -8.908 QT
116.044 -8.744 115.81 -8.744 QT
115.544 -8.744 115.357 -8.908 QT
115.169 -9.072 115.169 -9.322 QT
115.169 -18.759 L
105.763 -18.759 L
cp
f
GR
GS
[0 -0.6 0.6 0 43.4 208.2] CT
N
139.604 -11.4 M
139.604 -12.525 L
142.901 -12.525 142.901 -13.541 QT
142.901 -31.119 L
142.901 -32.134 139.604 -32.134 QT
139.604 -33.259 L
150.995 -33.259 L
152.745 -33.259 154.495 -32.541 QT
156.245 -31.822 157.378 -30.447 QT
158.511 -29.072 158.511 -27.244 QT
158.511 -25.463 157.37 -24.119 QT
156.229 -22.775 154.495 -22.08 QT
152.761 -21.384 150.995 -21.384 QT
145.87 -21.384 L
145.87 -13.541 L
145.87 -12.525 149.167 -12.525 QT
149.167 -11.4 L
139.604 -11.4 L
cp
145.776 -22.338 M
150.12 -22.338 L
151.886 -22.338 152.979 -22.845 QT
154.073 -23.353 154.581 -24.424 QT
155.089 -25.494 155.089 -27.244 QT
155.089 -29.853 153.94 -30.994 QT
152.792 -32.134 150.12 -32.134 QT
147.401 -32.134 L
146.823 -32.134 146.503 -32.088 QT
146.183 -32.041 145.979 -31.814 QT
145.776 -31.588 145.776 -31.119 QT
145.776 -22.338 L
cp
f
GR
GS
[0 -0.6 0.6 0 43.4 208.2] CT
N
160.494 -14.541 M
160.494 -16.447 161.994 -17.642 QT
163.494 -18.838 165.596 -19.33 QT
167.698 -19.822 169.588 -19.822 QT
169.588 -21.134 L
169.588 -22.056 169.182 -22.924 QT
168.776 -23.791 168.01 -24.345 QT
167.244 -24.9 166.323 -24.9 QT
164.198 -24.9 163.088 -23.947 QT
163.698 -23.947 164.096 -23.486 QT
164.494 -23.025 164.494 -22.416 QT
164.494 -21.775 164.041 -21.322 QT
163.588 -20.869 162.963 -20.869 QT
162.323 -20.869 161.869 -21.322 QT
161.416 -21.775 161.416 -22.416 QT
161.416 -24.103 162.948 -24.924 QT
164.479 -25.744 166.323 -25.744 QT
167.619 -25.744 168.932 -25.189 QT
170.244 -24.634 171.08 -23.603 QT
171.916 -22.572 171.916 -21.197 QT
171.916 -13.994 L
171.916 -13.369 172.182 -12.845 QT
172.448 -12.322 173.01 -12.322 QT
173.541 -12.322 173.799 -12.853 QT
174.057 -13.384 174.057 -13.994 QT
174.057 -16.041 L
174.994 -16.041 L
174.994 -13.994 L
174.994 -13.275 174.619 -12.627 QT
174.244 -11.978 173.612 -11.595 QT
172.979 -11.213 172.244 -11.213 QT
171.307 -11.213 170.627 -11.939 QT
169.948 -12.666 169.869 -13.666 QT
169.276 -12.463 168.119 -11.752 QT
166.963 -11.041 165.651 -11.041 QT
164.432 -11.041 163.252 -11.4 QT
162.073 -11.759 161.284 -12.533 QT
160.494 -13.306 160.494 -14.541 QT
cp
163.088 -14.541 M
163.088 -13.416 163.916 -12.65 QT
164.744 -11.884 165.869 -11.884 QT
166.901 -11.884 167.744 -12.4 QT
168.588 -12.916 169.088 -13.806 QT
169.588 -14.697 169.588 -15.681 QT
169.588 -19.009 L
168.135 -19.009 166.612 -18.533 QT
165.088 -18.056 164.088 -17.041 QT
163.088 -16.025 163.088 -14.541 QT
cp
f
GR
GS
[0 -0.6 0.6 0 43.4 208.2] CT
N
176.37 -6.15 M
176.979 -5.666 177.714 -5.666 QT
179.729 -5.666 181.011 -8.713 QT
182.104 -11.4 L
177.308 -23.15 L
177.011 -23.744 176.401 -23.908 QT
175.792 -24.072 174.776 -24.072 QT
174.776 -25.197 L
181.495 -25.197 L
181.495 -24.072 L
179.729 -24.072 179.729 -23.306 QT
179.729 -23.181 179.761 -23.119 QT
183.323 -14.369 L
186.526 -22.244 L
186.62 -22.494 186.62 -22.791 QT
186.62 -23.181 186.409 -23.47 QT
186.198 -23.759 185.862 -23.916 QT
185.526 -24.072 185.104 -24.072 QT
185.104 -25.197 L
190.417 -25.197 L
190.417 -24.072 L
189.433 -24.072 188.69 -23.619 QT
187.948 -23.166 187.542 -22.275 QT
182.011 -8.713 L
181.573 -7.681 180.987 -6.814 QT
180.401 -5.947 179.558 -5.392 QT
178.714 -4.838 177.714 -4.838 QT
176.542 -4.838 175.659 -5.611 QT
174.776 -6.384 174.776 -7.525 QT
174.776 -8.119 175.183 -8.525 QT
175.589 -8.931 176.183 -8.931 QT
176.589 -8.931 176.909 -8.752 QT
177.229 -8.572 177.409 -8.259 QT
177.589 -7.947 177.589 -7.525 QT
177.589 -7.009 177.245 -6.603 QT
176.901 -6.197 176.37 -6.15 QT
cp
f
GR
GS
[0 -0.6 0.6 0 43.4 208.2] CT
N
191.833 -11.4 M
191.833 -12.525 L
192.927 -12.525 193.63 -12.697 QT
194.333 -12.869 194.333 -13.541 QT
194.333 -22.275 L
194.333 -23.134 194.075 -23.517 QT
193.817 -23.9 193.333 -23.986 QT
192.849 -24.072 191.833 -24.072 QT
191.833 -25.197 L
196.474 -25.541 L
196.474 -22.416 L
197.114 -23.791 198.372 -24.666 QT
199.63 -25.541 201.114 -25.541 QT
204.802 -25.541 205.442 -22.541 QT
206.083 -23.884 207.317 -24.713 QT
208.552 -25.541 210.021 -25.541 QT
211.474 -25.541 212.466 -25.072 QT
213.458 -24.603 213.958 -23.642 QT
214.458 -22.681 214.458 -21.228 QT
214.458 -13.541 L
214.458 -12.869 215.169 -12.697 QT
215.88 -12.525 216.958 -12.525 QT
216.958 -11.4 L
209.63 -11.4 L
209.63 -12.525 L
210.724 -12.525 211.427 -12.697 QT
212.13 -12.869 212.13 -13.541 QT
212.13 -21.134 L
212.13 -22.744 211.677 -23.728 QT
211.224 -24.713 209.817 -24.713 QT
207.974 -24.713 206.771 -23.228 QT
205.567 -21.744 205.567 -19.853 QT
205.567 -13.541 L
205.567 -12.869 206.271 -12.697 QT
206.974 -12.525 208.067 -12.525 QT
208.067 -11.4 L
200.739 -11.4 L
200.739 -12.525 L
201.833 -12.525 202.536 -12.697 QT
203.239 -12.869 203.239 -13.541 QT
203.239 -21.134 L
203.239 -22.697 202.786 -23.705 QT
202.333 -24.713 200.927 -24.713 QT
199.067 -24.713 197.872 -23.228 QT
196.677 -21.744 196.677 -19.853 QT
196.677 -13.541 L
196.677 -12.869 197.38 -12.697 QT
198.083 -12.525 199.161 -12.525 QT
199.161 -11.4 L
191.833 -11.4 L
cp
f
GR
GS
[0 -0.6 0.6 0 43.4 208.2] CT
N
225.238 -11.041 M
223.285 -11.041 221.652 -12.064 QT
220.019 -13.088 219.089 -14.799 QT
218.16 -16.509 218.16 -18.416 QT
218.16 -20.291 219.011 -21.978 QT
219.863 -23.666 221.386 -24.705 QT
222.91 -25.744 224.785 -25.744 QT
226.253 -25.744 227.339 -25.252 QT
228.425 -24.759 229.128 -23.884 QT
229.831 -23.009 230.191 -21.822 QT
230.55 -20.634 230.55 -19.213 QT
230.55 -18.791 230.222 -18.791 QT
220.956 -18.791 L
220.956 -18.447 L
220.956 -15.791 222.027 -13.884 QT
223.097 -11.978 225.519 -11.978 QT
226.503 -11.978 227.339 -12.416 QT
228.175 -12.853 228.792 -13.634 QT
229.41 -14.416 229.628 -15.306 QT
229.66 -15.416 229.746 -15.502 QT
229.831 -15.588 229.941 -15.588 QT
230.222 -15.588 L
230.55 -15.588 230.55 -15.181 QT
230.097 -13.369 228.597 -12.205 QT
227.097 -11.041 225.238 -11.041 QT
cp
220.988 -19.588 M
228.285 -19.588 L
228.285 -20.791 227.949 -22.025 QT
227.613 -23.259 226.831 -24.08 QT
226.05 -24.9 224.785 -24.9 QT
222.972 -24.9 221.98 -23.205 QT
220.988 -21.509 220.988 -19.588 QT
cp
f
GR
GS
[0 -0.6 0.6 0 43.4 208.2] CT
N
232.296 -11.4 M
232.296 -12.525 L
233.39 -12.525 234.093 -12.697 QT
234.796 -12.869 234.796 -13.541 QT
234.796 -22.275 L
234.796 -23.134 234.538 -23.517 QT
234.281 -23.9 233.796 -23.986 QT
233.312 -24.072 232.296 -24.072 QT
232.296 -25.197 L
236.937 -25.541 L
236.937 -22.416 L
237.577 -23.791 238.835 -24.666 QT
240.093 -25.541 241.577 -25.541 QT
243.796 -25.541 244.913 -24.478 QT
246.031 -23.416 246.031 -21.228 QT
246.031 -13.541 L
246.031 -12.869 246.734 -12.697 QT
247.437 -12.525 248.531 -12.525 QT
248.531 -11.4 L
241.202 -11.4 L
241.202 -12.525 L
242.296 -12.525 242.999 -12.697 QT
243.702 -12.869 243.702 -13.541 QT
243.702 -21.134 L
243.702 -22.697 243.249 -23.705 QT
242.796 -24.713 241.39 -24.713 QT
239.531 -24.713 238.335 -23.228 QT
237.14 -21.744 237.14 -19.853 QT
237.14 -13.541 L
237.14 -12.869 237.843 -12.697 QT
238.546 -12.525 239.624 -12.525 QT
239.624 -11.4 L
232.296 -11.4 L
cp
f
GR
GS
[0 -0.6 0.6 0 43.4 208.2] CT
N
251.322 -15.244 M
251.322 -24.072 L
248.665 -24.072 L
248.665 -24.9 L
250.759 -24.9 251.744 -26.853 QT
252.728 -28.806 252.728 -31.088 QT
253.65 -31.088 L
253.65 -25.197 L
258.165 -25.197 L
258.165 -24.072 L
253.65 -24.072 L
253.65 -15.306 L
253.65 -13.978 254.095 -12.978 QT
254.54 -11.978 255.697 -11.978 QT
256.79 -11.978 257.275 -13.033 QT
257.759 -14.088 257.759 -15.306 QT
257.759 -17.197 L
258.681 -17.197 L
258.681 -15.244 L
258.681 -14.244 258.314 -13.267 QT
257.947 -12.291 257.228 -11.666 QT
256.509 -11.041 255.478 -11.041 QT
253.556 -11.041 252.439 -12.189 QT
251.322 -13.338 251.322 -15.244 QT
cp
f
GR
GS
[0.6 0 0 0.6 0 0] CT
0 0.447 0.741 RC
1 LJ
2.167 LW
N
146.696 235.873 M
150.044 376.191 L
153.392 454.211 L
156.74 502.383 L
160.088 535.242 L
163.436 558.333 L
166.784 575.102 L
170.132 587.584 L
173.48 597.03 L
176.828 604.797 L
180.176 610.966 L
183.524 615.832 L
186.872 619.671 L
190.22 622.686 L
193.568 625.03 L
196.916 626.819 L
200.264 628.146 L
203.612 629.082 L
206.96 629.687 L
210.308 630.007 L
213.656 630.08 L
247.136 622.323 L
314.096 588.005 L
347.576 567.461 L
381.056 545.9 L
414.536 523.701 L
448.016 501.087 L
481.496 478.199 L
514.976 455.128 L
548.456 431.936 L
581.936 408.662 L
615.416 385.333 L
648.896 361.967 L
682.376 338.577 L
715.856 315.171 L
749.336 291.753 L
782.816 268.328 L
816.296 244.898 L
849.776 221.465 L
883.256 198.03 L
916.736 174.592 L
950.216 151.154 L
S
GR
GS
[0.6 0 0 0.6 88.0176 141.52408] CT
0 0.447 0.741 RC
10.0 ML
2.167 LW
N
5 0 M
5 -2.761 2.761 -5 0 -5 C
-2.761 -5 -5 -2.761 -5 0 C
-5 2.761 -2.761 5 0 5 C
2.761 5 5 2.761 5 0 C
cp
S
GR
GS
[0.6 0 0 0.6 90.0264 225.71442] CT
0 0.447 0.741 RC
10.0 ML
2.167 LW
N
5 0 M
5 -2.761 2.761 -5 0 -5 C
-2.761 -5 -5 -2.761 -5 0 C
-5 2.761 -2.761 5 0 5 C
2.761 5 5 2.761 5 0 C
cp
S
GR
GS
[0.6 0 0 0.6 92.0352 272.52665] CT
0 0.447 0.741 RC
10.0 ML
2.167 LW
N
5 0 M
5 -2.761 2.761 -5 0 -5 C
-2.761 -5 -5 -2.761 -5 0 C
-5 2.761 -2.761 5 0 5 C
2.761 5 5 2.761 5 0 C
cp
S
GR
GS
[0.6 0 0 0.6 94.044 301.42996] CT
0 0.447 0.741 RC
10.0 ML
2.167 LW
N
5 0 M
5 -2.761 2.761 -5 0 -5 C
-2.761 -5 -5 -2.761 -5 0 C
-5 2.761 -2.761 5 0 5 C
2.761 5 5 2.761 5 0 C
cp
S
GR
GS
[0.6 0 0 0.6 96.0528 321.14498] CT
0 0.447 0.741 RC
10.0 ML
2.167 LW
N
5 0 M
5 -2.761 2.761 -5 0 -5 C
-2.761 -5 -5 -2.761 -5 0 C
-5 2.761 -2.761 5 0 5 C
2.761 5 5 2.761 5 0 C
cp
S
GR
GS
[0.6 0 0 0.6 98.0616 334.99951] CT
0 0.447 0.741 RC
10.0 ML
2.167 LW
N
5 0 M
5 -2.761 2.761 -5 0 -5 C
-2.761 -5 -5 -2.761 -5 0 C
-5 2.761 -2.761 5 0 5 C
2.761 5 5 2.761 5 0 C
cp
S
GR
GS
[0.6 0 0 0.6 100.0704 345.06134] CT
0 0.447 0.741 RC
10.0 ML
2.167 LW
N
5 0 M
5 -2.761 2.761 -5 0 -5 C
-2.761 -5 -5 -2.761 -5 0 C
-5 2.761 -2.761 5 0 5 C
2.761 5 5 2.761 5 0 C
cp
S
GR
GS
[0.6 0 0 0.6 102.0792 352.55035] CT
0 0.447 0.741 RC
10.0 ML
2.167 LW
N
5 0 M
5 -2.761 2.761 -5 0 -5 C
-2.761 -5 -5 -2.761 -5 0 C
-5 2.761 -2.761 5 0 5 C
2.761 5 5 2.761 5 0 C
cp
S
GR
GS
[0.6 0 0 0.6 104.088 358.21783] CT
0 0.447 0.741 RC
10.0 ML
2.167 LW
N
5 0 M
5 -2.761 2.761 -5 0 -5 C
-2.761 -5 -5 -2.761 -5 0 C
-5 2.761 -2.761 5 0 5 C
2.761 5 5 2.761 5 0 C
cp
S
GR
GS
[0.6 0 0 0.6 106.0968 362.87791] CT
0 0.447 0.741 RC
10.0 ML
2.167 LW
N
5 0 M
5 -2.761 2.761 -5 0 -5 C
-2.761 -5 -5 -2.761 -5 0 C
-5 2.761 -2.761 5 0 5 C
2.761 5 5 2.761 5 0 C
cp
S
GR
GS
[0.6 0 0 0.6 108.1056 366.57931] CT
0 0.447 0.741 RC
10.0 ML
2.167 LW
N
5 0 M
5 -2.761 2.761 -5 0 -5 C
-2.761 -5 -5 -2.761 -5 0 C
-5 2.761 -2.761 5 0 5 C
2.761 5 5 2.761 5 0 C
cp
S
GR
GS
[0.6 0 0 0.6 110.1144 369.49926] CT
0 0.447 0.741 RC
10.0 ML
2.167 LW
N
5 0 M
5 -2.761 2.761 -5 0 -5 C
-2.761 -5 -5 -2.761 -5 0 C
-5 2.761 -2.761 5 0 5 C
2.761 5 5 2.761 5 0 C
cp
S
GR
GS
[0.6 0 0 0.6 112.1232 371.80283] CT
0 0.447 0.741 RC
10.0 ML
2.167 LW
N
5 0 M
5 -2.761 2.761 -5 0 -5 C
-2.761 -5 -5 -2.761 -5 0 C
-5 2.761 -2.761 5 0 5 C
2.761 5 5 2.761 5 0 C
cp
S
GR
GS
[0.6 0 0 0.6 114.132 373.61166] CT
0 0.447 0.741 RC
10.0 ML
2.167 LW
N
5 0 M
5 -2.761 2.761 -5 0 -5 C
-2.761 -5 -5 -2.761 -5 0 C
-5 2.761 -2.761 5 0 5 C
2.761 5 5 2.761 5 0 C
cp
S
GR
GS
[0.6 0 0 0.6 116.1408 375.01772] CT
0 0.447 0.741 RC
10.0 ML
2.167 LW
N
5 0 M
5 -2.761 2.761 -5 0 -5 C
-2.761 -5 -5 -2.761 -5 0 C
-5 2.761 -2.761 5 0 5 C
2.761 5 5 2.761 5 0 C
cp
S
GR
GS
[0.6 0 0 0.6 118.1496 376.09142] CT
0 0.447 0.741 RC
10.0 ML
2.167 LW
N
5 0 M
5 -2.761 2.761 -5 0 -5 C
-2.761 -5 -5 -2.761 -5 0 C
-5 2.761 -2.761 5 0 5 C
2.761 5 5 2.761 5 0 C
cp
S
GR
GS
[0.6 0 0 0.6 120.1584 376.8873] CT
0 0.447 0.741 RC
10.0 ML
2.167 LW
N
5 0 M
5 -2.761 2.761 -5 0 -5 C
-2.761 -5 -5 -2.761 -5 0 C
-5 2.761 -2.761 5 0 5 C
2.761 5 5 2.761 5 0 C
cp
S
GR
GS
[0.6 0 0 0.6 122.1672 377.4494] CT
0 0.447 0.741 RC
10.0 ML
2.167 LW
N
5 0 M
5 -2.761 2.761 -5 0 -5 C
-2.761 -5 -5 -2.761 -5 0 C
-5 2.761 -2.761 5 0 5 C
2.761 5 5 2.761 5 0 C
cp
S
GR
GS
[0.6 0 0 0.6 124.176 377.81199] CT
0 0.447 0.741 RC
10.0 ML
2.167 LW
N
5 0 M
5 -2.761 2.761 -5 0 -5 C
-2.761 -5 -5 -2.761 -5 0 C
-5 2.761 -2.761 5 0 5 C
2.761 5 5 2.761 5 0 C
cp
S
GR
GS
[0.6 0 0 0.6 126.1848 378.00392] CT
0 0.447 0.741 RC
10.0 ML
2.167 LW
N
5 0 M
5 -2.761 2.761 -5 0 -5 C
-2.761 -5 -5 -2.761 -5 0 C
-5 2.761 -2.761 5 0 5 C
2.761 5 5 2.761 5 0 C
cp
S
GR
GS
[0.6 0 0 0.6 128.1936 378.04786] CT
0 0.447 0.741 RC
10.0 ML
2.167 LW
N
5 0 M
5 -2.761 2.761 -5 0 -5 C
-2.761 -5 -5 -2.761 -5 0 C
-5 2.761 -2.761 5 0 5 C
2.761 5 5 2.761 5 0 C
cp
S
GR
GS
[0.6 0 0 0.6 148.2816 373.39398] CT
0 0.447 0.741 RC
10.0 ML
2.167 LW
N
5 0 M
5 -2.761 2.761 -5 0 -5 C
-2.761 -5 -5 -2.761 -5 0 C
-5 2.761 -2.761 5 0 5 C
2.761 5 5 2.761 5 0 C
cp
S
GR
GS
[0.6 0 0 0.6 188.4576 352.80271] CT
0 0.447 0.741 RC
10.0 ML
2.167 LW
N
5 0 M
5 -2.761 2.761 -5 0 -5 C
-2.761 -5 -5 -2.761 -5 0 C
-5 2.761 -2.761 5 0 5 C
2.761 5 5 2.761 5 0 C
cp
S
GR
GS
[0.6 0 0 0.6 208.54559 340.47645] CT
0 0.447 0.741 RC
10.0 ML
2.167 LW
N
5 0 M
5 -2.761 2.761 -5 0 -5 C
-2.761 -5 -5 -2.761 -5 0 C
-5 2.761 -2.761 5 0 5 C
2.761 5 5 2.761 5 0 C
cp
S
GR
GS
[0.6 0 0 0.6 228.6336 327.54005] CT
0 0.447 0.741 RC
10.0 ML
2.167 LW
N
5 0 M
5 -2.761 2.761 -5 0 -5 C
-2.761 -5 -5 -2.761 -5 0 C
-5 2.761 -2.761 5 0 5 C
2.761 5 5 2.761 5 0 C
cp
S
GR
GS
[0.6 0 0 0.6 248.72161 314.22078] CT
0 0.447 0.741 RC
10.0 ML
2.167 LW
N
5 0 M
5 -2.761 2.761 -5 0 -5 C
-2.761 -5 -5 -2.761 -5 0 C
-5 2.761 -2.761 5 0 5 C
2.761 5 5 2.761 5 0 C
cp
S
GR
GS
[0.6 0 0 0.6 268.80959 300.65226] CT
0 0.447 0.741 RC
10.0 ML
2.167 LW
N
5 0 M
5 -2.761 2.761 -5 0 -5 C
-2.761 -5 -5 -2.761 -5 0 C
-5 2.761 -2.761 5 0 5 C
2.761 5 5 2.761 5 0 C
cp
S
GR
GS
[0.6 0 0 0.6 288.8976 286.91926] CT
0 0.447 0.741 RC
10.0 ML
2.167 LW
N
5 0 M
5 -2.761 2.761 -5 0 -5 C
-2.761 -5 -5 -2.761 -5 0 C
-5 2.761 -2.761 5 0 5 C
2.761 5 5 2.761 5 0 C
cp
S
GR
GS
[0.6 0 0 0.6 308.98561 273.07707] CT
0 0.447 0.741 RC
10.0 ML
2.167 LW
N
5 0 M
5 -2.761 2.761 -5 0 -5 C
-2.761 -5 -5 -2.761 -5 0 C
-5 2.761 -2.761 5 0 5 C
2.761 5 5 2.761 5 0 C
cp
S
GR
GS
[0.6 0 0 0.6 329.0736 259.1614] CT
0 0.447 0.741 RC
10.0 ML
2.167 LW
N
5 0 M
5 -2.761 2.761 -5 0 -5 C
-2.761 -5 -5 -2.761 -5 0 C
-5 2.761 -2.761 5 0 5 C
2.761 5 5 2.761 5 0 C
cp
S
GR
GS
[0.6 0 0 0.6 349.16158 245.19697] CT
0 0.447 0.741 RC
10.0 ML
2.167 LW
N
5 0 M
5 -2.761 2.761 -5 0 -5 C
-2.761 -5 -5 -2.761 -5 0 C
-5 2.761 -2.761 5 0 5 C
2.761 5 5 2.761 5 0 C
cp
S
GR
GS
[0.6 0 0 0.6 369.24961 231.19958] CT
0 0.447 0.741 RC
10.0 ML
2.167 LW
N
5 0 M
5 -2.761 2.761 -5 0 -5 C
-2.761 -5 -5 -2.761 -5 0 C
-5 2.761 -2.761 5 0 5 C
2.761 5 5 2.761 5 0 C
cp
S
GR
GS
[0.6 0 0 0.6 389.3376 217.18022] CT
0 0.447 0.741 RC
10.0 ML
2.167 LW
N
5 0 M
5 -2.761 2.761 -5 0 -5 C
-2.761 -5 -5 -2.761 -5 0 C
-5 2.761 -2.761 5 0 5 C
2.761 5 5 2.761 5 0 C
cp
S
GR
GS
[0.6 0 0 0.6 409.42559 203.14609] CT
0 0.447 0.741 RC
10.0 ML
2.167 LW
N
5 0 M
5 -2.761 2.761 -5 0 -5 C
-2.761 -5 -5 -2.761 -5 0 C
-5 2.761 -2.761 5 0 5 C
2.761 5 5 2.761 5 0 C
cp
S
GR
GS
[0.6 0 0 0.6 429.51361 189.10236] CT
0 0.447 0.741 RC
10.0 ML
2.167 LW
N
5 0 M
5 -2.761 2.761 -5 0 -5 C
-2.761 -5 -5 -2.761 -5 0 C
-5 2.761 -2.761 5 0 5 C
2.761 5 5 2.761 5 0 C
cp
S
GR
GS
[0.6 0 0 0.6 449.6016 175.05174] CT
0 0.447 0.741 RC
10.0 ML
2.167 LW
N
5 0 M
5 -2.761 2.761 -5 0 -5 C
-2.761 -5 -5 -2.761 -5 0 C
-5 2.761 -2.761 5 0 5 C
2.761 5 5 2.761 5 0 C
cp
S
GR
GS
[0.6 0 0 0.6 469.68959 160.99667] CT
0 0.447 0.741 RC
10.0 ML
2.167 LW
N
5 0 M
5 -2.761 2.761 -5 0 -5 C
-2.761 -5 -5 -2.761 -5 0 C
-5 2.761 -2.761 5 0 5 C
2.761 5 5 2.761 5 0 C
cp
S
GR
GS
[0.6 0 0 0.6 489.77761 146.93885] CT
0 0.447 0.741 RC
10.0 ML
2.167 LW
N
5 0 M
5 -2.761 2.761 -5 0 -5 C
-2.761 -5 -5 -2.761 -5 0 C
-5 2.761 -2.761 5 0 5 C
2.761 5 5 2.761 5 0 C
cp
S
GR
GS
[0.6 0 0 0.6 509.8656 132.87897] CT
0 0.447 0.741 RC
10.0 ML
2.167 LW
N
5 0 M
5 -2.761 2.761 -5 0 -5 C
-2.761 -5 -5 -2.761 -5 0 C
-5 2.761 -2.761 5 0 5 C
2.761 5 5 2.761 5 0 C
cp
S
GR
GS
[0.6 0 0 0.6 529.95359 118.81772] CT
0 0.447 0.741 RC
10.0 ML
2.167 LW
N
5 0 M
5 -2.761 2.761 -5 0 -5 C
-2.761 -5 -5 -2.761 -5 0 C
-5 2.761 -2.761 5 0 5 C
2.761 5 5 2.761 5 0 C
cp
S
GR
GS
[0.6 0 0 0.6 550.04161 104.75544] CT
0 0.447 0.741 RC
10.0 ML
2.167 LW
N
5 0 M
5 -2.761 2.761 -5 0 -5 C
-2.761 -5 -5 -2.761 -5 0 C
-5 2.761 -2.761 5 0 5 C
2.761 5 5 2.761 5 0 C
cp
S
GR
GS
[0.6 0 0 0.6 570.1296 90.69247] CT
0 0.447 0.741 RC
10.0 ML
2.167 LW
N
5 0 M
5 -2.761 2.761 -5 0 -5 C
-2.761 -5 -5 -2.761 -5 0 C
-5 2.761 -2.761 5 0 5 C
2.761 5 5 2.761 5 0 C
cp
S
GR
%%Trailer
%%Pages: 1
%%EOF
