%!PS-Adobe-3.0 EPSF-3.0
%%Creator: (MATLAB, The Mathworks, Inc. Version 9.6.0.1472908 \(R2019a\) Update 9. Operating System: Windows 10)
%%Title: (C:/Users/A/OneDrive - ETHZ/Research_MasterThesis/AllCodeFiles/Figure/ObjFunctionVsBetaValuesCDFfunction.eps)
%%CreationDate: 2022-11-15T18:15:38
%%Pages: (atend)
%%BoundingBox:    23     6   601   406
%%LanguageLevel: 3
%%EndComments
%%BeginProlog
%%BeginResource: procset (Apache XML Graphics Std ProcSet) 1.2 0
%%Version: 1.2 0
%%Copyright: (Copyright 2001-2003,2010 The Apache Software Foundation. License terms: http://www.apache.org/licenses/LICENSE-2.0)
/bd{bind def}bind def
/ld{load def}bd
/GR/grestore ld
/GS/gsave ld
/RM/rmoveto ld
/C/curveto ld
/t/show ld
/L/lineto ld
/ML/setmiterlimit ld
/CT/concat ld
/f/fill ld
/N/newpath ld
/S/stroke ld
/CC/setcmykcolor ld
/A/ashow ld
/cp/closepath ld
/RC/setrgbcolor ld
/LJ/setlinejoin ld
/GC/setgray ld
/LW/setlinewidth ld
/M/moveto ld
/re {4 2 roll M
1 index 0 rlineto
0 exch rlineto
neg 0 rlineto
cp } bd
/_ctm matrix def
/_tm matrix def
/BT { _ctm currentmatrix pop matrix _tm copy pop 0 0 moveto } bd
/ET { _ctm setmatrix } bd
/iTm { _ctm setmatrix _tm concat } bd
/Tm { _tm astore pop iTm 0 0 moveto } bd
/ux 0.0 def
/uy 0.0 def
/F {
  /Tp exch def
  /Tf exch def
  Tf findfont Tp scalefont setfont
  /cf Tf def  /cs Tp def
} bd
/ULS {currentpoint /uy exch def /ux exch def} bd
/ULE {
  /Tcx currentpoint pop def
  gsave
  newpath
  cf findfont cs scalefont dup
  /FontMatrix get 0 get /Ts exch def /FontInfo get dup
  /UnderlinePosition get Ts mul /To exch def
  /UnderlineThickness get Ts mul /Tt exch def
  ux uy To add moveto  Tcx uy To add lineto
  Tt setlinewidth stroke
  grestore
} bd
/OLE {
  /Tcx currentpoint pop def
  gsave
  newpath
  cf findfont cs scalefont dup
  /FontMatrix get 0 get /Ts exch def /FontInfo get dup
  /UnderlinePosition get Ts mul /To exch def
  /UnderlineThickness get Ts mul /Tt exch def
  ux uy To add cs add moveto Tcx uy To add cs add lineto
  Tt setlinewidth stroke
  grestore
} bd
/SOE {
  /Tcx currentpoint pop def
  gsave
  newpath
  cf findfont cs scalefont dup
  /FontMatrix get 0 get /Ts exch def /FontInfo get dup
  /UnderlinePosition get Ts mul /To exch def
  /UnderlineThickness get Ts mul /Tt exch def
  ux uy To add cs 10 mul 26 idiv add moveto Tcx uy To add cs 10 mul 26 idiv add lineto
  Tt setlinewidth stroke
  grestore
} bd
/QT {
/Y22 exch store
/X22 exch store
/Y21 exch store
/X21 exch store
currentpoint
/Y21 load 2 mul add 3 div exch
/X21 load 2 mul add 3 div exch
/X21 load 2 mul /X22 load add 3 div
/Y21 load 2 mul /Y22 load add 3 div
/X22 load /Y22 load curveto
} bd
/SSPD {
dup length /d exch dict def
{
/v exch def
/k exch def
currentpagedevice k known {
/cpdv currentpagedevice k get def
v cpdv ne {
/upd false def
/nullv v type /nulltype eq def
/nullcpdv cpdv type /nulltype eq def
nullv nullcpdv or
{
/upd true def
} {
/sametype v type cpdv type eq def
sametype {
v type /arraytype eq {
/vlen v length def
/cpdvlen cpdv length def
vlen cpdvlen eq {
0 1 vlen 1 sub {
/i exch def
/obj v i get def
/cpdobj cpdv i get def
obj cpdobj ne {
/upd true def
exit
} if
} for
} {
/upd true def
} ifelse
} {
v type /dicttype eq {
v {
/dv exch def
/dk exch def
/cpddv cpdv dk get def
dv cpddv ne {
/upd true def
exit
} if
} forall
} {
/upd true def
} ifelse
} ifelse
} if
} ifelse
upd true eq {
d k v put
} if
} if
} if
} forall
d length 0 gt {
d setpagedevice
} if
} bd
/RE { % /NewFontName [NewEncodingArray] /FontName RE -
  findfont dup length dict begin
  {
    1 index /FID ne
    {def} {pop pop} ifelse
  } forall
  /Encoding exch def
  /FontName 1 index def
  currentdict definefont pop
  end
} bind def
%%EndResource
%%BeginResource: procset (Apache XML Graphics EPS ProcSet) 1.0 0
%%Version: 1.0 0
%%Copyright: (Copyright 2002-2003 The Apache Software Foundation. License terms: http://www.apache.org/licenses/LICENSE-2.0)
/BeginEPSF { %def
/b4_Inc_state save def         % Save state for cleanup
/dict_count countdictstack def % Count objects on dict stack
/op_count count 1 sub def      % Count objects on operand stack
userdict begin                 % Push userdict on dict stack
/showpage { } def              % Redefine showpage, { } = null proc
0 setgray 0 setlinecap         % Prepare graphics state
1 setlinewidth 0 setlinejoin
10 setmiterlimit [ ] 0 setdash newpath
/languagelevel where           % If level not equal to 1 then
{pop languagelevel             % set strokeadjust and
1 ne                           % overprint to their defaults.
{false setstrokeadjust false setoverprint
} if
} if
} bd
/EndEPSF { %def
count op_count sub {pop} repeat            % Clean up stacks
countdictstack dict_count sub {end} repeat
b4_Inc_state restore
} bd
%%EndResource
%FOPBeginFontDict
%%IncludeResource: font Courier-Oblique
%%IncludeResource: font Courier-BoldOblique
%%IncludeResource: font Courier-Bold
%%IncludeResource: font ZapfDingbats
%%IncludeResource: font Symbol
%%IncludeResource: font Helvetica
%%IncludeResource: font Helvetica-Oblique
%%IncludeResource: font Helvetica-Bold
%%IncludeResource: font Helvetica-BoldOblique
%%IncludeResource: font Times-Roman
%%IncludeResource: font Times-Italic
%%IncludeResource: font Times-Bold
%%IncludeResource: font Times-BoldItalic
%%IncludeResource: font Courier
%FOPEndFontDict
%%BeginResource: encoding WinAnsiEncoding
/WinAnsiEncoding [
/.notdef /.notdef /.notdef /.notdef /.notdef
/.notdef /.notdef /.notdef /.notdef /.notdef
/.notdef /.notdef /.notdef /.notdef /.notdef
/.notdef /.notdef /.notdef /.notdef /.notdef
/.notdef /.notdef /.notdef /.notdef /.notdef
/.notdef /.notdef /.notdef /.notdef /.notdef
/.notdef /.notdef /space /exclam /quotedbl
/numbersign /dollar /percent /ampersand /quotesingle
/parenleft /parenright /asterisk /plus /comma
/hyphen /period /slash /zero /one
/two /three /four /five /six
/seven /eight /nine /colon /semicolon
/less /equal /greater /question /at
/A /B /C /D /E
/F /G /H /I /J
/K /L /M /N /O
/P /Q /R /S /T
/U /V /W /X /Y
/Z /bracketleft /backslash /bracketright /asciicircum
/underscore /quoteleft /a /b /c
/d /e /f /g /h
/i /j /k /l /m
/n /o /p /q /r
/s /t /u /v /w
/x /y /z /braceleft /bar
/braceright /asciitilde /bullet /Euro /bullet
/quotesinglbase /florin /quotedblbase /ellipsis /dagger
/daggerdbl /circumflex /perthousand /Scaron /guilsinglleft
/OE /bullet /Zcaron /bullet /bullet
/quoteleft /quoteright /quotedblleft /quotedblright /bullet
/endash /emdash /asciitilde /trademark /scaron
/guilsinglright /oe /bullet /zcaron /Ydieresis
/space /exclamdown /cent /sterling /currency
/yen /brokenbar /section /dieresis /copyright
/ordfeminine /guillemotleft /logicalnot /sfthyphen /registered
/macron /degree /plusminus /twosuperior /threesuperior
/acute /mu /paragraph /middot /cedilla
/onesuperior /ordmasculine /guillemotright /onequarter /onehalf
/threequarters /questiondown /Agrave /Aacute /Acircumflex
/Atilde /Adieresis /Aring /AE /Ccedilla
/Egrave /Eacute /Ecircumflex /Edieresis /Igrave
/Iacute /Icircumflex /Idieresis /Eth /Ntilde
/Ograve /Oacute /Ocircumflex /Otilde /Odieresis
/multiply /Oslash /Ugrave /Uacute /Ucircumflex
/Udieresis /Yacute /Thorn /germandbls /agrave
/aacute /acircumflex /atilde /adieresis /aring
/ae /ccedilla /egrave /eacute /ecircumflex
/edieresis /igrave /iacute /icircumflex /idieresis
/eth /ntilde /ograve /oacute /ocircumflex
/otilde /odieresis /divide /oslash /ugrave
/uacute /ucircumflex /udieresis /yacute /thorn
/ydieresis
] def
%%EndResource
%FOPBeginFontReencode
/Courier-Oblique findfont
dup length dict begin
  {1 index /FID ne {def} {pop pop} ifelse} forall
  /Encoding WinAnsiEncoding def
  currentdict
end
/Courier-Oblique exch definefont pop
/Courier-BoldOblique findfont
dup length dict begin
  {1 index /FID ne {def} {pop pop} ifelse} forall
  /Encoding WinAnsiEncoding def
  currentdict
end
/Courier-BoldOblique exch definefont pop
/Courier-Bold findfont
dup length dict begin
  {1 index /FID ne {def} {pop pop} ifelse} forall
  /Encoding WinAnsiEncoding def
  currentdict
end
/Courier-Bold exch definefont pop
/Helvetica findfont
dup length dict begin
  {1 index /FID ne {def} {pop pop} ifelse} forall
  /Encoding WinAnsiEncoding def
  currentdict
end
/Helvetica exch definefont pop
/Helvetica-Oblique findfont
dup length dict begin
  {1 index /FID ne {def} {pop pop} ifelse} forall
  /Encoding WinAnsiEncoding def
  currentdict
end
/Helvetica-Oblique exch definefont pop
/Helvetica-Bold findfont
dup length dict begin
  {1 index /FID ne {def} {pop pop} ifelse} forall
  /Encoding WinAnsiEncoding def
  currentdict
end
/Helvetica-Bold exch definefont pop
/Helvetica-BoldOblique findfont
dup length dict begin
  {1 index /FID ne {def} {pop pop} ifelse} forall
  /Encoding WinAnsiEncoding def
  currentdict
end
/Helvetica-BoldOblique exch definefont pop
/Times-Roman findfont
dup length dict begin
  {1 index /FID ne {def} {pop pop} ifelse} forall
  /Encoding WinAnsiEncoding def
  currentdict
end
/Times-Roman exch definefont pop
/Times-Italic findfont
dup length dict begin
  {1 index /FID ne {def} {pop pop} ifelse} forall
  /Encoding WinAnsiEncoding def
  currentdict
end
/Times-Italic exch definefont pop
/Times-Bold findfont
dup length dict begin
  {1 index /FID ne {def} {pop pop} ifelse} forall
  /Encoding WinAnsiEncoding def
  currentdict
end
/Times-Bold exch definefont pop
/Times-BoldItalic findfont
dup length dict begin
  {1 index /FID ne {def} {pop pop} ifelse} forall
  /Encoding WinAnsiEncoding def
  currentdict
end
/Times-BoldItalic exch definefont pop
/Courier findfont
dup length dict begin
  {1 index /FID ne {def} {pop pop} ifelse} forall
  /Encoding WinAnsiEncoding def
  currentdict
end
/Courier exch definefont pop
%FOPEndFontReencode
%%EndProlog
%%Page: 1 1
%%PageBoundingBox: 0 0 648 432
%%BeginPageSetup
[1 0 0 -1 0 432] CT
%%EndPageSetup
GS
[0.6 0 0 0.6 0 0] CT
1 GC
N
0 0 1080 720 re
f
GR
GS
[0.6 0 0 0.6 0 0] CT
1 GC
N
0 0 1080 720 re
f
GR
GS
[0.6 0 0 0.6 0 0] CT
1 GC
N
140 640 M
977 640 L
977 54 L
140 54 L
cp
f
GR
GS
[0.6 0 0 0.6 0 0] CT
0.873 GC
1 LJ
0.833 LW
N
140 640 M
140 54 L
S
GR
GS
[0.6 0 0 0.6 0 0] CT
0.873 GC
1 LJ
0.833 LW
N
307.4 640 M
307.4 54 L
S
GR
GS
[0.6 0 0 0.6 0 0] CT
0.873 GC
1 LJ
0.833 LW
N
474.8 640 M
474.8 54 L
S
GR
GS
[0.6 0 0 0.6 0 0] CT
0.873 GC
1 LJ
0.833 LW
N
642.2 640 M
642.2 54 L
S
GR
GS
[0.6 0 0 0.6 0 0] CT
0.873 GC
1 LJ
0.833 LW
N
809.6 640 M
809.6 54 L
S
GR
GS
[0.6 0 0 0.6 0 0] CT
0.873 GC
1 LJ
0.833 LW
N
977 640 M
977 54 L
S
GR
GS
[0.6 0 0 0.6 0 0] CT
0.851 GC
1 LJ
0.833 LW
N
977 640 M
140 640 L
S
GR
GS
[0.6 0 0 0.6 0 0] CT
0.851 GC
1 LJ
0.833 LW
N
977 566.75 M
140 566.75 L
S
GR
GS
[0.6 0 0 0.6 0 0] CT
0.851 GC
1 LJ
0.833 LW
N
977 493.5 M
140 493.5 L
S
GR
GS
[0.6 0 0 0.6 0 0] CT
0.851 GC
1 LJ
0.833 LW
N
977 420.25 M
140 420.25 L
S
GR
GS
[0.6 0 0 0.6 0 0] CT
0.851 GC
1 LJ
0.833 LW
N
977 347 M
140 347 L
S
GR
GS
[0.6 0 0 0.6 0 0] CT
0.851 GC
1 LJ
0.833 LW
N
977 273.75 M
140 273.75 L
S
GR
GS
[0.6 0 0 0.6 0 0] CT
0.851 GC
1 LJ
0.833 LW
N
977 200.5 M
140 200.5 L
S
GR
GS
[0.6 0 0 0.6 0 0] CT
0.851 GC
1 LJ
0.833 LW
N
977 127.25 M
140 127.25 L
S
GR
GS
[0.6 0 0 0.6 0 0] CT
0.851 GC
1 LJ
0.833 LW
N
977 54 M
140 54 L
S
GR
GS
[0.6 0 0 0.6 0 0] CT
0.149 GC
2 setlinecap
1 LJ
0.833 LW
N
140 640 M
977 640 L
S
GR
GS
[0.6 0 0 0.6 0 0] CT
0.149 GC
2 setlinecap
1 LJ
0.833 LW
N
140 54 M
977 54 L
S
GR
GS
[0.6 0 0 0.6 0 0] CT
0.149 GC
2 setlinecap
1 LJ
0.833 LW
N
140 640 M
140 631.63 L
S
GR
GS
[0.6 0 0 0.6 0 0] CT
0.149 GC
2 setlinecap
1 LJ
0.833 LW
N
307.4 640 M
307.4 631.63 L
S
GR
GS
[0.6 0 0 0.6 0 0] CT
0.149 GC
2 setlinecap
1 LJ
0.833 LW
N
474.8 640 M
474.8 631.63 L
S
GR
GS
[0.6 0 0 0.6 0 0] CT
0.149 GC
2 setlinecap
1 LJ
0.833 LW
N
642.2 640 M
642.2 631.63 L
S
GR
GS
[0.6 0 0 0.6 0 0] CT
0.149 GC
2 setlinecap
1 LJ
0.833 LW
N
809.6 640 M
809.6 631.63 L
S
GR
GS
[0.6 0 0 0.6 0 0] CT
0.149 GC
2 setlinecap
1 LJ
0.833 LW
N
977 640 M
977 631.63 L
S
GR
GS
[0.6 0 0 0.6 0 0] CT
0.149 GC
2 setlinecap
1 LJ
0.833 LW
N
140 54 M
140 62.37 L
S
GR
GS
[0.6 0 0 0.6 0 0] CT
0.149 GC
2 setlinecap
1 LJ
0.833 LW
N
307.4 54 M
307.4 62.37 L
S
GR
GS
[0.6 0 0 0.6 0 0] CT
0.149 GC
2 setlinecap
1 LJ
0.833 LW
N
474.8 54 M
474.8 62.37 L
S
GR
GS
[0.6 0 0 0.6 0 0] CT
0.149 GC
2 setlinecap
1 LJ
0.833 LW
N
642.2 54 M
642.2 62.37 L
S
GR
GS
[0.6 0 0 0.6 0 0] CT
0.149 GC
2 setlinecap
1 LJ
0.833 LW
N
809.6 54 M
809.6 62.37 L
S
GR
GS
[0.6 0 0 0.6 0 0] CT
0.149 GC
2 setlinecap
1 LJ
0.833 LW
N
977 54 M
977 62.37 L
S
GR
GS
[0.6 0 0 0.6 84 389.19998] CT
0.149 GC
/Times-Roman 26.667 F
GS
[1 0 0 1 0 0] CT
-7 25 moveto 
1 -1 scale
(0) t 
GR
GR
GS
[0.6 0 0 0.6 184.44 389.19998] CT
0.149 GC
/Times-Roman 26.667 F
GS
[1 0 0 1 0 0] CT
-13.5 25 moveto 
1 -1 scale
(20) t 
GR
GR
GS
[0.6 0 0 0.6 284.87999 389.19998] CT
0.149 GC
/Times-Roman 26.667 F
GS
[1 0 0 1 0 0] CT
-13.5 25 moveto 
1 -1 scale
(40) t 
GR
GR
GS
[0.6 0 0 0.6 385.32001 389.19998] CT
0.149 GC
/Times-Roman 26.667 F
GS
[1 0 0 1 0 0] CT
-13.5 25 moveto 
1 -1 scale
(60) t 
GR
GR
GS
[0.6 0 0 0.6 485.75999 389.19998] CT
0.149 GC
/Times-Roman 26.667 F
GS
[1 0 0 1 0 0] CT
-13.5 25 moveto 
1 -1 scale
(80) t 
GR
GR
GS
[0.6 0 0 0.6 586.2 389.19998] CT
0.149 GC
/Times-Roman 26.667 F
GS
[1 0 0 1 0 0] CT
-20 25 moveto 
1 -1 scale
(100) t 
GR
GR
GS
[0.6 0 0 0.6 335.10022 409.40002] CT
0.149 GC
N
-77.246 26.6 M
-77.246 7.662 L
-77.246 6.803 -77.504 6.42 QT
-77.762 6.037 -78.246 5.951 QT
-78.73 5.866 -79.746 5.866 QT
-79.746 4.741 L
-75.012 4.397 L
-75.012 14.412 L
-74.48 13.819 -73.77 13.373 QT
-73.059 12.928 -72.246 12.694 QT
-71.434 12.459 -70.59 12.459 QT
-69.152 12.459 -67.926 13.037 QT
-66.699 13.616 -65.793 14.631 QT
-64.887 15.647 -64.379 16.967 QT
-63.871 18.287 -63.871 19.694 QT
-63.871 21.631 -64.816 23.303 QT
-65.762 24.975 -67.395 25.967 QT
-69.027 26.959 -70.98 26.959 QT
-72.199 26.959 -73.34 26.334 QT
-74.48 25.709 -75.23 24.678 QT
-76.324 26.6 L
-77.246 26.6 L
cp
-74.918 23.459 M
-74.387 24.631 -73.387 25.373 QT
-72.387 26.116 -71.168 26.116 QT
-69.512 26.116 -68.488 25.162 QT
-67.465 24.209 -67.059 22.756 QT
-66.652 21.303 -66.652 19.694 QT
-66.652 16.991 -67.355 15.584 QT
-67.668 14.959 -68.207 14.428 QT
-68.746 13.897 -69.41 13.592 QT
-70.074 13.287 -70.809 13.287 QT
-72.09 13.287 -73.184 13.967 QT
-74.277 14.647 -74.918 15.787 QT
-74.918 23.459 L
cp
f
GR
GS
[0.6 0 0 0.6 335.10022 409.40002] CT
0.149 GC
N
-54.133 26.959 M
-56.086 26.959 -57.719 25.936 QT
-59.352 24.912 -60.282 23.201 QT
-61.211 21.491 -61.211 19.584 QT
-61.211 17.709 -60.36 16.022 QT
-59.508 14.334 -57.985 13.295 QT
-56.461 12.256 -54.586 12.256 QT
-53.118 12.256 -52.032 12.748 QT
-50.946 13.241 -50.243 14.116 QT
-49.539 14.991 -49.18 16.178 QT
-48.821 17.366 -48.821 18.787 QT
-48.821 19.209 -49.149 19.209 QT
-58.414 19.209 L
-58.414 19.553 L
-58.414 22.209 -57.344 24.116 QT
-56.274 26.022 -53.852 26.022 QT
-52.868 26.022 -52.032 25.584 QT
-51.196 25.147 -50.578 24.366 QT
-49.961 23.584 -49.743 22.694 QT
-49.711 22.584 -49.625 22.498 QT
-49.539 22.412 -49.43 22.412 QT
-49.149 22.412 L
-48.821 22.412 -48.821 22.819 QT
-49.274 24.631 -50.774 25.795 QT
-52.274 26.959 -54.133 26.959 QT
cp
-58.383 18.412 M
-51.086 18.412 L
-51.086 17.209 -51.422 15.975 QT
-51.758 14.741 -52.539 13.92 QT
-53.321 13.1 -54.586 13.1 QT
-56.399 13.1 -57.391 14.795 QT
-58.383 16.491 -58.383 18.412 QT
cp
f
GR
GS
[0.6 0 0 0.6 335.10022 409.40002] CT
0.149 GC
N
-44.762 22.756 M
-44.762 13.928 L
-47.418 13.928 L
-47.418 13.1 L
-45.325 13.1 -44.34 11.147 QT
-43.356 9.194 -43.356 6.912 QT
-42.434 6.912 L
-42.434 12.803 L
-37.918 12.803 L
-37.918 13.928 L
-42.434 13.928 L
-42.434 22.694 L
-42.434 24.022 -41.989 25.022 QT
-41.543 26.022 -40.387 26.022 QT
-39.293 26.022 -38.809 24.967 QT
-38.325 23.912 -38.325 22.694 QT
-38.325 20.803 L
-37.403 20.803 L
-37.403 22.756 L
-37.403 23.756 -37.77 24.733 QT
-38.137 25.709 -38.856 26.334 QT
-39.575 26.959 -40.606 26.959 QT
-42.528 26.959 -43.645 25.811 QT
-44.762 24.662 -44.762 22.756 QT
cp
f
GR
GS
[0.6 0 0 0.6 335.10022 409.40002] CT
0.149 GC
N
-34.432 23.459 M
-34.432 21.553 -32.932 20.358 QT
-31.432 19.162 -29.33 18.67 QT
-27.229 18.178 -25.338 18.178 QT
-25.338 16.866 L
-25.338 15.944 -25.744 15.076 QT
-26.15 14.209 -26.916 13.655 QT
-27.682 13.1 -28.604 13.1 QT
-30.729 13.1 -31.838 14.053 QT
-31.229 14.053 -30.83 14.514 QT
-30.432 14.975 -30.432 15.584 QT
-30.432 16.225 -30.885 16.678 QT
-31.338 17.131 -31.963 17.131 QT
-32.604 17.131 -33.057 16.678 QT
-33.51 16.225 -33.51 15.584 QT
-33.51 13.897 -31.979 13.076 QT
-30.447 12.256 -28.604 12.256 QT
-27.307 12.256 -25.994 12.811 QT
-24.682 13.366 -23.846 14.397 QT
-23.01 15.428 -23.01 16.803 QT
-23.01 24.006 L
-23.01 24.631 -22.744 25.155 QT
-22.479 25.678 -21.916 25.678 QT
-21.385 25.678 -21.127 25.147 QT
-20.869 24.616 -20.869 24.006 QT
-20.869 21.959 L
-19.932 21.959 L
-19.932 24.006 L
-19.932 24.725 -20.307 25.373 QT
-20.682 26.022 -21.315 26.405 QT
-21.947 26.787 -22.682 26.787 QT
-23.619 26.787 -24.299 26.061 QT
-24.979 25.334 -25.057 24.334 QT
-25.65 25.537 -26.807 26.248 QT
-27.963 26.959 -29.275 26.959 QT
-30.494 26.959 -31.674 26.6 QT
-32.854 26.241 -33.643 25.467 QT
-34.432 24.694 -34.432 23.459 QT
cp
-31.838 23.459 M
-31.838 24.584 -31.01 25.35 QT
-30.182 26.116 -29.057 26.116 QT
-28.025 26.116 -27.182 25.6 QT
-26.338 25.084 -25.838 24.194 QT
-25.338 23.303 -25.338 22.319 QT
-25.338 18.991 L
-26.791 18.991 -28.315 19.467 QT
-29.838 19.944 -30.838 20.959 QT
-31.838 21.975 -31.838 23.459 QT
cp
f
GR
GS
[0.6 0 0 0.6 335.10022 409.40002] CT
0.149 GC
N
1.942 26.959 M
-5.605 6.881 L
-5.887 6.209 -6.683 6.037 QT
-7.48 5.866 -8.715 5.866 QT
-8.715 4.741 L
0.082 4.741 L
0.082 5.866 L
-2.574 5.866 -2.574 6.694 QT
-2.558 6.741 -2.551 6.78 QT
-2.543 6.819 -2.543 6.881 QT
3.598 23.209 L
9.395 7.756 L
9.457 7.631 9.457 7.366 QT
9.457 6.584 8.738 6.225 QT
8.02 5.866 7.129 5.866 QT
7.129 4.741 L
14.035 4.741 L
14.035 5.866 L
12.832 5.866 11.918 6.311 QT
11.004 6.756 10.613 7.756 QT
3.379 26.959 L
3.285 27.303 2.863 27.303 QT
2.457 27.303 L
2.035 27.303 1.942 26.959 QT
cp
f
GR
GS
[0.6 0 0 0.6 335.10022 409.40002] CT
0.149 GC
N
13.068 23.459 M
13.068 21.553 14.568 20.358 QT
16.068 19.162 18.17 18.67 QT
20.271 18.178 22.162 18.178 QT
22.162 16.866 L
22.162 15.944 21.756 15.076 QT
21.35 14.209 20.584 13.655 QT
19.818 13.1 18.896 13.1 QT
16.771 13.1 15.662 14.053 QT
16.271 14.053 16.67 14.514 QT
17.068 14.975 17.068 15.584 QT
17.068 16.225 16.615 16.678 QT
16.162 17.131 15.537 17.131 QT
14.896 17.131 14.443 16.678 QT
13.99 16.225 13.99 15.584 QT
13.99 13.897 15.521 13.076 QT
17.053 12.256 18.896 12.256 QT
20.193 12.256 21.506 12.811 QT
22.818 13.366 23.654 14.397 QT
24.49 15.428 24.49 16.803 QT
24.49 24.006 L
24.49 24.631 24.756 25.155 QT
25.021 25.678 25.584 25.678 QT
26.115 25.678 26.373 25.147 QT
26.631 24.616 26.631 24.006 QT
26.631 21.959 L
27.568 21.959 L
27.568 24.006 L
27.568 24.725 27.193 25.373 QT
26.818 26.022 26.185 26.405 QT
25.553 26.787 24.818 26.787 QT
23.881 26.787 23.201 26.061 QT
22.521 25.334 22.443 24.334 QT
21.85 25.537 20.693 26.248 QT
19.537 26.959 18.225 26.959 QT
17.006 26.959 15.826 26.6 QT
14.646 26.241 13.857 25.467 QT
13.068 24.694 13.068 23.459 QT
cp
15.662 23.459 M
15.662 24.584 16.49 25.35 QT
17.318 26.116 18.443 26.116 QT
19.475 26.116 20.318 25.6 QT
21.162 25.084 21.662 24.194 QT
22.162 23.303 22.162 22.319 QT
22.162 18.991 L
20.709 18.991 19.185 19.467 QT
17.662 19.944 16.662 20.959 QT
15.662 21.975 15.662 23.459 QT
cp
f
GR
GS
[0.6 0 0 0.6 335.10022 409.40002] CT
0.149 GC
N
28.605 26.6 M
28.605 25.475 L
29.699 25.475 30.402 25.303 QT
31.105 25.131 31.105 24.459 QT
31.105 7.662 L
31.105 6.803 30.847 6.42 QT
30.589 6.037 30.105 5.951 QT
29.62 5.866 28.605 5.866 QT
28.605 4.741 L
33.355 4.397 L
33.355 24.459 L
33.355 25.131 34.058 25.303 QT
34.761 25.475 35.839 25.475 QT
35.839 26.6 L
28.605 26.6 L
cp
f
GR
GS
[0.6 0 0 0.6 335.10022 409.40002] CT
0.149 GC
N
39.87 22.787 M
39.87 15.725 L
39.87 14.866 39.612 14.483 QT
39.354 14.1 38.87 14.014 QT
38.386 13.928 37.37 13.928 QT
37.37 12.803 L
42.214 12.459 L
42.214 22.787 L
42.214 24.037 42.393 24.733 QT
42.573 25.428 43.159 25.772 QT
43.745 26.116 45.026 26.116 QT
46.745 26.116 47.761 24.678 QT
48.776 23.241 48.776 21.412 QT
48.776 15.725 L
48.776 14.866 48.511 14.483 QT
48.245 14.1 47.768 14.014 QT
47.292 13.928 46.276 13.928 QT
46.276 12.803 L
51.104 12.459 L
51.104 23.694 L
51.104 24.537 51.362 24.92 QT
51.62 25.303 52.104 25.389 QT
52.589 25.475 53.604 25.475 QT
53.604 26.6 L
48.87 26.959 L
48.87 24.256 L
48.276 25.459 47.214 26.209 QT
46.151 26.959 44.87 26.959 QT
42.573 26.959 41.221 25.983 QT
39.87 25.006 39.87 22.787 QT
cp
f
GR
GS
[0.6 0 0 0.6 335.10022 409.40002] CT
0.149 GC
N
61.978 26.959 M
60.025 26.959 58.392 25.936 QT
56.759 24.912 55.83 23.201 QT
54.9 21.491 54.9 19.584 QT
54.9 17.709 55.752 16.022 QT
56.603 14.334 58.127 13.295 QT
59.65 12.256 61.525 12.256 QT
62.994 12.256 64.08 12.748 QT
65.166 13.241 65.869 14.116 QT
66.572 14.991 66.931 16.178 QT
67.291 17.366 67.291 18.787 QT
67.291 19.209 66.963 19.209 QT
57.697 19.209 L
57.697 19.553 L
57.697 22.209 58.767 24.116 QT
59.838 26.022 62.259 26.022 QT
63.244 26.022 64.08 25.584 QT
64.916 25.147 65.533 24.366 QT
66.15 23.584 66.369 22.694 QT
66.4 22.584 66.486 22.498 QT
66.572 22.412 66.681 22.412 QT
66.963 22.412 L
67.291 22.412 67.291 22.819 QT
66.838 24.631 65.338 25.795 QT
63.838 26.959 61.978 26.959 QT
cp
57.728 18.412 M
65.025 18.412 L
65.025 17.209 64.689 15.975 QT
64.353 14.741 63.572 13.92 QT
62.791 13.1 61.525 13.1 QT
59.713 13.1 58.72 14.795 QT
57.728 16.491 57.728 18.412 QT
cp
f
GR
GS
[0.6 0 0 0.6 335.10022 409.40002] CT
0.149 GC
N
69.146 26.694 M
69.146 21.475 L
69.146 21.225 69.427 21.225 QT
69.818 21.225 L
70.005 21.225 70.068 21.475 QT
70.958 26.116 74.38 26.116 QT
75.896 26.116 76.919 25.428 QT
77.943 24.741 77.943 23.303 QT
77.943 22.272 77.146 21.545 QT
76.349 20.819 75.255 20.553 QT
73.115 20.131 L
72.037 19.897 71.154 19.412 QT
70.271 18.928 69.708 18.123 QT
69.146 17.319 69.146 16.256 QT
69.146 14.85 69.888 13.951 QT
70.63 13.053 71.818 12.655 QT
73.005 12.256 74.38 12.256 QT
76.021 12.256 77.24 13.131 QT
78.162 12.334 L
78.162 12.256 78.318 12.256 QT
78.552 12.256 L
78.646 12.256 78.724 12.342 QT
78.802 12.428 78.802 12.522 QT
78.802 16.709 L
78.802 17.006 78.552 17.006 QT
78.162 17.006 L
77.88 17.006 77.88 16.709 QT
77.88 15.037 76.951 14.022 QT
76.021 13.006 74.349 13.006 QT
72.912 13.006 71.857 13.537 QT
70.802 14.069 70.802 15.366 QT
70.802 16.256 71.56 16.826 QT
72.318 17.397 73.333 17.647 QT
75.505 18.053 L
76.599 18.303 77.544 18.897 QT
78.49 19.491 79.044 20.397 QT
79.599 21.303 79.599 22.444 QT
79.599 23.6 79.201 24.451 QT
78.802 25.303 78.091 25.866 QT
77.38 26.428 76.412 26.694 QT
75.443 26.959 74.38 26.959 QT
72.38 26.959 70.958 25.616 QT
69.787 26.881 L
69.787 26.959 69.615 26.959 QT
69.427 26.959 L
69.146 26.959 69.146 26.694 QT
cp
f
GR
GS
[0.6 0 0 0.6 0 0] CT
2 setlinecap
1 LJ
0.833 LW
N
140 640 M
140 54 L
S
GR
GS
[0.6 0 0 0.6 0 0] CT
2 setlinecap
1 LJ
0.833 LW
N
977 640 M
977 54 L
S
GR
GS
[0.6 0 0 0.6 0 0] CT
2 setlinecap
1 LJ
0.833 LW
N
140 640 M
148.37 640 L
S
GR
GS
[0.6 0 0 0.6 0 0] CT
2 setlinecap
1 LJ
0.833 LW
N
140 566.75 M
148.37 566.75 L
S
GR
GS
[0.6 0 0 0.6 0 0] CT
2 setlinecap
1 LJ
0.833 LW
N
140 493.5 M
148.37 493.5 L
S
GR
GS
[0.6 0 0 0.6 0 0] CT
2 setlinecap
1 LJ
0.833 LW
N
140 420.25 M
148.37 420.25 L
S
GR
GS
[0.6 0 0 0.6 0 0] CT
2 setlinecap
1 LJ
0.833 LW
N
140 347 M
148.37 347 L
S
GR
GS
[0.6 0 0 0.6 0 0] CT
2 setlinecap
1 LJ
0.833 LW
N
140 273.75 M
148.37 273.75 L
S
GR
GS
[0.6 0 0 0.6 0 0] CT
2 setlinecap
1 LJ
0.833 LW
N
140 200.5 M
148.37 200.5 L
S
GR
GS
[0.6 0 0 0.6 0 0] CT
2 setlinecap
1 LJ
0.833 LW
N
140 127.25 M
148.37 127.25 L
S
GR
GS
[0.6 0 0 0.6 0 0] CT
2 setlinecap
1 LJ
0.833 LW
N
140 54 M
148.37 54 L
S
GR
GS
[0.6 0 0 0.6 0 0] CT
2 setlinecap
1 LJ
0.833 LW
N
977 640 M
968.63 640 L
S
GR
GS
[0.6 0 0 0.6 0 0] CT
2 setlinecap
1 LJ
0.833 LW
N
977 566.75 M
968.63 566.75 L
S
GR
GS
[0.6 0 0 0.6 0 0] CT
2 setlinecap
1 LJ
0.833 LW
N
977 493.5 M
968.63 493.5 L
S
GR
GS
[0.6 0 0 0.6 0 0] CT
2 setlinecap
1 LJ
0.833 LW
N
977 420.25 M
968.63 420.25 L
S
GR
GS
[0.6 0 0 0.6 0 0] CT
2 setlinecap
1 LJ
0.833 LW
N
977 347 M
968.63 347 L
S
GR
GS
[0.6 0 0 0.6 0 0] CT
2 setlinecap
1 LJ
0.833 LW
N
977 273.75 M
968.63 273.75 L
S
GR
GS
[0.6 0 0 0.6 0 0] CT
2 setlinecap
1 LJ
0.833 LW
N
977 200.5 M
968.63 200.5 L
S
GR
GS
[0.6 0 0 0.6 0 0] CT
2 setlinecap
1 LJ
0.833 LW
N
977 127.25 M
968.63 127.25 L
S
GR
GS
[0.6 0 0 0.6 0 0] CT
2 setlinecap
1 LJ
0.833 LW
N
977 54 M
968.63 54 L
S
GR
GS
[0.6 0 0 0.6 78.8 384] CT
/Times-Roman 26.667 F
GS
[1 0 0 1 0 0] CT
-54 9.5 moveto 
1 -1 scale
(2700) t 
GR
GR
GS
[0.6 0 0 0.6 78.8 340.05] CT
/Times-Roman 26.667 F
GS
[1 0 0 1 0 0] CT
-54 9.5 moveto 
1 -1 scale
(2800) t 
GR
GR
GS
[0.6 0 0 0.6 78.8 296.1] CT
/Times-Roman 26.667 F
GS
[1 0 0 1 0 0] CT
-54 9.5 moveto 
1 -1 scale
(2900) t 
GR
GR
GS
[0.6 0 0 0.6 78.8 252.15] CT
/Times-Roman 26.667 F
GS
[1 0 0 1 0 0] CT
-54 9.5 moveto 
1 -1 scale
(3000) t 
GR
GR
GS
[0.6 0 0 0.6 78.8 208.2] CT
/Times-Roman 26.667 F
GS
[1 0 0 1 0 0] CT
-54 9.5 moveto 
1 -1 scale
(3100) t 
GR
GR
GS
[0.6 0 0 0.6 78.8 164.25] CT
/Times-Roman 26.667 F
GS
[1 0 0 1 0 0] CT
-54 9.5 moveto 
1 -1 scale
(3200) t 
GR
GR
GS
[0.6 0 0 0.6 78.8 120.3] CT
/Times-Roman 26.667 F
GS
[1 0 0 1 0 0] CT
-54 9.5 moveto 
1 -1 scale
(3300) t 
GR
GR
GS
[0.6 0 0 0.6 78.8 76.35] CT
/Times-Roman 26.667 F
GS
[1 0 0 1 0 0] CT
-54 9.5 moveto 
1 -1 scale
(3400) t 
GR
GR
GS
[0.6 0 0 0.6 78.8 32.4] CT
/Times-Roman 26.667 F
GS
[1 0 0 1 0 0] CT
-54 9.5 moveto 
1 -1 scale
(3500) t 
GR
GR
GS
[0 -0.6 0.6 0 43.4 208.19978] CT
N
-103.526 -10.697 M
-106.573 -10.697 -109.003 -12.314 QT
-111.432 -13.931 -112.807 -16.611 QT
-114.182 -19.291 -114.182 -22.244 QT
-114.182 -24.431 -113.393 -26.572 QT
-112.604 -28.713 -111.19 -30.369 QT
-109.776 -32.025 -107.792 -32.994 QT
-105.807 -33.963 -103.526 -33.963 QT
-101.261 -33.963 -99.268 -32.986 QT
-97.276 -32.009 -95.854 -30.338 QT
-94.432 -28.666 -93.667 -26.588 QT
-92.901 -24.509 -92.901 -22.244 QT
-92.901 -19.291 -94.276 -16.611 QT
-95.651 -13.931 -98.089 -12.314 QT
-100.526 -10.697 -103.526 -10.697 QT
cp
-108.839 -14.853 M
-107.901 -13.384 -106.526 -12.517 QT
-105.151 -11.65 -103.526 -11.65 QT
-102.479 -11.65 -101.472 -12.072 QT
-100.464 -12.494 -99.643 -13.228 QT
-98.823 -13.963 -98.245 -14.853 QT
-96.339 -17.728 -96.339 -22.759 QT
-96.339 -27.369 -98.245 -30.056 QT
-99.182 -31.4 -100.581 -32.213 QT
-101.979 -33.025 -103.526 -33.025 QT
-105.089 -33.025 -106.495 -32.213 QT
-107.901 -31.4 -108.839 -30.056 QT
-109.589 -29.009 -110.003 -27.83 QT
-110.417 -26.65 -110.589 -25.384 QT
-110.761 -24.119 -110.761 -22.759 QT
-110.761 -21.306 -110.597 -19.924 QT
-110.432 -18.541 -109.987 -17.213 QT
-109.542 -15.884 -108.839 -14.853 QT
cp
f
GR
GS
[0 -0.6 0.6 0 43.4 208.19978] CT
N
-88.022 -11.4 M
-88.022 -30.338 L
-88.022 -31.197 -88.279 -31.58 QT
-88.537 -31.963 -89.022 -32.049 QT
-89.506 -32.134 -90.522 -32.134 QT
-90.522 -33.259 L
-85.787 -33.603 L
-85.787 -23.588 L
-85.256 -24.181 -84.545 -24.627 QT
-83.834 -25.072 -83.022 -25.306 QT
-82.209 -25.541 -81.365 -25.541 QT
-79.928 -25.541 -78.701 -24.963 QT
-77.475 -24.384 -76.568 -23.369 QT
-75.662 -22.353 -75.154 -21.033 QT
-74.647 -19.713 -74.647 -18.306 QT
-74.647 -16.369 -75.592 -14.697 QT
-76.537 -13.025 -78.17 -12.033 QT
-79.803 -11.041 -81.756 -11.041 QT
-82.975 -11.041 -84.115 -11.666 QT
-85.256 -12.291 -86.006 -13.322 QT
-87.1 -11.4 L
-88.022 -11.4 L
cp
-85.693 -14.541 M
-85.162 -13.369 -84.162 -12.627 QT
-83.162 -11.884 -81.943 -11.884 QT
-80.287 -11.884 -79.264 -12.838 QT
-78.24 -13.791 -77.834 -15.244 QT
-77.428 -16.697 -77.428 -18.306 QT
-77.428 -21.009 -78.131 -22.416 QT
-78.443 -23.041 -78.982 -23.572 QT
-79.522 -24.103 -80.186 -24.408 QT
-80.85 -24.713 -81.584 -24.713 QT
-82.865 -24.713 -83.959 -24.033 QT
-85.053 -23.353 -85.693 -22.213 QT
-85.693 -14.541 L
cp
f
GR
GS
[0 -0.6 0.6 0 43.4 208.19978] CT
N
-71.357 -6.025 M
-70.623 -5.666 -69.701 -5.666 QT
-68.435 -5.666 -67.943 -6.955 QT
-67.451 -8.244 -67.451 -9.744 QT
-67.451 -22.275 L
-67.451 -23.134 -67.763 -23.517 QT
-68.076 -23.9 -68.615 -23.986 QT
-69.154 -24.072 -70.201 -24.072 QT
-70.201 -25.197 L
-65.217 -25.541 L
-65.217 -9.603 L
-65.217 -8.369 -65.826 -7.267 QT
-66.435 -6.166 -67.482 -5.502 QT
-68.529 -4.838 -69.763 -4.838 QT
-71.154 -4.838 -72.279 -5.525 QT
-73.404 -6.213 -73.404 -7.463 QT
-73.404 -8.088 -72.951 -8.541 QT
-72.498 -8.994 -71.873 -8.994 QT
-71.248 -8.994 -70.795 -8.541 QT
-70.342 -8.088 -70.342 -7.463 QT
-70.342 -6.978 -70.615 -6.572 QT
-70.888 -6.166 -71.357 -6.025 QT
cp
-68.732 -31.041 M
-68.732 -31.744 -68.201 -32.275 QT
-67.67 -32.806 -66.967 -32.806 QT
-66.529 -32.806 -66.107 -32.572 QT
-65.685 -32.338 -65.451 -31.916 QT
-65.217 -31.494 -65.217 -31.041 QT
-65.217 -30.353 -65.732 -29.822 QT
-66.248 -29.291 -66.967 -29.291 QT
-67.67 -29.291 -68.201 -29.822 QT
-68.732 -30.353 -68.732 -31.041 QT
cp
f
GR
GS
[0 -0.6 0.6 0 43.4 208.19978] CT
N
-50.782 -11.4 M
-50.782 -12.525 L
-47.485 -12.525 -47.485 -13.541 QT
-47.485 -31.119 L
-47.485 -32.134 -50.782 -32.134 QT
-50.782 -33.259 L
-33.141 -33.259 L
-32.251 -25.931 L
-33.173 -25.931 L
-33.391 -27.947 -33.758 -29.111 QT
-34.126 -30.275 -34.829 -30.939 QT
-35.532 -31.603 -36.712 -31.869 QT
-37.891 -32.134 -39.954 -32.134 QT
-42.876 -32.134 L
-43.454 -32.134 -43.774 -32.088 QT
-44.094 -32.041 -44.298 -31.814 QT
-44.501 -31.588 -44.501 -31.119 QT
-44.501 -22.884 L
-42.235 -22.884 L
-40.594 -22.884 -39.829 -23.174 QT
-39.063 -23.463 -38.774 -24.228 QT
-38.485 -24.994 -38.485 -26.634 QT
-37.563 -26.634 L
-37.563 -18.025 L
-38.485 -18.025 L
-38.485 -19.666 -38.774 -20.431 QT
-39.063 -21.197 -39.829 -21.486 QT
-40.594 -21.775 -42.235 -21.775 QT
-44.501 -21.775 L
-44.501 -13.541 L
-44.501 -12.525 -40.407 -12.525 QT
-40.407 -11.4 L
-50.782 -11.4 L
cp
f
GR
GS
[0 -0.6 0.6 0 43.4 208.19978] CT
N
-30.281 -15.213 M
-30.281 -22.275 L
-30.281 -23.134 -30.539 -23.517 QT
-30.796 -23.9 -31.281 -23.986 QT
-31.765 -24.072 -32.781 -24.072 QT
-32.781 -25.197 L
-27.937 -25.541 L
-27.937 -15.213 L
-27.937 -13.963 -27.757 -13.267 QT
-27.578 -12.572 -26.992 -12.228 QT
-26.406 -11.884 -25.124 -11.884 QT
-23.406 -11.884 -22.39 -13.322 QT
-21.374 -14.759 -21.374 -16.588 QT
-21.374 -22.275 L
-21.374 -23.134 -21.64 -23.517 QT
-21.906 -23.9 -22.382 -23.986 QT
-22.859 -24.072 -23.874 -24.072 QT
-23.874 -25.197 L
-19.046 -25.541 L
-19.046 -14.306 L
-19.046 -13.463 -18.789 -13.08 QT
-18.531 -12.697 -18.046 -12.611 QT
-17.562 -12.525 -16.546 -12.525 QT
-16.546 -11.4 L
-21.281 -11.041 L
-21.281 -13.744 L
-21.874 -12.541 -22.937 -11.791 QT
-23.999 -11.041 -25.281 -11.041 QT
-27.578 -11.041 -28.929 -12.017 QT
-30.281 -12.994 -30.281 -15.213 QT
cp
f
GR
GS
[0 -0.6 0.6 0 43.4 208.19978] CT
N
-15.188 -11.4 M
-15.188 -12.525 L
-14.094 -12.525 -13.391 -12.697 QT
-12.688 -12.869 -12.688 -13.541 QT
-12.688 -22.275 L
-12.688 -23.134 -12.946 -23.517 QT
-13.204 -23.9 -13.688 -23.986 QT
-14.172 -24.072 -15.188 -24.072 QT
-15.188 -25.197 L
-10.547 -25.541 L
-10.547 -22.416 L
-9.907 -23.791 -8.649 -24.666 QT
-7.391 -25.541 -5.907 -25.541 QT
-3.688 -25.541 -2.571 -24.478 QT
-1.454 -23.416 -1.454 -21.228 QT
-1.454 -13.541 L
-1.454 -12.869 -0.751 -12.697 QT
-0.047 -12.525 1.046 -12.525 QT
1.046 -11.4 L
-6.282 -11.4 L
-6.282 -12.525 L
-5.188 -12.525 -4.485 -12.697 QT
-3.782 -12.869 -3.782 -13.541 QT
-3.782 -21.134 L
-3.782 -22.697 -4.235 -23.705 QT
-4.688 -24.713 -6.094 -24.713 QT
-7.954 -24.713 -9.149 -23.228 QT
-10.344 -21.744 -10.344 -19.853 QT
-10.344 -13.541 L
-10.344 -12.869 -9.641 -12.697 QT
-8.938 -12.525 -7.86 -12.525 QT
-7.86 -11.4 L
-15.188 -11.4 L
cp
f
GR
GS
[0 -0.6 0.6 0 43.4 208.19978] CT
N
9.42 -11.041 M
7.483 -11.041 5.905 -12.049 QT
4.326 -13.056 3.42 -14.736 QT
2.514 -16.416 2.514 -18.306 QT
2.514 -20.197 3.412 -21.931 QT
4.311 -23.666 5.897 -24.705 QT
7.483 -25.744 9.42 -25.744 QT
11.295 -25.744 12.834 -25.009 QT
14.373 -24.275 14.373 -22.603 QT
14.373 -21.978 13.928 -21.517 QT
13.483 -21.056 12.842 -21.056 QT
12.201 -21.056 11.756 -21.517 QT
11.311 -21.978 11.311 -22.603 QT
11.311 -23.166 11.67 -23.58 QT
12.03 -23.994 12.561 -24.103 QT
11.451 -24.806 9.451 -24.806 QT
7.92 -24.806 6.983 -23.791 QT
6.045 -22.775 5.67 -21.275 QT
5.295 -19.775 5.295 -18.306 QT
5.295 -16.759 5.756 -15.314 QT
6.217 -13.869 7.241 -12.924 QT
8.264 -11.978 9.811 -11.978 QT
11.326 -11.978 12.389 -12.908 QT
13.451 -13.838 13.842 -15.338 QT
13.842 -15.525 14.092 -15.525 QT
14.483 -15.525 L
14.576 -15.525 14.655 -15.439 QT
14.733 -15.353 14.733 -15.244 QT
14.733 -15.15 L
14.248 -13.259 12.811 -12.15 QT
11.373 -11.041 9.42 -11.041 QT
cp
f
GR
GS
[0 -0.6 0.6 0 43.4 208.19978] CT
N
37.347 -11.041 M
29.8 -31.119 L
29.519 -31.791 28.722 -31.963 QT
27.925 -32.134 26.69 -32.134 QT
26.69 -33.259 L
35.487 -33.259 L
35.487 -32.134 L
32.831 -32.134 32.831 -31.306 QT
32.847 -31.259 32.855 -31.22 QT
32.862 -31.181 32.862 -31.119 QT
39.003 -14.791 L
44.8 -30.244 L
44.862 -30.369 44.862 -30.634 QT
44.862 -31.416 44.144 -31.775 QT
43.425 -32.134 42.534 -32.134 QT
42.534 -33.259 L
49.44 -33.259 L
49.44 -32.134 L
48.237 -32.134 47.323 -31.689 QT
46.409 -31.244 46.019 -30.244 QT
38.784 -11.041 L
38.69 -10.697 38.269 -10.697 QT
37.862 -10.697 L
37.44 -10.697 37.347 -11.041 QT
cp
f
GR
GS
[0 -0.6 0.6 0 43.4 208.19978] CT
N
48.473 -14.541 M
48.473 -16.447 49.973 -17.642 QT
51.473 -18.838 53.575 -19.33 QT
55.677 -19.822 57.567 -19.822 QT
57.567 -21.134 L
57.567 -22.056 57.161 -22.924 QT
56.755 -23.791 55.989 -24.345 QT
55.223 -24.9 54.302 -24.9 QT
52.177 -24.9 51.067 -23.947 QT
51.677 -23.947 52.075 -23.486 QT
52.473 -23.025 52.473 -22.416 QT
52.473 -21.775 52.02 -21.322 QT
51.567 -20.869 50.942 -20.869 QT
50.302 -20.869 49.848 -21.322 QT
49.395 -21.775 49.395 -22.416 QT
49.395 -24.103 50.927 -24.924 QT
52.458 -25.744 54.302 -25.744 QT
55.598 -25.744 56.911 -25.189 QT
58.223 -24.634 59.059 -23.603 QT
59.895 -22.572 59.895 -21.197 QT
59.895 -13.994 L
59.895 -13.369 60.161 -12.845 QT
60.427 -12.322 60.989 -12.322 QT
61.52 -12.322 61.778 -12.853 QT
62.036 -13.384 62.036 -13.994 QT
62.036 -16.041 L
62.973 -16.041 L
62.973 -13.994 L
62.973 -13.275 62.598 -12.627 QT
62.223 -11.978 61.591 -11.595 QT
60.958 -11.213 60.223 -11.213 QT
59.286 -11.213 58.606 -11.939 QT
57.927 -12.666 57.848 -13.666 QT
57.255 -12.463 56.098 -11.752 QT
54.942 -11.041 53.63 -11.041 QT
52.411 -11.041 51.231 -11.4 QT
50.052 -11.759 49.263 -12.533 QT
48.473 -13.306 48.473 -14.541 QT
cp
51.067 -14.541 M
51.067 -13.416 51.895 -12.65 QT
52.723 -11.884 53.848 -11.884 QT
54.88 -11.884 55.723 -12.4 QT
56.567 -12.916 57.067 -13.806 QT
57.567 -14.697 57.567 -15.681 QT
57.567 -19.009 L
56.114 -19.009 54.591 -18.533 QT
53.067 -18.056 52.067 -17.041 QT
51.067 -16.025 51.067 -14.541 QT
cp
f
GR
GS
[0 -0.6 0.6 0 43.4 208.19978] CT
N
64.01 -11.4 M
64.01 -12.525 L
65.104 -12.525 65.807 -12.697 QT
66.51 -12.869 66.51 -13.541 QT
66.51 -30.338 L
66.51 -31.197 66.252 -31.58 QT
65.994 -31.963 65.51 -32.049 QT
65.026 -32.134 64.01 -32.134 QT
64.01 -33.259 L
68.76 -33.603 L
68.76 -13.541 L
68.76 -12.869 69.463 -12.697 QT
70.166 -12.525 71.244 -12.525 QT
71.244 -11.4 L
64.01 -11.4 L
cp
f
GR
GS
[0 -0.6 0.6 0 43.4 208.19978] CT
N
75.275 -15.213 M
75.275 -22.275 L
75.275 -23.134 75.017 -23.517 QT
74.759 -23.9 74.275 -23.986 QT
73.791 -24.072 72.775 -24.072 QT
72.775 -25.197 L
77.619 -25.541 L
77.619 -15.213 L
77.619 -13.963 77.798 -13.267 QT
77.978 -12.572 78.564 -12.228 QT
79.15 -11.884 80.431 -11.884 QT
82.15 -11.884 83.166 -13.322 QT
84.181 -14.759 84.181 -16.588 QT
84.181 -22.275 L
84.181 -23.134 83.916 -23.517 QT
83.65 -23.9 83.173 -23.986 QT
82.697 -24.072 81.681 -24.072 QT
81.681 -25.197 L
86.509 -25.541 L
86.509 -14.306 L
86.509 -13.463 86.767 -13.08 QT
87.025 -12.697 87.509 -12.611 QT
87.994 -12.525 89.009 -12.525 QT
89.009 -11.4 L
84.275 -11.041 L
84.275 -13.744 L
83.681 -12.541 82.619 -11.791 QT
81.556 -11.041 80.275 -11.041 QT
77.978 -11.041 76.627 -12.017 QT
75.275 -12.994 75.275 -15.213 QT
cp
f
GR
GS
[0 -0.6 0.6 0 43.4 208.19978] CT
N
97.383 -11.041 M
95.43 -11.041 93.797 -12.064 QT
92.165 -13.088 91.235 -14.799 QT
90.305 -16.509 90.305 -18.416 QT
90.305 -20.291 91.157 -21.978 QT
92.008 -23.666 93.532 -24.705 QT
95.055 -25.744 96.93 -25.744 QT
98.399 -25.744 99.485 -25.252 QT
100.571 -24.759 101.274 -23.884 QT
101.977 -23.009 102.336 -21.822 QT
102.696 -20.634 102.696 -19.213 QT
102.696 -18.791 102.368 -18.791 QT
93.102 -18.791 L
93.102 -18.447 L
93.102 -15.791 94.172 -13.884 QT
95.243 -11.978 97.665 -11.978 QT
98.649 -11.978 99.485 -12.416 QT
100.321 -12.853 100.938 -13.634 QT
101.555 -14.416 101.774 -15.306 QT
101.805 -15.416 101.891 -15.502 QT
101.977 -15.588 102.086 -15.588 QT
102.368 -15.588 L
102.696 -15.588 102.696 -15.181 QT
102.243 -13.369 100.743 -12.205 QT
99.243 -11.041 97.383 -11.041 QT
cp
93.133 -19.588 M
100.43 -19.588 L
100.43 -20.791 100.094 -22.025 QT
99.758 -23.259 98.977 -24.08 QT
98.196 -24.9 96.93 -24.9 QT
95.118 -24.9 94.125 -23.205 QT
93.133 -21.509 93.133 -19.588 QT
cp
f
GR
GS
[0 -0.6 0.6 0 43.4 208.19978] CT
N
104.551 -11.306 M
104.551 -16.525 L
104.551 -16.775 104.832 -16.775 QT
105.223 -16.775 L
105.41 -16.775 105.473 -16.525 QT
106.364 -11.884 109.785 -11.884 QT
111.301 -11.884 112.325 -12.572 QT
113.348 -13.259 113.348 -14.697 QT
113.348 -15.728 112.551 -16.455 QT
111.754 -17.181 110.66 -17.447 QT
108.52 -17.869 L
107.442 -18.103 106.559 -18.588 QT
105.676 -19.072 105.114 -19.877 QT
104.551 -20.681 104.551 -21.744 QT
104.551 -23.15 105.293 -24.049 QT
106.035 -24.947 107.223 -25.345 QT
108.41 -25.744 109.785 -25.744 QT
111.426 -25.744 112.645 -24.869 QT
113.567 -25.666 L
113.567 -25.744 113.723 -25.744 QT
113.957 -25.744 L
114.051 -25.744 114.129 -25.658 QT
114.207 -25.572 114.207 -25.478 QT
114.207 -21.291 L
114.207 -20.994 113.957 -20.994 QT
113.567 -20.994 L
113.285 -20.994 113.285 -21.291 QT
113.285 -22.963 112.356 -23.978 QT
111.426 -24.994 109.754 -24.994 QT
108.317 -24.994 107.262 -24.463 QT
106.207 -23.931 106.207 -22.634 QT
106.207 -21.744 106.965 -21.174 QT
107.723 -20.603 108.739 -20.353 QT
110.91 -19.947 L
112.004 -19.697 112.95 -19.103 QT
113.895 -18.509 114.45 -17.603 QT
115.004 -16.697 115.004 -15.556 QT
115.004 -14.4 114.606 -13.549 QT
114.207 -12.697 113.496 -12.134 QT
112.785 -11.572 111.817 -11.306 QT
110.848 -11.041 109.785 -11.041 QT
107.785 -11.041 106.364 -12.384 QT
105.192 -11.119 L
105.192 -11.041 105.02 -11.041 QT
104.832 -11.041 L
104.551 -11.041 104.551 -11.306 QT
cp
f
GR
GS
[0.6 0 0 0.6 0 0] CT
0 0.447 0.741 RC
1 LJ
2.167 LW
N
148.37 88.364 M
232.07 384.92 L
315.77 377.136 L
399.47 427.243 L
483.17 480.298 L
566.87 519.083 L
650.57 544.62 L
734.27 560.986 L
817.97 571.468 L
901.67 578.233 L
S
GR
GS
[0.6 0 0 0.6 541.00199 346.93993] CT
0.149 GC
N
4.167 0 M
4.167 -2.301 2.301 -4.167 0 -4.167 C
-2.301 -4.167 -4.167 -2.301 -4.167 0 C
-4.167 2.301 -2.301 4.167 0 4.167 C
2.301 4.167 4.167 2.301 4.167 0 C
cp
f
GR
GS
[0.6 0 0 0.6 541.00199 346.93993] CT
1 1 0.863 RC
10.0 ML
1.667 LW
N
4.167 0 M
4.167 -2.301 2.301 -4.167 0 -4.167 C
-2.301 -4.167 -4.167 -2.301 -4.167 0 C
-4.167 2.301 -2.301 4.167 0 4.167 C
2.301 4.167 4.167 2.301 4.167 0 C
cp
S
GR
GS
[0.6 0 0 0.6 0 0] CT
0.98 0.98 1 RC
N
788.337 520.833 M
788.337 573.633 L
788.343 573.825 L
788.362 574.016 L
788.393 574.206 L
788.437 574.393 L
788.492 574.576 L
788.56 574.756 L
788.639 574.931 L
788.73 575.1 L
788.831 575.263 L
788.943 575.419 L
789.065 575.567 L
789.196 575.708 L
789.336 575.839 L
789.484 575.961 L
789.64 576.072 L
789.803 576.174 L
789.973 576.264 L
790.147 576.343 L
790.327 576.411 L
790.511 576.467 L
790.698 576.51 L
790.887 576.542 L
791.078 576.56 L
791.27 576.567 L
897.07 576.567 L
897.262 576.56 L
897.453 576.542 L
897.642 576.51 L
897.829 576.467 L
898.013 576.411 L
898.193 576.343 L
898.367 576.264 L
898.537 576.174 L
898.7 576.072 L
898.856 575.961 L
899.004 575.839 L
899.144 575.708 L
899.275 575.567 L
899.397 575.419 L
899.509 575.263 L
899.61 575.1 L
899.701 574.931 L
899.78 574.756 L
899.848 574.576 L
899.903 574.393 L
899.947 574.206 L
899.978 574.016 L
899.997 573.825 L
900.003 573.633 L
900.003 520.833 L
899.997 520.641 L
899.978 520.45 L
899.947 520.261 L
899.903 520.074 L
899.848 519.89 L
899.78 519.711 L
899.701 519.536 L
899.61 519.367 L
899.509 519.204 L
899.397 519.048 L
899.275 518.899 L
899.144 518.759 L
899.004 518.628 L
898.856 518.506 L
898.7 518.394 L
898.537 518.293 L
898.367 518.203 L
898.193 518.123 L
898.013 518.056 L
897.829 518 L
897.642 517.956 L
897.453 517.925 L
897.262 517.906 L
897.07 517.9 L
791.27 517.9 L
791.078 517.906 L
790.887 517.925 L
790.698 517.956 L
790.511 518 L
790.327 518.056 L
790.147 518.123 L
789.973 518.203 L
789.803 518.293 L
789.64 518.394 L
789.484 518.506 L
789.336 518.628 L
789.196 518.759 L
789.065 518.899 L
788.943 519.048 L
788.831 519.204 L
788.73 519.367 L
788.639 519.536 L
788.56 519.711 L
788.492 519.89 L
788.437 520.074 L
788.393 520.261 L
788.362 520.45 L
788.343 520.641 L
cp
f
GR
GS
[0.6 0 0 0.6 0 0] CT
0.349 GC
1 LJ
0.833 LW
N
788.337 573.633 M
788.343 573.825 L
788.362 574.016 L
788.393 574.206 L
788.437 574.393 L
788.492 574.576 L
788.56 574.756 L
788.639 574.931 L
788.73 575.1 L
788.831 575.263 L
788.943 575.419 L
789.065 575.567 L
789.196 575.708 L
789.336 575.839 L
789.484 575.961 L
789.64 576.072 L
789.803 576.174 L
789.973 576.264 L
790.147 576.343 L
790.327 576.411 L
790.511 576.467 L
790.698 576.51 L
790.887 576.542 L
791.078 576.56 L
791.27 576.567 L
897.07 576.567 L
897.262 576.56 L
897.453 576.542 L
897.642 576.51 L
897.829 576.467 L
898.013 576.411 L
898.193 576.343 L
898.367 576.264 L
898.537 576.174 L
898.7 576.072 L
898.856 575.961 L
899.004 575.839 L
899.144 575.708 L
899.275 575.567 L
899.397 575.419 L
899.509 575.263 L
899.61 575.1 L
899.701 574.931 L
899.78 574.756 L
899.848 574.576 L
899.903 574.393 L
899.947 574.206 L
899.978 574.016 L
899.997 573.825 L
900.003 573.633 L
900.003 520.833 L
899.997 520.641 L
899.978 520.45 L
899.947 520.261 L
899.903 520.074 L
899.848 519.89 L
899.78 519.711 L
899.701 519.536 L
899.61 519.367 L
899.509 519.204 L
899.397 519.048 L
899.275 518.899 L
899.144 518.759 L
899.004 518.628 L
898.856 518.506 L
898.7 518.394 L
898.537 518.293 L
898.367 518.203 L
898.193 518.123 L
898.013 518.056 L
897.829 518 L
897.642 517.956 L
897.453 517.925 L
897.262 517.906 L
897.07 517.9 L
791.27 517.9 L
791.078 517.906 L
790.887 517.925 L
790.698 517.956 L
790.511 518 L
790.327 518.056 L
790.147 518.123 L
789.973 518.203 L
789.803 518.293 L
789.64 518.394 L
789.484 518.506 L
789.336 518.628 L
789.196 518.759 L
789.065 518.899 L
788.943 519.048 L
788.831 519.204 L
788.73 519.367 L
788.639 519.536 L
788.56 519.711 L
788.492 519.89 L
788.437 520.074 L
788.393 520.261 L
788.362 520.45 L
788.343 520.641 L
788.337 520.833 L
cp
S
GR
GS
[0.6 0 0 0.6 478.2 325.8] CT
0.251 GC
/Helvetica 16.667 F
GS
[1 0 0 1 0 0] CT
0 0 moveto 
1 -1 scale
(X ) t 
GR
GR
GS
[0.6 0 0 0.6 487.8 325.8] CT
0 0.6 1 RC
/Helvetica-Bold 16.667 F
GS
[1 0 0 1 0 0] CT
0 0 moveto 
1 -1 scale
(91) t 
GR
GR
GS
[0.6 0 0 0.6 478.2 338.4] CT
0.251 GC
/Helvetica 16.667 F
GS
[1 0 0 1 0 0] CT
0 0 moveto 
1 -1 scale
(Y ) t 
GR
GR
GS
[0.6 0 0 0.6 487.8 338.4] CT
0 0.6 1 RC
/Helvetica-Bold 16.667 F
GS
[1 0 0 1 0 0] CT
0 0 moveto 
1 -1 scale
(2784.3232) t 
GR
GR
GS
[0.6 0 0 0.6 541.00199 346.94] CT
0.666 GC
N
3.333 0 M
3.333 -1.841 1.841 -3.333 0 -3.333 C
-1.841 -3.333 -3.333 -1.841 -3.333 0 C
-3.333 1.841 -1.841 3.333 0 3.333 C
1.841 3.333 3.333 1.841 3.333 0 C
cp
f
GR
GS
[0.6 0 0 0.6 541.00199 346.94] CT
1 1 0.946 RC
10.0 ML
1.667 LW
N
4.167 0 M
4.167 -2.301 2.301 -4.167 0 -4.167 C
-2.301 -4.167 -4.167 -2.301 -4.167 0 C
-4.167 2.301 -2.301 4.167 0 4.167 C
2.301 4.167 4.167 2.301 4.167 0 C
cp
S
GR
%%Trailer
%%Pages: 1
%%EOF
