%!PS-Adobe-3.0 EPSF-3.0
%%Creator: (MATLAB, The Mathworks, Inc. Version 9.6.0.1472908 \(R2019a\) Update 9. Operating System: Windows 10)
%%Title: (C:/Users/A/OneDrive - ETHZ/Research_MasterThesis/AllCodeFiles/Figures/ParameterSweepbValueCustomCDF_Sweepx_y0.5.eps)
%%CreationDate: 2023-01-06T15:47:02
%%Pages: (atend)
%%BoundingBox:     7     1   535   406
%%LanguageLevel: 3
%%EndComments
%%BeginProlog
%%BeginResource: procset (Apache XML Graphics Std ProcSet) 1.2 0
%%Version: 1.2 0
%%Copyright: (Copyright 2001-2003,2010 The Apache Software Foundation. License terms: http://www.apache.org/licenses/LICENSE-2.0)
/bd{bind def}bind def
/ld{load def}bd
/GR/grestore ld
/GS/gsave ld
/RM/rmoveto ld
/C/curveto ld
/t/show ld
/L/lineto ld
/ML/setmiterlimit ld
/CT/concat ld
/f/fill ld
/N/newpath ld
/S/stroke ld
/CC/setcmykcolor ld
/A/ashow ld
/cp/closepath ld
/RC/setrgbcolor ld
/LJ/setlinejoin ld
/GC/setgray ld
/LW/setlinewidth ld
/M/moveto ld
/re {4 2 roll M
1 index 0 rlineto
0 exch rlineto
neg 0 rlineto
cp } bd
/_ctm matrix def
/_tm matrix def
/BT { _ctm currentmatrix pop matrix _tm copy pop 0 0 moveto } bd
/ET { _ctm setmatrix } bd
/iTm { _ctm setmatrix _tm concat } bd
/Tm { _tm astore pop iTm 0 0 moveto } bd
/ux 0.0 def
/uy 0.0 def
/F {
  /Tp exch def
  /Tf exch def
  Tf findfont Tp scalefont setfont
  /cf Tf def  /cs Tp def
} bd
/ULS {currentpoint /uy exch def /ux exch def} bd
/ULE {
  /Tcx currentpoint pop def
  gsave
  newpath
  cf findfont cs scalefont dup
  /FontMatrix get 0 get /Ts exch def /FontInfo get dup
  /UnderlinePosition get Ts mul /To exch def
  /UnderlineThickness get Ts mul /Tt exch def
  ux uy To add moveto  Tcx uy To add lineto
  Tt setlinewidth stroke
  grestore
} bd
/OLE {
  /Tcx currentpoint pop def
  gsave
  newpath
  cf findfont cs scalefont dup
  /FontMatrix get 0 get /Ts exch def /FontInfo get dup
  /UnderlinePosition get Ts mul /To exch def
  /UnderlineThickness get Ts mul /Tt exch def
  ux uy To add cs add moveto Tcx uy To add cs add lineto
  Tt setlinewidth stroke
  grestore
} bd
/SOE {
  /Tcx currentpoint pop def
  gsave
  newpath
  cf findfont cs scalefont dup
  /FontMatrix get 0 get /Ts exch def /FontInfo get dup
  /UnderlinePosition get Ts mul /To exch def
  /UnderlineThickness get Ts mul /Tt exch def
  ux uy To add cs 10 mul 26 idiv add moveto Tcx uy To add cs 10 mul 26 idiv add lineto
  Tt setlinewidth stroke
  grestore
} bd
/QT {
/Y22 exch store
/X22 exch store
/Y21 exch store
/X21 exch store
currentpoint
/Y21 load 2 mul add 3 div exch
/X21 load 2 mul add 3 div exch
/X21 load 2 mul /X22 load add 3 div
/Y21 load 2 mul /Y22 load add 3 div
/X22 load /Y22 load curveto
} bd
/SSPD {
dup length /d exch dict def
{
/v exch def
/k exch def
currentpagedevice k known {
/cpdv currentpagedevice k get def
v cpdv ne {
/upd false def
/nullv v type /nulltype eq def
/nullcpdv cpdv type /nulltype eq def
nullv nullcpdv or
{
/upd true def
} {
/sametype v type cpdv type eq def
sametype {
v type /arraytype eq {
/vlen v length def
/cpdvlen cpdv length def
vlen cpdvlen eq {
0 1 vlen 1 sub {
/i exch def
/obj v i get def
/cpdobj cpdv i get def
obj cpdobj ne {
/upd true def
exit
} if
} for
} {
/upd true def
} ifelse
} {
v type /dicttype eq {
v {
/dv exch def
/dk exch def
/cpddv cpdv dk get def
dv cpddv ne {
/upd true def
exit
} if
} forall
} {
/upd true def
} ifelse
} ifelse
} if
} ifelse
upd true eq {
d k v put
} if
} if
} if
} forall
d length 0 gt {
d setpagedevice
} if
} bd
/RE { % /NewFontName [NewEncodingArray] /FontName RE -
  findfont dup length dict begin
  {
    1 index /FID ne
    {def} {pop pop} ifelse
  } forall
  /Encoding exch def
  /FontName 1 index def
  currentdict definefont pop
  end
} bind def
%%EndResource
%%BeginResource: procset (Apache XML Graphics EPS ProcSet) 1.0 0
%%Version: 1.0 0
%%Copyright: (Copyright 2002-2003 The Apache Software Foundation. License terms: http://www.apache.org/licenses/LICENSE-2.0)
/BeginEPSF { %def
/b4_Inc_state save def         % Save state for cleanup
/dict_count countdictstack def % Count objects on dict stack
/op_count count 1 sub def      % Count objects on operand stack
userdict begin                 % Push userdict on dict stack
/showpage { } def              % Redefine showpage, { } = null proc
0 setgray 0 setlinecap         % Prepare graphics state
1 setlinewidth 0 setlinejoin
10 setmiterlimit [ ] 0 setdash newpath
/languagelevel where           % If level not equal to 1 then
{pop languagelevel             % set strokeadjust and
1 ne                           % overprint to their defaults.
{false setstrokeadjust false setoverprint
} if
} if
} bd
/EndEPSF { %def
count op_count sub {pop} repeat            % Clean up stacks
countdictstack dict_count sub {end} repeat
b4_Inc_state restore
} bd
%%EndResource
%FOPBeginFontDict
%%IncludeResource: font Courier-Oblique
%%IncludeResource: font Courier-BoldOblique
%%IncludeResource: font Courier-Bold
%%IncludeResource: font ZapfDingbats
%%IncludeResource: font Symbol
%%IncludeResource: font Helvetica
%%IncludeResource: font Helvetica-Oblique
%%IncludeResource: font Helvetica-Bold
%%IncludeResource: font Helvetica-BoldOblique
%%IncludeResource: font Times-Roman
%%IncludeResource: font Times-Italic
%%IncludeResource: font Times-Bold
%%IncludeResource: font Times-BoldItalic
%%IncludeResource: font Courier
%FOPEndFontDict
%%BeginResource: encoding WinAnsiEncoding
/WinAnsiEncoding [
/.notdef /.notdef /.notdef /.notdef /.notdef
/.notdef /.notdef /.notdef /.notdef /.notdef
/.notdef /.notdef /.notdef /.notdef /.notdef
/.notdef /.notdef /.notdef /.notdef /.notdef
/.notdef /.notdef /.notdef /.notdef /.notdef
/.notdef /.notdef /.notdef /.notdef /.notdef
/.notdef /.notdef /space /exclam /quotedbl
/numbersign /dollar /percent /ampersand /quotesingle
/parenleft /parenright /asterisk /plus /comma
/hyphen /period /slash /zero /one
/two /three /four /five /six
/seven /eight /nine /colon /semicolon
/less /equal /greater /question /at
/A /B /C /D /E
/F /G /H /I /J
/K /L /M /N /O
/P /Q /R /S /T
/U /V /W /X /Y
/Z /bracketleft /backslash /bracketright /asciicircum
/underscore /quoteleft /a /b /c
/d /e /f /g /h
/i /j /k /l /m
/n /o /p /q /r
/s /t /u /v /w
/x /y /z /braceleft /bar
/braceright /asciitilde /bullet /Euro /bullet
/quotesinglbase /florin /quotedblbase /ellipsis /dagger
/daggerdbl /circumflex /perthousand /Scaron /guilsinglleft
/OE /bullet /Zcaron /bullet /bullet
/quoteleft /quoteright /quotedblleft /quotedblright /bullet
/endash /emdash /asciitilde /trademark /scaron
/guilsinglright /oe /bullet /zcaron /Ydieresis
/space /exclamdown /cent /sterling /currency
/yen /brokenbar /section /dieresis /copyright
/ordfeminine /guillemotleft /logicalnot /sfthyphen /registered
/macron /degree /plusminus /twosuperior /threesuperior
/acute /mu /paragraph /middot /cedilla
/onesuperior /ordmasculine /guillemotright /onequarter /onehalf
/threequarters /questiondown /Agrave /Aacute /Acircumflex
/Atilde /Adieresis /Aring /AE /Ccedilla
/Egrave /Eacute /Ecircumflex /Edieresis /Igrave
/Iacute /Icircumflex /Idieresis /Eth /Ntilde
/Ograve /Oacute /Ocircumflex /Otilde /Odieresis
/multiply /Oslash /Ugrave /Uacute /Ucircumflex
/Udieresis /Yacute /Thorn /germandbls /agrave
/aacute /acircumflex /atilde /adieresis /aring
/ae /ccedilla /egrave /eacute /ecircumflex
/edieresis /igrave /iacute /icircumflex /idieresis
/eth /ntilde /ograve /oacute /ocircumflex
/otilde /odieresis /divide /oslash /ugrave
/uacute /ucircumflex /udieresis /yacute /thorn
/ydieresis
] def
%%EndResource
%FOPBeginFontReencode
/Courier-Oblique findfont
dup length dict begin
  {1 index /FID ne {def} {pop pop} ifelse} forall
  /Encoding WinAnsiEncoding def
  currentdict
end
/Courier-Oblique exch definefont pop
/Courier-BoldOblique findfont
dup length dict begin
  {1 index /FID ne {def} {pop pop} ifelse} forall
  /Encoding WinAnsiEncoding def
  currentdict
end
/Courier-BoldOblique exch definefont pop
/Courier-Bold findfont
dup length dict begin
  {1 index /FID ne {def} {pop pop} ifelse} forall
  /Encoding WinAnsiEncoding def
  currentdict
end
/Courier-Bold exch definefont pop
/Helvetica findfont
dup length dict begin
  {1 index /FID ne {def} {pop pop} ifelse} forall
  /Encoding WinAnsiEncoding def
  currentdict
end
/Helvetica exch definefont pop
/Helvetica-Oblique findfont
dup length dict begin
  {1 index /FID ne {def} {pop pop} ifelse} forall
  /Encoding WinAnsiEncoding def
  currentdict
end
/Helvetica-Oblique exch definefont pop
/Helvetica-Bold findfont
dup length dict begin
  {1 index /FID ne {def} {pop pop} ifelse} forall
  /Encoding WinAnsiEncoding def
  currentdict
end
/Helvetica-Bold exch definefont pop
/Helvetica-BoldOblique findfont
dup length dict begin
  {1 index /FID ne {def} {pop pop} ifelse} forall
  /Encoding WinAnsiEncoding def
  currentdict
end
/Helvetica-BoldOblique exch definefont pop
/Times-Roman findfont
dup length dict begin
  {1 index /FID ne {def} {pop pop} ifelse} forall
  /Encoding WinAnsiEncoding def
  currentdict
end
/Times-Roman exch definefont pop
/Times-Italic findfont
dup length dict begin
  {1 index /FID ne {def} {pop pop} ifelse} forall
  /Encoding WinAnsiEncoding def
  currentdict
end
/Times-Italic exch definefont pop
/Times-Bold findfont
dup length dict begin
  {1 index /FID ne {def} {pop pop} ifelse} forall
  /Encoding WinAnsiEncoding def
  currentdict
end
/Times-Bold exch definefont pop
/Times-BoldItalic findfont
dup length dict begin
  {1 index /FID ne {def} {pop pop} ifelse} forall
  /Encoding WinAnsiEncoding def
  currentdict
end
/Times-BoldItalic exch definefont pop
/Courier findfont
dup length dict begin
  {1 index /FID ne {def} {pop pop} ifelse} forall
  /Encoding WinAnsiEncoding def
  currentdict
end
/Courier exch definefont pop
%FOPEndFontReencode
%%EndProlog
%%Page: 1 1
%%PageBoundingBox: 0 0 576 432
%%BeginPageSetup
[1 0 0 -1 0 432] CT
%%EndPageSetup
GS
[0.6 0 0 0.6 0 0] CT
1 GC
N
0 0 960 720 re
f
GR
GS
[0.6 0 0 0.6 0 0] CT
1 GC
N
0 0 960 720 re
f
GR
GS
[0.6 0 0 0.6 0 0] CT
1 GC
N
94 640 M
657 640 L
657 54 L
94 54 L
cp
f
GR
GS
[0.6 0 0 0.6 0 0] CT
0.873 GC
1 LJ
0.833 LW
N
94 640 M
94 54 L
S
GR
GS
[0.6 0 0 0.6 0 0] CT
0.873 GC
1 LJ
0.833 LW
N
206.6 640 M
206.6 54 L
S
GR
GS
[0.6 0 0 0.6 0 0] CT
0.873 GC
1 LJ
0.833 LW
N
319.2 640 M
319.2 54 L
S
GR
GS
[0.6 0 0 0.6 0 0] CT
0.873 GC
1 LJ
0.833 LW
N
431.8 640 M
431.8 54 L
S
GR
GS
[0.6 0 0 0.6 0 0] CT
0.873 GC
1 LJ
0.833 LW
N
544.4 640 M
544.4 54 L
S
GR
GS
[0.6 0 0 0.6 0 0] CT
0.873 GC
1 LJ
0.833 LW
N
657 640 M
657 54 L
S
GR
GS
[0.6 0 0 0.6 0 0] CT
0.851 GC
1 LJ
0.833 LW
N
657 640 M
94 640 L
S
GR
GS
[0.6 0 0 0.6 0 0] CT
0.851 GC
1 LJ
0.833 LW
N
657 581.4 M
94 581.4 L
S
GR
GS
[0.6 0 0 0.6 0 0] CT
0.851 GC
1 LJ
0.833 LW
N
657 522.8 M
94 522.8 L
S
GR
GS
[0.6 0 0 0.6 0 0] CT
0.851 GC
1 LJ
0.833 LW
N
657 464.2 M
94 464.2 L
S
GR
GS
[0.6 0 0 0.6 0 0] CT
0.851 GC
1 LJ
0.833 LW
N
657 405.6 M
94 405.6 L
S
GR
GS
[0.6 0 0 0.6 0 0] CT
0.851 GC
1 LJ
0.833 LW
N
657 347 M
94 347 L
S
GR
GS
[0.6 0 0 0.6 0 0] CT
0.851 GC
1 LJ
0.833 LW
N
657 288.4 M
94 288.4 L
S
GR
GS
[0.6 0 0 0.6 0 0] CT
0.851 GC
1 LJ
0.833 LW
N
657 229.8 M
94 229.8 L
S
GR
GS
[0.6 0 0 0.6 0 0] CT
0.851 GC
1 LJ
0.833 LW
N
657 171.2 M
94 171.2 L
S
GR
GS
[0.6 0 0 0.6 0 0] CT
0.851 GC
1 LJ
0.833 LW
N
657 112.6 M
94 112.6 L
S
GR
GS
[0.6 0 0 0.6 0 0] CT
0.851 GC
1 LJ
0.833 LW
N
657 54 M
94 54 L
S
GR
GS
[0.6 0 0 0.6 0 0] CT
0.149 GC
2 setlinecap
1 LJ
0.833 LW
N
94 640 M
657 640 L
S
GR
GS
[0.6 0 0 0.6 0 0] CT
0.149 GC
2 setlinecap
1 LJ
0.833 LW
N
94 54 M
657 54 L
S
GR
GS
[0.6 0 0 0.6 0 0] CT
0.149 GC
2 setlinecap
1 LJ
0.833 LW
N
94 640 M
94 634.14 L
S
GR
GS
[0.6 0 0 0.6 0 0] CT
0.149 GC
2 setlinecap
1 LJ
0.833 LW
N
206.6 640 M
206.6 634.14 L
S
GR
GS
[0.6 0 0 0.6 0 0] CT
0.149 GC
2 setlinecap
1 LJ
0.833 LW
N
319.2 640 M
319.2 634.14 L
S
GR
GS
[0.6 0 0 0.6 0 0] CT
0.149 GC
2 setlinecap
1 LJ
0.833 LW
N
431.8 640 M
431.8 634.14 L
S
GR
GS
[0.6 0 0 0.6 0 0] CT
0.149 GC
2 setlinecap
1 LJ
0.833 LW
N
544.4 640 M
544.4 634.14 L
S
GR
GS
[0.6 0 0 0.6 0 0] CT
0.149 GC
2 setlinecap
1 LJ
0.833 LW
N
657 640 M
657 634.14 L
S
GR
GS
[0.6 0 0 0.6 0 0] CT
0.149 GC
2 setlinecap
1 LJ
0.833 LW
N
94 54 M
94 59.86 L
S
GR
GS
[0.6 0 0 0.6 0 0] CT
0.149 GC
2 setlinecap
1 LJ
0.833 LW
N
206.6 54 M
206.6 59.86 L
S
GR
GS
[0.6 0 0 0.6 0 0] CT
0.149 GC
2 setlinecap
1 LJ
0.833 LW
N
319.2 54 M
319.2 59.86 L
S
GR
GS
[0.6 0 0 0.6 0 0] CT
0.149 GC
2 setlinecap
1 LJ
0.833 LW
N
431.8 54 M
431.8 59.86 L
S
GR
GS
[0.6 0 0 0.6 0 0] CT
0.149 GC
2 setlinecap
1 LJ
0.833 LW
N
544.4 54 M
544.4 59.86 L
S
GR
GS
[0.6 0 0 0.6 0 0] CT
0.149 GC
2 setlinecap
1 LJ
0.833 LW
N
657 54 M
657 59.86 L
S
GR
GS
[0.6 0 0 0.6 56.4 389.20001] CT
0.149 GC
/Times-Roman 26.667 F
GS
[1 0 0 1 0 0] CT
-7 25 moveto 
1 -1 scale
(0) t 
GR
GR
GS
[0.6 0 0 0.6 123.96 389.20001] CT
0.149 GC
/Times-Roman 26.667 F
GS
[1 0 0 1 0 0] CT
-17 25 moveto 
1 -1 scale
(0.2) t 
GR
GR
GS
[0.6 0 0 0.6 191.52001 389.20001] CT
0.149 GC
/Times-Roman 26.667 F
GS
[1 0 0 1 0 0] CT
-17 25 moveto 
1 -1 scale
(0.4) t 
GR
GR
GS
[0.6 0 0 0.6 259.08001 389.20001] CT
0.149 GC
/Times-Roman 26.667 F
GS
[1 0 0 1 0 0] CT
-17 25 moveto 
1 -1 scale
(0.6) t 
GR
GR
GS
[0.6 0 0 0.6 326.64001 389.20001] CT
0.149 GC
/Times-Roman 26.667 F
GS
[1 0 0 1 0 0] CT
-17 25 moveto 
1 -1 scale
(0.8) t 
GR
GR
GS
[0.6 0 0 0.6 394.2 389.20001] CT
0.149 GC
/Times-Roman 26.667 F
GS
[1 0 0 1 0 0] CT
-7 25 moveto 
1 -1 scale
(1) t 
GR
GR
GS
[0.6 0 0 0.6 225.30016 409.39999] CT
0.149 GC
N
-254.508 26.959 M
-261.039 6.881 L
-261.289 6.209 -262.008 6.037 QT
-262.727 5.866 -263.883 5.866 QT
-263.883 4.741 L
-255.305 4.741 L
-255.305 5.866 L
-257.992 5.866 -257.992 6.725 QT
-257.992 6.881 L
-252.883 22.631 L
-248.524 9.162 L
-249.258 6.881 L
-249.508 6.209 -250.227 6.037 QT
-250.946 5.866 -252.102 5.866 QT
-252.102 4.741 L
-243.539 4.741 L
-243.539 5.866 L
-246.258 5.866 -246.258 6.725 QT
-246.258 6.772 -246.227 6.866 QT
-246.196 6.959 -246.196 6.991 QT
-241.102 22.631 L
-236.305 7.756 L
-236.274 7.662 -236.274 7.459 QT
-236.274 6.616 -237.164 6.241 QT
-238.055 5.866 -239.024 5.866 QT
-239.024 4.741 L
-232.18 4.741 L
-232.18 5.866 L
-234.711 5.866 -235.305 7.756 QT
-241.555 26.959 L
-241.664 27.303 -242.024 27.303 QT
-242.258 27.303 L
-242.617 27.303 -242.727 26.959 QT
-248.008 10.662 L
-253.321 26.959 L
-253.43 27.303 -253.805 27.303 QT
-254.024 27.303 L
-254.399 27.303 -254.508 26.959 QT
cp
f
GR
GS
[0.6 0 0 0.6 225.30016 409.39999] CT
0.149 GC
N
-230.93 26.6 M
-230.93 25.475 L
-229.837 25.475 -229.134 25.303 QT
-228.43 25.131 -228.43 24.459 QT
-228.43 15.725 L
-228.43 14.491 -228.907 14.209 QT
-229.384 13.928 -230.79 13.928 QT
-230.79 12.803 L
-226.18 12.459 L
-226.18 24.459 L
-226.18 25.131 -225.571 25.303 QT
-224.962 25.475 -223.946 25.475 QT
-223.946 26.6 L
-230.93 26.6 L
cp
-229.571 6.959 M
-229.571 6.256 -229.04 5.725 QT
-228.509 5.194 -227.821 5.194 QT
-227.368 5.194 -226.946 5.428 QT
-226.524 5.662 -226.29 6.084 QT
-226.055 6.506 -226.055 6.959 QT
-226.055 7.647 -226.587 8.178 QT
-227.118 8.709 -227.821 8.709 QT
-228.509 8.709 -229.04 8.178 QT
-229.571 7.647 -229.571 6.959 QT
cp
f
GR
GS
[0.6 0 0 0.6 225.30016 409.39999] CT
0.149 GC
N
-222.165 26.6 M
-222.165 25.475 L
-221.072 25.475 -220.368 25.303 QT
-219.665 25.131 -219.665 24.459 QT
-219.665 15.725 L
-219.665 14.866 -219.923 14.483 QT
-220.181 14.1 -220.665 14.014 QT
-221.15 13.928 -222.165 13.928 QT
-222.165 12.803 L
-217.525 12.459 L
-217.525 15.584 L
-216.884 14.209 -215.626 13.334 QT
-214.368 12.459 -212.884 12.459 QT
-210.665 12.459 -209.548 13.522 QT
-208.431 14.584 -208.431 16.772 QT
-208.431 24.459 L
-208.431 25.131 -207.728 25.303 QT
-207.025 25.475 -205.931 25.475 QT
-205.931 26.6 L
-213.259 26.6 L
-213.259 25.475 L
-212.165 25.475 -211.462 25.303 QT
-210.759 25.131 -210.759 24.459 QT
-210.759 16.866 L
-210.759 15.303 -211.212 14.295 QT
-211.665 13.287 -213.072 13.287 QT
-214.931 13.287 -216.126 14.772 QT
-217.322 16.256 -217.322 18.147 QT
-217.322 24.459 L
-217.322 25.131 -216.618 25.303 QT
-215.915 25.475 -214.837 25.475 QT
-214.837 26.6 L
-222.165 26.6 L
cp
f
GR
GS
[0.6 0 0 0.6 225.30016 409.39999] CT
0.149 GC
N
-197.713 26.959 M
-199.604 26.959 -201.166 25.936 QT
-202.729 24.912 -203.596 23.241 QT
-204.463 21.569 -204.463 19.694 QT
-204.463 17.756 -203.518 16.092 QT
-202.573 14.428 -200.948 13.444 QT
-199.323 12.459 -197.37 12.459 QT
-196.198 12.459 -195.151 12.951 QT
-194.104 13.444 -193.338 14.319 QT
-193.338 7.662 L
-193.338 6.803 -193.596 6.42 QT
-193.854 6.037 -194.331 5.951 QT
-194.807 5.866 -195.823 5.866 QT
-195.823 4.741 L
-191.088 4.397 L
-191.088 23.694 L
-191.088 24.537 -190.831 24.92 QT
-190.573 25.303 -190.096 25.389 QT
-189.62 25.475 -188.604 25.475 QT
-188.604 26.6 L
-193.432 26.959 L
-193.432 24.944 L
-194.26 25.897 -195.401 26.428 QT
-196.541 26.959 -197.713 26.959 QT
cp
-200.979 23.819 M
-200.432 24.866 -199.518 25.491 QT
-198.604 26.116 -197.526 26.116 QT
-196.198 26.116 -195.088 25.35 QT
-193.979 24.584 -193.432 23.366 QT
-193.432 15.694 L
-193.807 14.991 -194.377 14.436 QT
-194.948 13.881 -195.659 13.584 QT
-196.37 13.287 -197.166 13.287 QT
-198.838 13.287 -199.854 14.233 QT
-200.87 15.178 -201.276 16.647 QT
-201.682 18.116 -201.682 19.725 QT
-201.682 21.006 -201.549 21.959 QT
-201.416 22.912 -200.979 23.819 QT
cp
f
GR
GS
[0.6 0 0 0.6 225.30016 409.39999] CT
0.149 GC
N
-176.315 26.6 M
-176.315 25.475 L
-173.018 25.475 -173.018 24.459 QT
-173.018 6.881 L
-173.018 5.866 -176.315 5.866 QT
-176.315 4.741 L
-164.925 4.741 L
-163.175 4.741 -161.425 5.459 QT
-159.675 6.178 -158.542 7.553 QT
-157.409 8.928 -157.409 10.756 QT
-157.409 12.537 -158.55 13.881 QT
-159.69 15.225 -161.425 15.92 QT
-163.159 16.616 -164.925 16.616 QT
-170.05 16.616 L
-170.05 24.459 L
-170.05 25.475 -166.753 25.475 QT
-166.753 26.6 L
-176.315 26.6 L
cp
-170.143 15.662 M
-165.8 15.662 L
-164.034 15.662 -162.94 15.155 QT
-161.846 14.647 -161.339 13.576 QT
-160.831 12.506 -160.831 10.756 QT
-160.831 8.147 -161.979 7.006 QT
-163.128 5.866 -165.8 5.866 QT
-168.518 5.866 L
-169.096 5.866 -169.417 5.912 QT
-169.737 5.959 -169.94 6.186 QT
-170.143 6.412 -170.143 6.881 QT
-170.143 15.662 L
cp
f
GR
GS
[0.6 0 0 0.6 225.30016 409.39999] CT
0.149 GC
N
-148.706 26.959 M
-150.628 26.959 -152.269 25.983 QT
-153.909 25.006 -154.863 23.366 QT
-155.816 21.725 -155.816 19.787 QT
-155.816 18.319 -155.292 16.959 QT
-154.769 15.6 -153.792 14.53 QT
-152.816 13.459 -151.519 12.858 QT
-150.222 12.256 -148.706 12.256 QT
-146.738 12.256 -145.12 13.295 QT
-143.503 14.334 -142.566 16.076 QT
-141.628 17.819 -141.628 19.787 QT
-141.628 21.709 -142.581 23.358 QT
-143.534 25.006 -145.167 25.983 QT
-146.8 26.959 -148.706 26.959 QT
cp
-148.706 26.022 M
-146.144 26.022 -145.284 24.162 QT
-144.425 22.303 -144.425 19.428 QT
-144.425 17.819 -144.597 16.764 QT
-144.769 15.709 -145.347 14.85 QT
-145.706 14.319 -146.261 13.92 QT
-146.816 13.522 -147.433 13.311 QT
-148.05 13.1 -148.706 13.1 QT
-149.706 13.1 -150.605 13.553 QT
-151.503 14.006 -152.097 14.85 QT
-152.691 15.756 -152.855 16.842 QT
-153.019 17.928 -153.019 19.428 QT
-153.019 21.225 -152.706 22.655 QT
-152.394 24.084 -151.449 25.053 QT
-150.503 26.022 -148.706 26.022 QT
cp
f
GR
GS
[0.6 0 0 0.6 225.30016 409.39999] CT
0.149 GC
N
-134.674 26.6 M
-138.815 14.959 L
-139.096 14.256 -139.628 14.092 QT
-140.159 13.928 -141.174 13.928 QT
-141.174 12.803 L
-134.581 12.803 L
-134.581 13.928 L
-136.471 13.928 -136.471 14.725 QT
-136.456 14.772 -136.448 14.819 QT
-136.44 14.866 -136.44 14.959 QT
-133.362 23.584 L
-130.706 16.069 L
-131.128 14.959 L
-131.378 14.256 -131.924 14.092 QT
-132.471 13.928 -133.471 13.928 QT
-133.471 12.803 L
-127.159 12.803 L
-127.159 13.928 L
-129.049 13.928 -129.049 14.725 QT
-129.049 14.85 -129.018 14.959 QT
-125.815 23.975 L
-122.909 15.819 L
-122.846 15.569 -122.846 15.366 QT
-122.846 14.694 -123.417 14.311 QT
-123.987 13.928 -124.69 13.928 QT
-124.69 12.803 L
-119.253 12.803 L
-119.253 13.928 L
-120.221 13.928 -120.917 14.436 QT
-121.612 14.944 -121.94 15.819 QT
-125.753 26.6 L
-125.862 26.959 -126.237 26.959 QT
-126.487 26.959 L
-126.862 26.959 -126.971 26.6 QT
-130.206 17.475 L
-133.44 26.6 L
-133.596 26.959 -133.94 26.959 QT
-134.174 26.959 L
-134.565 26.959 -134.674 26.6 QT
cp
f
GR
GS
[0.6 0 0 0.6 225.30016 409.39999] CT
0.149 GC
N
-111.793 26.959 M
-113.746 26.959 -115.379 25.936 QT
-117.012 24.912 -117.942 23.201 QT
-118.871 21.491 -118.871 19.584 QT
-118.871 17.709 -118.02 16.022 QT
-117.168 14.334 -115.645 13.295 QT
-114.121 12.256 -112.246 12.256 QT
-110.777 12.256 -109.692 12.748 QT
-108.606 13.241 -107.902 14.116 QT
-107.199 14.991 -106.84 16.178 QT
-106.481 17.366 -106.481 18.787 QT
-106.481 19.209 -106.809 19.209 QT
-116.074 19.209 L
-116.074 19.553 L
-116.074 22.209 -115.004 24.116 QT
-113.934 26.022 -111.512 26.022 QT
-110.527 26.022 -109.692 25.584 QT
-108.856 25.147 -108.238 24.366 QT
-107.621 23.584 -107.402 22.694 QT
-107.371 22.584 -107.285 22.498 QT
-107.199 22.412 -107.09 22.412 QT
-106.809 22.412 L
-106.481 22.412 -106.481 22.819 QT
-106.934 24.631 -108.434 25.795 QT
-109.934 26.959 -111.793 26.959 QT
cp
-116.043 18.412 M
-108.746 18.412 L
-108.746 17.209 -109.082 15.975 QT
-109.418 14.741 -110.199 13.92 QT
-110.981 13.1 -112.246 13.1 QT
-114.059 13.1 -115.051 14.795 QT
-116.043 16.491 -116.043 18.412 QT
cp
f
GR
GS
[0.6 0 0 0.6 225.30016 409.39999] CT
0.149 GC
N
-104.86 26.6 M
-104.86 25.475 L
-103.766 25.475 -103.063 25.303 QT
-102.36 25.131 -102.36 24.459 QT
-102.36 15.725 L
-102.36 14.866 -102.617 14.483 QT
-102.875 14.1 -103.36 14.014 QT
-103.844 13.928 -104.86 13.928 QT
-104.86 12.803 L
-100.282 12.459 L
-100.282 15.584 L
-99.766 14.194 -98.813 13.326 QT
-97.86 12.459 -96.5 12.459 QT
-95.547 12.459 -94.797 13.022 QT
-94.047 13.584 -94.047 14.506 QT
-94.047 15.084 -94.461 15.514 QT
-94.875 15.944 -95.485 15.944 QT
-96.078 15.944 -96.5 15.522 QT
-96.922 15.1 -96.922 14.506 QT
-96.922 13.647 -96.313 13.287 QT
-96.5 13.287 L
-97.797 13.287 -98.617 14.225 QT
-99.438 15.162 -99.782 16.553 QT
-100.125 17.944 -100.125 19.209 QT
-100.125 24.459 L
-100.125 25.475 -97.016 25.475 QT
-97.016 26.6 L
-104.86 26.6 L
cp
f
GR
GS
[0.6 0 0 0.6 225.30016 409.39999] CT
0.149 GC
N
-81.667 26.6 M
-81.667 25.475 L
-78.37 25.475 -78.37 24.459 QT
-78.37 6.881 L
-78.37 5.866 -81.667 5.866 QT
-81.667 4.741 L
-70.276 4.741 L
-68.526 4.741 -66.776 5.459 QT
-65.026 6.178 -63.894 7.553 QT
-62.761 8.928 -62.761 10.756 QT
-62.761 12.537 -63.901 13.881 QT
-65.042 15.225 -66.776 15.92 QT
-68.511 16.616 -70.276 16.616 QT
-75.401 16.616 L
-75.401 24.459 L
-75.401 25.475 -72.104 25.475 QT
-72.104 26.6 L
-81.667 26.6 L
cp
-75.495 15.662 M
-71.151 15.662 L
-69.386 15.662 -68.292 15.155 QT
-67.198 14.647 -66.69 13.576 QT
-66.183 12.506 -66.183 10.756 QT
-66.183 8.147 -67.331 7.006 QT
-68.479 5.866 -71.151 5.866 QT
-73.87 5.866 L
-74.448 5.866 -74.769 5.912 QT
-75.089 5.959 -75.292 6.186 QT
-75.495 6.412 -75.495 6.881 QT
-75.495 15.662 L
cp
f
GR
GS
[0.6 0 0 0.6 225.30016 409.39999] CT
0.149 GC
N
-60.35 26.6 M
-60.35 25.475 L
-59.257 25.475 -58.553 25.303 QT
-57.85 25.131 -57.85 24.459 QT
-57.85 15.725 L
-57.85 14.866 -58.108 14.483 QT
-58.366 14.1 -58.85 14.014 QT
-59.335 13.928 -60.35 13.928 QT
-60.35 12.803 L
-55.772 12.459 L
-55.772 15.584 L
-55.257 14.194 -54.303 13.326 QT
-53.35 12.459 -51.991 12.459 QT
-51.038 12.459 -50.288 13.022 QT
-49.538 13.584 -49.538 14.506 QT
-49.538 15.084 -49.952 15.514 QT
-50.366 15.944 -50.975 15.944 QT
-51.569 15.944 -51.991 15.522 QT
-52.413 15.1 -52.413 14.506 QT
-52.413 13.647 -51.803 13.287 QT
-51.991 13.287 L
-53.288 13.287 -54.108 14.225 QT
-54.928 15.162 -55.272 16.553 QT
-55.616 17.944 -55.616 19.209 QT
-55.616 24.459 L
-55.616 25.475 -52.507 25.475 QT
-52.507 26.6 L
-60.35 26.6 L
cp
f
GR
GS
[0.6 0 0 0.6 225.30016 409.39999] CT
0.149 GC
N
-40.776 26.959 M
-42.698 26.959 -44.338 25.983 QT
-45.979 25.006 -46.932 23.366 QT
-47.885 21.725 -47.885 19.787 QT
-47.885 18.319 -47.362 16.959 QT
-46.838 15.6 -45.862 14.53 QT
-44.885 13.459 -43.588 12.858 QT
-42.291 12.256 -40.776 12.256 QT
-38.807 12.256 -37.19 13.295 QT
-35.573 14.334 -34.635 16.076 QT
-33.698 17.819 -33.698 19.787 QT
-33.698 21.709 -34.651 23.358 QT
-35.604 25.006 -37.237 25.983 QT
-38.869 26.959 -40.776 26.959 QT
cp
-40.776 26.022 M
-38.213 26.022 -37.354 24.162 QT
-36.494 22.303 -36.494 19.428 QT
-36.494 17.819 -36.666 16.764 QT
-36.838 15.709 -37.416 14.85 QT
-37.776 14.319 -38.33 13.92 QT
-38.885 13.522 -39.502 13.311 QT
-40.119 13.1 -40.776 13.1 QT
-41.776 13.1 -42.674 13.553 QT
-43.573 14.006 -44.166 14.85 QT
-44.76 15.756 -44.924 16.842 QT
-45.088 17.928 -45.088 19.428 QT
-45.088 21.225 -44.776 22.655 QT
-44.463 24.084 -43.518 25.053 QT
-42.573 26.022 -40.776 26.022 QT
cp
f
GR
GS
[0.6 0 0 0.6 225.30016 409.39999] CT
0.149 GC
N
-24.25 26.959 M
-26.141 26.959 -27.703 25.936 QT
-29.266 24.912 -30.133 23.241 QT
-31 21.569 -31 19.694 QT
-31 17.756 -30.055 16.092 QT
-29.11 14.428 -27.485 13.444 QT
-25.86 12.459 -23.906 12.459 QT
-22.735 12.459 -21.688 12.951 QT
-20.641 13.444 -19.875 14.319 QT
-19.875 7.662 L
-19.875 6.803 -20.133 6.42 QT
-20.391 6.037 -20.867 5.951 QT
-21.344 5.866 -22.36 5.866 QT
-22.36 4.741 L
-17.625 4.397 L
-17.625 23.694 L
-17.625 24.537 -17.367 24.92 QT
-17.11 25.303 -16.633 25.389 QT
-16.156 25.475 -15.141 25.475 QT
-15.141 26.6 L
-19.969 26.959 L
-19.969 24.944 L
-20.797 25.897 -21.938 26.428 QT
-23.078 26.959 -24.25 26.959 QT
cp
-27.516 23.819 M
-26.969 24.866 -26.055 25.491 QT
-25.141 26.116 -24.063 26.116 QT
-22.735 26.116 -21.625 25.35 QT
-20.516 24.584 -19.969 23.366 QT
-19.969 15.694 L
-20.344 14.991 -20.914 14.436 QT
-21.485 13.881 -22.195 13.584 QT
-22.906 13.287 -23.703 13.287 QT
-25.375 13.287 -26.391 14.233 QT
-27.406 15.178 -27.813 16.647 QT
-28.219 18.116 -28.219 19.725 QT
-28.219 21.006 -28.086 21.959 QT
-27.953 22.912 -27.516 23.819 QT
cp
f
GR
GS
[0.6 0 0 0.6 225.30016 409.39999] CT
0.149 GC
N
-11.017 22.787 M
-11.017 15.725 L
-11.017 14.866 -11.275 14.483 QT
-11.532 14.1 -12.017 14.014 QT
-12.501 13.928 -13.517 13.928 QT
-13.517 12.803 L
-8.673 12.459 L
-8.673 22.787 L
-8.673 24.037 -8.493 24.733 QT
-8.314 25.428 -7.728 25.772 QT
-7.142 26.116 -5.861 26.116 QT
-4.142 26.116 -3.126 24.678 QT
-2.111 23.241 -2.111 21.412 QT
-2.111 15.725 L
-2.111 14.866 -2.376 14.483 QT
-2.642 14.1 -3.118 14.014 QT
-3.595 13.928 -4.611 13.928 QT
-4.611 12.803 L
0.218 12.459 L
0.218 23.694 L
0.218 24.537 0.475 24.92 QT
0.733 25.303 1.218 25.389 QT
1.702 25.475 2.718 25.475 QT
2.718 26.6 L
-2.017 26.959 L
-2.017 24.256 L
-2.611 25.459 -3.673 26.209 QT
-4.736 26.959 -6.017 26.959 QT
-8.314 26.959 -9.665 25.983 QT
-11.017 25.006 -11.017 22.787 QT
cp
f
GR
GS
[0.6 0 0 0.6 225.30016 409.39999] CT
0.149 GC
N
11.091 26.959 M
9.154 26.959 7.576 25.951 QT
5.998 24.944 5.091 23.264 QT
4.185 21.584 4.185 19.694 QT
4.185 17.803 5.084 16.069 QT
5.982 14.334 7.568 13.295 QT
9.154 12.256 11.091 12.256 QT
12.966 12.256 14.505 12.991 QT
16.045 13.725 16.045 15.397 QT
16.045 16.022 15.599 16.483 QT
15.154 16.944 14.513 16.944 QT
13.873 16.944 13.427 16.483 QT
12.982 16.022 12.982 15.397 QT
12.982 14.834 13.341 14.42 QT
13.701 14.006 14.232 13.897 QT
13.123 13.194 11.123 13.194 QT
9.591 13.194 8.654 14.209 QT
7.716 15.225 7.341 16.725 QT
6.966 18.225 6.966 19.694 QT
6.966 21.241 7.427 22.686 QT
7.888 24.131 8.912 25.076 QT
9.935 26.022 11.482 26.022 QT
12.998 26.022 14.06 25.092 QT
15.123 24.162 15.513 22.662 QT
15.513 22.475 15.763 22.475 QT
16.154 22.475 L
16.248 22.475 16.326 22.561 QT
16.404 22.647 16.404 22.756 QT
16.404 22.85 L
15.92 24.741 14.482 25.85 QT
13.045 26.959 11.091 26.959 QT
cp
f
GR
GS
[0.6 0 0 0.6 225.30016 409.39999] CT
0.149 GC
N
20.462 22.756 M
20.462 13.928 L
17.806 13.928 L
17.806 13.1 L
19.9 13.1 20.884 11.147 QT
21.869 9.194 21.869 6.912 QT
22.79 6.912 L
22.79 12.803 L
27.306 12.803 L
27.306 13.928 L
22.79 13.928 L
22.79 22.694 L
22.79 24.022 23.236 25.022 QT
23.681 26.022 24.837 26.022 QT
25.931 26.022 26.415 24.967 QT
26.9 23.912 26.9 22.694 QT
26.9 20.803 L
27.822 20.803 L
27.822 22.756 L
27.822 23.756 27.455 24.733 QT
27.087 25.709 26.369 26.334 QT
25.65 26.959 24.619 26.959 QT
22.697 26.959 21.58 25.811 QT
20.462 24.662 20.462 22.756 QT
cp
f
GR
GS
[0.6 0 0 0.6 225.30016 409.39999] CT
0.149 GC
N
30.496 26.6 M
30.496 25.475 L
31.59 25.475 32.293 25.303 QT
32.996 25.131 32.996 24.459 QT
32.996 15.725 L
32.996 14.491 32.519 14.209 QT
32.043 13.928 30.637 13.928 QT
30.637 12.803 L
35.246 12.459 L
35.246 24.459 L
35.246 25.131 35.855 25.303 QT
36.465 25.475 37.48 25.475 QT
37.48 26.6 L
30.496 26.6 L
cp
31.855 6.959 M
31.855 6.256 32.387 5.725 QT
32.918 5.194 33.605 5.194 QT
34.058 5.194 34.48 5.428 QT
34.902 5.662 35.137 6.084 QT
35.371 6.506 35.371 6.959 QT
35.371 7.647 34.84 8.178 QT
34.308 8.709 33.605 8.709 QT
32.918 8.709 32.387 8.178 QT
31.855 7.647 31.855 6.959 QT
cp
f
GR
GS
[0.6 0 0 0.6 225.30016 409.39999] CT
0.149 GC
N
46.308 26.959 M
44.386 26.959 42.745 25.983 QT
41.105 25.006 40.152 23.366 QT
39.199 21.725 39.199 19.787 QT
39.199 18.319 39.722 16.959 QT
40.245 15.6 41.222 14.53 QT
42.199 13.459 43.495 12.858 QT
44.792 12.256 46.308 12.256 QT
48.277 12.256 49.894 13.295 QT
51.511 14.334 52.449 16.076 QT
53.386 17.819 53.386 19.787 QT
53.386 21.709 52.433 23.358 QT
51.48 25.006 49.847 25.983 QT
48.214 26.959 46.308 26.959 QT
cp
46.308 26.022 M
48.87 26.022 49.73 24.162 QT
50.589 22.303 50.589 19.428 QT
50.589 17.819 50.417 16.764 QT
50.245 15.709 49.667 14.85 QT
49.308 14.319 48.753 13.92 QT
48.199 13.522 47.581 13.311 QT
46.964 13.1 46.308 13.1 QT
45.308 13.1 44.409 13.553 QT
43.511 14.006 42.917 14.85 QT
42.324 15.756 42.159 16.842 QT
41.995 17.928 41.995 19.428 QT
41.995 21.225 42.308 22.655 QT
42.62 24.084 43.566 25.053 QT
44.511 26.022 46.308 26.022 QT
cp
f
GR
GS
[0.6 0 0 0.6 225.30016 409.39999] CT
0.149 GC
N
55.094 26.6 M
55.094 25.475 L
56.188 25.475 56.891 25.303 QT
57.594 25.131 57.594 24.459 QT
57.594 15.725 L
57.594 14.866 57.337 14.483 QT
57.079 14.1 56.594 14.014 QT
56.11 13.928 55.094 13.928 QT
55.094 12.803 L
59.735 12.459 L
59.735 15.584 L
60.376 14.209 61.633 13.334 QT
62.891 12.459 64.376 12.459 QT
66.594 12.459 67.712 13.522 QT
68.829 14.584 68.829 16.772 QT
68.829 24.459 L
68.829 25.131 69.532 25.303 QT
70.235 25.475 71.329 25.475 QT
71.329 26.6 L
64.001 26.6 L
64.001 25.475 L
65.094 25.475 65.798 25.303 QT
66.501 25.131 66.501 24.459 QT
66.501 16.866 L
66.501 15.303 66.048 14.295 QT
65.594 13.287 64.188 13.287 QT
62.329 13.287 61.133 14.772 QT
59.938 16.256 59.938 18.147 QT
59.938 24.459 L
59.938 25.131 60.641 25.303 QT
61.344 25.475 62.423 25.475 QT
62.423 26.6 L
55.094 26.6 L
cp
f
GR
GS
[0.6 0 0 0.6 225.30016 409.39999] CT
0.149 GC
N
92.211 34.537 M
90.43 33.131 89.141 31.311 QT
87.852 29.491 87.032 27.428 QT
86.211 25.366 85.805 23.116 QT
85.399 20.866 85.399 18.6 QT
85.399 16.303 85.805 14.053 QT
86.211 11.803 87.047 9.725 QT
87.883 7.647 89.18 5.834 QT
90.477 4.022 92.211 2.662 QT
92.211 2.6 92.368 2.6 QT
92.664 2.6 L
92.758 2.6 92.836 2.686 QT
92.914 2.772 92.914 2.881 QT
92.914 3.022 92.852 3.084 QT
91.289 4.616 90.25 6.366 QT
89.211 8.116 88.579 10.092 QT
87.946 12.069 87.664 14.186 QT
87.383 16.303 87.383 18.6 QT
87.383 28.772 92.821 34.053 QT
92.914 34.147 92.914 34.319 QT
92.914 34.397 92.829 34.498 QT
92.743 34.6 92.664 34.6 QT
92.368 34.6 L
92.211 34.6 92.211 34.537 QT
cp
f
GR
GS
[0.6 0 0 0.6 225.30016 409.39999] CT
0.149 GC
N
95.589 26.6 M
95.589 25.475 L
98.886 25.475 98.886 23.584 QT
98.886 6.053 L
97.839 5.866 95.589 5.866 QT
95.589 4.741 L
101.714 4.741 L
101.87 4.741 101.932 4.866 QT
113.261 21.537 L
113.261 7.756 L
113.261 5.866 109.964 5.866 QT
109.964 4.741 L
117.573 4.741 L
117.573 5.866 L
114.292 5.866 114.292 7.756 QT
114.292 26.319 L
114.292 26.412 114.167 26.506 QT
114.042 26.6 113.964 26.6 QT
113.573 26.6 L
113.417 26.6 113.354 26.475 QT
99.917 6.694 L
99.917 23.584 L
99.917 25.475 103.214 25.475 QT
103.214 26.6 L
95.589 26.6 L
cp
f
GR
GS
[0.6 0 0 0.6 225.30016 409.39999] CT
0.149 GC
N
126.354 26.959 M
124.432 26.959 122.792 25.983 QT
121.151 25.006 120.198 23.366 QT
119.245 21.725 119.245 19.787 QT
119.245 18.319 119.768 16.959 QT
120.292 15.6 121.268 14.53 QT
122.245 13.459 123.542 12.858 QT
124.839 12.256 126.354 12.256 QT
128.323 12.256 129.94 13.295 QT
131.557 14.334 132.495 16.076 QT
133.432 17.819 133.432 19.787 QT
133.432 21.709 132.479 23.358 QT
131.526 25.006 129.893 25.983 QT
128.261 26.959 126.354 26.959 QT
cp
126.354 26.022 M
128.917 26.022 129.776 24.162 QT
130.636 22.303 130.636 19.428 QT
130.636 17.819 130.464 16.764 QT
130.292 15.709 129.714 14.85 QT
129.354 14.319 128.8 13.92 QT
128.245 13.522 127.628 13.311 QT
127.011 13.1 126.354 13.1 QT
125.354 13.1 124.456 13.553 QT
123.557 14.006 122.964 14.85 QT
122.37 15.756 122.206 16.842 QT
122.042 17.928 122.042 19.428 QT
122.042 21.225 122.354 22.655 QT
122.667 24.084 123.612 25.053 QT
124.557 26.022 126.354 26.022 QT
cp
f
GR
GS
[0.6 0 0 0.6 225.30016 409.39999] CT
0.149 GC
N
135.016 26.6 M
135.016 25.475 L
136.11 25.475 136.813 25.303 QT
137.516 25.131 137.516 24.459 QT
137.516 15.725 L
137.516 14.866 137.258 14.483 QT
137 14.1 136.516 14.014 QT
136.031 13.928 135.016 13.928 QT
135.016 12.803 L
139.594 12.459 L
139.594 15.584 L
140.11 14.194 141.063 13.326 QT
142.016 12.459 143.375 12.459 QT
144.328 12.459 145.078 13.022 QT
145.828 13.584 145.828 14.506 QT
145.828 15.084 145.414 15.514 QT
145 15.944 144.391 15.944 QT
143.797 15.944 143.375 15.522 QT
142.953 15.1 142.953 14.506 QT
142.953 13.647 143.563 13.287 QT
143.375 13.287 L
142.078 13.287 141.258 14.225 QT
140.438 15.162 140.094 16.553 QT
139.75 17.944 139.75 19.209 QT
139.75 24.459 L
139.75 25.475 142.86 25.475 QT
142.86 26.6 L
135.016 26.6 L
cp
f
GR
GS
[0.6 0 0 0.6 225.30016 409.39999] CT
0.149 GC
N
147.544 26.6 M
147.544 25.475 L
148.637 25.475 149.341 25.303 QT
150.044 25.131 150.044 24.459 QT
150.044 15.725 L
150.044 14.866 149.786 14.483 QT
149.528 14.1 149.044 14.014 QT
148.559 13.928 147.544 13.928 QT
147.544 12.803 L
152.184 12.459 L
152.184 15.584 L
152.825 14.209 154.083 13.334 QT
155.341 12.459 156.825 12.459 QT
160.512 12.459 161.153 15.459 QT
161.794 14.116 163.028 13.287 QT
164.262 12.459 165.731 12.459 QT
167.184 12.459 168.176 12.928 QT
169.169 13.397 169.669 14.358 QT
170.169 15.319 170.169 16.772 QT
170.169 24.459 L
170.169 25.131 170.88 25.303 QT
171.591 25.475 172.669 25.475 QT
172.669 26.6 L
165.341 26.6 L
165.341 25.475 L
166.434 25.475 167.137 25.303 QT
167.841 25.131 167.841 24.459 QT
167.841 16.866 L
167.841 15.256 167.387 14.272 QT
166.934 13.287 165.528 13.287 QT
163.684 13.287 162.481 14.772 QT
161.278 16.256 161.278 18.147 QT
161.278 24.459 L
161.278 25.131 161.981 25.303 QT
162.684 25.475 163.778 25.475 QT
163.778 26.6 L
156.45 26.6 L
156.45 25.475 L
157.544 25.475 158.247 25.303 QT
158.95 25.131 158.95 24.459 QT
158.95 16.866 L
158.95 15.303 158.497 14.295 QT
158.044 13.287 156.637 13.287 QT
154.778 13.287 153.583 14.772 QT
152.387 16.256 152.387 18.147 QT
152.387 24.459 L
152.387 25.131 153.091 25.303 QT
153.794 25.475 154.872 25.475 QT
154.872 26.6 L
147.544 26.6 L
cp
f
GR
GS
[0.6 0 0 0.6 225.30016 409.39999] CT
0.149 GC
N
174.261 23.459 M
174.261 21.553 175.761 20.358 QT
177.261 19.162 179.362 18.67 QT
181.464 18.178 183.354 18.178 QT
183.354 16.866 L
183.354 15.944 182.948 15.076 QT
182.542 14.209 181.776 13.655 QT
181.011 13.1 180.089 13.1 QT
177.964 13.1 176.854 14.053 QT
177.464 14.053 177.862 14.514 QT
178.261 14.975 178.261 15.584 QT
178.261 16.225 177.808 16.678 QT
177.354 17.131 176.729 17.131 QT
176.089 17.131 175.636 16.678 QT
175.183 16.225 175.183 15.584 QT
175.183 13.897 176.714 13.076 QT
178.245 12.256 180.089 12.256 QT
181.386 12.256 182.698 12.811 QT
184.011 13.366 184.847 14.397 QT
185.683 15.428 185.683 16.803 QT
185.683 24.006 L
185.683 24.631 185.948 25.155 QT
186.214 25.678 186.776 25.678 QT
187.308 25.678 187.565 25.147 QT
187.823 24.616 187.823 24.006 QT
187.823 21.959 L
188.761 21.959 L
188.761 24.006 L
188.761 24.725 188.386 25.373 QT
188.011 26.022 187.378 26.405 QT
186.745 26.787 186.011 26.787 QT
185.073 26.787 184.394 26.061 QT
183.714 25.334 183.636 24.334 QT
183.042 25.537 181.886 26.248 QT
180.729 26.959 179.417 26.959 QT
178.198 26.959 177.019 26.6 QT
175.839 26.241 175.05 25.467 QT
174.261 24.694 174.261 23.459 QT
cp
176.854 23.459 M
176.854 24.584 177.683 25.35 QT
178.511 26.116 179.636 26.116 QT
180.667 26.116 181.511 25.6 QT
182.354 25.084 182.854 24.194 QT
183.354 23.303 183.354 22.319 QT
183.354 18.991 L
181.901 18.991 180.378 19.467 QT
178.854 19.944 177.854 20.959 QT
176.854 21.975 176.854 23.459 QT
cp
f
GR
GS
[0.6 0 0 0.6 225.30016 409.39999] CT
0.149 GC
N
189.797 26.6 M
189.797 25.475 L
190.891 25.475 191.594 25.303 QT
192.297 25.131 192.297 24.459 QT
192.297 7.662 L
192.297 6.803 192.039 6.42 QT
191.782 6.037 191.297 5.951 QT
190.813 5.866 189.797 5.866 QT
189.797 4.741 L
194.547 4.397 L
194.547 24.459 L
194.547 25.131 195.25 25.303 QT
195.954 25.475 197.032 25.475 QT
197.032 26.6 L
189.797 26.6 L
cp
f
GR
GS
[0.6 0 0 0.6 225.30016 409.39999] CT
0.149 GC
N
198.594 26.6 M
198.594 25.475 L
199.687 25.475 200.39 25.303 QT
201.094 25.131 201.094 24.459 QT
201.094 15.725 L
201.094 14.491 200.617 14.209 QT
200.14 13.928 198.734 13.928 QT
198.734 12.803 L
203.344 12.459 L
203.344 24.459 L
203.344 25.131 203.953 25.303 QT
204.562 25.475 205.578 25.475 QT
205.578 26.6 L
198.594 26.6 L
cp
199.953 6.959 M
199.953 6.256 200.484 5.725 QT
201.015 5.194 201.703 5.194 QT
202.156 5.194 202.578 5.428 QT
203 5.662 203.234 6.084 QT
203.469 6.506 203.469 6.959 QT
203.469 7.647 202.937 8.178 QT
202.406 8.709 201.703 8.709 QT
201.015 8.709 200.484 8.178 QT
199.953 7.647 199.953 6.959 QT
cp
f
GR
GS
[0.6 0 0 0.6 225.30016 409.39999] CT
0.149 GC
N
207.656 26.6 M
207.296 26.6 207.296 26.241 QT
207.296 25.991 L
207.296 25.866 207.39 25.772 QT
216.327 13.647 L
213.452 13.647 L
212.093 13.647 211.21 13.819 QT
210.327 13.991 209.757 14.467 QT
209.187 14.944 208.929 15.78 QT
208.671 16.616 208.671 18.084 QT
207.749 18.084 L
208.109 12.803 L
218.827 12.803 L
218.968 12.803 219.07 12.905 QT
219.171 13.006 219.171 13.162 QT
219.171 13.35 L
219.171 13.444 219.109 13.569 QT
210.156 25.678 L
213.218 25.678 L
214.609 25.678 215.538 25.506 QT
216.468 25.334 217.124 24.678 QT
217.734 24.069 217.96 23.037 QT
218.187 22.006 218.312 20.491 QT
219.234 20.491 L
218.687 26.6 L
207.656 26.6 L
cp
f
GR
GS
[0.6 0 0 0.6 225.30016 409.39999] CT
0.149 GC
N
228.448 26.959 M
226.495 26.959 224.862 25.936 QT
223.23 24.912 222.3 23.201 QT
221.37 21.491 221.37 19.584 QT
221.37 17.709 222.222 16.022 QT
223.073 14.334 224.597 13.295 QT
226.12 12.256 227.995 12.256 QT
229.464 12.256 230.55 12.748 QT
231.636 13.241 232.339 14.116 QT
233.042 14.991 233.401 16.178 QT
233.761 17.366 233.761 18.787 QT
233.761 19.209 233.433 19.209 QT
224.167 19.209 L
224.167 19.553 L
224.167 22.209 225.237 24.116 QT
226.308 26.022 228.73 26.022 QT
229.714 26.022 230.55 25.584 QT
231.386 25.147 232.003 24.366 QT
232.62 23.584 232.839 22.694 QT
232.87 22.584 232.956 22.498 QT
233.042 22.412 233.151 22.412 QT
233.433 22.412 L
233.761 22.412 233.761 22.819 QT
233.308 24.631 231.808 25.795 QT
230.308 26.959 228.448 26.959 QT
cp
224.198 18.412 M
231.495 18.412 L
231.495 17.209 231.159 15.975 QT
230.823 14.741 230.042 13.92 QT
229.261 13.1 227.995 13.1 QT
226.183 13.1 225.191 14.795 QT
224.198 16.491 224.198 18.412 QT
cp
f
GR
GS
[0.6 0 0 0.6 225.30016 409.39999] CT
0.149 GC
N
242.366 26.959 M
240.476 26.959 238.913 25.936 QT
237.351 24.912 236.483 23.241 QT
235.616 21.569 235.616 19.694 QT
235.616 17.756 236.561 16.092 QT
237.507 14.428 239.132 13.444 QT
240.757 12.459 242.71 12.459 QT
243.882 12.459 244.929 12.951 QT
245.976 13.444 246.741 14.319 QT
246.741 7.662 L
246.741 6.803 246.483 6.42 QT
246.226 6.037 245.749 5.951 QT
245.272 5.866 244.257 5.866 QT
244.257 4.741 L
248.991 4.397 L
248.991 23.694 L
248.991 24.537 249.249 24.92 QT
249.507 25.303 249.983 25.389 QT
250.46 25.475 251.476 25.475 QT
251.476 26.6 L
246.647 26.959 L
246.647 24.944 L
245.819 25.897 244.679 26.428 QT
243.538 26.959 242.366 26.959 QT
cp
239.101 23.819 M
239.647 24.866 240.561 25.491 QT
241.476 26.116 242.554 26.116 QT
243.882 26.116 244.991 25.35 QT
246.101 24.584 246.647 23.366 QT
246.647 15.694 L
246.272 14.991 245.702 14.436 QT
245.132 13.881 244.421 13.584 QT
243.71 13.287 242.913 13.287 QT
241.241 13.287 240.226 14.233 QT
239.21 15.178 238.804 16.647 QT
238.397 18.116 238.397 19.725 QT
238.397 21.006 238.53 21.959 QT
238.663 22.912 239.101 23.819 QT
cp
f
GR
GS
[0.6 0 0 0.6 225.30016 409.39999] CT
0.149 GC
N
254.224 34.6 M
253.943 34.6 253.943 34.319 QT
253.943 34.178 254.006 34.116 QT
259.474 28.772 259.474 18.6 QT
259.474 8.428 254.068 3.147 QT
253.943 3.069 253.943 2.881 QT
253.943 2.772 254.029 2.686 QT
254.115 2.6 254.224 2.6 QT
254.521 2.6 L
254.615 2.6 254.678 2.662 QT
256.974 4.475 258.506 7.069 QT
260.037 9.662 260.748 12.6 QT
261.459 15.537 261.459 18.6 QT
261.459 20.866 261.076 23.061 QT
260.693 25.256 259.857 27.389 QT
259.021 29.522 257.74 31.326 QT
256.459 33.131 254.678 34.537 QT
254.615 34.6 254.521 34.6 QT
254.224 34.6 L
cp
f
GR
GS
[0.6 0 0 0.6 0 0] CT
2 setlinecap
1 LJ
0.833 LW
N
94 640 M
94 54 L
S
GR
GS
[0.6 0 0 0.6 0 0] CT
2 setlinecap
1 LJ
0.833 LW
N
657 640 M
657 54 L
S
GR
GS
[0.6 0 0 0.6 0 0] CT
2 setlinecap
1 LJ
0.833 LW
N
94 640 M
99.86 640 L
S
GR
GS
[0.6 0 0 0.6 0 0] CT
2 setlinecap
1 LJ
0.833 LW
N
94 581.4 M
99.86 581.4 L
S
GR
GS
[0.6 0 0 0.6 0 0] CT
2 setlinecap
1 LJ
0.833 LW
N
94 522.8 M
99.86 522.8 L
S
GR
GS
[0.6 0 0 0.6 0 0] CT
2 setlinecap
1 LJ
0.833 LW
N
94 464.2 M
99.86 464.2 L
S
GR
GS
[0.6 0 0 0.6 0 0] CT
2 setlinecap
1 LJ
0.833 LW
N
94 405.6 M
99.86 405.6 L
S
GR
GS
[0.6 0 0 0.6 0 0] CT
2 setlinecap
1 LJ
0.833 LW
N
94 347 M
99.86 347 L
S
GR
GS
[0.6 0 0 0.6 0 0] CT
2 setlinecap
1 LJ
0.833 LW
N
94 288.4 M
99.86 288.4 L
S
GR
GS
[0.6 0 0 0.6 0 0] CT
2 setlinecap
1 LJ
0.833 LW
N
94 229.8 M
99.86 229.8 L
S
GR
GS
[0.6 0 0 0.6 0 0] CT
2 setlinecap
1 LJ
0.833 LW
N
94 171.2 M
99.86 171.2 L
S
GR
GS
[0.6 0 0 0.6 0 0] CT
2 setlinecap
1 LJ
0.833 LW
N
94 112.6 M
99.86 112.6 L
S
GR
GS
[0.6 0 0 0.6 0 0] CT
2 setlinecap
1 LJ
0.833 LW
N
94 54 M
99.86 54 L
S
GR
GS
[0.6 0 0 0.6 0 0] CT
2 setlinecap
1 LJ
0.833 LW
N
657 640 M
651.14 640 L
S
GR
GS
[0.6 0 0 0.6 0 0] CT
2 setlinecap
1 LJ
0.833 LW
N
657 581.4 M
651.14 581.4 L
S
GR
GS
[0.6 0 0 0.6 0 0] CT
2 setlinecap
1 LJ
0.833 LW
N
657 522.8 M
651.14 522.8 L
S
GR
GS
[0.6 0 0 0.6 0 0] CT
2 setlinecap
1 LJ
0.833 LW
N
657 464.2 M
651.14 464.2 L
S
GR
GS
[0.6 0 0 0.6 0 0] CT
2 setlinecap
1 LJ
0.833 LW
N
657 405.6 M
651.14 405.6 L
S
GR
GS
[0.6 0 0 0.6 0 0] CT
2 setlinecap
1 LJ
0.833 LW
N
657 347 M
651.14 347 L
S
GR
GS
[0.6 0 0 0.6 0 0] CT
2 setlinecap
1 LJ
0.833 LW
N
657 288.4 M
651.14 288.4 L
S
GR
GS
[0.6 0 0 0.6 0 0] CT
2 setlinecap
1 LJ
0.833 LW
N
657 229.8 M
651.14 229.8 L
S
GR
GS
[0.6 0 0 0.6 0 0] CT
2 setlinecap
1 LJ
0.833 LW
N
657 171.2 M
651.14 171.2 L
S
GR
GS
[0.6 0 0 0.6 0 0] CT
2 setlinecap
1 LJ
0.833 LW
N
657 112.6 M
651.14 112.6 L
S
GR
GS
[0.6 0 0 0.6 0 0] CT
2 setlinecap
1 LJ
0.833 LW
N
657 54 M
651.14 54 L
S
GR
GS
[0.6 0 0 0.6 51.2 384] CT
/Times-Roman 26.667 F
GS
[1 0 0 1 0 0] CT
-14 9.5 moveto 
1 -1 scale
(0) t 
GR
GR
GS
[0.6 0 0 0.6 51.2 348.84001] CT
/Times-Roman 26.667 F
GS
[1 0 0 1 0 0] CT
-34 9.5 moveto 
1 -1 scale
(0.1) t 
GR
GR
GS
[0.6 0 0 0.6 51.2 313.67999] CT
/Times-Roman 26.667 F
GS
[1 0 0 1 0 0] CT
-34 9.5 moveto 
1 -1 scale
(0.2) t 
GR
GR
GS
[0.6 0 0 0.6 51.2 278.51999] CT
/Times-Roman 26.667 F
GS
[1 0 0 1 0 0] CT
-34 9.5 moveto 
1 -1 scale
(0.3) t 
GR
GR
GS
[0.6 0 0 0.6 51.2 243.36] CT
/Times-Roman 26.667 F
GS
[1 0 0 1 0 0] CT
-34 9.5 moveto 
1 -1 scale
(0.4) t 
GR
GR
GS
[0.6 0 0 0.6 51.2 208.2] CT
/Times-Roman 26.667 F
GS
[1 0 0 1 0 0] CT
-34 9.5 moveto 
1 -1 scale
(0.5) t 
GR
GR
GS
[0.6 0 0 0.6 51.2 173.04] CT
/Times-Roman 26.667 F
GS
[1 0 0 1 0 0] CT
-34 9.5 moveto 
1 -1 scale
(0.6) t 
GR
GR
GS
[0.6 0 0 0.6 51.2 137.88] CT
/Times-Roman 26.667 F
GS
[1 0 0 1 0 0] CT
-34 9.5 moveto 
1 -1 scale
(0.7) t 
GR
GR
GS
[0.6 0 0 0.6 51.2 102.72] CT
/Times-Roman 26.667 F
GS
[1 0 0 1 0 0] CT
-34 9.5 moveto 
1 -1 scale
(0.8) t 
GR
GR
GS
[0.6 0 0 0.6 51.2 67.56001] CT
/Times-Roman 26.667 F
GS
[1 0 0 1 0 0] CT
-34 9.5 moveto 
1 -1 scale
(0.9) t 
GR
GR
GS
[0.6 0 0 0.6 51.2 32.4] CT
/Times-Roman 26.667 F
GS
[1 0 0 1 0 0] CT
-14 9.5 moveto 
1 -1 scale
(1) t 
GR
GR
GS
[0 -0.6 0.6 0 27.8 208.19984] CT
N
-134.533 -11.4 M
-134.533 -12.525 L
-131.236 -12.525 -131.236 -13.541 QT
-131.236 -31.119 L
-131.236 -32.134 -134.533 -32.134 QT
-134.533 -33.259 L
-123.142 -33.259 L
-121.392 -33.259 -119.642 -32.541 QT
-117.892 -31.822 -116.759 -30.447 QT
-115.626 -29.072 -115.626 -27.244 QT
-115.626 -25.463 -116.767 -24.119 QT
-117.908 -22.775 -119.642 -22.08 QT
-121.376 -21.384 -123.142 -21.384 QT
-128.267 -21.384 L
-128.267 -13.541 L
-128.267 -12.525 -124.97 -12.525 QT
-124.97 -11.4 L
-134.533 -11.4 L
cp
-128.361 -22.338 M
-124.017 -22.338 L
-122.251 -22.338 -121.158 -22.845 QT
-120.064 -23.353 -119.556 -24.424 QT
-119.048 -25.494 -119.048 -27.244 QT
-119.048 -29.853 -120.197 -30.994 QT
-121.345 -32.134 -124.017 -32.134 QT
-126.736 -32.134 L
-127.314 -32.134 -127.634 -32.088 QT
-127.955 -32.041 -128.158 -31.814 QT
-128.361 -31.588 -128.361 -31.119 QT
-128.361 -22.338 L
cp
f
GR
GS
[0 -0.6 0.6 0 27.8 208.19984] CT
N
-113.216 -11.4 M
-113.216 -12.525 L
-112.122 -12.525 -111.419 -12.697 QT
-110.716 -12.869 -110.716 -13.541 QT
-110.716 -22.275 L
-110.716 -23.134 -110.974 -23.517 QT
-111.232 -23.9 -111.716 -23.986 QT
-112.2 -24.072 -113.216 -24.072 QT
-113.216 -25.197 L
-108.638 -25.541 L
-108.638 -22.416 L
-108.122 -23.806 -107.169 -24.674 QT
-106.216 -25.541 -104.857 -25.541 QT
-103.904 -25.541 -103.154 -24.978 QT
-102.404 -24.416 -102.404 -23.494 QT
-102.404 -22.916 -102.818 -22.486 QT
-103.232 -22.056 -103.841 -22.056 QT
-104.435 -22.056 -104.857 -22.478 QT
-105.279 -22.9 -105.279 -23.494 QT
-105.279 -24.353 -104.669 -24.713 QT
-104.857 -24.713 L
-106.154 -24.713 -106.974 -23.775 QT
-107.794 -22.838 -108.138 -21.447 QT
-108.482 -20.056 -108.482 -18.791 QT
-108.482 -13.541 L
-108.482 -12.525 -105.372 -12.525 QT
-105.372 -11.4 L
-113.216 -11.4 L
cp
f
GR
GS
[0 -0.6 0.6 0 27.8 208.19984] CT
N
-93.641 -11.041 M
-95.563 -11.041 -97.204 -12.017 QT
-98.845 -12.994 -99.798 -14.634 QT
-100.751 -16.275 -100.751 -18.213 QT
-100.751 -19.681 -100.227 -21.041 QT
-99.704 -22.4 -98.727 -23.47 QT
-97.751 -24.541 -96.454 -25.142 QT
-95.157 -25.744 -93.641 -25.744 QT
-91.673 -25.744 -90.055 -24.705 QT
-88.438 -23.666 -87.501 -21.924 QT
-86.563 -20.181 -86.563 -18.213 QT
-86.563 -16.291 -87.516 -14.642 QT
-88.47 -12.994 -90.102 -12.017 QT
-91.735 -11.041 -93.641 -11.041 QT
cp
-93.641 -11.978 M
-91.079 -11.978 -90.22 -13.838 QT
-89.36 -15.697 -89.36 -18.572 QT
-89.36 -20.181 -89.532 -21.236 QT
-89.704 -22.291 -90.282 -23.15 QT
-90.641 -23.681 -91.196 -24.08 QT
-91.751 -24.478 -92.368 -24.689 QT
-92.985 -24.9 -93.641 -24.9 QT
-94.641 -24.9 -95.54 -24.447 QT
-96.438 -23.994 -97.032 -23.15 QT
-97.626 -22.244 -97.79 -21.158 QT
-97.954 -20.072 -97.954 -18.572 QT
-97.954 -16.775 -97.641 -15.345 QT
-97.329 -13.916 -96.384 -12.947 QT
-95.438 -11.978 -93.641 -11.978 QT
cp
f
GR
GS
[0 -0.6 0.6 0 27.8 208.19984] CT
N
-82.48 -11.4 M
-82.48 -30.338 L
-82.48 -31.197 -82.738 -31.58 QT
-82.996 -31.963 -83.48 -32.049 QT
-83.964 -32.134 -84.98 -32.134 QT
-84.98 -33.259 L
-80.246 -33.603 L
-80.246 -23.588 L
-79.714 -24.181 -79.003 -24.627 QT
-78.292 -25.072 -77.48 -25.306 QT
-76.667 -25.541 -75.824 -25.541 QT
-74.386 -25.541 -73.16 -24.963 QT
-71.933 -24.384 -71.027 -23.369 QT
-70.121 -22.353 -69.613 -21.033 QT
-69.105 -19.713 -69.105 -18.306 QT
-69.105 -16.369 -70.05 -14.697 QT
-70.996 -13.025 -72.628 -12.033 QT
-74.261 -11.041 -76.214 -11.041 QT
-77.433 -11.041 -78.574 -11.666 QT
-79.714 -12.291 -80.464 -13.322 QT
-81.558 -11.4 L
-82.48 -11.4 L
cp
-80.152 -14.541 M
-79.621 -13.369 -78.621 -12.627 QT
-77.621 -11.884 -76.402 -11.884 QT
-74.746 -11.884 -73.722 -12.838 QT
-72.699 -13.791 -72.292 -15.244 QT
-71.886 -16.697 -71.886 -18.306 QT
-71.886 -21.009 -72.589 -22.416 QT
-72.902 -23.041 -73.441 -23.572 QT
-73.98 -24.103 -74.644 -24.408 QT
-75.308 -24.713 -76.042 -24.713 QT
-77.324 -24.713 -78.417 -24.033 QT
-79.511 -23.353 -80.152 -22.213 QT
-80.152 -14.541 L
cp
f
GR
GS
[0 -0.6 0.6 0 27.8 208.19984] CT
N
-66.934 -14.541 M
-66.934 -16.447 -65.434 -17.642 QT
-63.934 -18.838 -61.833 -19.33 QT
-59.731 -19.822 -57.84 -19.822 QT
-57.84 -21.134 L
-57.84 -22.056 -58.247 -22.924 QT
-58.653 -23.791 -59.419 -24.345 QT
-60.184 -24.9 -61.106 -24.9 QT
-63.231 -24.9 -64.34 -23.947 QT
-63.731 -23.947 -63.333 -23.486 QT
-62.934 -23.025 -62.934 -22.416 QT
-62.934 -21.775 -63.387 -21.322 QT
-63.84 -20.869 -64.465 -20.869 QT
-65.106 -20.869 -65.559 -21.322 QT
-66.012 -21.775 -66.012 -22.416 QT
-66.012 -24.103 -64.481 -24.924 QT
-62.95 -25.744 -61.106 -25.744 QT
-59.809 -25.744 -58.497 -25.189 QT
-57.184 -24.634 -56.348 -23.603 QT
-55.512 -22.572 -55.512 -21.197 QT
-55.512 -13.994 L
-55.512 -13.369 -55.247 -12.845 QT
-54.981 -12.322 -54.419 -12.322 QT
-53.887 -12.322 -53.629 -12.853 QT
-53.372 -13.384 -53.372 -13.994 QT
-53.372 -16.041 L
-52.434 -16.041 L
-52.434 -13.994 L
-52.434 -13.275 -52.809 -12.627 QT
-53.184 -11.978 -53.817 -11.595 QT
-54.45 -11.213 -55.184 -11.213 QT
-56.122 -11.213 -56.801 -11.939 QT
-57.481 -12.666 -57.559 -13.666 QT
-58.153 -12.463 -59.309 -11.752 QT
-60.465 -11.041 -61.778 -11.041 QT
-62.997 -11.041 -64.176 -11.4 QT
-65.356 -11.759 -66.145 -12.533 QT
-66.934 -13.306 -66.934 -14.541 QT
cp
-64.34 -14.541 M
-64.34 -13.416 -63.512 -12.65 QT
-62.684 -11.884 -61.559 -11.884 QT
-60.528 -11.884 -59.684 -12.4 QT
-58.84 -12.916 -58.34 -13.806 QT
-57.84 -14.697 -57.84 -15.681 QT
-57.84 -19.009 L
-59.294 -19.009 -60.817 -18.533 QT
-62.34 -18.056 -63.34 -17.041 QT
-64.34 -16.025 -64.34 -14.541 QT
cp
f
GR
GS
[0 -0.6 0.6 0 27.8 208.19984] CT
N
-49.054 -11.4 M
-49.054 -30.338 L
-49.054 -31.197 -49.312 -31.58 QT
-49.57 -31.963 -50.054 -32.049 QT
-50.538 -32.134 -51.554 -32.134 QT
-51.554 -33.259 L
-46.82 -33.603 L
-46.82 -23.588 L
-46.288 -24.181 -45.577 -24.627 QT
-44.866 -25.072 -44.054 -25.306 QT
-43.241 -25.541 -42.398 -25.541 QT
-40.96 -25.541 -39.734 -24.963 QT
-38.507 -24.384 -37.601 -23.369 QT
-36.695 -22.353 -36.187 -21.033 QT
-35.679 -19.713 -35.679 -18.306 QT
-35.679 -16.369 -36.624 -14.697 QT
-37.57 -13.025 -39.202 -12.033 QT
-40.835 -11.041 -42.788 -11.041 QT
-44.007 -11.041 -45.148 -11.666 QT
-46.288 -12.291 -47.038 -13.322 QT
-48.132 -11.4 L
-49.054 -11.4 L
cp
-46.726 -14.541 M
-46.195 -13.369 -45.195 -12.627 QT
-44.195 -11.884 -42.976 -11.884 QT
-41.32 -11.884 -40.296 -12.838 QT
-39.273 -13.791 -38.866 -15.244 QT
-38.46 -16.697 -38.46 -18.306 QT
-38.46 -21.009 -39.163 -22.416 QT
-39.476 -23.041 -40.015 -23.572 QT
-40.554 -24.103 -41.218 -24.408 QT
-41.882 -24.713 -42.616 -24.713 QT
-43.898 -24.713 -44.991 -24.033 QT
-46.085 -23.353 -46.726 -22.213 QT
-46.726 -14.541 L
cp
f
GR
GS
[0 -0.6 0.6 0 27.8 208.19984] CT
N
-33.805 -11.4 M
-33.805 -12.525 L
-32.711 -12.525 -32.008 -12.697 QT
-31.305 -12.869 -31.305 -13.541 QT
-31.305 -22.275 L
-31.305 -23.509 -31.782 -23.791 QT
-32.258 -24.072 -33.664 -24.072 QT
-33.664 -25.197 L
-29.055 -25.541 L
-29.055 -13.541 L
-29.055 -12.869 -28.446 -12.697 QT
-27.836 -12.525 -26.821 -12.525 QT
-26.821 -11.4 L
-33.805 -11.4 L
cp
-32.446 -31.041 M
-32.446 -31.744 -31.914 -32.275 QT
-31.383 -32.806 -30.696 -32.806 QT
-30.242 -32.806 -29.821 -32.572 QT
-29.399 -32.338 -29.164 -31.916 QT
-28.93 -31.494 -28.93 -31.041 QT
-28.93 -30.353 -29.461 -29.822 QT
-29.992 -29.291 -30.696 -29.291 QT
-31.383 -29.291 -31.914 -29.822 QT
-32.446 -30.353 -32.446 -31.041 QT
cp
f
GR
GS
[0 -0.6 0.6 0 27.8 208.19984] CT
N
-25.009 -11.4 M
-25.009 -12.525 L
-23.915 -12.525 -23.212 -12.697 QT
-22.509 -12.869 -22.509 -13.541 QT
-22.509 -30.338 L
-22.509 -31.197 -22.766 -31.58 QT
-23.024 -31.963 -23.509 -32.049 QT
-23.993 -32.134 -25.009 -32.134 QT
-25.009 -33.259 L
-20.259 -33.603 L
-20.259 -13.541 L
-20.259 -12.869 -19.556 -12.697 QT
-18.852 -12.525 -17.774 -12.525 QT
-17.774 -11.4 L
-25.009 -11.4 L
cp
f
GR
GS
[0 -0.6 0.6 0 27.8 208.19984] CT
N
-16.212 -11.4 M
-16.212 -12.525 L
-15.119 -12.525 -14.415 -12.697 QT
-13.712 -12.869 -13.712 -13.541 QT
-13.712 -22.275 L
-13.712 -23.509 -14.189 -23.791 QT
-14.665 -24.072 -16.072 -24.072 QT
-16.072 -25.197 L
-11.462 -25.541 L
-11.462 -13.541 L
-11.462 -12.869 -10.853 -12.697 QT
-10.244 -12.525 -9.228 -12.525 QT
-9.228 -11.4 L
-16.212 -11.4 L
cp
-14.853 -31.041 M
-14.853 -31.744 -14.322 -32.275 QT
-13.79 -32.806 -13.103 -32.806 QT
-12.65 -32.806 -12.228 -32.572 QT
-11.806 -32.338 -11.572 -31.916 QT
-11.337 -31.494 -11.337 -31.041 QT
-11.337 -30.353 -11.869 -29.822 QT
-12.4 -29.291 -13.103 -29.291 QT
-13.79 -29.291 -14.322 -29.822 QT
-14.853 -30.353 -14.853 -31.041 QT
cp
f
GR
GS
[0 -0.6 0.6 0 27.8 208.19984] CT
N
-5.135 -15.244 M
-5.135 -24.072 L
-7.791 -24.072 L
-7.791 -24.9 L
-5.697 -24.9 -4.713 -26.853 QT
-3.729 -28.806 -3.729 -31.088 QT
-2.807 -31.088 L
-2.807 -25.197 L
1.709 -25.197 L
1.709 -24.072 L
-2.807 -24.072 L
-2.807 -15.306 L
-2.807 -13.978 -2.361 -12.978 QT
-1.916 -11.978 -0.76 -11.978 QT
0.334 -11.978 0.818 -13.033 QT
1.303 -14.088 1.303 -15.306 QT
1.303 -17.197 L
2.225 -17.197 L
2.225 -15.244 L
2.225 -14.244 1.857 -13.267 QT
1.49 -12.291 0.771 -11.666 QT
0.053 -11.041 -0.979 -11.041 QT
-2.9 -11.041 -4.018 -12.189 QT
-5.135 -13.338 -5.135 -15.244 QT
cp
f
GR
GS
[0 -0.6 0.6 0 27.8 208.19984] CT
N
5.238 -6.15 M
5.847 -5.666 6.582 -5.666 QT
8.597 -5.666 9.879 -8.713 QT
10.972 -11.4 L
6.175 -23.15 L
5.879 -23.744 5.269 -23.908 QT
4.66 -24.072 3.644 -24.072 QT
3.644 -25.197 L
10.363 -25.197 L
10.363 -24.072 L
8.597 -24.072 8.597 -23.306 QT
8.597 -23.181 8.629 -23.119 QT
12.191 -14.369 L
15.394 -22.244 L
15.488 -22.494 15.488 -22.791 QT
15.488 -23.181 15.277 -23.47 QT
15.066 -23.759 14.73 -23.916 QT
14.394 -24.072 13.972 -24.072 QT
13.972 -25.197 L
19.285 -25.197 L
19.285 -24.072 L
18.3 -24.072 17.558 -23.619 QT
16.816 -23.166 16.41 -22.275 QT
10.879 -8.713 L
10.441 -7.681 9.855 -6.814 QT
9.269 -5.947 8.425 -5.392 QT
7.582 -4.838 6.582 -4.838 QT
5.41 -4.838 4.527 -5.611 QT
3.644 -6.384 3.644 -7.525 QT
3.644 -8.119 4.05 -8.525 QT
4.457 -8.931 5.05 -8.931 QT
5.457 -8.931 5.777 -8.752 QT
6.097 -8.572 6.277 -8.259 QT
6.457 -7.947 6.457 -7.525 QT
6.457 -7.009 6.113 -6.603 QT
5.769 -6.197 5.238 -6.15 QT
cp
f
GR
GS
[0 -0.6 0.6 0 27.8 208.19984] CT
N
31.366 -11.4 M
31.366 -12.525 L
34.663 -12.525 34.663 -13.541 QT
34.663 -31.119 L
34.663 -32.134 31.366 -32.134 QT
31.366 -33.259 L
43.163 -33.259 L
45.35 -33.259 47.163 -32.314 QT
48.975 -31.369 50.257 -29.791 QT
51.538 -28.213 52.233 -26.213 QT
52.928 -24.213 52.928 -22.119 QT
52.928 -20.088 52.225 -18.174 QT
51.522 -16.259 50.202 -14.72 QT
48.882 -13.181 47.077 -12.291 QT
45.272 -11.4 43.163 -11.4 QT
31.366 -11.4 L
cp
37.538 -13.541 M
37.538 -12.853 37.928 -12.689 QT
38.319 -12.525 39.163 -12.525 QT
42.335 -12.525 L
43.975 -12.525 45.452 -13.236 QT
46.928 -13.947 47.897 -15.213 QT
48.913 -16.556 49.257 -18.22 QT
49.6 -19.884 49.6 -22.119 QT
49.6 -24.447 49.257 -26.197 QT
48.913 -27.947 47.897 -29.322 QT
46.944 -30.681 45.475 -31.408 QT
44.007 -32.134 42.335 -32.134 QT
39.163 -32.134 L
38.585 -32.134 38.264 -32.088 QT
37.944 -32.041 37.741 -31.814 QT
37.538 -31.588 37.538 -31.119 QT
37.538 -13.541 L
cp
f
GR
GS
[0 -0.6 0.6 0 27.8 208.19984] CT
N
62.462 -11.041 M
60.509 -11.041 58.876 -12.064 QT
57.243 -13.088 56.314 -14.799 QT
55.384 -16.509 55.384 -18.416 QT
55.384 -20.291 56.235 -21.978 QT
57.087 -23.666 58.61 -24.705 QT
60.134 -25.744 62.009 -25.744 QT
63.478 -25.744 64.564 -25.252 QT
65.649 -24.759 66.353 -23.884 QT
67.056 -23.009 67.415 -21.822 QT
67.774 -20.634 67.774 -19.213 QT
67.774 -18.791 67.446 -18.791 QT
58.181 -18.791 L
58.181 -18.447 L
58.181 -15.791 59.251 -13.884 QT
60.321 -11.978 62.743 -11.978 QT
63.728 -11.978 64.564 -12.416 QT
65.399 -12.853 66.017 -13.634 QT
66.634 -14.416 66.853 -15.306 QT
66.884 -15.416 66.97 -15.502 QT
67.056 -15.588 67.165 -15.588 QT
67.446 -15.588 L
67.774 -15.588 67.774 -15.181 QT
67.321 -13.369 65.821 -12.205 QT
64.321 -11.041 62.462 -11.041 QT
cp
58.212 -19.588 M
65.509 -19.588 L
65.509 -20.791 65.173 -22.025 QT
64.837 -23.259 64.056 -24.08 QT
63.274 -24.9 62.009 -24.9 QT
60.196 -24.9 59.204 -23.205 QT
58.212 -21.509 58.212 -19.588 QT
cp
f
GR
GS
[0 -0.6 0.6 0 27.8 208.19984] CT
N
69.52 -11.4 M
69.52 -12.525 L
70.614 -12.525 71.317 -12.697 QT
72.02 -12.869 72.02 -13.541 QT
72.02 -22.275 L
72.02 -23.134 71.763 -23.517 QT
71.505 -23.9 71.02 -23.986 QT
70.536 -24.072 69.52 -24.072 QT
69.52 -25.197 L
74.161 -25.541 L
74.161 -22.416 L
74.802 -23.791 76.059 -24.666 QT
77.317 -25.541 78.802 -25.541 QT
81.02 -25.541 82.138 -24.478 QT
83.255 -23.416 83.255 -21.228 QT
83.255 -13.541 L
83.255 -12.869 83.958 -12.697 QT
84.661 -12.525 85.755 -12.525 QT
85.755 -11.4 L
78.427 -11.4 L
78.427 -12.525 L
79.52 -12.525 80.224 -12.697 QT
80.927 -12.869 80.927 -13.541 QT
80.927 -21.134 L
80.927 -22.697 80.474 -23.705 QT
80.02 -24.713 78.614 -24.713 QT
76.755 -24.713 75.559 -23.228 QT
74.364 -21.744 74.364 -19.853 QT
74.364 -13.541 L
74.364 -12.869 75.067 -12.697 QT
75.77 -12.525 76.849 -12.525 QT
76.849 -11.4 L
69.52 -11.4 L
cp
f
GR
GS
[0 -0.6 0.6 0 27.8 208.19984] CT
N
87.222 -11.306 M
87.222 -16.525 L
87.222 -16.775 87.504 -16.775 QT
87.894 -16.775 L
88.082 -16.775 88.144 -16.525 QT
89.035 -11.884 92.457 -11.884 QT
93.972 -11.884 94.996 -12.572 QT
96.019 -13.259 96.019 -14.697 QT
96.019 -15.728 95.222 -16.455 QT
94.426 -17.181 93.332 -17.447 QT
91.191 -17.869 L
90.113 -18.103 89.23 -18.588 QT
88.347 -19.072 87.785 -19.877 QT
87.222 -20.681 87.222 -21.744 QT
87.222 -23.15 87.965 -24.049 QT
88.707 -24.947 89.894 -25.345 QT
91.082 -25.744 92.457 -25.744 QT
94.097 -25.744 95.316 -24.869 QT
96.238 -25.666 L
96.238 -25.744 96.394 -25.744 QT
96.629 -25.744 L
96.722 -25.744 96.801 -25.658 QT
96.879 -25.572 96.879 -25.478 QT
96.879 -21.291 L
96.879 -20.994 96.629 -20.994 QT
96.238 -20.994 L
95.957 -20.994 95.957 -21.291 QT
95.957 -22.963 95.027 -23.978 QT
94.097 -24.994 92.426 -24.994 QT
90.988 -24.994 89.933 -24.463 QT
88.879 -23.931 88.879 -22.634 QT
88.879 -21.744 89.637 -21.174 QT
90.394 -20.603 91.41 -20.353 QT
93.582 -19.947 L
94.676 -19.697 95.621 -19.103 QT
96.566 -18.509 97.121 -17.603 QT
97.676 -16.697 97.676 -15.556 QT
97.676 -14.4 97.277 -13.549 QT
96.879 -12.697 96.168 -12.134 QT
95.457 -11.572 94.488 -11.306 QT
93.519 -11.041 92.457 -11.041 QT
90.457 -11.041 89.035 -12.384 QT
87.863 -11.119 L
87.863 -11.041 87.691 -11.041 QT
87.504 -11.041 L
87.222 -11.041 87.222 -11.306 QT
cp
f
GR
GS
[0 -0.6 0.6 0 27.8 208.19984] CT
N
99.635 -11.4 M
99.635 -12.525 L
100.729 -12.525 101.432 -12.697 QT
102.135 -12.869 102.135 -13.541 QT
102.135 -22.275 L
102.135 -23.509 101.658 -23.791 QT
101.182 -24.072 99.776 -24.072 QT
99.776 -25.197 L
104.385 -25.541 L
104.385 -13.541 L
104.385 -12.869 104.994 -12.697 QT
105.604 -12.525 106.619 -12.525 QT
106.619 -11.4 L
99.635 -11.4 L
cp
100.994 -31.041 M
100.994 -31.744 101.526 -32.275 QT
102.057 -32.806 102.744 -32.806 QT
103.198 -32.806 103.619 -32.572 QT
104.041 -32.338 104.276 -31.916 QT
104.51 -31.494 104.51 -31.041 QT
104.51 -30.353 103.979 -29.822 QT
103.448 -29.291 102.744 -29.291 QT
102.057 -29.291 101.526 -29.822 QT
100.994 -30.353 100.994 -31.041 QT
cp
f
GR
GS
[0 -0.6 0.6 0 27.8 208.19984] CT
N
110.713 -15.244 M
110.713 -24.072 L
108.056 -24.072 L
108.056 -24.9 L
110.15 -24.9 111.134 -26.853 QT
112.119 -28.806 112.119 -31.088 QT
113.041 -31.088 L
113.041 -25.197 L
117.556 -25.197 L
117.556 -24.072 L
113.041 -24.072 L
113.041 -15.306 L
113.041 -13.978 113.486 -12.978 QT
113.931 -11.978 115.088 -11.978 QT
116.181 -11.978 116.666 -13.033 QT
117.15 -14.088 117.15 -15.306 QT
117.15 -17.197 L
118.072 -17.197 L
118.072 -15.244 L
118.072 -14.244 117.705 -13.267 QT
117.338 -12.291 116.619 -11.666 QT
115.9 -11.041 114.869 -11.041 QT
112.947 -11.041 111.83 -12.189 QT
110.713 -13.338 110.713 -15.244 QT
cp
f
GR
GS
[0 -0.6 0.6 0 27.8 208.19984] CT
N
121.085 -6.15 M
121.695 -5.666 122.429 -5.666 QT
124.445 -5.666 125.726 -8.713 QT
126.82 -11.4 L
122.023 -23.15 L
121.726 -23.744 121.117 -23.908 QT
120.507 -24.072 119.492 -24.072 QT
119.492 -25.197 L
126.21 -25.197 L
126.21 -24.072 L
124.445 -24.072 124.445 -23.306 QT
124.445 -23.181 124.476 -23.119 QT
128.038 -14.369 L
131.242 -22.244 L
131.335 -22.494 131.335 -22.791 QT
131.335 -23.181 131.124 -23.47 QT
130.913 -23.759 130.578 -23.916 QT
130.242 -24.072 129.82 -24.072 QT
129.82 -25.197 L
135.132 -25.197 L
135.132 -24.072 L
134.148 -24.072 133.406 -23.619 QT
132.663 -23.166 132.257 -22.275 QT
126.726 -8.713 L
126.288 -7.681 125.703 -6.814 QT
125.117 -5.947 124.273 -5.392 QT
123.429 -4.838 122.429 -4.838 QT
121.257 -4.838 120.374 -5.611 QT
119.492 -6.384 119.492 -7.525 QT
119.492 -8.119 119.898 -8.525 QT
120.304 -8.931 120.898 -8.931 QT
121.304 -8.931 121.624 -8.752 QT
121.945 -8.572 122.124 -8.259 QT
122.304 -7.947 122.304 -7.525 QT
122.304 -7.009 121.96 -6.603 QT
121.617 -6.197 121.085 -6.15 QT
cp
f
GR
GS
[0.6 0 0 0.6 0 0] CT
0 0.447 0.741 RC
1 LJ
0.833 LW
N
94 640 M
94.023 638.534 L
94.046 637.725 L
94.069 637.052 L
94.092 636.452 L
94.115 635.902 L
94.138 635.387 L
94.161 634.899 L
94.183 634.434 L
94.206 633.987 L
94.229 633.556 L
94.252 633.138 L
94.275 632.732 L
94.321 631.951 L
94.367 631.203 L
94.413 630.484 L
94.459 629.789 L
94.55 628.458 L
94.642 627.191 L
94.734 625.977 L
94.917 623.672 L
95.101 621.495 L
95.284 619.418 L
95.468 617.422 L
95.835 613.621 L
96.202 610.02 L
96.935 603.257 L
97.669 596.924 L
98.403 590.912 L
99.871 579.599 L
101.338 569.002 L
102.806 558.951 L
105.742 540.111 L
112.666 500.426 L
119.591 465.522 L
126.289 435.211 L
132.987 407.699 L
145.182 363.561 L
157.736 324.734 L
170.773 290.196 L
184.891 258.248 L
196.364 235.778 L
210.624 211.503 L
221.955 194.682 L
234.299 178.483 L
247.545 163.227 L
259.846 150.765 L
273.136 138.892 L
287.41 127.734 L
298.727 119.906 L
312.45 111.47 L
324.318 104.997 L
337.786 98.464 L
349.909 93.237 L
362.586 88.358 L
375.5 83.936 L
388.299 80.039 L
401.091 76.576 L
414.395 73.381 L
426.682 70.762 L
440.503 68.155 L
452.273 66.19 L
464.849 64.324 L
477.864 62.622 L
490.743 61.146 L
503.455 59.872 L
516.26 58.756 L
529.045 57.792 L
542.774 56.91 L
554.636 56.263 L
566.828 55.701 L
580.227 55.191 L
593.654 54.783 L
605.818 54.496 L
615.476 54.319 L
631.409 54.117 L
643.967 54.029 L
657 54 L
S
GR
GS
[0.6 0 0 0.6 0 0] CT
0.851 0.325 0.098 RC
1 LJ
0.833 LW
N
94 640 M
105.742 639.734 L
119.591 638.674 L
132.987 636.774 L
145.182 634.198 L
157.736 630.603 L
170.773 625.746 L
184.891 619.056 L
196.364 612.424 L
210.624 602.555 L
221.955 593.344 L
234.299 581.85 L
247.545 567.753 L
259.846 552.988 L
273.136 535.204 L
287.41 514.022 L
298.727 495.754 L
312.45 471.981 L
324.318 450.136 L
337.786 424.125 L
349.909 399.836 L
362.586 373.827 L
375.5 347 L
388.299 320.412 L
401.091 294.164 L
414.395 267.549 L
426.682 243.864 L
440.503 218.533 L
452.273 198.246 L
464.849 178.026 L
477.864 158.796 L
490.743 141.534 L
503.455 126.247 L
516.26 112.59 L
529.045 100.656 L
542.774 89.654 L
554.636 81.576 L
566.828 74.564 L
580.227 68.254 L
593.654 63.27 L
605.818 59.802 L
615.476 57.692 L
631.409 55.326 L
643.967 54.329 L
657 54 L
S
GR
GS
[0.6 0 0 0.6 0 0] CT
0.929 0.694 0.125 RC
1 LJ
0.833 LW
N
94 640 M
105.742 640 L
119.591 640 L
132.987 640 L
145.182 640 L
157.736 640 L
170.773 640 L
184.891 640 L
196.364 640 L
210.624 640 L
221.955 640 L
234.299 640 L
247.545 640 L
259.846 640 L
273.136 640 L
287.41 640 L
298.727 639.999 L
312.45 639.998 L
324.318 639.995 L
337.786 639.99 L
349.909 639.982 L
362.586 639.965 L
375.5 639.935 L
388.299 639.882 L
401.091 639.791 L
414.395 639.63 L
426.682 639.385 L
440.503 638.929 L
452.273 638.304 L
464.849 637.26 L
477.864 635.544 L
484.303 634.351 L
490.743 632.853 L
497.099 630.999 L
503.455 628.682 L
506.656 627.305 L
509.857 625.763 L
513.059 624.04 L
516.26 622.112 L
519.456 619.961 L
522.653 617.557 L
525.849 614.871 L
529.045 611.869 L
532.478 608.255 L
535.91 604.187 L
539.342 599.61 L
542.774 594.464 L
545.74 589.508 L
548.705 584.029 L
554.636 571.301 L
560.732 555.363 L
566.828 536.005 L
573.528 510.136 L
580.227 478.811 L
586.941 441.484 L
593.654 398.175 L
599.736 354.293 L
605.818 307.131 L
610.647 268.508 L
615.476 230.079 L
619.46 199.441 L
623.443 170.544 L
627.426 144.069 L
631.409 120.587 L
634.549 104.47 L
637.688 90.607 L
640.827 79.06 L
642.397 74.156 L
643.967 69.824 L
645.596 65.922 L
647.225 62.612 L
648.04 61.172 L
648.854 59.874 L
649.669 58.714 L
650.483 57.69 L
651.298 56.798 L
651.705 56.401 L
652.113 56.035 L
652.52 55.702 L
652.927 55.399 L
653.334 55.128 L
653.742 54.886 L
654.149 54.675 L
654.556 54.493 L
654.964 54.341 L
655.371 54.217 L
655.778 54.121 L
656.185 54.054 L
656.593 54.013 L
657 54 L
S
GR
GS
[0.6 0 0 0.6 0 0] CT
0.635 0.078 0.184 RC
[10 6] 0 setdash
2 LJ
0.833 LW
N
94 640 M
99.871 639.988 L
102.806 639.938 L
105.742 639.785 L
107.473 639.606 L
109.204 639.322 L
110.069 639.127 L
110.935 638.889 L
111.801 638.601 L
112.666 638.255 L
113.532 637.841 L
114.397 637.349 L
115.263 636.769 L
116.129 636.089 L
116.994 635.295 L
117.86 634.373 L
118.725 633.307 L
119.591 632.08 L
120.428 630.723 L
121.265 629.18 L
122.103 627.433 L
122.94 625.462 L
124.615 620.763 L
126.289 614.905 L
127.964 607.702 L
128.801 603.537 L
129.638 598.966 L
130.476 593.965 L
131.313 588.514 L
132.15 582.593 L
132.987 576.186 L
133.75 569.918 L
134.512 563.227 L
135.274 556.106 L
136.036 548.553 L
136.798 540.566 L
137.56 532.15 L
138.322 523.312 L
139.085 514.062 L
139.847 504.414 L
140.609 494.387 L
142.133 473.29 L
143.658 450.987 L
145.182 427.75 L
148.32 378.283 L
151.459 328.994 L
153.028 305.245 L
154.598 282.458 L
156.167 260.842 L
157.736 240.548 L
159.366 220.978 L
160.995 202.988 L
162.625 186.581 L
164.255 171.719 L
165.884 158.336 L
167.514 146.344 L
169.143 135.643 L
170.773 126.127 L
172.538 117.033 L
174.302 109.069 L
176.067 102.11 L
177.832 96.036 L
179.597 90.741 L
181.362 86.128 L
183.126 82.111 L
184.891 78.612 L
186.325 76.105 L
187.759 73.863 L
189.193 71.858 L
190.627 70.065 L
192.061 68.46 L
193.496 67.023 L
194.93 65.736 L
196.364 64.583 L
198.146 63.313 L
199.929 62.204 L
201.711 61.233 L
203.494 60.383 L
205.277 59.638 L
207.059 58.984 L
210.624 57.906 L
213.457 57.225 L
216.289 56.669 L
221.955 55.838 L
228.127 55.234 L
234.299 54.835 L
247.545 54.37 L
259.846 54.177 L
273.136 54.082 L
287.41 54.036 L
298.727 54.019 L
312.45 54.009 L
324.318 54.005 L
337.786 54.002 L
349.909 54.001 L
362.586 54.001 L
375.5 54 L
388.299 54 L
401.091 54 L
414.395 54 L
426.682 54 L
440.503 54 L
452.273 54 L
464.849 54 L
477.864 54 L
490.743 54 L
503.455 54 L
516.26 54 L
529.045 54 L
542.774 54 L
554.636 54 L
566.828 54 L
580.227 54 L
593.654 54 L
605.818 54 L
615.476 54 L
631.409 54 L
643.967 54 L
657 54 L
S
GR
GS
[0.6 0 0 0.6 0 0] CT
0 0.447 0.741 RC
[10 6] 0 setdash
2 LJ
0.833 LW
N
94 640 M
105.742 640 L
119.591 640 L
132.987 640 L
145.182 640 L
157.736 640 L
170.773 640 L
184.891 640 L
196.364 640 L
210.624 639.999 L
221.955 639.997 L
234.299 639.99 L
247.545 639.968 L
259.846 639.906 L
273.136 639.713 L
287.41 639.099 L
293.069 638.598 L
298.727 637.833 L
302.158 637.186 L
305.589 636.353 L
309.02 635.283 L
312.45 633.913 L
313.934 633.208 L
315.417 632.425 L
316.901 631.554 L
318.384 630.587 L
319.868 629.514 L
321.351 628.324 L
322.835 627.005 L
324.318 625.544 L
326.002 623.696 L
327.685 621.624 L
329.369 619.303 L
331.052 616.706 L
332.736 613.805 L
334.419 610.568 L
337.786 602.949 L
340.817 594.582 L
343.848 584.548 L
346.878 572.604 L
349.909 558.518 L
353.078 541.268 L
356.247 521.264 L
359.417 498.423 L
362.586 472.796 L
365.814 444.05 L
369.043 413.065 L
375.5 347 L
381.899 281.505 L
385.099 250.753 L
388.299 222.187 L
391.497 196.24 L
394.695 173.126 L
397.893 152.902 L
401.091 135.482 L
404.417 120.141 L
407.743 107.355 L
411.069 96.81 L
414.395 88.192 L
417.467 81.685 L
419.003 78.883 L
420.538 76.35 L
422.074 74.061 L
423.61 71.996 L
425.146 70.133 L
426.682 68.456 L
428.409 66.768 L
430.137 65.27 L
431.865 63.942 L
433.592 62.765 L
435.32 61.723 L
437.048 60.801 L
438.775 59.986 L
440.503 59.265 L
443.445 58.227 L
446.388 57.389 L
449.33 56.712 L
452.273 56.167 L
458.561 55.335 L
464.849 54.816 L
477.864 54.287 L
490.743 54.098 L
503.455 54.032 L
516.26 54.01 L
529.045 54.003 L
542.774 54.001 L
554.636 54 L
566.828 54 L
580.227 54 L
593.654 54 L
605.818 54 L
615.476 54 L
631.409 54 L
643.967 54 L
657 54 L
S
GR
GS
[0.6 0 0 0.6 0 0] CT
0.851 0.325 0.098 RC
[10 6] 0 setdash
2 LJ
0.833 LW
N
94 640 M
105.742 640 L
119.591 640 L
132.987 640 L
145.182 640 L
157.736 640 L
170.773 640 L
184.891 640 L
196.364 640 L
210.624 640 L
221.955 640 L
234.299 640 L
247.545 640 L
259.846 640 L
273.136 640 L
287.41 640 L
298.727 640 L
312.45 640 L
324.318 640 L
337.786 640 L
349.909 640 L
362.586 640 L
375.5 640 L
388.299 640 L
401.091 640 L
414.395 640 L
426.682 640 L
440.503 640 L
452.273 640 L
464.849 640 L
477.864 640 L
490.743 640 L
503.455 640 L
516.26 640 L
529.045 640 L
542.774 639.997 L
554.636 639.976 L
560.732 639.92 L
563.78 639.852 L
566.828 639.726 L
570.178 639.456 L
571.853 639.229 L
573.528 638.906 L
574.365 638.695 L
575.203 638.442 L
576.04 638.14 L
576.878 637.776 L
577.715 637.34 L
578.552 636.816 L
578.971 636.515 L
579.39 636.185 L
579.809 635.824 L
580.227 635.427 L
580.647 634.991 L
581.066 634.512 L
581.486 633.986 L
581.906 633.409 L
582.325 632.776 L
582.745 632.081 L
583.584 630.478 L
584.423 628.546 L
585.262 626.216 L
586.102 623.407 L
586.941 620.023 L
587.78 615.95 L
588.2 613.614 L
588.619 611.054 L
589.039 608.251 L
589.458 605.182 L
589.878 601.825 L
590.297 598.156 L
590.717 594.15 L
591.137 589.779 L
591.346 587.449 L
591.556 585.017 L
591.766 582.48 L
591.976 579.835 L
592.186 577.077 L
592.395 574.203 L
592.605 571.21 L
592.815 568.093 L
593.025 564.85 L
593.235 561.476 L
593.444 557.969 L
593.654 554.324 L
593.844 550.901 L
594.034 547.36 L
594.224 543.7 L
594.414 539.917 L
594.605 536.011 L
594.795 531.978 L
594.985 527.818 L
595.175 523.53 L
595.365 519.111 L
595.555 514.561 L
595.745 509.879 L
595.935 505.065 L
596.125 500.118 L
596.315 495.038 L
596.505 489.827 L
596.695 484.484 L
596.885 479.011 L
597.075 473.409 L
597.265 467.68 L
597.455 461.827 L
597.646 455.852 L
597.836 449.758 L
598.026 443.55 L
598.216 437.23 L
598.406 430.803 L
598.596 424.274 L
598.786 417.649 L
598.976 410.933 L
599.356 397.252 L
599.736 383.285 L
600.116 369.091 L
600.496 354.733 L
601.257 325.794 L
602.017 297.024 L
602.397 282.877 L
602.777 268.977 L
603.157 255.385 L
603.347 248.723 L
603.537 242.159 L
603.727 235.699 L
603.918 229.348 L
604.108 223.113 L
604.298 216.997 L
604.488 211.005 L
604.678 205.141 L
604.868 199.409 L
605.058 193.812 L
605.248 188.351 L
605.438 183.029 L
605.628 177.848 L
605.818 172.809 L
605.969 168.91 L
606.12 165.101 L
606.271 161.382 L
606.422 157.754 L
606.573 154.216 L
606.724 150.767 L
606.875 147.408 L
607.025 144.137 L
607.176 140.955 L
607.327 137.86 L
607.478 134.851 L
607.629 131.927 L
607.78 129.088 L
607.931 126.332 L
608.082 123.658 L
608.233 121.064 L
608.384 118.55 L
608.535 116.114 L
608.685 113.755 L
608.836 111.47 L
609.138 107.12 L
609.44 103.053 L
609.742 99.254 L
610.044 95.712 L
610.345 92.414 L
610.647 89.346 L
610.949 86.497 L
611.251 83.853 L
611.553 81.403 L
611.855 79.135 L
612.156 77.038 L
612.458 75.101 L
613.062 71.663 L
613.665 68.746 L
614.269 66.277 L
614.873 64.196 L
615.476 62.446 L
615.974 61.217 L
616.472 60.157 L
616.97 59.243 L
617.468 58.457 L
617.966 57.783 L
618.464 57.205 L
618.962 56.711 L
619.46 56.289 L
619.957 55.929 L
620.455 55.623 L
620.953 55.362 L
621.451 55.142 L
621.949 54.955 L
622.447 54.797 L
622.945 54.664 L
623.443 54.552 L
624.438 54.379 L
625.434 54.258 L
627.426 54.116 L
631.409 54.02 L
637.688 54.001 L
643.967 54 L
657 54 L
S
GR
GS
[0.6 0 0 0.6 0 0] CT
1 GC
N
891 284 M
891 54 L
687 54 L
687 284 L
cp
f
GR
GS
[0.6 0 0 0.6 447.6 47.4] CT
/Times-Roman 24 F
GS
[1 0 0 1 0 0] CT
0 0 moveto 
1 -1 scale
(b=2, x) t 
GR
GR
GS
[0.6 0 0 0.6 484.8 54] CT
/Times-Roman 19.2 F
GS
[1 0 0 1 0 0] CT
0 0 moveto 
1 -1 scale
(0) t 
GR
GR
GS
[0.6 0 0 0.6 490.8 47.4] CT
/Times-Roman 24 F
GS
[1 0 0 1 0 0] CT
0 0 moveto 
1 -1 scale
( = 0.1) t 
GR
GR
GS
[0.6 0 0 0.6 0 0] CT
0 0.447 0.741 RC
1 LJ
0.833 LW
N
692.006 74.989 M
742.068 74.989 L
S
GR
GS
[0.6 0 0 0.6 447.6 70.2] CT
/Times-Roman 24 F
GS
[1 0 0 1 0 0] CT
0 0 moveto 
1 -1 scale
(b=2, x) t 
GR
GR
GS
[0.6 0 0 0.6 484.8 76.8] CT
/Times-Roman 19.2 F
GS
[1 0 0 1 0 0] CT
0 0 moveto 
1 -1 scale
(0) t 
GR
GR
GS
[0.6 0 0 0.6 490.8 70.2] CT
/Times-Roman 24 F
GS
[1 0 0 1 0 0] CT
0 0 moveto 
1 -1 scale
( = 0.5) t 
GR
GR
GS
[0.6 0 0 0.6 0 0] CT
0.851 0.325 0.098 RC
1 LJ
0.833 LW
N
692.006 112.593 M
742.068 112.593 L
S
GR
GS
[0.6 0 0 0.6 447.6 92.4] CT
/Times-Roman 24 F
GS
[1 0 0 1 0 0] CT
0 0 moveto 
1 -1 scale
(b=2, x) t 
GR
GR
GS
[0.6 0 0 0.6 484.8 99] CT
/Times-Roman 19.2 F
GS
[1 0 0 1 0 0] CT
0 0 moveto 
1 -1 scale
(0) t 
GR
GR
GS
[0.6 0 0 0.6 490.8 92.4] CT
/Times-Roman 24 F
GS
[1 0 0 1 0 0] CT
0 0 moveto 
1 -1 scale
( = 0.9) t 
GR
GR
GS
[0.6 0 0 0.6 0 0] CT
0.929 0.694 0.125 RC
1 LJ
0.833 LW
N
692.006 150.198 M
742.068 150.198 L
S
GR
GS
[0.6 0 0 0.6 447.6 115.2] CT
/Times-Roman 24 F
GS
[1 0 0 1 0 0] CT
0 0 moveto 
1 -1 scale
(b=10, x) t 
GR
GR
GS
[0.6 0 0 0.6 492 121.8] CT
/Times-Roman 19.2 F
GS
[1 0 0 1 0 0] CT
0 0 moveto 
1 -1 scale
(0) t 
GR
GR
GS
[0.6 0 0 0.6 498 115.2] CT
/Times-Roman 24 F
GS
[1 0 0 1 0 0] CT
0 0 moveto 
1 -1 scale
( = 0.1) t 
GR
GR
GS
[0.6 0 0 0.6 0 0] CT
0.635 0.078 0.184 RC
[10 6] 0 setdash
2 LJ
0.833 LW
N
692.006 187.802 M
742.068 187.802 L
S
GR
GS
[0.6 0 0 0.6 447.6 137.4] CT
/Times-Roman 24 F
GS
[1 0 0 1 0 0] CT
0 0 moveto 
1 -1 scale
(b=10, x) t 
GR
GR
GS
[0.6 0 0 0.6 492 144] CT
/Times-Roman 19.2 F
GS
[1 0 0 1 0 0] CT
0 0 moveto 
1 -1 scale
(0) t 
GR
GR
GS
[0.6 0 0 0.6 498 137.4] CT
/Times-Roman 24 F
GS
[1 0 0 1 0 0] CT
0 0 moveto 
1 -1 scale
( = 0.5) t 
GR
GR
GS
[0.6 0 0 0.6 0 0] CT
0 0.447 0.741 RC
[10 6] 0 setdash
2 LJ
0.833 LW
N
692.006 225.407 M
742.068 225.407 L
S
GR
GS
[0.6 0 0 0.6 447.6 160.2] CT
/Times-Roman 24 F
GS
[1 0 0 1 0 0] CT
0 0 moveto 
1 -1 scale
(b=10, x) t 
GR
GR
GS
[0.6 0 0 0.6 492 166.8] CT
/Times-Roman 19.2 F
GS
[1 0 0 1 0 0] CT
0 0 moveto 
1 -1 scale
(0) t 
GR
GR
GS
[0.6 0 0 0.6 498 160.2] CT
/Times-Roman 24 F
GS
[1 0 0 1 0 0] CT
0 0 moveto 
1 -1 scale
( = 0.9) t 
GR
GR
GS
[0.6 0 0 0.6 0 0] CT
0.851 0.325 0.098 RC
[10 6] 0 setdash
2 LJ
0.833 LW
N
692.006 263.011 M
742.068 263.011 L
S
GR
GS
[0.6 0 0 0.6 0 0] CT
0.149 GC
10.0 ML
0.833 LW
N
687 284 M
687 54 L
891 54 L
891 284 L
cp
S
GR
%%Trailer
%%Pages: 1
%%EOF
