%!PS-Adobe-3.0 EPSF-3.0
%%Creator: (MATLAB, The Mathworks, Inc. Version 9.6.0.1472908 \(R2019a\) Update 9. Operating System: Windows 10)
%%Title: (C:/Users/A/OneDrive - ETHZ/Research_MasterThesis/AllCodeFiles/Figures/ParameterSweepExponentialLogarithmic_nobox.eps)
%%CreationDate: 2023-05-25T06:20:58
%%Pages: (atend)
%%BoundingBox: 0 0 420 315
%%LanguageLevel: 3
%%EndComments
%%BeginProlog
%%BeginResource: procset (Apache XML Graphics Std ProcSet) 1.2 0
%%Version: 1.2 0
%%Copyright: (Copyright 2001-2003,2010 The Apache Software Foundation. License terms: http://www.apache.org/licenses/LICENSE-2.0)
/bd{bind def}bind def
/ld{load def}bd
/GR/grestore ld
/GS/gsave ld
/RM/rmoveto ld
/C/curveto ld
/t/show ld
/L/lineto ld
/ML/setmiterlimit ld
/CT/concat ld
/f/fill ld
/N/newpath ld
/S/stroke ld
/CC/setcmykcolor ld
/A/ashow ld
/cp/closepath ld
/RC/setrgbcolor ld
/LJ/setlinejoin ld
/GC/setgray ld
/LW/setlinewidth ld
/M/moveto ld
/re {4 2 roll M
1 index 0 rlineto
0 exch rlineto
neg 0 rlineto
cp } bd
/_ctm matrix def
/_tm matrix def
/BT { _ctm currentmatrix pop matrix _tm copy pop 0 0 moveto } bd
/ET { _ctm setmatrix } bd
/iTm { _ctm setmatrix _tm concat } bd
/Tm { _tm astore pop iTm 0 0 moveto } bd
/ux 0.0 def
/uy 0.0 def
/F {
  /Tp exch def
  /Tf exch def
  Tf findfont Tp scalefont setfont
  /cf Tf def  /cs Tp def
} bd
/ULS {currentpoint /uy exch def /ux exch def} bd
/ULE {
  /Tcx currentpoint pop def
  gsave
  newpath
  cf findfont cs scalefont dup
  /FontMatrix get 0 get /Ts exch def /FontInfo get dup
  /UnderlinePosition get Ts mul /To exch def
  /UnderlineThickness get Ts mul /Tt exch def
  ux uy To add moveto  Tcx uy To add lineto
  Tt setlinewidth stroke
  grestore
} bd
/OLE {
  /Tcx currentpoint pop def
  gsave
  newpath
  cf findfont cs scalefont dup
  /FontMatrix get 0 get /Ts exch def /FontInfo get dup
  /UnderlinePosition get Ts mul /To exch def
  /UnderlineThickness get Ts mul /Tt exch def
  ux uy To add cs add moveto Tcx uy To add cs add lineto
  Tt setlinewidth stroke
  grestore
} bd
/SOE {
  /Tcx currentpoint pop def
  gsave
  newpath
  cf findfont cs scalefont dup
  /FontMatrix get 0 get /Ts exch def /FontInfo get dup
  /UnderlinePosition get Ts mul /To exch def
  /UnderlineThickness get Ts mul /Tt exch def
  ux uy To add cs 10 mul 26 idiv add moveto Tcx uy To add cs 10 mul 26 idiv add lineto
  Tt setlinewidth stroke
  grestore
} bd
/QT {
/Y22 exch store
/X22 exch store
/Y21 exch store
/X21 exch store
currentpoint
/Y21 load 2 mul add 3 div exch
/X21 load 2 mul add 3 div exch
/X21 load 2 mul /X22 load add 3 div
/Y21 load 2 mul /Y22 load add 3 div
/X22 load /Y22 load curveto
} bd
/SSPD {
dup length /d exch dict def
{
/v exch def
/k exch def
currentpagedevice k known {
/cpdv currentpagedevice k get def
v cpdv ne {
/upd false def
/nullv v type /nulltype eq def
/nullcpdv cpdv type /nulltype eq def
nullv nullcpdv or
{
/upd true def
} {
/sametype v type cpdv type eq def
sametype {
v type /arraytype eq {
/vlen v length def
/cpdvlen cpdv length def
vlen cpdvlen eq {
0 1 vlen 1 sub {
/i exch def
/obj v i get def
/cpdobj cpdv i get def
obj cpdobj ne {
/upd true def
exit
} if
} for
} {
/upd true def
} ifelse
} {
v type /dicttype eq {
v {
/dv exch def
/dk exch def
/cpddv cpdv dk get def
dv cpddv ne {
/upd true def
exit
} if
} forall
} {
/upd true def
} ifelse
} ifelse
} if
} ifelse
upd true eq {
d k v put
} if
} if
} if
} forall
d length 0 gt {
d setpagedevice
} if
} bd
/RE { % /NewFontName [NewEncodingArray] /FontName RE -
  findfont dup length dict begin
  {
    1 index /FID ne
    {def} {pop pop} ifelse
  } forall
  /Encoding exch def
  /FontName 1 index def
  currentdict definefont pop
  end
} bind def
%%EndResource
%%BeginResource: procset (Apache XML Graphics EPS ProcSet) 1.0 0
%%Version: 1.0 0
%%Copyright: (Copyright 2002-2003 The Apache Software Foundation. License terms: http://www.apache.org/licenses/LICENSE-2.0)
/BeginEPSF { %def
/b4_Inc_state save def         % Save state for cleanup
/dict_count countdictstack def % Count objects on dict stack
/op_count count 1 sub def      % Count objects on operand stack
userdict begin                 % Push userdict on dict stack
/showpage { } def              % Redefine showpage, { } = null proc
0 setgray 0 setlinecap         % Prepare graphics state
1 setlinewidth 0 setlinejoin
10 setmiterlimit [ ] 0 setdash newpath
/languagelevel where           % If level not equal to 1 then
{pop languagelevel             % set strokeadjust and
1 ne                           % overprint to their defaults.
{false setstrokeadjust false setoverprint
} if
} if
} bd
/EndEPSF { %def
count op_count sub {pop} repeat            % Clean up stacks
countdictstack dict_count sub {end} repeat
b4_Inc_state restore
} bd
%%EndResource
%FOPBeginFontDict
%%IncludeResource: font Courier-Oblique
%%IncludeResource: font Courier-BoldOblique
%%IncludeResource: font Courier-Bold
%%IncludeResource: font ZapfDingbats
%%IncludeResource: font Symbol
%%IncludeResource: font Helvetica
%%IncludeResource: font Helvetica-Oblique
%%IncludeResource: font Helvetica-Bold
%%IncludeResource: font Helvetica-BoldOblique
%%IncludeResource: font Times-Roman
%%IncludeResource: font Times-Italic
%%IncludeResource: font Times-Bold
%%IncludeResource: font Times-BoldItalic
%%IncludeResource: font Courier
%FOPEndFontDict
%%BeginResource: encoding WinAnsiEncoding
/WinAnsiEncoding [
/.notdef /.notdef /.notdef /.notdef /.notdef
/.notdef /.notdef /.notdef /.notdef /.notdef
/.notdef /.notdef /.notdef /.notdef /.notdef
/.notdef /.notdef /.notdef /.notdef /.notdef
/.notdef /.notdef /.notdef /.notdef /.notdef
/.notdef /.notdef /.notdef /.notdef /.notdef
/.notdef /.notdef /space /exclam /quotedbl
/numbersign /dollar /percent /ampersand /quotesingle
/parenleft /parenright /asterisk /plus /comma
/hyphen /period /slash /zero /one
/two /three /four /five /six
/seven /eight /nine /colon /semicolon
/less /equal /greater /question /at
/A /B /C /D /E
/F /G /H /I /J
/K /L /M /N /O
/P /Q /R /S /T
/U /V /W /X /Y
/Z /bracketleft /backslash /bracketright /asciicircum
/underscore /quoteleft /a /b /c
/d /e /f /g /h
/i /j /k /l /m
/n /o /p /q /r
/s /t /u /v /w
/x /y /z /braceleft /bar
/braceright /asciitilde /bullet /Euro /bullet
/quotesinglbase /florin /quotedblbase /ellipsis /dagger
/daggerdbl /circumflex /perthousand /Scaron /guilsinglleft
/OE /bullet /Zcaron /bullet /bullet
/quoteleft /quoteright /quotedblleft /quotedblright /bullet
/endash /emdash /asciitilde /trademark /scaron
/guilsinglright /oe /bullet /zcaron /Ydieresis
/space /exclamdown /cent /sterling /currency
/yen /brokenbar /section /dieresis /copyright
/ordfeminine /guillemotleft /logicalnot /sfthyphen /registered
/macron /degree /plusminus /twosuperior /threesuperior
/acute /mu /paragraph /middot /cedilla
/onesuperior /ordmasculine /guillemotright /onequarter /onehalf
/threequarters /questiondown /Agrave /Aacute /Acircumflex
/Atilde /Adieresis /Aring /AE /Ccedilla
/Egrave /Eacute /Ecircumflex /Edieresis /Igrave
/Iacute /Icircumflex /Idieresis /Eth /Ntilde
/Ograve /Oacute /Ocircumflex /Otilde /Odieresis
/multiply /Oslash /Ugrave /Uacute /Ucircumflex
/Udieresis /Yacute /Thorn /germandbls /agrave
/aacute /acircumflex /atilde /adieresis /aring
/ae /ccedilla /egrave /eacute /ecircumflex
/edieresis /igrave /iacute /icircumflex /idieresis
/eth /ntilde /ograve /oacute /ocircumflex
/otilde /odieresis /divide /oslash /ugrave
/uacute /ucircumflex /udieresis /yacute /thorn
/ydieresis
] def
%%EndResource
%FOPBeginFontReencode
/Courier-Oblique findfont
dup length dict begin
  {1 index /FID ne {def} {pop pop} ifelse} forall
  /Encoding WinAnsiEncoding def
  currentdict
end
/Courier-Oblique exch definefont pop
/Courier-BoldOblique findfont
dup length dict begin
  {1 index /FID ne {def} {pop pop} ifelse} forall
  /Encoding WinAnsiEncoding def
  currentdict
end
/Courier-BoldOblique exch definefont pop
/Courier-Bold findfont
dup length dict begin
  {1 index /FID ne {def} {pop pop} ifelse} forall
  /Encoding WinAnsiEncoding def
  currentdict
end
/Courier-Bold exch definefont pop
/Helvetica findfont
dup length dict begin
  {1 index /FID ne {def} {pop pop} ifelse} forall
  /Encoding WinAnsiEncoding def
  currentdict
end
/Helvetica exch definefont pop
/Helvetica-Oblique findfont
dup length dict begin
  {1 index /FID ne {def} {pop pop} ifelse} forall
  /Encoding WinAnsiEncoding def
  currentdict
end
/Helvetica-Oblique exch definefont pop
/Helvetica-Bold findfont
dup length dict begin
  {1 index /FID ne {def} {pop pop} ifelse} forall
  /Encoding WinAnsiEncoding def
  currentdict
end
/Helvetica-Bold exch definefont pop
/Helvetica-BoldOblique findfont
dup length dict begin
  {1 index /FID ne {def} {pop pop} ifelse} forall
  /Encoding WinAnsiEncoding def
  currentdict
end
/Helvetica-BoldOblique exch definefont pop
/Times-Roman findfont
dup length dict begin
  {1 index /FID ne {def} {pop pop} ifelse} forall
  /Encoding WinAnsiEncoding def
  currentdict
end
/Times-Roman exch definefont pop
/Times-Italic findfont
dup length dict begin
  {1 index /FID ne {def} {pop pop} ifelse} forall
  /Encoding WinAnsiEncoding def
  currentdict
end
/Times-Italic exch definefont pop
/Times-Bold findfont
dup length dict begin
  {1 index /FID ne {def} {pop pop} ifelse} forall
  /Encoding WinAnsiEncoding def
  currentdict
end
/Times-Bold exch definefont pop
/Times-BoldItalic findfont
dup length dict begin
  {1 index /FID ne {def} {pop pop} ifelse} forall
  /Encoding WinAnsiEncoding def
  currentdict
end
/Times-BoldItalic exch definefont pop
/Courier findfont
dup length dict begin
  {1 index /FID ne {def} {pop pop} ifelse} forall
  /Encoding WinAnsiEncoding def
  currentdict
end
/Courier exch definefont pop
%FOPEndFontReencode
%%EndProlog
%%Page: 1 1
%%PageBoundingBox: 0 0 420 315
%%BeginPageSetup
[1 0 0 -1 0 315] CT
%%EndPageSetup
GS
[0.75 0 0 0.75 0 0] CT
1 GC
N
0 0 560 420 re
f
GR
GS
[0.75 0 0 0.75 0 0] CT
1 GC
N
0 0 560 420 re
f
GR
GS
[0.75 0 0 0.75 0 0] CT
1 GC
N
79 361 M
507 361 L
507 31 L
79 31 L
cp
f
GR
GS
[0.75 0 0 0.75 0 0] CT
0.149 GC
2 setlinecap
1 LJ
0.667 LW
N
79 361 M
507 361 L
S
GR
GS
[0.75 0 0 0.75 0 0] CT
0.149 GC
2 setlinecap
1 LJ
0.667 LW
N
79 361 M
79 356.72 L
S
GR
GS
[0.75 0 0 0.75 0 0] CT
0.149 GC
2 setlinecap
1 LJ
0.667 LW
N
150.333 361 M
150.333 356.72 L
S
GR
GS
[0.75 0 0 0.75 0 0] CT
0.149 GC
2 setlinecap
1 LJ
0.667 LW
N
221.667 361 M
221.667 356.72 L
S
GR
GS
[0.75 0 0 0.75 0 0] CT
0.149 GC
2 setlinecap
1 LJ
0.667 LW
N
293 361 M
293 356.72 L
S
GR
GS
[0.75 0 0 0.75 0 0] CT
0.149 GC
2 setlinecap
1 LJ
0.667 LW
N
364.333 361 M
364.333 356.72 L
S
GR
GS
[0.75 0 0 0.75 0 0] CT
0.149 GC
2 setlinecap
1 LJ
0.667 LW
N
435.667 361 M
435.667 356.72 L
S
GR
GS
[0.75 0 0 0.75 0 0] CT
0.149 GC
2 setlinecap
1 LJ
0.667 LW
N
507 361 M
507 356.72 L
S
GR
GS
[0.75 0 0 0.75 59.25 275.55] CT
0.149 GC
/Helvetica 18.667 F
GS
[1 0 0 1 0 0] CT
-5.5 19 moveto 
1 -1 scale
(0) t 
GR
GR
GS
[0.75 0 0 0.75 112.75 275.55] CT
0.149 GC
/Helvetica 18.667 F
GS
[1 0 0 1 0 0] CT
-10.5 19 moveto 
1 -1 scale
(10) t 
GR
GR
GS
[0.75 0 0 0.75 166.25 275.55] CT
0.149 GC
/Helvetica 18.667 F
GS
[1 0 0 1 0 0] CT
-10.5 19 moveto 
1 -1 scale
(20) t 
GR
GR
GS
[0.75 0 0 0.75 219.75 275.55] CT
0.149 GC
/Helvetica 18.667 F
GS
[1 0 0 1 0 0] CT
-10.5 19 moveto 
1 -1 scale
(30) t 
GR
GR
GS
[0.75 0 0 0.75 273.25001 275.55] CT
0.149 GC
/Helvetica 18.667 F
GS
[1 0 0 1 0 0] CT
-10.5 19 moveto 
1 -1 scale
(40) t 
GR
GR
GS
[0.75 0 0 0.75 326.74999 275.55] CT
0.149 GC
/Helvetica 18.667 F
GS
[1 0 0 1 0 0] CT
-10.5 19 moveto 
1 -1 scale
(50) t 
GR
GR
GS
[0.75 0 0 0.75 380.25 275.55] CT
0.149 GC
/Helvetica 18.667 F
GS
[1 0 0 1 0 0] CT
-10.5 19 moveto 
1 -1 scale
(60) t 
GR
GR
GS
[0.75 0 0 0.75 219.75016 294.55] CT
0.149 GC
/Helvetica 21.333 F
GS
[1 0 0 1 0 0] CT
-73 22 moveto 
1 -1 scale
(Payment [CHF]) t 
GR
GR
GS
[0.75 0 0 0.75 0 0] CT
0.149 GC
2 setlinecap
1 LJ
0.667 LW
N
79 361 M
79 31 L
S
GR
GS
[0.75 0 0 0.75 0 0] CT
0.149 GC
2 setlinecap
1 LJ
0.667 LW
N
79 361 M
83.28 361 L
S
GR
GS
[0.75 0 0 0.75 0 0] CT
0.149 GC
2 setlinecap
1 LJ
0.667 LW
N
79 278.5 M
83.28 278.5 L
S
GR
GS
[0.75 0 0 0.75 0 0] CT
0.149 GC
2 setlinecap
1 LJ
0.667 LW
N
79 196 M
83.28 196 L
S
GR
GS
[0.75 0 0 0.75 0 0] CT
0.149 GC
2 setlinecap
1 LJ
0.667 LW
N
79 113.5 M
83.28 113.5 L
S
GR
GS
[0.75 0 0 0.75 0 0] CT
0.149 GC
2 setlinecap
1 LJ
0.667 LW
N
79 31 M
83.28 31 L
S
GR
GS
[0.75 0 0 0.75 54.45 270.75] CT
0.149 GC
/Helvetica 18.667 F
GS
[1 0 0 1 0 0] CT
-11 7 moveto 
1 -1 scale
(0) t 
GR
GR
GS
[0.75 0 0 0.75 54.45 208.875] CT
0.149 GC
/Helvetica 18.667 F
GS
[1 0 0 1 0 0] CT
-32 7 moveto 
1 -1 scale
(500) t 
GR
GR
GS
[0.75 0 0 0.75 54.45 147] CT
0.149 GC
/Helvetica 18.667 F
GS
[1 0 0 1 0 0] CT
-42 7 moveto 
1 -1 scale
(1000) t 
GR
GR
GS
[0.75 0 0 0.75 54.45 85.125] CT
0.149 GC
/Helvetica 18.667 F
GS
[1 0 0 1 0 0] CT
-42 7 moveto 
1 -1 scale
(1500) t 
GR
GR
GS
[0.75 0 0 0.75 54.45 23.25] CT
0.149 GC
/Helvetica 18.667 F
GS
[1 0 0 1 0 0] CT
-42 7 moveto 
1 -1 scale
(2000) t 
GR
GR
GS
[0 -0.75 0.75 0 19.95 146.99987] CT
0.149 GC
/Helvetica 21.333 F
GS
[1 0 0 1 0 0] CT
-6 -5 moveto 
1 -1 scale
(b) t 
GR
GR
GS
[0.75 0 0 0.75 0 0] CT
0 0.447 0.741 RC
[12 12] 0 setdash
2 LJ
3.333 LW
N
86.133 360.835 M
88.239 358.7 L
90.344 357.598 L
92.449 356.607 L
94.555 355.664 L
96.66 354.747 L
98.766 353.843 L
100.871 352.946 L
102.976 352.052 L
105.082 351.159 L
107.187 350.264 L
109.293 349.365 L
111.398 348.463 L
113.503 347.555 L
115.609 346.642 L
117.714 345.723 L
119.82 344.797 L
121.925 343.865 L
124.03 342.925 L
126.136 341.979 L
128.241 341.024 L
130.346 340.062 L
132.452 339.093 L
134.557 338.115 L
136.663 337.13 L
138.768 336.136 L
140.873 335.134 L
142.979 334.125 L
145.084 333.107 L
147.19 332.08 L
149.295 331.046 L
151.4 330.003 L
153.506 328.952 L
155.611 327.892 L
157.716 326.824 L
159.822 325.748 L
161.927 324.663 L
164.033 323.57 L
166.138 322.468 L
168.243 321.358 L
170.349 320.239 L
172.454 319.112 L
174.56 317.977 L
176.665 316.832 L
178.77 315.68 L
180.876 314.519 L
182.981 313.349 L
185.086 312.171 L
187.192 310.985 L
189.297 309.79 L
191.403 308.586 L
193.508 307.374 L
195.613 306.153 L
197.719 304.924 L
199.824 303.687 L
201.93 302.441 L
204.035 301.186 L
206.14 299.923 L
208.246 298.651 L
210.351 297.371 L
212.456 296.082 L
214.562 294.785 L
216.667 293.479 L
218.773 292.165 L
220.878 290.842 L
222.983 289.511 L
225.089 288.172 L
227.194 286.823 L
229.3 285.466 L
231.405 284.101 L
233.51 282.727 L
235.616 281.345 L
237.721 279.954 L
239.827 278.555 L
241.932 277.147 L
244.037 275.731 L
246.143 274.306 L
248.248 272.872 L
250.353 271.431 L
252.459 269.98 L
254.564 268.521 L
256.67 267.054 L
258.775 265.578 L
260.88 264.093 L
262.986 262.6 L
265.091 261.099 L
267.197 259.589 L
269.302 258.07 L
271.407 256.543 L
273.513 255.007 L
275.618 253.463 L
277.723 251.91 L
279.829 250.349 L
281.934 248.779 L
284.04 247.201 L
286.145 245.614 L
288.25 244.019 L
290.356 242.415 L
292.461 240.802 L
294.567 239.181 L
296.672 237.552 L
298.777 235.914 L
300.883 234.267 L
302.988 232.612 L
305.093 230.948 L
307.199 229.275 L
309.304 227.594 L
311.41 225.905 L
313.515 224.207 L
315.62 222.5 L
317.726 220.785 L
319.831 219.061 L
321.937 217.329 L
324.042 215.588 L
326.147 213.838 L
328.253 212.08 L
330.358 210.313 L
332.464 208.538 L
334.569 206.754 L
336.674 204.961 L
338.78 203.16 L
340.885 201.35 L
342.99 199.532 L
345.096 197.704 L
347.201 195.869 L
349.307 194.024 L
351.412 192.171 L
353.517 190.31 L
355.623 188.44 L
357.728 186.561 L
359.834 184.673 L
361.939 182.777 L
364.044 180.872 L
366.15 178.958 L
368.255 177.036 L
370.36 175.105 L
372.466 173.166 L
374.571 171.217 L
376.677 169.261 L
378.782 167.295 L
380.887 165.321 L
382.993 163.338 L
385.098 161.346 L
387.204 159.345 L
389.309 157.336 L
391.414 155.318 L
393.52 153.292 L
395.625 151.256 L
397.73 149.212 L
399.836 147.159 L
401.941 145.098 L
404.047 143.028 L
406.152 140.949 L
408.257 138.861 L
410.363 136.764 L
412.468 134.659 L
414.574 132.545 L
416.679 130.422 L
418.784 128.29 L
420.89 126.149 L
422.995 124 L
425.1 121.842 L
427.206 119.675 L
429.311 117.499 L
431.417 115.315 L
433.522 113.122 L
435.627 110.919 L
437.733 108.708 L
439.838 106.488 L
441.944 104.26 L
444.049 102.022 L
446.154 99.776 L
448.26 97.52 L
450.365 95.256 L
452.471 92.983 L
454.576 90.701 L
456.681 88.41 L
458.787 86.111 L
460.892 83.802 L
462.997 81.485 L
465.103 79.158 L
467.208 76.823 L
469.314 74.479 L
471.419 72.125 L
473.524 69.763 L
475.63 67.392 L
477.735 65.012 L
479.841 62.623 L
481.946 60.225 L
484.051 57.818 L
486.157 55.403 L
488.262 52.978 L
490.367 50.544 L
492.473 48.101 L
494.578 45.649 L
496.684 43.188 L
498.789 40.719 L
500.894 38.24 L
503 35.752 L
505.105 33.255 L
S
GR
GS
[0.75 0 0 0.75 0 0] CT
0.929 0.694 0.125 RC
[12 12] 0 setdash
2 LJ
3.333 LW
N
86.133 360.835 M
88.239 360.829 L
90.344 360.822 L
92.449 360.815 L
94.555 360.808 L
96.66 360.8 L
98.766 360.793 L
100.871 360.785 L
102.976 360.776 L
105.082 360.768 L
107.187 360.759 L
109.293 360.749 L
111.398 360.74 L
113.503 360.729 L
115.609 360.719 L
117.714 360.708 L
119.82 360.697 L
121.925 360.685 L
124.03 360.673 L
126.136 360.66 L
128.241 360.647 L
130.346 360.633 L
132.452 360.619 L
134.557 360.604 L
136.663 360.589 L
138.768 360.573 L
140.873 360.557 L
142.979 360.539 L
145.084 360.522 L
147.19 360.503 L
149.295 360.484 L
151.4 360.464 L
153.506 360.443 L
155.611 360.421 L
157.716 360.399 L
159.822 360.376 L
161.927 360.351 L
164.033 360.326 L
166.138 360.3 L
168.243 360.273 L
170.349 360.245 L
172.454 360.216 L
174.56 360.185 L
176.665 360.154 L
178.77 360.121 L
180.876 360.087 L
182.981 360.051 L
185.086 360.015 L
187.192 359.976 L
189.297 359.937 L
191.403 359.896 L
193.508 359.853 L
195.613 359.808 L
197.719 359.762 L
199.824 359.714 L
201.93 359.664 L
204.035 359.612 L
206.14 359.559 L
208.246 359.503 L
210.351 359.445 L
212.456 359.385 L
214.562 359.322 L
216.667 359.257 L
218.773 359.189 L
220.878 359.119 L
222.983 359.046 L
225.089 358.971 L
227.194 358.892 L
229.3 358.81 L
231.405 358.725 L
233.51 358.637 L
235.616 358.546 L
237.721 358.451 L
239.827 358.352 L
241.932 358.249 L
244.037 358.142 L
246.143 358.032 L
248.248 357.917 L
250.353 357.797 L
252.459 357.673 L
254.564 357.544 L
256.67 357.41 L
258.775 357.271 L
260.88 357.127 L
262.986 356.976 L
265.091 356.82 L
267.197 356.659 L
269.302 356.49 L
271.407 356.315 L
273.513 356.134 L
275.618 355.945 L
277.723 355.749 L
279.829 355.546 L
281.934 355.335 L
284.04 355.115 L
286.145 354.887 L
288.25 354.65 L
290.356 354.404 L
292.461 354.148 L
294.567 353.883 L
296.672 353.607 L
298.777 353.32 L
300.883 353.023 L
302.988 352.714 L
305.093 352.392 L
307.199 352.059 L
309.304 351.712 L
311.41 351.352 L
313.515 350.979 L
315.62 350.59 L
317.726 350.187 L
319.831 349.768 L
321.937 349.332 L
324.042 348.88 L
326.147 348.41 L
328.253 347.922 L
330.358 347.416 L
332.464 346.889 L
334.569 346.342 L
336.674 345.774 L
338.78 345.184 L
340.885 344.571 L
342.99 343.934 L
345.096 343.273 L
347.201 342.586 L
349.307 341.872 L
351.412 341.131 L
353.517 340.361 L
355.623 339.561 L
357.728 338.73 L
359.834 337.867 L
361.939 336.971 L
364.044 336.039 L
366.15 335.072 L
368.255 334.067 L
370.36 333.023 L
372.466 331.939 L
374.571 330.813 L
376.677 329.643 L
378.782 328.428 L
380.887 327.165 L
382.993 325.854 L
385.098 324.492 L
387.204 323.077 L
389.309 321.607 L
391.414 320.081 L
393.52 318.495 L
395.625 316.848 L
397.73 315.136 L
399.836 313.359 L
401.941 311.513 L
404.047 309.595 L
406.152 307.602 L
408.257 305.533 L
410.363 303.383 L
412.468 301.15 L
414.574 298.831 L
416.679 296.421 L
418.784 293.919 L
420.89 291.319 L
422.995 288.618 L
425.1 285.813 L
427.206 282.899 L
429.311 279.872 L
431.417 276.728 L
433.522 273.462 L
435.627 270.07 L
437.733 266.545 L
439.838 262.885 L
441.944 259.082 L
444.049 255.132 L
446.154 251.029 L
448.26 246.767 L
450.365 242.34 L
452.471 237.742 L
454.576 232.965 L
456.681 228.002 L
458.787 222.848 L
460.892 217.494 L
462.997 211.932 L
465.103 206.155 L
467.208 200.154 L
469.314 193.92 L
471.419 187.445 L
473.524 180.719 L
475.63 173.732 L
477.735 166.474 L
479.841 158.935 L
481.946 151.104 L
484.051 142.969 L
486.157 134.519 L
488.262 125.742 L
490.367 116.624 L
492.473 107.153 L
494.578 97.315 L
496.684 87.096 L
498.789 76.481 L
500.894 65.454 L
503 54 L
505.105 42.102 L
S
GR
GS
[0.75 0 0 0.75 0 0] CT
0.635 0.078 0.184 RC
[12 12] 0 setdash
2 LJ
3.333 LW
N
86.133 360.835 M
88.239 360.835 L
90.344 360.835 L
92.449 360.835 L
94.555 360.835 L
96.66 360.835 L
98.766 360.835 L
100.871 360.835 L
102.976 360.835 L
105.082 360.834 L
107.187 360.834 L
109.293 360.834 L
111.398 360.834 L
113.503 360.834 L
115.609 360.833 L
117.714 360.833 L
119.82 360.833 L
121.925 360.832 L
124.03 360.832 L
126.136 360.831 L
128.241 360.831 L
130.346 360.83 L
132.452 360.83 L
134.557 360.829 L
136.663 360.829 L
138.768 360.828 L
140.873 360.827 L
142.979 360.826 L
145.084 360.826 L
147.19 360.825 L
149.295 360.824 L
151.4 360.823 L
153.506 360.822 L
155.611 360.821 L
157.716 360.819 L
159.822 360.818 L
161.927 360.817 L
164.033 360.815 L
166.138 360.814 L
168.243 360.813 L
170.349 360.811 L
172.454 360.809 L
174.56 360.808 L
176.665 360.806 L
178.77 360.804 L
180.876 360.802 L
182.981 360.8 L
185.086 360.798 L
187.192 360.795 L
189.297 360.793 L
191.403 360.791 L
193.508 360.788 L
195.613 360.786 L
197.719 360.783 L
199.824 360.78 L
201.93 360.777 L
204.035 360.774 L
206.14 360.77 L
208.246 360.767 L
210.351 360.764 L
212.456 360.76 L
214.562 360.756 L
216.667 360.752 L
218.773 360.748 L
220.878 360.744 L
222.983 360.739 L
225.089 360.734 L
227.194 360.729 L
229.3 360.724 L
231.405 360.719 L
233.51 360.714 L
235.616 360.708 L
237.721 360.702 L
239.827 360.696 L
241.932 360.689 L
244.037 360.682 L
246.143 360.675 L
248.248 360.668 L
250.353 360.66 L
252.459 360.652 L
254.564 360.644 L
256.67 360.635 L
258.775 360.626 L
260.88 360.616 L
262.986 360.606 L
265.091 360.596 L
267.197 360.585 L
269.302 360.573 L
271.407 360.562 L
273.513 360.549 L
275.618 360.536 L
277.723 360.522 L
279.829 360.508 L
281.934 360.493 L
284.04 360.478 L
286.145 360.461 L
288.25 360.444 L
290.356 360.426 L
292.461 360.407 L
294.567 360.387 L
296.672 360.366 L
298.777 360.345 L
300.883 360.322 L
302.988 360.298 L
305.093 360.272 L
307.199 360.246 L
309.304 360.218 L
311.41 360.188 L
313.515 360.157 L
315.62 360.125 L
317.726 360.09 L
319.831 360.054 L
321.937 360.016 L
324.042 359.975 L
326.147 359.933 L
328.253 359.888 L
330.358 359.841 L
332.464 359.79 L
334.569 359.738 L
336.674 359.682 L
338.78 359.622 L
340.885 359.56 L
342.99 359.493 L
345.096 359.423 L
347.201 359.349 L
349.307 359.27 L
351.412 359.186 L
353.517 359.097 L
355.623 359.002 L
357.728 358.902 L
359.834 358.795 L
361.939 358.682 L
364.044 358.561 L
366.15 358.433 L
368.255 358.296 L
370.36 358.151 L
372.466 357.996 L
374.571 357.83 L
376.677 357.653 L
378.782 357.465 L
380.887 357.263 L
382.993 357.048 L
385.098 356.818 L
387.204 356.572 L
389.309 356.308 L
391.414 356.026 L
393.52 355.723 L
395.625 355.399 L
397.73 355.051 L
399.836 354.678 L
401.941 354.277 L
404.047 353.846 L
406.152 353.383 L
408.257 352.885 L
410.363 352.349 L
412.468 351.772 L
414.574 351.15 L
416.679 350.48 L
418.784 349.757 L
420.89 348.976 L
422.995 348.133 L
425.1 347.223 L
427.206 346.238 L
429.311 345.173 L
431.417 344.02 L
433.522 342.771 L
435.627 341.418 L
437.733 339.95 L
439.838 338.358 L
441.944 336.63 L
444.049 334.752 L
446.154 332.711 L
448.26 330.492 L
450.365 328.076 L
452.471 325.446 L
454.576 322.58 L
456.681 319.455 L
458.787 316.045 L
460.892 312.324 L
462.997 308.259 L
465.103 303.815 L
467.208 298.956 L
469.314 293.637 L
471.419 287.814 L
473.524 281.432 L
475.63 274.434 L
477.735 266.757 L
479.841 258.328 L
481.946 249.068 L
484.051 238.888 L
486.157 227.69 L
488.262 215.364 L
490.367 201.788 L
492.473 186.824 L
494.578 170.319 L
496.684 152.105 L
498.789 131.989 L
500.894 109.759 L
503 85.175 L
505.105 57.971 L
S
GR
GS
[0.75 0 0 0.75 0 0] CT
0 0.447 0.741 RC
[3 3] 0 setdash
2 LJ
3.333 LW
N
86.133 360.835 M
86.344 360.552 L
86.554 360.268 L
86.765 359.986 L
86.975 359.703 L
87.186 359.42 L
87.397 359.138 L
87.607 358.856 L
87.818 358.575 L
88.028 358.293 L
88.239 358.012 L
88.449 357.731 L
88.66 357.45 L
88.87 357.17 L
89.081 356.889 L
89.291 356.609 L
89.502 356.33 L
89.712 356.05 L
89.923 355.771 L
90.134 355.492 L
90.344 355.213 L
90.555 354.934 L
90.765 354.656 L
90.976 354.378 L
91.186 354.1 L
91.397 353.822 L
91.607 353.545 L
91.818 353.268 L
92.028 352.991 L
92.239 352.714 L
92.449 352.437 L
92.66 352.161 L
92.871 351.885 L
93.081 351.609 L
93.292 351.334 L
93.502 351.058 L
93.713 350.783 L
93.923 350.508 L
94.134 350.234 L
94.344 349.959 L
94.555 349.685 L
94.765 349.411 L
94.976 349.137 L
95.186 348.864 L
95.397 348.59 L
95.608 348.317 L
95.818 348.044 L
96.029 347.772 L
96.239 347.499 L
96.45 347.227 L
96.66 346.955 L
98.766 344.248 L
100.871 341.563 L
102.976 338.9 L
105.082 336.257 L
107.187 333.636 L
159.822 274.083 L
212.456 223.655 L
265.091 179.924 L
317.726 141.319 L
370.36 106.762 L
401.731 87.766 L
454.365 58.163 L
507 31 L
S
GR
GS
[0.75 0 0 0.75 0 0] CT
0.929 0.694 0.125 RC
[3 3] 0 setdash
2 LJ
3.333 LW
N
86.133 360.835 M
86.344 359.79 L
86.554 358.755 L
86.765 357.73 L
86.975 356.714 L
87.186 355.708 L
87.397 354.711 L
87.607 353.722 L
87.818 352.743 L
88.028 351.772 L
88.239 350.809 L
88.449 349.855 L
88.66 348.909 L
88.87 347.972 L
89.081 347.042 L
89.291 346.12 L
89.502 345.205 L
89.712 344.298 L
89.923 343.399 L
90.134 342.507 L
90.344 341.622 L
90.555 340.744 L
90.765 339.873 L
90.976 339.009 L
91.186 338.152 L
91.397 337.301 L
91.607 336.457 L
91.818 335.619 L
92.028 334.788 L
92.239 333.962 L
92.449 333.143 L
92.66 332.33 L
92.871 331.523 L
93.081 330.722 L
93.292 329.927 L
93.502 329.137 L
93.713 328.353 L
93.923 327.575 L
94.134 326.802 L
94.344 326.034 L
94.555 325.272 L
94.765 324.515 L
94.976 323.763 L
95.186 323.017 L
95.397 322.275 L
95.608 321.538 L
95.818 320.806 L
96.029 320.079 L
96.239 319.357 L
96.45 318.64 L
96.66 317.927 L
98.766 311.042 L
100.871 304.563 L
102.976 298.444 L
105.082 292.648 L
107.187 287.143 L
109.293 281.9 L
111.398 276.895 L
113.503 272.109 L
115.609 267.522 L
117.714 263.119 L
119.82 258.886 L
121.925 254.81 L
124.03 250.879 L
126.136 247.084 L
128.241 243.415 L
130.346 239.866 L
132.452 236.427 L
134.557 233.092 L
136.663 229.856 L
138.768 226.712 L
140.873 223.655 L
142.979 220.682 L
145.084 217.786 L
147.19 214.965 L
149.295 212.215 L
151.4 209.531 L
153.506 206.912 L
155.611 204.353 L
157.716 201.853 L
159.822 199.408 L
161.927 197.016 L
164.033 194.676 L
166.138 192.384 L
168.243 190.139 L
170.349 187.939 L
172.454 185.782 L
174.56 183.666 L
176.665 181.591 L
178.77 179.554 L
180.876 177.554 L
182.981 175.59 L
185.086 173.66 L
187.192 171.763 L
189.297 169.899 L
191.403 168.066 L
193.508 166.262 L
195.613 164.488 L
197.719 162.742 L
199.824 161.024 L
201.93 159.332 L
204.035 157.665 L
206.14 156.023 L
208.246 154.406 L
210.351 152.812 L
212.456 151.241 L
214.562 149.692 L
216.667 148.164 L
218.773 146.657 L
220.878 145.171 L
222.983 143.705 L
225.089 142.257 L
227.194 140.829 L
229.3 139.419 L
231.405 138.027 L
233.51 136.652 L
235.616 135.294 L
237.721 133.953 L
239.827 132.628 L
241.932 131.319 L
244.037 130.025 L
246.143 128.746 L
248.248 127.482 L
250.353 126.232 L
252.459 124.996 L
254.564 123.774 L
256.67 122.566 L
258.775 121.37 L
260.88 120.188 L
262.986 119.018 L
265.091 117.86 L
267.197 116.715 L
269.302 115.581 L
271.407 114.459 L
273.513 113.348 L
275.618 112.248 L
277.723 111.159 L
279.829 110.081 L
281.934 109.013 L
284.04 107.956 L
286.145 106.909 L
288.25 105.871 L
290.356 104.843 L
292.461 103.825 L
294.567 102.816 L
296.672 101.816 L
298.777 100.826 L
300.883 99.844 L
302.988 98.871 L
305.093 97.906 L
307.199 96.95 L
309.304 96.002 L
311.41 95.062 L
313.515 94.13 L
315.62 93.206 L
317.726 92.289 L
319.831 91.38 L
321.937 90.479 L
324.042 89.585 L
326.147 88.698 L
328.253 87.818 L
330.358 86.946 L
332.464 86.08 L
334.569 85.221 L
336.674 84.368 L
338.78 83.522 L
340.885 82.683 L
342.99 81.85 L
345.096 81.023 L
347.201 80.202 L
349.307 79.388 L
351.412 78.579 L
353.517 77.776 L
355.623 76.98 L
357.728 76.188 L
359.834 75.403 L
361.939 74.623 L
364.044 73.849 L
366.15 73.08 L
368.255 72.316 L
370.36 71.558 L
372.466 70.804 L
374.571 70.056 L
376.677 69.313 L
378.782 68.575 L
380.887 67.842 L
382.993 67.114 L
385.098 66.391 L
387.204 65.672 L
389.309 64.958 L
391.414 64.248 L
393.52 63.543 L
395.625 62.843 L
397.73 62.147 L
399.836 61.455 L
401.731 60.837 L
403.836 60.153 L
405.941 59.474 L
408.047 58.799 L
410.152 58.128 L
412.258 57.461 L
414.363 56.798 L
416.468 56.14 L
418.574 55.485 L
420.679 54.834 L
422.785 54.186 L
424.89 53.543 L
426.995 52.903 L
429.101 52.267 L
431.206 51.635 L
433.311 51.006 L
435.417 50.381 L
437.522 49.76 L
439.628 49.141 L
441.733 48.527 L
443.838 47.916 L
445.944 47.308 L
448.049 46.703 L
450.155 46.102 L
452.26 45.504 L
454.365 44.909 L
456.471 44.318 L
458.576 43.729 L
460.681 43.144 L
462.787 42.562 L
464.892 41.983 L
466.998 41.407 L
469.103 40.834 L
471.208 40.264 L
473.314 39.697 L
475.419 39.133 L
477.525 38.571 L
479.63 38.013 L
481.735 37.457 L
483.841 36.905 L
485.946 36.354 L
488.052 35.807 L
490.157 35.263 L
492.262 34.721 L
494.368 34.181 L
496.473 33.645 L
498.578 33.111 L
500.684 32.579 L
502.789 32.05 L
504.895 31.524 L
507 31 L
S
GR
GS
[0.75 0 0 0.75 0 0] CT
0.635 0.078 0.184 RC
[3 3] 0 setdash
2 LJ
3.333 LW
N
86.133 360.835 M
86.344 356.141 L
86.554 351.76 L
86.765 347.651 L
86.975 343.783 L
87.186 340.13 L
87.397 336.668 L
87.607 333.379 L
87.818 330.246 L
88.028 327.255 L
88.239 324.394 L
88.449 321.652 L
88.66 319.019 L
88.87 316.488 L
89.081 314.05 L
89.291 311.699 L
89.502 309.428 L
89.712 307.234 L
89.923 305.11 L
90.134 303.052 L
90.344 301.057 L
90.555 299.12 L
90.765 297.238 L
90.976 295.409 L
91.186 293.628 L
91.397 291.895 L
91.607 290.206 L
91.818 288.559 L
92.028 286.953 L
92.239 285.384 L
92.449 283.852 L
92.66 282.355 L
92.871 280.891 L
93.081 279.459 L
93.292 278.057 L
93.502 276.684 L
93.713 275.34 L
93.923 274.022 L
94.134 272.73 L
94.344 271.463 L
94.555 270.219 L
94.765 268.999 L
94.976 267.801 L
95.186 266.624 L
95.397 265.468 L
95.608 264.332 L
95.818 263.215 L
96.029 262.117 L
96.239 261.036 L
96.45 259.973 L
96.66 258.927 L
98.766 249.288 L
100.871 240.88 L
102.976 233.423 L
105.082 226.725 L
107.187 220.644 L
109.293 215.076 L
111.398 209.943 L
113.503 205.18 L
115.609 200.738 L
117.714 196.576 L
119.82 192.661 L
121.925 188.966 L
124.03 185.467 L
126.136 182.144 L
128.241 178.98 L
130.346 175.961 L
132.452 173.075 L
134.557 170.309 L
136.663 167.655 L
138.768 165.103 L
140.873 162.646 L
142.979 160.278 L
145.084 157.992 L
147.19 155.782 L
149.295 153.644 L
151.4 151.573 L
153.506 149.565 L
155.611 147.616 L
157.716 145.724 L
159.822 143.884 L
161.927 142.094 L
164.033 140.351 L
166.138 138.653 L
168.243 136.998 L
170.349 135.383 L
172.454 133.807 L
174.56 132.268 L
176.665 130.764 L
178.77 129.293 L
180.876 127.854 L
182.981 126.447 L
185.086 125.068 L
187.192 123.718 L
189.297 122.395 L
191.403 121.097 L
193.508 119.825 L
195.613 118.577 L
197.719 117.352 L
199.824 116.15 L
201.93 114.969 L
204.035 113.808 L
206.14 112.668 L
208.246 111.547 L
210.351 110.445 L
212.456 109.361 L
214.562 108.295 L
216.667 107.245 L
218.773 106.212 L
220.878 105.195 L
222.983 104.193 L
225.089 103.206 L
227.194 102.234 L
229.3 101.276 L
231.405 100.332 L
233.51 99.401 L
235.616 98.483 L
237.721 97.577 L
239.827 96.684 L
241.932 95.803 L
244.037 94.933 L
246.143 94.075 L
248.248 93.228 L
250.353 92.391 L
252.459 91.565 L
254.564 90.749 L
256.67 89.943 L
258.775 89.147 L
260.88 88.36 L
262.986 87.583 L
265.091 86.815 L
267.197 86.055 L
269.302 85.304 L
271.407 84.562 L
273.513 83.828 L
275.618 83.102 L
277.723 82.383 L
279.829 81.673 L
281.934 80.97 L
284.04 80.275 L
286.145 79.587 L
288.25 78.905 L
290.356 78.231 L
292.461 77.564 L
294.567 76.903 L
296.672 76.249 L
298.777 75.602 L
300.883 74.96 L
302.988 74.325 L
305.093 73.696 L
307.199 73.073 L
309.304 72.455 L
311.41 71.844 L
313.515 71.238 L
315.62 70.637 L
317.726 70.042 L
319.831 69.452 L
321.937 68.868 L
324.042 68.289 L
326.147 67.714 L
328.253 67.145 L
330.358 66.58 L
332.464 66.021 L
334.569 65.466 L
336.674 64.915 L
338.78 64.369 L
340.885 63.828 L
342.99 63.291 L
345.096 62.758 L
347.201 62.23 L
349.307 61.706 L
351.412 61.186 L
353.517 60.67 L
355.623 60.158 L
357.728 59.65 L
359.834 59.146 L
361.939 58.646 L
364.044 58.149 L
366.15 57.656 L
368.255 57.167 L
370.36 56.682 L
372.466 56.2 L
374.571 55.721 L
376.677 55.246 L
378.782 54.774 L
380.887 54.306 L
382.993 53.841 L
385.098 53.379 L
387.204 52.921 L
389.309 52.465 L
391.414 52.013 L
393.52 51.564 L
395.625 51.117 L
397.73 50.674 L
399.836 50.234 L
401.731 49.84 L
403.836 49.406 L
405.941 48.974 L
408.047 48.545 L
410.152 48.119 L
412.258 47.695 L
414.363 47.274 L
416.468 46.856 L
418.574 46.441 L
420.679 46.028 L
422.785 45.617 L
424.89 45.209 L
426.995 44.804 L
429.101 44.401 L
431.206 44.001 L
433.311 43.603 L
435.417 43.207 L
437.522 42.814 L
439.628 42.423 L
441.733 42.035 L
443.838 41.648 L
445.944 41.264 L
448.049 40.882 L
450.155 40.503 L
452.26 40.125 L
454.365 39.75 L
456.471 39.377 L
458.576 39.006 L
460.681 38.637 L
462.787 38.27 L
464.892 37.905 L
466.998 37.542 L
469.103 37.181 L
471.208 36.822 L
473.314 36.465 L
475.419 36.11 L
477.525 35.756 L
479.63 35.405 L
481.735 35.055 L
483.841 34.708 L
485.946 34.362 L
488.052 34.018 L
490.157 33.676 L
492.262 33.335 L
494.368 32.997 L
496.473 32.66 L
498.578 32.324 L
500.684 31.991 L
502.789 31.659 L
504.895 31.329 L
507 31 L
S
GR
GS
[0.75 0 0 0.75 0 0] CT
1 GC
N
194 169 M
194 37 L
87 37 L
87 169 L
cp
f
GR
GS
[0.75 0 0 0.75 100.5 37.08962] CT
/Helvetica 16.8 F
GS
[1 0 0 1 0 0] CT
0 6.5 moveto 
1 -1 scale
(exp 0.2) t 
GR
GR
GS
[0.75 0 0 0.75 0 0] CT
0 0.447 0.741 RC
[12 12] 0 setdash
2 LJ
3.333 LW
N
91 49.453 M
131 49.453 L
S
GR
GS
[0.75 0 0 0.75 100.5 53.15377] CT
/Helvetica 16.8 F
GS
[1 0 0 1 0 0] CT
0 6.5 moveto 
1 -1 scale
(exp 1) t 
GR
GR
GS
[0.75 0 0 0.75 0 0] CT
0.929 0.694 0.125 RC
[12 12] 0 setdash
2 LJ
3.333 LW
N
91 70.872 M
131 70.872 L
S
GR
GS
[0.75 0 0 0.75 100.5 69.21792] CT
/Helvetica 16.8 F
GS
[1 0 0 1 0 0] CT
0 6.5 moveto 
1 -1 scale
(exp 2.5) t 
GR
GR
GS
[0.75 0 0 0.75 0 0] CT
0.635 0.078 0.184 RC
[12 12] 0 setdash
2 LJ
3.333 LW
N
91 92.291 M
131 92.291 L
S
GR
GS
[0.75 0 0 0.75 100.5 85.28208] CT
/Helvetica 16.8 F
GS
[1 0 0 1 0 0] CT
0 6.5 moveto 
1 -1 scale
(log 1) t 
GR
GR
GS
[0.75 0 0 0.75 0 0] CT
0 0.447 0.741 RC
[3 3] 0 setdash
2 LJ
3.333 LW
N
91 113.709 M
131 113.709 L
S
GR
GS
[0.75 0 0 0.75 100.5 101.34622] CT
/Helvetica 16.8 F
GS
[1 0 0 1 0 0] CT
0 6.5 moveto 
1 -1 scale
(log 3) t 
GR
GR
GS
[0.75 0 0 0.75 0 0] CT
0.929 0.694 0.125 RC
[3 3] 0 setdash
2 LJ
3.333 LW
N
91 135.128 M
131 135.128 L
S
GR
GS
[0.75 0 0 0.75 100.5 117.41037] CT
/Helvetica 16.8 F
GS
[1 0 0 1 0 0] CT
0 6.5 moveto 
1 -1 scale
(log 5) t 
GR
GR
GS
[0.75 0 0 0.75 0 0] CT
0.635 0.078 0.184 RC
[3 3] 0 setdash
2 LJ
3.333 LW
N
91 156.547 M
131 156.547 L
S
GR
GS
[0.75 0 0 0.75 0 0] CT
0.149 GC
10.0 ML
0.667 LW
N
87 169 M
87 37 L
194 37 L
194 169 L
cp
S
GR
%%Trailer
%%Pages: 1
%%EOF
