%!PS-Adobe-3.0 EPSF-3.0
%%Creator: (MATLAB, The Mathworks, Inc. Version 9.6.0.1472908 \(R2019a\) Update 9. Operating System: Windows 10)
%%Title: (C:/Users/A/OneDrive - ETHZ/Research_MasterThesis/AllCodeFiles/Figures/QuantileCDFRandomVar.eps)
%%CreationDate: 2023-05-25T05:08:22
%%Pages: (atend)
%%BoundingBox: 0 0 420 315
%%LanguageLevel: 3
%%EndComments
%%BeginProlog
%%BeginResource: procset (Apache XML Graphics Std ProcSet) 1.2 0
%%Version: 1.2 0
%%Copyright: (Copyright 2001-2003,2010 The Apache Software Foundation. License terms: http://www.apache.org/licenses/LICENSE-2.0)
/bd{bind def}bind def
/ld{load def}bd
/GR/grestore ld
/GS/gsave ld
/RM/rmoveto ld
/C/curveto ld
/t/show ld
/L/lineto ld
/ML/setmiterlimit ld
/CT/concat ld
/f/fill ld
/N/newpath ld
/S/stroke ld
/CC/setcmykcolor ld
/A/ashow ld
/cp/closepath ld
/RC/setrgbcolor ld
/LJ/setlinejoin ld
/GC/setgray ld
/LW/setlinewidth ld
/M/moveto ld
/re {4 2 roll M
1 index 0 rlineto
0 exch rlineto
neg 0 rlineto
cp } bd
/_ctm matrix def
/_tm matrix def
/BT { _ctm currentmatrix pop matrix _tm copy pop 0 0 moveto } bd
/ET { _ctm setmatrix } bd
/iTm { _ctm setmatrix _tm concat } bd
/Tm { _tm astore pop iTm 0 0 moveto } bd
/ux 0.0 def
/uy 0.0 def
/F {
  /Tp exch def
  /Tf exch def
  Tf findfont Tp scalefont setfont
  /cf Tf def  /cs Tp def
} bd
/ULS {currentpoint /uy exch def /ux exch def} bd
/ULE {
  /Tcx currentpoint pop def
  gsave
  newpath
  cf findfont cs scalefont dup
  /FontMatrix get 0 get /Ts exch def /FontInfo get dup
  /UnderlinePosition get Ts mul /To exch def
  /UnderlineThickness get Ts mul /Tt exch def
  ux uy To add moveto  Tcx uy To add lineto
  Tt setlinewidth stroke
  grestore
} bd
/OLE {
  /Tcx currentpoint pop def
  gsave
  newpath
  cf findfont cs scalefont dup
  /FontMatrix get 0 get /Ts exch def /FontInfo get dup
  /UnderlinePosition get Ts mul /To exch def
  /UnderlineThickness get Ts mul /Tt exch def
  ux uy To add cs add moveto Tcx uy To add cs add lineto
  Tt setlinewidth stroke
  grestore
} bd
/SOE {
  /Tcx currentpoint pop def
  gsave
  newpath
  cf findfont cs scalefont dup
  /FontMatrix get 0 get /Ts exch def /FontInfo get dup
  /UnderlinePosition get Ts mul /To exch def
  /UnderlineThickness get Ts mul /Tt exch def
  ux uy To add cs 10 mul 26 idiv add moveto Tcx uy To add cs 10 mul 26 idiv add lineto
  Tt setlinewidth stroke
  grestore
} bd
/QT {
/Y22 exch store
/X22 exch store
/Y21 exch store
/X21 exch store
currentpoint
/Y21 load 2 mul add 3 div exch
/X21 load 2 mul add 3 div exch
/X21 load 2 mul /X22 load add 3 div
/Y21 load 2 mul /Y22 load add 3 div
/X22 load /Y22 load curveto
} bd
/SSPD {
dup length /d exch dict def
{
/v exch def
/k exch def
currentpagedevice k known {
/cpdv currentpagedevice k get def
v cpdv ne {
/upd false def
/nullv v type /nulltype eq def
/nullcpdv cpdv type /nulltype eq def
nullv nullcpdv or
{
/upd true def
} {
/sametype v type cpdv type eq def
sametype {
v type /arraytype eq {
/vlen v length def
/cpdvlen cpdv length def
vlen cpdvlen eq {
0 1 vlen 1 sub {
/i exch def
/obj v i get def
/cpdobj cpdv i get def
obj cpdobj ne {
/upd true def
exit
} if
} for
} {
/upd true def
} ifelse
} {
v type /dicttype eq {
v {
/dv exch def
/dk exch def
/cpddv cpdv dk get def
dv cpddv ne {
/upd true def
exit
} if
} forall
} {
/upd true def
} ifelse
} ifelse
} if
} ifelse
upd true eq {
d k v put
} if
} if
} if
} forall
d length 0 gt {
d setpagedevice
} if
} bd
/RE { % /NewFontName [NewEncodingArray] /FontName RE -
  findfont dup length dict begin
  {
    1 index /FID ne
    {def} {pop pop} ifelse
  } forall
  /Encoding exch def
  /FontName 1 index def
  currentdict definefont pop
  end
} bind def
%%EndResource
%%BeginResource: procset (Apache XML Graphics EPS ProcSet) 1.0 0
%%Version: 1.0 0
%%Copyright: (Copyright 2002-2003 The Apache Software Foundation. License terms: http://www.apache.org/licenses/LICENSE-2.0)
/BeginEPSF { %def
/b4_Inc_state save def         % Save state for cleanup
/dict_count countdictstack def % Count objects on dict stack
/op_count count 1 sub def      % Count objects on operand stack
userdict begin                 % Push userdict on dict stack
/showpage { } def              % Redefine showpage, { } = null proc
0 setgray 0 setlinecap         % Prepare graphics state
1 setlinewidth 0 setlinejoin
10 setmiterlimit [ ] 0 setdash newpath
/languagelevel where           % If level not equal to 1 then
{pop languagelevel             % set strokeadjust and
1 ne                           % overprint to their defaults.
{false setstrokeadjust false setoverprint
} if
} if
} bd
/EndEPSF { %def
count op_count sub {pop} repeat            % Clean up stacks
countdictstack dict_count sub {end} repeat
b4_Inc_state restore
} bd
%%EndResource
%FOPBeginFontDict
%%IncludeResource: font Courier-Oblique
%%IncludeResource: font Courier-BoldOblique
%%IncludeResource: font Courier-Bold
%%IncludeResource: font ZapfDingbats
%%IncludeResource: font Symbol
%%IncludeResource: font Helvetica
%%IncludeResource: font Helvetica-Oblique
%%IncludeResource: font Helvetica-Bold
%%IncludeResource: font Helvetica-BoldOblique
%%IncludeResource: font Times-Roman
%%IncludeResource: font Times-Italic
%%IncludeResource: font Times-Bold
%%IncludeResource: font Times-BoldItalic
%%IncludeResource: font Courier
%FOPEndFontDict
%%BeginResource: encoding WinAnsiEncoding
/WinAnsiEncoding [
/.notdef /.notdef /.notdef /.notdef /.notdef
/.notdef /.notdef /.notdef /.notdef /.notdef
/.notdef /.notdef /.notdef /.notdef /.notdef
/.notdef /.notdef /.notdef /.notdef /.notdef
/.notdef /.notdef /.notdef /.notdef /.notdef
/.notdef /.notdef /.notdef /.notdef /.notdef
/.notdef /.notdef /space /exclam /quotedbl
/numbersign /dollar /percent /ampersand /quotesingle
/parenleft /parenright /asterisk /plus /comma
/hyphen /period /slash /zero /one
/two /three /four /five /six
/seven /eight /nine /colon /semicolon
/less /equal /greater /question /at
/A /B /C /D /E
/F /G /H /I /J
/K /L /M /N /O
/P /Q /R /S /T
/U /V /W /X /Y
/Z /bracketleft /backslash /bracketright /asciicircum
/underscore /quoteleft /a /b /c
/d /e /f /g /h
/i /j /k /l /m
/n /o /p /q /r
/s /t /u /v /w
/x /y /z /braceleft /bar
/braceright /asciitilde /bullet /Euro /bullet
/quotesinglbase /florin /quotedblbase /ellipsis /dagger
/daggerdbl /circumflex /perthousand /Scaron /guilsinglleft
/OE /bullet /Zcaron /bullet /bullet
/quoteleft /quoteright /quotedblleft /quotedblright /bullet
/endash /emdash /asciitilde /trademark /scaron
/guilsinglright /oe /bullet /zcaron /Ydieresis
/space /exclamdown /cent /sterling /currency
/yen /brokenbar /section /dieresis /copyright
/ordfeminine /guillemotleft /logicalnot /sfthyphen /registered
/macron /degree /plusminus /twosuperior /threesuperior
/acute /mu /paragraph /middot /cedilla
/onesuperior /ordmasculine /guillemotright /onequarter /onehalf
/threequarters /questiondown /Agrave /Aacute /Acircumflex
/Atilde /Adieresis /Aring /AE /Ccedilla
/Egrave /Eacute /Ecircumflex /Edieresis /Igrave
/Iacute /Icircumflex /Idieresis /Eth /Ntilde
/Ograve /Oacute /Ocircumflex /Otilde /Odieresis
/multiply /Oslash /Ugrave /Uacute /Ucircumflex
/Udieresis /Yacute /Thorn /germandbls /agrave
/aacute /acircumflex /atilde /adieresis /aring
/ae /ccedilla /egrave /eacute /ecircumflex
/edieresis /igrave /iacute /icircumflex /idieresis
/eth /ntilde /ograve /oacute /ocircumflex
/otilde /odieresis /divide /oslash /ugrave
/uacute /ucircumflex /udieresis /yacute /thorn
/ydieresis
] def
%%EndResource
%FOPBeginFontReencode
/Courier-Oblique findfont
dup length dict begin
  {1 index /FID ne {def} {pop pop} ifelse} forall
  /Encoding WinAnsiEncoding def
  currentdict
end
/Courier-Oblique exch definefont pop
/Courier-BoldOblique findfont
dup length dict begin
  {1 index /FID ne {def} {pop pop} ifelse} forall
  /Encoding WinAnsiEncoding def
  currentdict
end
/Courier-BoldOblique exch definefont pop
/Courier-Bold findfont
dup length dict begin
  {1 index /FID ne {def} {pop pop} ifelse} forall
  /Encoding WinAnsiEncoding def
  currentdict
end
/Courier-Bold exch definefont pop
/Helvetica findfont
dup length dict begin
  {1 index /FID ne {def} {pop pop} ifelse} forall
  /Encoding WinAnsiEncoding def
  currentdict
end
/Helvetica exch definefont pop
/Helvetica-Oblique findfont
dup length dict begin
  {1 index /FID ne {def} {pop pop} ifelse} forall
  /Encoding WinAnsiEncoding def
  currentdict
end
/Helvetica-Oblique exch definefont pop
/Helvetica-Bold findfont
dup length dict begin
  {1 index /FID ne {def} {pop pop} ifelse} forall
  /Encoding WinAnsiEncoding def
  currentdict
end
/Helvetica-Bold exch definefont pop
/Helvetica-BoldOblique findfont
dup length dict begin
  {1 index /FID ne {def} {pop pop} ifelse} forall
  /Encoding WinAnsiEncoding def
  currentdict
end
/Helvetica-BoldOblique exch definefont pop
/Times-Roman findfont
dup length dict begin
  {1 index /FID ne {def} {pop pop} ifelse} forall
  /Encoding WinAnsiEncoding def
  currentdict
end
/Times-Roman exch definefont pop
/Times-Italic findfont
dup length dict begin
  {1 index /FID ne {def} {pop pop} ifelse} forall
  /Encoding WinAnsiEncoding def
  currentdict
end
/Times-Italic exch definefont pop
/Times-Bold findfont
dup length dict begin
  {1 index /FID ne {def} {pop pop} ifelse} forall
  /Encoding WinAnsiEncoding def
  currentdict
end
/Times-Bold exch definefont pop
/Times-BoldItalic findfont
dup length dict begin
  {1 index /FID ne {def} {pop pop} ifelse} forall
  /Encoding WinAnsiEncoding def
  currentdict
end
/Times-BoldItalic exch definefont pop
/Courier findfont
dup length dict begin
  {1 index /FID ne {def} {pop pop} ifelse} forall
  /Encoding WinAnsiEncoding def
  currentdict
end
/Courier exch definefont pop
%FOPEndFontReencode
%%EndProlog
%%Page: 1 1
%%PageBoundingBox: 0 0 420 315
%%BeginPageSetup
[1 0 0 -1 0 315] CT
%%EndPageSetup
GS
[0.75 0 0 0.75 0 0] CT
1 GC
N
0 0 560 420 re
f
GR
GS
[0.75 0 0 0.75 0 0] CT
1 GC
N
0 0 560 420 re
f
GR
GS
[0.75 0 0 0.75 0 0] CT
1 GC
N
73 364 M
507 364 L
507 31 L
73 31 L
cp
f
GR
GS
[0.75 0 0 0.75 0 0] CT
0.149 GC
2 setlinecap
1 LJ
0.667 LW
N
73 364 M
507 364 L
S
GR
GS
[0.75 0 0 0.75 0 0] CT
0.149 GC
2 setlinecap
1 LJ
0.667 LW
N
73 31 M
507 31 L
S
GR
GS
[0.75 0 0 0.75 0 0] CT
0.149 GC
2 setlinecap
1 LJ
0.667 LW
N
73 364 M
73 359.66 L
S
GR
GS
[0.75 0 0 0.75 0 0] CT
0.149 GC
2 setlinecap
1 LJ
0.667 LW
N
145.333 364 M
145.333 359.66 L
S
GR
GS
[0.75 0 0 0.75 0 0] CT
0.149 GC
2 setlinecap
1 LJ
0.667 LW
N
217.667 364 M
217.667 359.66 L
S
GR
GS
[0.75 0 0 0.75 0 0] CT
0.149 GC
2 setlinecap
1 LJ
0.667 LW
N
290 364 M
290 359.66 L
S
GR
GS
[0.75 0 0 0.75 0 0] CT
0.149 GC
2 setlinecap
1 LJ
0.667 LW
N
362.333 364 M
362.333 359.66 L
S
GR
GS
[0.75 0 0 0.75 0 0] CT
0.149 GC
2 setlinecap
1 LJ
0.667 LW
N
434.667 364 M
434.667 359.66 L
S
GR
GS
[0.75 0 0 0.75 0 0] CT
0.149 GC
2 setlinecap
1 LJ
0.667 LW
N
507 364 M
507 359.66 L
S
GR
GS
[0.75 0 0 0.75 0 0] CT
0.149 GC
2 setlinecap
1 LJ
0.667 LW
N
73 31 M
73 35.34 L
S
GR
GS
[0.75 0 0 0.75 0 0] CT
0.149 GC
2 setlinecap
1 LJ
0.667 LW
N
145.333 31 M
145.333 35.34 L
S
GR
GS
[0.75 0 0 0.75 0 0] CT
0.149 GC
2 setlinecap
1 LJ
0.667 LW
N
217.667 31 M
217.667 35.34 L
S
GR
GS
[0.75 0 0 0.75 0 0] CT
0.149 GC
2 setlinecap
1 LJ
0.667 LW
N
290 31 M
290 35.34 L
S
GR
GS
[0.75 0 0 0.75 0 0] CT
0.149 GC
2 setlinecap
1 LJ
0.667 LW
N
362.333 31 M
362.333 35.34 L
S
GR
GS
[0.75 0 0 0.75 0 0] CT
0.149 GC
2 setlinecap
1 LJ
0.667 LW
N
434.667 31 M
434.667 35.34 L
S
GR
GS
[0.75 0 0 0.75 0 0] CT
0.149 GC
2 setlinecap
1 LJ
0.667 LW
N
507 31 M
507 35.34 L
S
GR
GS
[0.75 0 0 0.75 54.75 277.8] CT
0.149 GC
/Helvetica 18.667 F
GS
[1 0 0 1 0 0] CT
-8.5 19 moveto 
1 -1 scale
(-3) t 
GR
GR
GS
[0.75 0 0 0.75 109 277.8] CT
0.149 GC
/Helvetica 18.667 F
GS
[1 0 0 1 0 0] CT
-8.5 19 moveto 
1 -1 scale
(-2) t 
GR
GR
GS
[0.75 0 0 0.75 163.25 277.8] CT
0.149 GC
/Helvetica 18.667 F
GS
[1 0 0 1 0 0] CT
-8.5 19 moveto 
1 -1 scale
(-1) t 
GR
GR
GS
[0.75 0 0 0.75 217.5 277.8] CT
0.149 GC
/Helvetica 18.667 F
GS
[1 0 0 1 0 0] CT
-5.5 19 moveto 
1 -1 scale
(0) t 
GR
GR
GS
[0.75 0 0 0.75 271.75001 277.8] CT
0.149 GC
/Helvetica 18.667 F
GS
[1 0 0 1 0 0] CT
-5.5 19 moveto 
1 -1 scale
(1) t 
GR
GR
GS
[0.75 0 0 0.75 325.99999 277.8] CT
0.149 GC
/Helvetica 18.667 F
GS
[1 0 0 1 0 0] CT
-5.5 19 moveto 
1 -1 scale
(2) t 
GR
GR
GS
[0.75 0 0 0.75 380.25 277.8] CT
0.149 GC
/Helvetica 18.667 F
GS
[1 0 0 1 0 0] CT
-5.5 19 moveto 
1 -1 scale
(3) t 
GR
GR
GS
[0.75 0 0 0.75 217.50016 297] CT
0.149 GC
/Helvetica 18.667 F
GS
[1 0 0 1 0 0] CT
-5 19 moveto 
1 -1 scale
(x) t 
GR
GR
GS
[0.75 0 0 0.75 0 0] CT
0.149 GC
2 setlinecap
1 LJ
0.667 LW
N
73 364 M
73 31 L
S
GR
GS
[0.75 0 0 0.75 0 0] CT
0.149 GC
2 setlinecap
1 LJ
0.667 LW
N
507 364 M
507 31 L
S
GR
GS
[0.75 0 0 0.75 0 0] CT
0.149 GC
2 setlinecap
1 LJ
0.667 LW
N
73 364 M
77.34 364 L
S
GR
GS
[0.75 0 0 0.75 0 0] CT
0.149 GC
2 setlinecap
1 LJ
0.667 LW
N
73 297.4 M
77.34 297.4 L
S
GR
GS
[0.75 0 0 0.75 0 0] CT
0.149 GC
2 setlinecap
1 LJ
0.667 LW
N
73 230.8 M
77.34 230.8 L
S
GR
GS
[0.75 0 0 0.75 0 0] CT
0.149 GC
2 setlinecap
1 LJ
0.667 LW
N
73 164.2 M
77.34 164.2 L
S
GR
GS
[0.75 0 0 0.75 0 0] CT
0.149 GC
2 setlinecap
1 LJ
0.667 LW
N
73 97.6 M
77.34 97.6 L
S
GR
GS
[0.75 0 0 0.75 0 0] CT
0.149 GC
2 setlinecap
1 LJ
0.667 LW
N
73 31 M
77.34 31 L
S
GR
GS
[0.75 0 0 0.75 0 0] CT
0.149 GC
2 setlinecap
1 LJ
0.667 LW
N
507 364 M
502.66 364 L
S
GR
GS
[0.75 0 0 0.75 0 0] CT
0.149 GC
2 setlinecap
1 LJ
0.667 LW
N
507 297.4 M
502.66 297.4 L
S
GR
GS
[0.75 0 0 0.75 0 0] CT
0.149 GC
2 setlinecap
1 LJ
0.667 LW
N
507 230.8 M
502.66 230.8 L
S
GR
GS
[0.75 0 0 0.75 0 0] CT
0.149 GC
2 setlinecap
1 LJ
0.667 LW
N
507 164.2 M
502.66 164.2 L
S
GR
GS
[0.75 0 0 0.75 0 0] CT
0.149 GC
2 setlinecap
1 LJ
0.667 LW
N
507 97.6 M
502.66 97.6 L
S
GR
GS
[0.75 0 0 0.75 0 0] CT
0.149 GC
2 setlinecap
1 LJ
0.667 LW
N
507 31 M
502.66 31 L
S
GR
GS
[0.75 0 0 0.75 49.95 273] CT
0.149 GC
/Helvetica 18.667 F
GS
[1 0 0 1 0 0] CT
-11 7 moveto 
1 -1 scale
(0) t 
GR
GR
GS
[0.75 0 0 0.75 49.95 223.05] CT
0.149 GC
/Helvetica 18.667 F
GS
[1 0 0 1 0 0] CT
-26 7 moveto 
1 -1 scale
(0.2) t 
GR
GR
GS
[0.75 0 0 0.75 49.95 173.1] CT
0.149 GC
/Helvetica 18.667 F
GS
[1 0 0 1 0 0] CT
-26 7 moveto 
1 -1 scale
(0.4) t 
GR
GR
GS
[0.75 0 0 0.75 49.95 123.15] CT
0.149 GC
/Helvetica 18.667 F
GS
[1 0 0 1 0 0] CT
-26 7 moveto 
1 -1 scale
(0.6) t 
GR
GR
GS
[0.75 0 0 0.75 49.95 73.2] CT
0.149 GC
/Helvetica 18.667 F
GS
[1 0 0 1 0 0] CT
-26 7 moveto 
1 -1 scale
(0.8) t 
GR
GR
GS
[0.75 0 0 0.75 49.95 23.25] CT
0.149 GC
/Helvetica 18.667 F
GS
[1 0 0 1 0 0] CT
-11 7 moveto 
1 -1 scale
(1) t 
GR
GR
GS
[0 -0.75 0.75 0 27.45 148.12489] CT
0.149 GC
/Helvetica 18.667 F
GS
[1 0 0 1 0 0] CT
-93 -5 moveto 
1 -1 scale
(Cumulative Probability) t 
GR
GR
GS
[0.75 0 0 0.75 0 0] CT
0 0.447 0.741 RC
1 LJ
2.667 LW
N
73 363.55 M
73.723 363.535 L
74.447 363.52 L
75.17 363.504 L
75.893 363.488 L
76.617 363.471 L
77.34 363.454 L
78.063 363.436 L
78.787 363.417 L
79.51 363.398 L
80.233 363.379 L
80.957 363.359 L
81.68 363.338 L
82.403 363.317 L
83.127 363.295 L
83.85 363.272 L
84.573 363.249 L
85.297 363.225 L
86.02 363.2 L
86.743 363.175 L
87.467 363.149 L
88.19 363.122 L
88.913 363.095 L
89.637 363.067 L
90.36 363.038 L
91.083 363.008 L
91.807 362.977 L
92.53 362.945 L
93.253 362.913 L
93.977 362.88 L
94.7 362.845 L
95.423 362.81 L
96.147 362.774 L
96.87 362.737 L
97.593 362.699 L
98.317 362.66 L
99.04 362.62 L
99.763 362.578 L
100.487 362.536 L
101.21 362.492 L
101.933 362.448 L
102.657 362.402 L
103.38 362.355 L
104.103 362.307 L
104.827 362.257 L
105.55 362.206 L
106.273 362.154 L
106.997 362.101 L
107.72 362.046 L
108.443 361.99 L
109.167 361.932 L
109.89 361.873 L
110.613 361.812 L
111.337 361.75 L
112.06 361.687 L
112.783 361.621 L
113.507 361.555 L
114.23 361.486 L
114.953 361.416 L
115.677 361.344 L
116.4 361.27 L
117.123 361.195 L
117.847 361.117 L
118.57 361.038 L
119.293 360.957 L
120.017 360.874 L
120.74 360.789 L
121.463 360.702 L
122.187 360.613 L
122.91 360.522 L
123.633 360.429 L
124.357 360.333 L
125.08 360.236 L
125.803 360.136 L
126.527 360.034 L
127.25 359.929 L
127.973 359.822 L
128.697 359.713 L
129.42 359.601 L
130.143 359.487 L
130.867 359.37 L
131.59 359.251 L
132.313 359.129 L
133.037 359.004 L
133.76 358.876 L
134.483 358.746 L
135.207 358.613 L
135.93 358.477 L
136.653 358.338 L
137.377 358.196 L
138.1 358.051 L
138.823 357.903 L
139.547 357.752 L
140.27 357.598 L
140.993 357.44 L
141.717 357.279 L
142.44 357.115 L
143.163 356.948 L
143.887 356.777 L
144.61 356.602 L
145.333 356.424 L
146.057 356.243 L
146.78 356.057 L
147.503 355.868 L
148.227 355.676 L
148.95 355.479 L
149.673 355.279 L
150.397 355.074 L
151.12 354.866 L
151.843 354.654 L
152.567 354.437 L
153.29 354.217 L
154.013 353.992 L
154.737 353.763 L
155.46 353.53 L
156.183 353.292 L
156.907 353.05 L
157.63 352.803 L
158.353 352.552 L
159.077 352.296 L
159.8 352.035 L
160.523 351.77 L
161.247 351.5 L
161.97 351.225 L
162.693 350.945 L
163.417 350.66 L
164.14 350.37 L
164.863 350.076 L
165.587 349.776 L
166.31 349.47 L
167.033 349.16 L
167.757 348.844 L
168.48 348.523 L
169.203 348.196 L
169.927 347.864 L
170.65 347.526 L
171.373 347.183 L
172.097 346.834 L
172.82 346.479 L
173.543 346.118 L
174.267 345.752 L
174.99 345.38 L
175.713 345.001 L
176.437 344.617 L
177.16 344.226 L
177.883 343.83 L
178.607 343.427 L
179.33 343.018 L
180.053 342.603 L
180.777 342.181 L
181.5 341.753 L
182.223 341.319 L
182.947 340.878 L
183.67 340.43 L
184.393 339.976 L
185.117 339.515 L
185.84 339.047 L
186.563 338.573 L
187.287 338.091 L
188.01 337.603 L
188.733 337.108 L
189.457 336.606 L
190.18 336.097 L
190.903 335.581 L
191.627 335.057 L
192.35 334.527 L
193.073 333.989 L
193.797 333.444 L
194.52 332.892 L
195.243 332.332 L
195.967 331.765 L
196.69 331.191 L
197.413 330.609 L
198.137 330.02 L
198.86 329.423 L
199.583 328.819 L
200.307 328.207 L
201.03 327.587 L
201.753 326.96 L
202.477 326.325 L
203.2 325.682 L
203.923 325.031 L
204.647 324.373 L
205.37 323.707 L
206.093 323.033 L
206.817 322.351 L
207.54 321.661 L
208.263 320.964 L
208.987 320.258 L
209.71 319.545 L
210.433 318.823 L
211.157 318.094 L
211.88 317.356 L
212.603 316.611 L
213.327 315.857 L
214.05 315.096 L
214.773 314.326 L
215.497 313.549 L
216.22 312.763 L
216.943 311.97 L
217.667 311.168 L
218.39 310.358 L
219.113 309.54 L
219.837 308.714 L
220.56 307.88 L
221.283 307.038 L
222.007 306.188 L
222.73 305.33 L
223.453 304.464 L
224.177 303.59 L
224.9 302.708 L
225.623 301.818 L
226.347 300.92 L
227.07 300.014 L
227.793 299.1 L
228.517 298.178 L
229.24 297.249 L
229.963 296.311 L
230.687 295.366 L
231.41 294.413 L
232.133 293.452 L
232.857 292.484 L
233.58 291.507 L
234.303 290.524 L
235.027 289.532 L
235.75 288.533 L
236.473 287.527 L
237.197 286.513 L
237.92 285.491 L
238.643 284.462 L
239.367 283.426 L
240.09 282.383 L
240.813 281.332 L
241.537 280.274 L
242.26 279.209 L
242.983 278.137 L
243.707 277.058 L
244.43 275.972 L
245.153 274.88 L
245.877 273.78 L
246.6 272.674 L
247.323 271.561 L
248.047 270.441 L
248.77 269.315 L
249.493 268.183 L
250.217 267.044 L
250.94 265.899 L
251.663 264.747 L
252.387 263.59 L
253.11 262.426 L
253.833 261.257 L
254.557 260.082 L
255.28 258.901 L
256.003 257.714 L
256.727 256.522 L
257.45 255.324 L
258.173 254.12 L
258.897 252.912 L
259.62 251.698 L
260.343 250.479 L
261.067 249.255 L
261.79 248.027 L
262.513 246.793 L
263.237 245.555 L
263.96 244.312 L
264.683 243.065 L
265.407 241.813 L
266.13 240.557 L
266.853 239.297 L
267.577 238.033 L
268.3 236.765 L
269.023 235.493 L
269.747 234.217 L
270.47 232.938 L
271.193 231.655 L
271.917 230.369 L
272.64 229.08 L
273.363 227.788 L
274.087 226.492 L
274.81 225.194 L
275.533 223.893 L
276.257 222.59 L
276.98 221.284 L
277.703 219.976 L
278.427 218.665 L
279.15 217.353 L
279.873 216.038 L
280.597 214.722 L
281.32 213.404 L
282.043 212.084 L
282.767 210.763 L
283.49 209.44 L
284.213 208.117 L
284.937 206.792 L
285.66 205.466 L
286.383 204.14 L
287.107 202.813 L
287.83 201.485 L
288.553 200.157 L
289.277 198.828 L
290 197.5 L
290.723 196.172 L
291.447 194.843 L
292.17 193.515 L
292.893 192.188 L
293.617 190.86 L
294.34 189.534 L
295.063 188.208 L
295.787 186.883 L
296.51 185.56 L
297.233 184.237 L
297.957 182.916 L
298.68 181.596 L
299.403 180.278 L
300.127 178.962 L
300.85 177.647 L
301.573 176.335 L
302.297 175.024 L
303.02 173.716 L
303.743 172.41 L
304.467 171.107 L
305.19 169.806 L
305.913 168.508 L
306.637 167.212 L
307.36 165.92 L
308.083 164.631 L
308.807 163.345 L
309.53 162.062 L
310.253 160.783 L
310.977 159.507 L
311.7 158.236 L
312.423 156.967 L
313.147 155.703 L
313.87 154.443 L
314.593 153.187 L
315.317 151.935 L
316.04 150.688 L
316.763 149.445 L
317.487 148.207 L
318.21 146.973 L
318.933 145.745 L
319.657 144.521 L
320.38 143.302 L
321.103 142.088 L
321.827 140.88 L
322.55 139.676 L
323.273 138.478 L
323.997 137.286 L
324.72 136.099 L
325.443 134.918 L
326.167 133.743 L
326.89 132.574 L
327.613 131.41 L
328.337 130.253 L
329.06 129.101 L
329.783 127.956 L
330.507 126.817 L
331.23 125.685 L
331.953 124.559 L
332.677 123.439 L
333.4 122.326 L
334.123 121.22 L
334.847 120.12 L
335.57 119.028 L
336.293 117.942 L
337.017 116.863 L
337.74 115.791 L
338.463 114.726 L
339.187 113.668 L
339.91 112.617 L
340.633 111.574 L
341.357 110.538 L
342.08 109.509 L
342.803 108.487 L
343.527 107.473 L
344.25 106.467 L
344.973 105.468 L
345.697 104.476 L
346.42 103.493 L
347.143 102.516 L
347.867 101.548 L
348.59 100.587 L
349.313 99.634 L
350.037 98.689 L
350.76 97.751 L
351.483 96.822 L
352.207 95.9 L
352.93 94.986 L
353.653 94.08 L
354.377 93.182 L
355.1 92.292 L
355.823 91.41 L
356.547 90.536 L
357.27 89.67 L
357.993 88.812 L
358.717 87.962 L
359.44 87.12 L
360.163 86.286 L
360.887 85.46 L
361.61 84.642 L
362.333 83.832 L
363.057 83.03 L
363.78 82.237 L
364.503 81.451 L
365.227 80.674 L
365.95 79.904 L
366.673 79.143 L
367.397 78.389 L
368.12 77.644 L
368.843 76.906 L
369.567 76.177 L
370.29 75.455 L
371.013 74.742 L
371.737 74.036 L
372.46 73.339 L
373.183 72.649 L
373.907 71.967 L
374.63 71.293 L
375.353 70.627 L
376.077 69.969 L
376.8 69.318 L
377.523 68.675 L
378.247 68.04 L
378.97 67.413 L
379.693 66.793 L
380.417 66.181 L
381.14 65.577 L
381.863 64.98 L
382.587 64.391 L
383.31 63.809 L
384.033 63.235 L
384.757 62.668 L
385.48 62.108 L
386.203 61.556 L
386.927 61.011 L
387.65 60.473 L
388.373 59.943 L
389.097 59.419 L
389.82 58.903 L
390.543 58.394 L
391.267 57.892 L
391.99 57.397 L
392.713 56.909 L
393.437 56.427 L
394.16 55.953 L
394.883 55.485 L
395.607 55.024 L
396.33 54.57 L
397.053 54.122 L
397.777 53.681 L
398.5 53.247 L
399.223 52.819 L
399.947 52.397 L
400.67 51.982 L
401.393 51.573 L
402.117 51.17 L
402.84 50.774 L
403.563 50.383 L
404.287 49.999 L
405.01 49.62 L
405.733 49.248 L
406.457 48.882 L
407.18 48.521 L
407.903 48.166 L
408.627 47.817 L
409.35 47.474 L
410.073 47.136 L
410.797 46.804 L
411.52 46.477 L
412.243 46.156 L
412.967 45.84 L
413.69 45.53 L
414.413 45.224 L
415.137 44.924 L
415.86 44.63 L
416.583 44.34 L
417.307 44.055 L
418.03 43.775 L
418.753 43.5 L
419.477 43.23 L
420.2 42.965 L
420.923 42.704 L
421.647 42.448 L
422.37 42.197 L
423.093 41.95 L
423.817 41.708 L
424.54 41.47 L
425.263 41.237 L
425.987 41.008 L
426.71 40.783 L
427.433 40.563 L
428.157 40.346 L
428.88 40.134 L
429.603 39.926 L
430.327 39.721 L
431.05 39.521 L
431.773 39.324 L
432.497 39.132 L
433.22 38.943 L
433.943 38.757 L
434.667 38.576 L
435.39 38.398 L
436.113 38.223 L
436.837 38.052 L
437.56 37.885 L
438.283 37.721 L
439.007 37.56 L
439.73 37.402 L
440.453 37.248 L
441.177 37.097 L
441.9 36.949 L
442.623 36.804 L
443.347 36.662 L
444.07 36.523 L
444.793 36.387 L
445.517 36.254 L
446.24 36.124 L
446.963 35.996 L
447.687 35.871 L
448.41 35.749 L
449.133 35.63 L
449.857 35.513 L
450.58 35.399 L
451.303 35.287 L
452.027 35.178 L
452.75 35.071 L
453.473 34.966 L
454.197 34.864 L
454.92 34.764 L
455.643 34.667 L
456.367 34.571 L
457.09 34.478 L
457.813 34.387 L
458.537 34.298 L
459.26 34.211 L
459.983 34.126 L
460.707 34.043 L
461.43 33.962 L
462.153 33.883 L
462.877 33.805 L
463.6 33.73 L
464.323 33.656 L
465.047 33.584 L
465.77 33.514 L
466.493 33.445 L
467.217 33.379 L
467.94 33.313 L
468.663 33.25 L
469.387 33.188 L
470.11 33.127 L
470.833 33.068 L
471.557 33.01 L
472.28 32.954 L
473.003 32.899 L
473.727 32.846 L
474.45 32.794 L
475.173 32.743 L
475.897 32.693 L
476.62 32.645 L
477.343 32.598 L
478.067 32.552 L
478.79 32.508 L
479.513 32.464 L
480.237 32.422 L
480.96 32.38 L
481.683 32.34 L
482.407 32.301 L
483.13 32.263 L
483.853 32.226 L
484.577 32.19 L
485.3 32.154 L
486.023 32.12 L
486.747 32.087 L
487.47 32.055 L
488.193 32.023 L
488.917 31.992 L
489.64 31.962 L
490.363 31.933 L
491.087 31.905 L
491.81 31.878 L
492.533 31.851 L
493.257 31.825 L
493.98 31.8 L
494.703 31.775 L
495.427 31.751 L
496.15 31.728 L
496.873 31.705 L
497.597 31.683 L
498.32 31.662 L
499.043 31.641 L
499.767 31.621 L
500.49 31.602 L
501.213 31.583 L
501.937 31.564 L
502.66 31.546 L
503.383 31.529 L
504.107 31.512 L
504.83 31.496 L
505.553 31.48 L
506.277 31.464 L
507 31.45 L
S
GR
GS
[0.75 0 0 0.75 0 0] CT
1 0 0 RC
[8 8] 0 setdash
2 LJ
2.667 LW
N
362.333 364 M
362.333 83.832 L
S
GR
GS
[0.75 0 0 0.75 0 0] CT
1 0 0 RC
[8 8] 0 setdash
2 LJ
2.667 LW
N
73 83.832 M
362.333 83.832 L
S
GR
GS
[0.75 0 0 0.75 271.75001 62.87414] CT
1 0 0 RC
10.0 ML
2.667 LW
N
6.667 0 M
6.667 -3.682 3.682 -6.667 0 -6.667 C
-3.682 -6.667 -6.667 -3.682 -6.667 0 C
-6.667 3.682 -3.682 6.667 0 6.667 C
3.682 6.667 6.667 3.682 6.667 0 C
cp
S
GR
%%Trailer
%%Pages: 1
%%EOF
