%!PS-Adobe-3.0 EPSF-3.0
%%Creator: (MATLAB, The Mathworks, Inc. Version 9.6.0.1472908 \(R2019a\) Update 9. Operating System: Windows 10)
%%Title: (C:/Users/A/OneDrive - ETHZ/Research_MasterThesis/AllCodeFiles/Figures/RevenueFinalFig.eps)
%%CreationDate: 2023-05-27T03:38:20
%%Pages: (atend)
%%BoundingBox:    30     2   596   406
%%LanguageLevel: 3
%%EndComments
%%BeginProlog
%%BeginResource: procset (Apache XML Graphics Std ProcSet) 1.2 0
%%Version: 1.2 0
%%Copyright: (Copyright 2001-2003,2010 The Apache Software Foundation. License terms: http://www.apache.org/licenses/LICENSE-2.0)
/bd{bind def}bind def
/ld{load def}bd
/GR/grestore ld
/GS/gsave ld
/RM/rmoveto ld
/C/curveto ld
/t/show ld
/L/lineto ld
/ML/setmiterlimit ld
/CT/concat ld
/f/fill ld
/N/newpath ld
/S/stroke ld
/CC/setcmykcolor ld
/A/ashow ld
/cp/closepath ld
/RC/setrgbcolor ld
/LJ/setlinejoin ld
/GC/setgray ld
/LW/setlinewidth ld
/M/moveto ld
/re {4 2 roll M
1 index 0 rlineto
0 exch rlineto
neg 0 rlineto
cp } bd
/_ctm matrix def
/_tm matrix def
/BT { _ctm currentmatrix pop matrix _tm copy pop 0 0 moveto } bd
/ET { _ctm setmatrix } bd
/iTm { _ctm setmatrix _tm concat } bd
/Tm { _tm astore pop iTm 0 0 moveto } bd
/ux 0.0 def
/uy 0.0 def
/F {
  /Tp exch def
  /Tf exch def
  Tf findfont Tp scalefont setfont
  /cf Tf def  /cs Tp def
} bd
/ULS {currentpoint /uy exch def /ux exch def} bd
/ULE {
  /Tcx currentpoint pop def
  gsave
  newpath
  cf findfont cs scalefont dup
  /FontMatrix get 0 get /Ts exch def /FontInfo get dup
  /UnderlinePosition get Ts mul /To exch def
  /UnderlineThickness get Ts mul /Tt exch def
  ux uy To add moveto  Tcx uy To add lineto
  Tt setlinewidth stroke
  grestore
} bd
/OLE {
  /Tcx currentpoint pop def
  gsave
  newpath
  cf findfont cs scalefont dup
  /FontMatrix get 0 get /Ts exch def /FontInfo get dup
  /UnderlinePosition get Ts mul /To exch def
  /UnderlineThickness get Ts mul /Tt exch def
  ux uy To add cs add moveto Tcx uy To add cs add lineto
  Tt setlinewidth stroke
  grestore
} bd
/SOE {
  /Tcx currentpoint pop def
  gsave
  newpath
  cf findfont cs scalefont dup
  /FontMatrix get 0 get /Ts exch def /FontInfo get dup
  /UnderlinePosition get Ts mul /To exch def
  /UnderlineThickness get Ts mul /Tt exch def
  ux uy To add cs 10 mul 26 idiv add moveto Tcx uy To add cs 10 mul 26 idiv add lineto
  Tt setlinewidth stroke
  grestore
} bd
/QT {
/Y22 exch store
/X22 exch store
/Y21 exch store
/X21 exch store
currentpoint
/Y21 load 2 mul add 3 div exch
/X21 load 2 mul add 3 div exch
/X21 load 2 mul /X22 load add 3 div
/Y21 load 2 mul /Y22 load add 3 div
/X22 load /Y22 load curveto
} bd
/SSPD {
dup length /d exch dict def
{
/v exch def
/k exch def
currentpagedevice k known {
/cpdv currentpagedevice k get def
v cpdv ne {
/upd false def
/nullv v type /nulltype eq def
/nullcpdv cpdv type /nulltype eq def
nullv nullcpdv or
{
/upd true def
} {
/sametype v type cpdv type eq def
sametype {
v type /arraytype eq {
/vlen v length def
/cpdvlen cpdv length def
vlen cpdvlen eq {
0 1 vlen 1 sub {
/i exch def
/obj v i get def
/cpdobj cpdv i get def
obj cpdobj ne {
/upd true def
exit
} if
} for
} {
/upd true def
} ifelse
} {
v type /dicttype eq {
v {
/dv exch def
/dk exch def
/cpddv cpdv dk get def
dv cpddv ne {
/upd true def
exit
} if
} forall
} {
/upd true def
} ifelse
} ifelse
} if
} ifelse
upd true eq {
d k v put
} if
} if
} if
} forall
d length 0 gt {
d setpagedevice
} if
} bd
/RE { % /NewFontName [NewEncodingArray] /FontName RE -
  findfont dup length dict begin
  {
    1 index /FID ne
    {def} {pop pop} ifelse
  } forall
  /Encoding exch def
  /FontName 1 index def
  currentdict definefont pop
  end
} bind def
%%EndResource
%%BeginResource: procset (Apache XML Graphics EPS ProcSet) 1.0 0
%%Version: 1.0 0
%%Copyright: (Copyright 2002-2003 The Apache Software Foundation. License terms: http://www.apache.org/licenses/LICENSE-2.0)
/BeginEPSF { %def
/b4_Inc_state save def         % Save state for cleanup
/dict_count countdictstack def % Count objects on dict stack
/op_count count 1 sub def      % Count objects on operand stack
userdict begin                 % Push userdict on dict stack
/showpage { } def              % Redefine showpage, { } = null proc
0 setgray 0 setlinecap         % Prepare graphics state
1 setlinewidth 0 setlinejoin
10 setmiterlimit [ ] 0 setdash newpath
/languagelevel where           % If level not equal to 1 then
{pop languagelevel             % set strokeadjust and
1 ne                           % overprint to their defaults.
{false setstrokeadjust false setoverprint
} if
} if
} bd
/EndEPSF { %def
count op_count sub {pop} repeat            % Clean up stacks
countdictstack dict_count sub {end} repeat
b4_Inc_state restore
} bd
%%EndResource
%FOPBeginFontDict
%%IncludeResource: font Courier-Oblique
%%IncludeResource: font Courier-BoldOblique
%%IncludeResource: font Courier-Bold
%%IncludeResource: font ZapfDingbats
%%IncludeResource: font Symbol
%%IncludeResource: font Helvetica
%%IncludeResource: font Helvetica-Oblique
%%IncludeResource: font Helvetica-Bold
%%IncludeResource: font Helvetica-BoldOblique
%%IncludeResource: font Times-Roman
%%IncludeResource: font Times-Italic
%%IncludeResource: font Times-Bold
%%IncludeResource: font Times-BoldItalic
%%IncludeResource: font Courier
%FOPEndFontDict
%%BeginResource: encoding WinAnsiEncoding
/WinAnsiEncoding [
/.notdef /.notdef /.notdef /.notdef /.notdef
/.notdef /.notdef /.notdef /.notdef /.notdef
/.notdef /.notdef /.notdef /.notdef /.notdef
/.notdef /.notdef /.notdef /.notdef /.notdef
/.notdef /.notdef /.notdef /.notdef /.notdef
/.notdef /.notdef /.notdef /.notdef /.notdef
/.notdef /.notdef /space /exclam /quotedbl
/numbersign /dollar /percent /ampersand /quotesingle
/parenleft /parenright /asterisk /plus /comma
/hyphen /period /slash /zero /one
/two /three /four /five /six
/seven /eight /nine /colon /semicolon
/less /equal /greater /question /at
/A /B /C /D /E
/F /G /H /I /J
/K /L /M /N /O
/P /Q /R /S /T
/U /V /W /X /Y
/Z /bracketleft /backslash /bracketright /asciicircum
/underscore /quoteleft /a /b /c
/d /e /f /g /h
/i /j /k /l /m
/n /o /p /q /r
/s /t /u /v /w
/x /y /z /braceleft /bar
/braceright /asciitilde /bullet /Euro /bullet
/quotesinglbase /florin /quotedblbase /ellipsis /dagger
/daggerdbl /circumflex /perthousand /Scaron /guilsinglleft
/OE /bullet /Zcaron /bullet /bullet
/quoteleft /quoteright /quotedblleft /quotedblright /bullet
/endash /emdash /asciitilde /trademark /scaron
/guilsinglright /oe /bullet /zcaron /Ydieresis
/space /exclamdown /cent /sterling /currency
/yen /brokenbar /section /dieresis /copyright
/ordfeminine /guillemotleft /logicalnot /sfthyphen /registered
/macron /degree /plusminus /twosuperior /threesuperior
/acute /mu /paragraph /middot /cedilla
/onesuperior /ordmasculine /guillemotright /onequarter /onehalf
/threequarters /questiondown /Agrave /Aacute /Acircumflex
/Atilde /Adieresis /Aring /AE /Ccedilla
/Egrave /Eacute /Ecircumflex /Edieresis /Igrave
/Iacute /Icircumflex /Idieresis /Eth /Ntilde
/Ograve /Oacute /Ocircumflex /Otilde /Odieresis
/multiply /Oslash /Ugrave /Uacute /Ucircumflex
/Udieresis /Yacute /Thorn /germandbls /agrave
/aacute /acircumflex /atilde /adieresis /aring
/ae /ccedilla /egrave /eacute /ecircumflex
/edieresis /igrave /iacute /icircumflex /idieresis
/eth /ntilde /ograve /oacute /ocircumflex
/otilde /odieresis /divide /oslash /ugrave
/uacute /ucircumflex /udieresis /yacute /thorn
/ydieresis
] def
%%EndResource
%FOPBeginFontReencode
/Courier-Oblique findfont
dup length dict begin
  {1 index /FID ne {def} {pop pop} ifelse} forall
  /Encoding WinAnsiEncoding def
  currentdict
end
/Courier-Oblique exch definefont pop
/Courier-BoldOblique findfont
dup length dict begin
  {1 index /FID ne {def} {pop pop} ifelse} forall
  /Encoding WinAnsiEncoding def
  currentdict
end
/Courier-BoldOblique exch definefont pop
/Courier-Bold findfont
dup length dict begin
  {1 index /FID ne {def} {pop pop} ifelse} forall
  /Encoding WinAnsiEncoding def
  currentdict
end
/Courier-Bold exch definefont pop
/Helvetica findfont
dup length dict begin
  {1 index /FID ne {def} {pop pop} ifelse} forall
  /Encoding WinAnsiEncoding def
  currentdict
end
/Helvetica exch definefont pop
/Helvetica-Oblique findfont
dup length dict begin
  {1 index /FID ne {def} {pop pop} ifelse} forall
  /Encoding WinAnsiEncoding def
  currentdict
end
/Helvetica-Oblique exch definefont pop
/Helvetica-Bold findfont
dup length dict begin
  {1 index /FID ne {def} {pop pop} ifelse} forall
  /Encoding WinAnsiEncoding def
  currentdict
end
/Helvetica-Bold exch definefont pop
/Helvetica-BoldOblique findfont
dup length dict begin
  {1 index /FID ne {def} {pop pop} ifelse} forall
  /Encoding WinAnsiEncoding def
  currentdict
end
/Helvetica-BoldOblique exch definefont pop
/Times-Roman findfont
dup length dict begin
  {1 index /FID ne {def} {pop pop} ifelse} forall
  /Encoding WinAnsiEncoding def
  currentdict
end
/Times-Roman exch definefont pop
/Times-Italic findfont
dup length dict begin
  {1 index /FID ne {def} {pop pop} ifelse} forall
  /Encoding WinAnsiEncoding def
  currentdict
end
/Times-Italic exch definefont pop
/Times-Bold findfont
dup length dict begin
  {1 index /FID ne {def} {pop pop} ifelse} forall
  /Encoding WinAnsiEncoding def
  currentdict
end
/Times-Bold exch definefont pop
/Times-BoldItalic findfont
dup length dict begin
  {1 index /FID ne {def} {pop pop} ifelse} forall
  /Encoding WinAnsiEncoding def
  currentdict
end
/Times-BoldItalic exch definefont pop
/Courier findfont
dup length dict begin
  {1 index /FID ne {def} {pop pop} ifelse} forall
  /Encoding WinAnsiEncoding def
  currentdict
end
/Courier exch definefont pop
%FOPEndFontReencode
%%EndProlog
%%Page: 1 1
%%PageBoundingBox: 0 0 648 432
%%BeginPageSetup
[1 0 0 -1 0 432] CT
%%EndPageSetup
GS
[0.75 0 0 0.75 0 0] CT
1 GC
N
0 0 864 576 re
f
GR
GS
[0.75 0 0 0.75 0 0] CT
1 GC
N
0 0 864 576 re
f
GR
GS
[0.75 0 0 0.75 0 0] CT
1 GC
N
112 512 M
782 512 L
782 43 L
112 43 L
cp
f
GR
GS
[0.75 0 0 0.75 0 0] CT
0.873 GC
1 LJ
0.667 LW
N
112 512 M
112 43 L
S
GR
GS
[0.75 0 0 0.75 0 0] CT
0.873 GC
1 LJ
0.667 LW
N
223.667 512 M
223.667 43 L
S
GR
GS
[0.75 0 0 0.75 0 0] CT
0.873 GC
1 LJ
0.667 LW
N
335.333 512 M
335.333 43 L
S
GR
GS
[0.75 0 0 0.75 0 0] CT
0.873 GC
1 LJ
0.667 LW
N
447 512 M
447 43 L
S
GR
GS
[0.75 0 0 0.75 0 0] CT
0.873 GC
1 LJ
0.667 LW
N
558.667 512 M
558.667 43 L
S
GR
GS
[0.75 0 0 0.75 0 0] CT
0.873 GC
1 LJ
0.667 LW
N
670.333 512 M
670.333 43 L
S
GR
GS
[0.75 0 0 0.75 0 0] CT
0.873 GC
1 LJ
0.667 LW
N
782 512 M
782 43 L
S
GR
GS
[0.75 0 0 0.75 0 0] CT
0.851 GC
1 LJ
0.667 LW
N
782 512 M
112 512 L
S
GR
GS
[0.75 0 0 0.75 0 0] CT
0.851 GC
1 LJ
0.667 LW
N
782 459.889 M
112 459.889 L
S
GR
GS
[0.75 0 0 0.75 0 0] CT
0.851 GC
1 LJ
0.667 LW
N
782 407.778 M
112 407.778 L
S
GR
GS
[0.75 0 0 0.75 0 0] CT
0.851 GC
1 LJ
0.667 LW
N
782 355.667 M
112 355.667 L
S
GR
GS
[0.75 0 0 0.75 0 0] CT
0.851 GC
1 LJ
0.667 LW
N
782 303.556 M
112 303.556 L
S
GR
GS
[0.75 0 0 0.75 0 0] CT
0.851 GC
1 LJ
0.667 LW
N
782 251.444 M
112 251.444 L
S
GR
GS
[0.75 0 0 0.75 0 0] CT
0.851 GC
1 LJ
0.667 LW
N
782 199.333 M
112 199.333 L
S
GR
GS
[0.75 0 0 0.75 0 0] CT
0.851 GC
1 LJ
0.667 LW
N
782 147.222 M
112 147.222 L
S
GR
GS
[0.75 0 0 0.75 0 0] CT
0.851 GC
1 LJ
0.667 LW
N
782 95.111 M
112 95.111 L
S
GR
GS
[0.75 0 0 0.75 0 0] CT
0.851 GC
1 LJ
0.667 LW
N
782 43 M
112 43 L
S
GR
GS
[0.75 0 0 0.75 0 0] CT
0.149 GC
2 setlinecap
1 LJ
0.667 LW
N
112 512 M
782 512 L
S
GR
GS
[0.75 0 0 0.75 0 0] CT
0.149 GC
2 setlinecap
1 LJ
0.667 LW
N
112 43 M
782 43 L
S
GR
GS
[0.75 0 0 0.75 0 0] CT
0.149 GC
2 setlinecap
1 LJ
0.667 LW
N
112 512 M
112 505.3 L
S
GR
GS
[0.75 0 0 0.75 0 0] CT
0.149 GC
2 setlinecap
1 LJ
0.667 LW
N
223.667 512 M
223.667 505.3 L
S
GR
GS
[0.75 0 0 0.75 0 0] CT
0.149 GC
2 setlinecap
1 LJ
0.667 LW
N
335.333 512 M
335.333 505.3 L
S
GR
GS
[0.75 0 0 0.75 0 0] CT
0.149 GC
2 setlinecap
1 LJ
0.667 LW
N
447 512 M
447 505.3 L
S
GR
GS
[0.75 0 0 0.75 0 0] CT
0.149 GC
2 setlinecap
1 LJ
0.667 LW
N
558.667 512 M
558.667 505.3 L
S
GR
GS
[0.75 0 0 0.75 0 0] CT
0.149 GC
2 setlinecap
1 LJ
0.667 LW
N
670.333 512 M
670.333 505.3 L
S
GR
GS
[0.75 0 0 0.75 0 0] CT
0.149 GC
2 setlinecap
1 LJ
0.667 LW
N
782 512 M
782 505.3 L
S
GR
GS
[0.75 0 0 0.75 0 0] CT
0.149 GC
2 setlinecap
1 LJ
0.667 LW
N
112 43 M
112 49.7 L
S
GR
GS
[0.75 0 0 0.75 0 0] CT
0.149 GC
2 setlinecap
1 LJ
0.667 LW
N
223.667 43 M
223.667 49.7 L
S
GR
GS
[0.75 0 0 0.75 0 0] CT
0.149 GC
2 setlinecap
1 LJ
0.667 LW
N
335.333 43 M
335.333 49.7 L
S
GR
GS
[0.75 0 0 0.75 0 0] CT
0.149 GC
2 setlinecap
1 LJ
0.667 LW
N
447 43 M
447 49.7 L
S
GR
GS
[0.75 0 0 0.75 0 0] CT
0.149 GC
2 setlinecap
1 LJ
0.667 LW
N
558.667 43 M
558.667 49.7 L
S
GR
GS
[0.75 0 0 0.75 0 0] CT
0.149 GC
2 setlinecap
1 LJ
0.667 LW
N
670.333 43 M
670.333 49.7 L
S
GR
GS
[0.75 0 0 0.75 0 0] CT
0.149 GC
2 setlinecap
1 LJ
0.667 LW
N
782 43 M
782 49.7 L
S
GR
GS
[0.75 0 0 0.75 84 389.20001] CT
0.149 GC
/Times-Roman 21.333 F
GS
[1 0 0 1 0 0] CT
-5.5 20 moveto 
1 -1 scale
(0) t 
GR
GR
GS
[0.75 0 0 0.75 167.75 389.20001] CT
0.149 GC
/Times-Roman 21.333 F
GS
[1 0 0 1 0 0] CT
-11 20 moveto 
1 -1 scale
(10) t 
GR
GR
GS
[0.75 0 0 0.75 251.50001 389.20001] CT
0.149 GC
/Times-Roman 21.333 F
GS
[1 0 0 1 0 0] CT
-11 20 moveto 
1 -1 scale
(20) t 
GR
GR
GS
[0.75 0 0 0.75 335.25 389.20001] CT
0.149 GC
/Times-Roman 21.333 F
GS
[1 0 0 1 0 0] CT
-11 20 moveto 
1 -1 scale
(30) t 
GR
GR
GS
[0.75 0 0 0.75 419.00002 389.20001] CT
0.149 GC
/Times-Roman 21.333 F
GS
[1 0 0 1 0 0] CT
-11 20 moveto 
1 -1 scale
(40) t 
GR
GR
GS
[0.75 0 0 0.75 502.74998 389.20001] CT
0.149 GC
/Times-Roman 21.333 F
GS
[1 0 0 1 0 0] CT
-11 20 moveto 
1 -1 scale
(50) t 
GR
GR
GS
[0.75 0 0 0.75 586.5 389.20001] CT
0.149 GC
/Times-Roman 21.333 F
GS
[1 0 0 1 0 0] CT
-11 20 moveto 
1 -1 scale
(60) t 
GR
GR
GS
[0.75 0 0 0.75 335.25023 408.95] CT
0.149 GC
N
-86.079 21.28 M
-86.079 20.405 L
-83.501 20.405 -83.501 19.608 QT
-83.501 5.874 L
-83.501 5.077 -86.079 5.077 QT
-86.079 4.202 L
-77.173 4.202 L
-75.814 4.202 -74.447 4.764 QT
-73.079 5.327 -72.197 6.397 QT
-71.314 7.467 -71.314 8.905 QT
-71.314 10.296 -72.204 11.342 QT
-73.095 12.389 -74.447 12.936 QT
-75.798 13.483 -77.173 13.483 QT
-81.189 13.483 L
-81.189 19.608 L
-81.189 20.405 -78.611 20.405 QT
-78.611 21.28 L
-86.079 21.28 L
cp
-81.251 12.733 M
-77.861 12.733 L
-76.486 12.733 -75.626 12.335 QT
-74.767 11.936 -74.376 11.1 QT
-73.986 10.264 -73.986 8.905 QT
-73.986 6.858 -74.876 5.967 QT
-75.767 5.077 -77.861 5.077 QT
-79.986 5.077 L
-80.439 5.077 -80.689 5.116 QT
-80.939 5.155 -81.095 5.335 QT
-81.251 5.514 -81.251 5.874 QT
-81.251 12.733 L
cp
f
GR
GS
[0.75 0 0 0.75 335.25023 408.95] CT
0.149 GC
N
-69.371 18.827 M
-69.371 17.342 -68.199 16.405 QT
-67.027 15.467 -65.386 15.085 QT
-63.746 14.702 -62.261 14.702 QT
-62.261 13.671 L
-62.261 12.952 -62.581 12.272 QT
-62.902 11.592 -63.496 11.163 QT
-64.089 10.733 -64.824 10.733 QT
-66.48 10.733 -67.339 11.483 QT
-66.871 11.483 -66.558 11.842 QT
-66.246 12.202 -66.246 12.671 QT
-66.246 13.171 -66.597 13.53 QT
-66.949 13.889 -67.433 13.889 QT
-67.949 13.889 -68.3 13.53 QT
-68.652 13.171 -68.652 12.671 QT
-68.652 11.358 -67.456 10.717 QT
-66.261 10.077 -64.824 10.077 QT
-63.808 10.077 -62.777 10.506 QT
-61.746 10.936 -61.097 11.741 QT
-60.449 12.546 -60.449 13.624 QT
-60.449 19.249 L
-60.449 19.749 -60.238 20.155 QT
-60.027 20.561 -59.589 20.561 QT
-59.183 20.561 -58.98 20.147 QT
-58.777 19.733 -58.777 19.249 QT
-58.777 17.655 L
-58.042 17.655 L
-58.042 19.249 L
-58.042 19.811 -58.331 20.319 QT
-58.621 20.827 -59.121 21.124 QT
-59.621 21.421 -60.183 21.421 QT
-60.917 21.421 -61.449 20.858 QT
-61.98 20.296 -62.042 19.514 QT
-62.511 20.452 -63.41 21.006 QT
-64.308 21.561 -65.339 21.561 QT
-66.292 21.561 -67.214 21.28 QT
-68.136 20.999 -68.753 20.397 QT
-69.371 19.796 -69.371 18.827 QT
cp
-67.339 18.827 M
-67.339 19.702 -66.691 20.303 QT
-66.042 20.905 -65.167 20.905 QT
-64.371 20.905 -63.706 20.499 QT
-63.042 20.092 -62.652 19.397 QT
-62.261 18.702 -62.261 17.936 QT
-62.261 15.342 L
-63.402 15.342 -64.589 15.71 QT
-65.777 16.077 -66.558 16.874 QT
-67.339 17.671 -67.339 18.827 QT
cp
f
GR
GS
[0.75 0 0 0.75 335.25023 408.95] CT
0.149 GC
N
-56.689 25.389 M
-56.204 25.764 -55.642 25.764 QT
-54.064 25.764 -53.064 23.374 QT
-52.204 21.28 L
-55.954 12.092 L
-56.189 11.639 -56.665 11.506 QT
-57.142 11.374 -57.939 11.374 QT
-57.939 10.499 L
-52.689 10.499 L
-52.689 11.374 L
-54.064 11.374 -54.064 11.983 QT
-54.064 12.077 -54.033 12.124 QT
-51.251 18.967 L
-48.751 12.811 L
-48.673 12.608 -48.673 12.374 QT
-48.673 12.077 -48.837 11.85 QT
-49.001 11.624 -49.267 11.499 QT
-49.533 11.374 -49.861 11.374 QT
-49.861 10.499 L
-45.704 10.499 L
-45.704 11.374 L
-46.486 11.374 -47.064 11.733 QT
-47.642 12.092 -47.954 12.78 QT
-52.283 23.374 L
-52.626 24.186 -53.079 24.866 QT
-53.533 25.546 -54.197 25.975 QT
-54.861 26.405 -55.642 26.405 QT
-56.548 26.405 -57.243 25.803 QT
-57.939 25.202 -57.939 24.311 QT
-57.939 23.842 -57.618 23.522 QT
-57.298 23.202 -56.829 23.202 QT
-56.517 23.202 -56.267 23.342 QT
-56.017 23.483 -55.876 23.733 QT
-55.736 23.983 -55.736 24.311 QT
-55.736 24.717 -56.001 25.03 QT
-56.267 25.342 -56.689 25.389 QT
cp
f
GR
GS
[0.75 0 0 0.75 335.25023 408.95] CT
0.149 GC
N
-44.287 21.28 M
-44.287 20.405 L
-43.443 20.405 -42.889 20.272 QT
-42.334 20.139 -42.334 19.608 QT
-42.334 12.78 L
-42.334 12.108 -42.537 11.811 QT
-42.74 11.514 -43.123 11.444 QT
-43.506 11.374 -44.287 11.374 QT
-44.287 10.499 L
-40.662 10.233 L
-40.662 12.671 L
-40.162 11.592 -39.178 10.913 QT
-38.193 10.233 -37.037 10.233 QT
-34.162 10.233 -33.662 12.577 QT
-33.162 11.53 -32.193 10.881 QT
-31.225 10.233 -30.084 10.233 QT
-28.943 10.233 -28.17 10.6 QT
-27.396 10.967 -27.006 11.717 QT
-26.615 12.467 -26.615 13.608 QT
-26.615 19.608 L
-26.615 20.139 -26.061 20.272 QT
-25.506 20.405 -24.662 20.405 QT
-24.662 21.28 L
-30.381 21.28 L
-30.381 20.405 L
-29.537 20.405 -28.982 20.272 QT
-28.428 20.139 -28.428 19.608 QT
-28.428 13.671 L
-28.428 12.421 -28.787 11.647 QT
-29.146 10.874 -30.24 10.874 QT
-31.678 10.874 -32.623 12.038 QT
-33.568 13.202 -33.568 14.671 QT
-33.568 19.608 L
-33.568 20.139 -33.014 20.272 QT
-32.459 20.405 -31.615 20.405 QT
-31.615 21.28 L
-37.334 21.28 L
-37.334 20.405 L
-36.475 20.405 -35.928 20.272 QT
-35.381 20.139 -35.381 19.608 QT
-35.381 13.671 L
-35.381 12.452 -35.732 11.663 QT
-36.084 10.874 -37.193 10.874 QT
-38.646 10.874 -39.576 12.038 QT
-40.506 13.202 -40.506 14.671 QT
-40.506 19.608 L
-40.506 20.139 -39.959 20.272 QT
-39.412 20.405 -38.568 20.405 QT
-38.568 21.28 L
-44.287 21.28 L
cp
f
GR
GS
[0.75 0 0 0.75 335.25023 408.95] CT
0.149 GC
N
-17.707 21.561 M
-19.223 21.561 -20.496 20.764 QT
-21.77 19.967 -22.496 18.631 QT
-23.223 17.296 -23.223 15.796 QT
-23.223 14.327 -22.559 13.014 QT
-21.895 11.702 -20.707 10.889 QT
-19.52 10.077 -18.051 10.077 QT
-16.91 10.077 -16.059 10.46 QT
-15.207 10.842 -14.66 11.53 QT
-14.113 12.217 -13.832 13.139 QT
-13.551 14.061 -13.551 15.171 QT
-13.551 15.499 -13.801 15.499 QT
-21.051 15.499 L
-21.051 15.78 L
-21.051 17.842 -20.215 19.335 QT
-19.379 20.827 -17.473 20.827 QT
-16.707 20.827 -16.059 20.483 QT
-15.41 20.139 -14.926 19.53 QT
-14.442 18.921 -14.27 18.233 QT
-14.238 18.139 -14.176 18.077 QT
-14.113 18.014 -14.02 18.014 QT
-13.801 18.014 L
-13.551 18.014 -13.551 18.327 QT
-13.91 19.749 -15.082 20.655 QT
-16.254 21.561 -17.707 21.561 QT
cp
-21.02 14.889 M
-15.317 14.889 L
-15.317 13.936 -15.582 12.975 QT
-15.848 12.014 -16.457 11.374 QT
-17.067 10.733 -18.051 10.733 QT
-19.473 10.733 -20.246 12.061 QT
-21.02 13.389 -21.02 14.889 QT
cp
f
GR
GS
[0.75 0 0 0.75 335.25023 408.95] CT
0.149 GC
N
-11.917 21.28 M
-11.917 20.405 L
-11.073 20.405 -10.518 20.272 QT
-9.964 20.139 -9.964 19.608 QT
-9.964 12.78 L
-9.964 12.108 -10.167 11.811 QT
-10.37 11.514 -10.753 11.444 QT
-11.135 11.374 -11.917 11.374 QT
-11.917 10.499 L
-8.292 10.233 L
-8.292 12.671 L
-7.792 11.592 -6.807 10.913 QT
-5.823 10.233 -4.667 10.233 QT
-2.932 10.233 -2.065 11.061 QT
-1.198 11.889 -1.198 13.608 QT
-1.198 19.608 L
-1.198 20.139 -0.643 20.272 QT
-0.089 20.405 0.755 20.405 QT
0.755 21.28 L
-4.964 21.28 L
-4.964 20.405 L
-4.104 20.405 -3.557 20.272 QT
-3.01 20.139 -3.01 19.608 QT
-3.01 13.671 L
-3.01 12.452 -3.362 11.663 QT
-3.714 10.874 -4.823 10.874 QT
-6.276 10.874 -7.206 12.038 QT
-8.135 13.202 -8.135 14.671 QT
-8.135 19.608 L
-8.135 20.139 -7.589 20.272 QT
-7.042 20.405 -6.198 20.405 QT
-6.198 21.28 L
-11.917 21.28 L
cp
f
GR
GS
[0.75 0 0 0.75 335.25023 408.95] CT
0.149 GC
N
3.251 18.28 M
3.251 11.374 L
1.172 11.374 L
1.172 10.733 L
2.813 10.733 3.587 9.21 QT
4.36 7.686 4.36 5.905 QT
5.079 5.905 L
5.079 10.499 L
8.594 10.499 L
8.594 11.374 L
5.079 11.374 L
5.079 18.233 L
5.079 19.264 5.422 20.046 QT
5.766 20.827 6.672 20.827 QT
7.532 20.827 7.907 20.006 QT
8.282 19.186 8.282 18.233 QT
8.282 16.749 L
9.001 16.749 L
9.001 18.28 L
9.001 19.061 8.719 19.819 QT
8.438 20.577 7.876 21.069 QT
7.313 21.561 6.501 21.561 QT
5.001 21.561 4.126 20.663 QT
3.251 19.764 3.251 18.28 QT
cp
f
GR
GS
[0.75 0 0 0.75 335.25023 408.95] CT
0.149 GC
N
21.953 27.53 M
21.953 2.53 L
25.375 2.53 L
25.375 3.53 L
22.953 3.53 L
22.953 26.53 L
25.375 26.53 L
25.375 27.53 L
21.953 27.53 L
cp
f
GR
GS
[0.75 0 0 0.75 335.25023 408.95] CT
0.149 GC
N
31.74 18.608 M
32.6 19.686 33.881 20.319 QT
35.162 20.952 36.537 20.952 QT
37.693 20.952 38.686 20.491 QT
39.678 20.03 40.412 19.217 QT
41.146 18.405 41.545 17.366 QT
41.943 16.327 41.943 15.171 QT
41.943 14.983 42.162 14.983 QT
42.475 14.983 L
42.662 14.983 42.662 15.217 QT
42.662 16.53 42.162 17.749 QT
41.662 18.967 40.748 19.889 QT
39.834 20.811 38.639 21.319 QT
37.443 21.827 36.162 21.827 QT
34.365 21.827 32.756 21.1 QT
31.146 20.374 29.959 19.108 QT
28.771 17.842 28.107 16.186 QT
27.443 14.53 27.443 12.733 QT
27.443 10.936 28.107 9.28 QT
28.771 7.624 29.959 6.35 QT
31.146 5.077 32.756 4.366 QT
34.365 3.655 36.162 3.655 QT
37.443 3.655 38.615 4.21 QT
39.787 4.764 40.662 5.78 QT
42.115 3.733 L
42.256 3.655 42.287 3.655 QT
42.475 3.655 L
42.537 3.655 42.6 3.717 QT
42.662 3.78 42.662 3.858 QT
42.662 10.608 L
42.662 10.827 42.475 10.827 QT
42.021 10.827 L
41.787 10.827 41.787 10.608 QT
41.787 9.889 41.498 8.999 QT
41.209 8.108 40.764 7.311 QT
40.318 6.514 39.74 5.905 QT
38.334 4.53 36.506 4.53 QT
35.131 4.53 33.865 5.155 QT
32.6 5.78 31.74 6.874 QT
30.818 8.046 30.467 9.546 QT
30.115 11.046 30.115 12.733 QT
30.115 14.436 30.467 15.936 QT
30.818 17.436 31.74 18.608 QT
cp
f
GR
GS
[0.75 0 0 0.75 335.25023 408.95] CT
0.149 GC
N
45.099 21.28 M
45.099 20.405 L
47.677 20.405 47.677 19.608 QT
47.677 5.874 L
47.677 5.077 45.099 5.077 QT
45.099 4.202 L
52.583 4.202 L
52.583 5.077 L
50.005 5.077 50.005 5.874 QT
50.005 11.952 L
57.38 11.952 L
57.38 5.874 L
57.38 5.077 54.802 5.077 QT
54.802 4.202 L
62.271 4.202 L
62.271 5.077 L
59.708 5.077 59.708 5.874 QT
59.708 19.608 L
59.708 20.405 62.271 20.405 QT
62.271 21.28 L
54.802 21.28 L
54.802 20.405 L
57.38 20.405 57.38 19.608 QT
57.38 12.827 L
50.005 12.827 L
50.005 19.608 L
50.005 20.405 52.583 20.405 QT
52.583 21.28 L
45.099 21.28 L
cp
f
GR
GS
[0.75 0 0 0.75 335.25023 408.95] CT
0.149 GC
N
64.099 21.28 M
64.099 20.405 L
66.677 20.405 66.677 19.608 QT
66.677 5.874 L
66.677 5.077 64.099 5.077 QT
64.099 4.202 L
77.88 4.202 L
78.583 9.921 L
77.865 9.921 L
77.693 8.358 77.404 7.444 QT
77.115 6.53 76.568 6.014 QT
76.021 5.499 75.099 5.288 QT
74.177 5.077 72.568 5.077 QT
70.287 5.077 L
69.833 5.077 69.583 5.116 QT
69.333 5.155 69.169 5.335 QT
69.005 5.514 69.005 5.874 QT
69.005 12.311 L
70.787 12.311 L
72.068 12.311 72.662 12.085 QT
73.255 11.858 73.482 11.256 QT
73.708 10.655 73.708 9.374 QT
74.427 9.374 L
74.427 16.108 L
73.708 16.108 L
73.708 14.827 73.482 14.225 QT
73.255 13.624 72.662 13.397 QT
72.068 13.171 70.787 13.171 QT
69.005 13.171 L
69.005 19.608 L
69.005 20.405 72.208 20.405 QT
72.208 21.28 L
64.099 21.28 L
cp
f
GR
GS
[0.75 0 0 0.75 335.25023 408.95] CT
0.149 GC
N
80.417 27.53 M
80.417 26.53 L
82.855 26.53 L
82.855 3.53 L
80.417 3.53 L
80.417 2.53 L
83.855 2.53 L
83.855 27.53 L
80.417 27.53 L
cp
f
GR
GS
[0.75 0 0 0.75 0 0] CT
2 setlinecap
1 LJ
0.667 LW
N
112 512 M
112 43 L
S
GR
GS
[0.75 0 0 0.75 0 0] CT
2 setlinecap
1 LJ
0.667 LW
N
782 512 M
782 43 L
S
GR
GS
[0.75 0 0 0.75 0 0] CT
2 setlinecap
1 LJ
0.667 LW
N
112 512 M
118.7 512 L
S
GR
GS
[0.75 0 0 0.75 0 0] CT
2 setlinecap
1 LJ
0.667 LW
N
112 459.889 M
118.7 459.889 L
S
GR
GS
[0.75 0 0 0.75 0 0] CT
2 setlinecap
1 LJ
0.667 LW
N
112 407.778 M
118.7 407.778 L
S
GR
GS
[0.75 0 0 0.75 0 0] CT
2 setlinecap
1 LJ
0.667 LW
N
112 355.667 M
118.7 355.667 L
S
GR
GS
[0.75 0 0 0.75 0 0] CT
2 setlinecap
1 LJ
0.667 LW
N
112 303.556 M
118.7 303.556 L
S
GR
GS
[0.75 0 0 0.75 0 0] CT
2 setlinecap
1 LJ
0.667 LW
N
112 251.444 M
118.7 251.444 L
S
GR
GS
[0.75 0 0 0.75 0 0] CT
2 setlinecap
1 LJ
0.667 LW
N
112 199.333 M
118.7 199.333 L
S
GR
GS
[0.75 0 0 0.75 0 0] CT
2 setlinecap
1 LJ
0.667 LW
N
112 147.222 M
118.7 147.222 L
S
GR
GS
[0.75 0 0 0.75 0 0] CT
2 setlinecap
1 LJ
0.667 LW
N
112 95.111 M
118.7 95.111 L
S
GR
GS
[0.75 0 0 0.75 0 0] CT
2 setlinecap
1 LJ
0.667 LW
N
112 43 M
118.7 43 L
S
GR
GS
[0.75 0 0 0.75 0 0] CT
2 setlinecap
1 LJ
0.667 LW
N
782 512 M
775.3 512 L
S
GR
GS
[0.75 0 0 0.75 0 0] CT
2 setlinecap
1 LJ
0.667 LW
N
782 459.889 M
775.3 459.889 L
S
GR
GS
[0.75 0 0 0.75 0 0] CT
2 setlinecap
1 LJ
0.667 LW
N
782 407.778 M
775.3 407.778 L
S
GR
GS
[0.75 0 0 0.75 0 0] CT
2 setlinecap
1 LJ
0.667 LW
N
782 355.667 M
775.3 355.667 L
S
GR
GS
[0.75 0 0 0.75 0 0] CT
2 setlinecap
1 LJ
0.667 LW
N
782 303.556 M
775.3 303.556 L
S
GR
GS
[0.75 0 0 0.75 0 0] CT
2 setlinecap
1 LJ
0.667 LW
N
782 251.444 M
775.3 251.444 L
S
GR
GS
[0.75 0 0 0.75 0 0] CT
2 setlinecap
1 LJ
0.667 LW
N
782 199.333 M
775.3 199.333 L
S
GR
GS
[0.75 0 0 0.75 0 0] CT
2 setlinecap
1 LJ
0.667 LW
N
782 147.222 M
775.3 147.222 L
S
GR
GS
[0.75 0 0 0.75 0 0] CT
2 setlinecap
1 LJ
0.667 LW
N
782 95.111 M
775.3 95.111 L
S
GR
GS
[0.75 0 0 0.75 0 0] CT
2 setlinecap
1 LJ
0.667 LW
N
782 43 M
775.3 43 L
S
GR
GS
[0.75 0 0 0.75 78.8 384] CT
/Times-Roman 21.333 F
GS
[1 0 0 1 0 0] CT
-11 7.5 moveto 
1 -1 scale
(0) t 
GR
GR
GS
[0.75 0 0 0.75 78.8 344.91666] CT
/Times-Roman 21.333 F
GS
[1 0 0 1 0 0] CT
-32 7.5 moveto 
1 -1 scale
(100) t 
GR
GR
GS
[0.75 0 0 0.75 78.8 305.83333] CT
/Times-Roman 21.333 F
GS
[1 0 0 1 0 0] CT
-32 7.5 moveto 
1 -1 scale
(200) t 
GR
GR
GS
[0.75 0 0 0.75 78.8 266.74999] CT
/Times-Roman 21.333 F
GS
[1 0 0 1 0 0] CT
-32 7.5 moveto 
1 -1 scale
(300) t 
GR
GR
GS
[0.75 0 0 0.75 78.8 227.66666] CT
/Times-Roman 21.333 F
GS
[1 0 0 1 0 0] CT
-32 7.5 moveto 
1 -1 scale
(400) t 
GR
GR
GS
[0.75 0 0 0.75 78.8 188.58333] CT
/Times-Roman 21.333 F
GS
[1 0 0 1 0 0] CT
-32 7.5 moveto 
1 -1 scale
(500) t 
GR
GR
GS
[0.75 0 0 0.75 78.8 149.5] CT
/Times-Roman 21.333 F
GS
[1 0 0 1 0 0] CT
-32 7.5 moveto 
1 -1 scale
(600) t 
GR
GR
GS
[0.75 0 0 0.75 78.8 110.41667] CT
/Times-Roman 21.333 F
GS
[1 0 0 1 0 0] CT
-32 7.5 moveto 
1 -1 scale
(700) t 
GR
GR
GS
[0.75 0 0 0.75 78.8 71.33334] CT
/Times-Roman 21.333 F
GS
[1 0 0 1 0 0] CT
-32 7.5 moveto 
1 -1 scale
(800) t 
GR
GR
GS
[0.75 0 0 0.75 78.8 32.25] CT
/Times-Roman 21.333 F
GS
[1 0 0 1 0 0] CT
-32 7.5 moveto 
1 -1 scale
(900) t 
GR
GR
GS
[0 -0.75 0.75 0 51.8 208.12484] CT
N
-217.695 -9.12 M
-217.695 -9.995 L
-216.429 -9.995 -215.249 -10.136 QT
-214.07 -10.276 -214.07 -10.792 QT
-214.07 -24.526 L
-214.07 -25.058 -214.366 -25.19 QT
-214.663 -25.323 -215.335 -25.323 QT
-216.382 -25.323 L
-218.445 -25.323 -219.32 -24.417 QT
-219.757 -23.964 -219.952 -22.972 QT
-220.148 -21.979 -220.288 -20.479 QT
-221.007 -20.479 L
-220.538 -26.198 L
-205.257 -26.198 L
-204.788 -20.479 L
-205.523 -20.479 L
-205.663 -22.089 -205.843 -23.034 QT
-206.023 -23.979 -206.476 -24.417 QT
-207.366 -25.323 -209.413 -25.323 QT
-210.46 -25.323 L
-210.913 -25.323 -211.163 -25.284 QT
-211.413 -25.245 -211.57 -25.065 QT
-211.726 -24.886 -211.726 -24.526 QT
-211.726 -10.792 L
-211.726 -10.276 -210.546 -10.136 QT
-209.366 -9.995 -208.116 -9.995 QT
-208.116 -9.12 L
-217.695 -9.12 L
cp
f
GR
GS
[0 -0.75 0.75 0 51.8 208.12484] CT
N
-199.478 -8.839 M
-200.978 -8.839 -202.259 -9.604 QT
-203.541 -10.37 -204.283 -11.651 QT
-205.025 -12.933 -205.025 -14.448 QT
-205.025 -15.589 -204.619 -16.651 QT
-204.213 -17.714 -203.447 -18.55 QT
-202.681 -19.386 -201.673 -19.854 QT
-200.666 -20.323 -199.478 -20.323 QT
-197.947 -20.323 -196.681 -19.511 QT
-195.416 -18.698 -194.681 -17.339 QT
-193.947 -15.979 -193.947 -14.448 QT
-193.947 -12.948 -194.689 -11.659 QT
-195.431 -10.37 -196.713 -9.604 QT
-197.994 -8.839 -199.478 -8.839 QT
cp
-199.478 -9.573 M
-197.478 -9.573 -196.806 -11.026 QT
-196.134 -12.479 -196.134 -14.729 QT
-196.134 -15.979 -196.267 -16.808 QT
-196.4 -17.636 -196.853 -18.308 QT
-197.134 -18.714 -197.564 -19.026 QT
-197.994 -19.339 -198.478 -19.503 QT
-198.963 -19.667 -199.478 -19.667 QT
-200.259 -19.667 -200.963 -19.315 QT
-201.666 -18.964 -202.134 -18.308 QT
-202.588 -17.589 -202.72 -16.745 QT
-202.853 -15.901 -202.853 -14.729 QT
-202.853 -13.323 -202.603 -12.206 QT
-202.353 -11.089 -201.619 -10.331 QT
-200.884 -9.573 -199.478 -9.573 QT
cp
f
GR
GS
[0 -0.75 0.75 0 51.8 208.12484] CT
N
-190.515 -12.12 M
-190.515 -19.026 L
-192.593 -19.026 L
-192.593 -19.667 L
-190.952 -19.667 -190.179 -21.19 QT
-189.405 -22.714 -189.405 -24.495 QT
-188.686 -24.495 L
-188.686 -19.901 L
-185.171 -19.901 L
-185.171 -19.026 L
-188.686 -19.026 L
-188.686 -12.167 L
-188.686 -11.136 -188.343 -10.354 QT
-187.999 -9.573 -187.093 -9.573 QT
-186.233 -9.573 -185.858 -10.394 QT
-185.483 -11.214 -185.483 -12.167 QT
-185.483 -13.651 L
-184.765 -13.651 L
-184.765 -12.12 L
-184.765 -11.339 -185.046 -10.581 QT
-185.327 -9.823 -185.89 -9.331 QT
-186.452 -8.839 -187.265 -8.839 QT
-188.765 -8.839 -189.64 -9.737 QT
-190.515 -10.636 -190.515 -12.12 QT
cp
f
GR
GS
[0 -0.75 0.75 0 51.8 208.12484] CT
N
-182.21 -11.573 M
-182.21 -13.058 -181.038 -13.995 QT
-179.866 -14.933 -178.225 -15.315 QT
-176.585 -15.698 -175.1 -15.698 QT
-175.1 -16.729 L
-175.1 -17.448 -175.421 -18.128 QT
-175.741 -18.808 -176.335 -19.237 QT
-176.928 -19.667 -177.663 -19.667 QT
-179.319 -19.667 -180.178 -18.917 QT
-179.71 -18.917 -179.397 -18.558 QT
-179.085 -18.198 -179.085 -17.729 QT
-179.085 -17.229 -179.436 -16.87 QT
-179.788 -16.511 -180.272 -16.511 QT
-180.788 -16.511 -181.139 -16.87 QT
-181.491 -17.229 -181.491 -17.729 QT
-181.491 -19.042 -180.296 -19.683 QT
-179.1 -20.323 -177.663 -20.323 QT
-176.647 -20.323 -175.616 -19.894 QT
-174.585 -19.464 -173.936 -18.659 QT
-173.288 -17.854 -173.288 -16.776 QT
-173.288 -11.151 L
-173.288 -10.651 -173.077 -10.245 QT
-172.866 -9.839 -172.428 -9.839 QT
-172.022 -9.839 -171.819 -10.253 QT
-171.616 -10.667 -171.616 -11.151 QT
-171.616 -12.745 L
-170.881 -12.745 L
-170.881 -11.151 L
-170.881 -10.589 -171.171 -10.081 QT
-171.46 -9.573 -171.96 -9.276 QT
-172.46 -8.979 -173.022 -8.979 QT
-173.756 -8.979 -174.288 -9.542 QT
-174.819 -10.104 -174.881 -10.886 QT
-175.35 -9.948 -176.249 -9.394 QT
-177.147 -8.839 -178.178 -8.839 QT
-179.131 -8.839 -180.053 -9.12 QT
-180.975 -9.401 -181.592 -10.003 QT
-182.21 -10.604 -182.21 -11.573 QT
cp
-180.178 -11.573 M
-180.178 -10.698 -179.53 -10.097 QT
-178.881 -9.495 -178.006 -9.495 QT
-177.21 -9.495 -176.546 -9.901 QT
-175.881 -10.308 -175.491 -11.003 QT
-175.1 -11.698 -175.1 -12.464 QT
-175.1 -15.058 L
-176.241 -15.058 -177.428 -14.69 QT
-178.616 -14.323 -179.397 -13.526 QT
-180.178 -12.729 -180.178 -11.573 QT
cp
f
GR
GS
[0 -0.75 0.75 0 51.8 208.12484] CT
N
-169.777 -9.12 M
-169.777 -9.995 L
-168.918 -9.995 -168.371 -10.128 QT
-167.824 -10.261 -167.824 -10.792 QT
-167.824 -23.917 L
-167.824 -24.589 -168.027 -24.886 QT
-168.23 -25.183 -168.605 -25.253 QT
-168.98 -25.323 -169.777 -25.323 QT
-169.777 -26.198 L
-166.058 -26.464 L
-166.058 -10.792 L
-166.058 -10.261 -165.512 -10.128 QT
-164.965 -9.995 -164.121 -9.995 QT
-164.121 -9.12 L
-169.777 -9.12 L
cp
f
GR
GS
[0 -0.75 0.75 0 51.8 208.12484] CT
N
-154.233 -9.12 M
-154.233 -9.995 L
-151.655 -9.995 -151.655 -10.792 QT
-151.655 -24.526 L
-151.655 -25.323 -154.233 -25.323 QT
-154.233 -26.198 L
-146.389 -26.198 L
-144.983 -26.198 -143.436 -25.69 QT
-141.889 -25.183 -140.85 -24.144 QT
-139.811 -23.104 -139.811 -21.667 QT
-139.811 -20.62 -140.444 -19.792 QT
-141.077 -18.964 -142.054 -18.409 QT
-143.03 -17.854 -144.061 -17.62 QT
-142.936 -17.229 -142.093 -16.37 QT
-141.249 -15.511 -141.077 -14.417 QT
-140.733 -12.198 L
-140.483 -10.698 -140.218 -9.956 QT
-139.952 -9.214 -139.03 -9.214 QT
-138.249 -9.214 -137.866 -9.94 QT
-137.483 -10.667 -137.483 -11.526 QT
-137.483 -11.604 -137.405 -11.675 QT
-137.327 -11.745 -137.233 -11.745 QT
-137.014 -11.745 L
-136.764 -11.745 -136.764 -11.417 QT
-136.764 -10.729 -137.03 -10.081 QT
-137.296 -9.433 -137.804 -9.003 QT
-138.311 -8.573 -139.014 -8.573 QT
-140.811 -8.573 -142.116 -9.472 QT
-143.421 -10.37 -143.421 -12.104 QT
-143.421 -14.323 L
-143.421 -15.573 -144.288 -16.464 QT
-145.155 -17.354 -146.405 -17.354 QT
-149.405 -17.354 L
-149.405 -10.792 L
-149.405 -9.995 -146.827 -9.995 QT
-146.827 -9.12 L
-154.233 -9.12 L
cp
-149.405 -17.995 M
-146.733 -17.995 L
-144.655 -17.995 -143.569 -18.831 QT
-142.483 -19.667 -142.483 -21.667 QT
-142.483 -23.651 -143.561 -24.487 QT
-144.639 -25.323 -146.733 -25.323 QT
-148.139 -25.323 L
-148.593 -25.323 -148.843 -25.284 QT
-149.093 -25.245 -149.249 -25.065 QT
-149.405 -24.886 -149.405 -24.526 QT
-149.405 -17.995 L
cp
f
GR
GS
[0 -0.75 0.75 0 51.8 208.12484] CT
N
-130.194 -8.839 M
-131.71 -8.839 -132.984 -9.636 QT
-134.257 -10.433 -134.984 -11.769 QT
-135.71 -13.104 -135.71 -14.604 QT
-135.71 -16.073 -135.046 -17.386 QT
-134.382 -18.698 -133.194 -19.511 QT
-132.007 -20.323 -130.538 -20.323 QT
-129.398 -20.323 -128.546 -19.94 QT
-127.694 -19.558 -127.148 -18.87 QT
-126.601 -18.183 -126.319 -17.261 QT
-126.038 -16.339 -126.038 -15.229 QT
-126.038 -14.901 -126.288 -14.901 QT
-133.538 -14.901 L
-133.538 -14.62 L
-133.538 -12.558 -132.702 -11.065 QT
-131.866 -9.573 -129.96 -9.573 QT
-129.194 -9.573 -128.546 -9.917 QT
-127.898 -10.261 -127.413 -10.87 QT
-126.929 -11.479 -126.757 -12.167 QT
-126.726 -12.261 -126.663 -12.323 QT
-126.601 -12.386 -126.507 -12.386 QT
-126.288 -12.386 L
-126.038 -12.386 -126.038 -12.073 QT
-126.398 -10.651 -127.569 -9.745 QT
-128.741 -8.839 -130.194 -8.839 QT
cp
-133.507 -15.511 M
-127.804 -15.511 L
-127.804 -16.464 -128.069 -17.425 QT
-128.335 -18.386 -128.944 -19.026 QT
-129.554 -19.667 -130.538 -19.667 QT
-131.96 -19.667 -132.734 -18.339 QT
-133.507 -17.011 -133.507 -15.511 QT
cp
f
GR
GS
[0 -0.75 0.75 0 51.8 208.12484] CT
N
-119.045 -9.12 M
-122.701 -18.308 L
-122.935 -18.761 -123.42 -18.894 QT
-123.904 -19.026 -124.685 -19.026 QT
-124.685 -19.901 L
-119.435 -19.901 L
-119.435 -19.026 L
-120.826 -19.026 -120.826 -18.417 QT
-120.826 -18.323 -120.81 -18.276 QT
-117.998 -11.214 L
-115.466 -17.589 L
-115.404 -17.792 -115.404 -17.995 QT
-115.404 -18.464 -115.763 -18.745 QT
-116.123 -19.026 -116.607 -19.026 QT
-116.607 -19.901 L
-112.451 -19.901 L
-112.451 -19.026 L
-113.232 -19.026 -113.81 -18.667 QT
-114.388 -18.308 -114.701 -17.62 QT
-118.076 -9.12 L
-118.17 -8.839 -118.482 -8.839 QT
-118.654 -8.839 L
-118.966 -8.839 -119.045 -9.12 QT
cp
f
GR
GS
[0 -0.75 0.75 0 51.8 208.12484] CT
N
-106.269 -8.839 M
-107.784 -8.839 -109.058 -9.636 QT
-110.331 -10.433 -111.058 -11.769 QT
-111.784 -13.104 -111.784 -14.604 QT
-111.784 -16.073 -111.12 -17.386 QT
-110.456 -18.698 -109.269 -19.511 QT
-108.081 -20.323 -106.612 -20.323 QT
-105.472 -20.323 -104.62 -19.94 QT
-103.769 -19.558 -103.222 -18.87 QT
-102.675 -18.183 -102.394 -17.261 QT
-102.112 -16.339 -102.112 -15.229 QT
-102.112 -14.901 -102.362 -14.901 QT
-109.612 -14.901 L
-109.612 -14.62 L
-109.612 -12.558 -108.776 -11.065 QT
-107.94 -9.573 -106.034 -9.573 QT
-105.269 -9.573 -104.62 -9.917 QT
-103.972 -10.261 -103.487 -10.87 QT
-103.003 -11.479 -102.831 -12.167 QT
-102.8 -12.261 -102.737 -12.323 QT
-102.675 -12.386 -102.581 -12.386 QT
-102.362 -12.386 L
-102.112 -12.386 -102.112 -12.073 QT
-102.472 -10.651 -103.644 -9.745 QT
-104.815 -8.839 -106.269 -8.839 QT
cp
-109.581 -15.511 M
-103.878 -15.511 L
-103.878 -16.464 -104.144 -17.425 QT
-104.409 -18.386 -105.019 -19.026 QT
-105.628 -19.667 -106.612 -19.667 QT
-108.034 -19.667 -108.808 -18.339 QT
-109.581 -17.011 -109.581 -15.511 QT
cp
f
GR
GS
[0 -0.75 0.75 0 51.8 208.12484] CT
N
-100.478 -9.12 M
-100.478 -9.995 L
-99.634 -9.995 -99.08 -10.128 QT
-98.525 -10.261 -98.525 -10.792 QT
-98.525 -17.62 L
-98.525 -18.292 -98.728 -18.589 QT
-98.931 -18.886 -99.314 -18.956 QT
-99.697 -19.026 -100.478 -19.026 QT
-100.478 -19.901 L
-96.853 -20.167 L
-96.853 -17.729 L
-96.353 -18.808 -95.369 -19.487 QT
-94.384 -20.167 -93.228 -20.167 QT
-91.494 -20.167 -90.626 -19.339 QT
-89.759 -18.511 -89.759 -16.792 QT
-89.759 -10.792 L
-89.759 -10.261 -89.205 -10.128 QT
-88.65 -9.995 -87.806 -9.995 QT
-87.806 -9.12 L
-93.525 -9.12 L
-93.525 -9.995 L
-92.665 -9.995 -92.119 -10.128 QT
-91.572 -10.261 -91.572 -10.792 QT
-91.572 -16.729 L
-91.572 -17.948 -91.923 -18.737 QT
-92.275 -19.526 -93.384 -19.526 QT
-94.837 -19.526 -95.767 -18.362 QT
-96.697 -17.198 -96.697 -15.729 QT
-96.697 -10.792 L
-96.697 -10.261 -96.15 -10.128 QT
-95.603 -9.995 -94.759 -9.995 QT
-94.759 -9.12 L
-100.478 -9.12 L
cp
f
GR
GS
[0 -0.75 0.75 0 51.8 208.12484] CT
N
-85.154 -12.104 M
-85.154 -17.62 L
-85.154 -18.292 -85.358 -18.589 QT
-85.561 -18.886 -85.944 -18.956 QT
-86.326 -19.026 -87.108 -19.026 QT
-87.108 -19.901 L
-83.326 -20.167 L
-83.326 -12.104 L
-83.326 -11.12 -83.186 -10.581 QT
-83.045 -10.042 -82.592 -9.769 QT
-82.139 -9.495 -81.139 -9.495 QT
-79.795 -9.495 -78.998 -10.62 QT
-78.201 -11.745 -78.201 -13.167 QT
-78.201 -17.62 L
-78.201 -18.292 -78.412 -18.589 QT
-78.623 -18.886 -78.99 -18.956 QT
-79.358 -19.026 -80.154 -19.026 QT
-80.154 -19.901 L
-76.389 -20.167 L
-76.389 -11.386 L
-76.389 -10.729 -76.186 -10.433 QT
-75.983 -10.136 -75.6 -10.065 QT
-75.217 -9.995 -74.436 -9.995 QT
-74.436 -9.12 L
-78.123 -8.839 L
-78.123 -10.948 L
-78.592 -10.011 -79.42 -9.425 QT
-80.248 -8.839 -81.248 -8.839 QT
-83.045 -8.839 -84.1 -9.604 QT
-85.154 -10.37 -85.154 -12.104 QT
cp
f
GR
GS
[0 -0.75 0.75 0 51.8 208.12484] CT
N
-67.565 -8.839 M
-69.08 -8.839 -70.354 -9.636 QT
-71.627 -10.433 -72.354 -11.769 QT
-73.08 -13.104 -73.08 -14.604 QT
-73.08 -16.073 -72.416 -17.386 QT
-71.752 -18.698 -70.565 -19.511 QT
-69.377 -20.323 -67.908 -20.323 QT
-66.768 -20.323 -65.916 -19.94 QT
-65.065 -19.558 -64.518 -18.87 QT
-63.971 -18.183 -63.69 -17.261 QT
-63.408 -16.339 -63.408 -15.229 QT
-63.408 -14.901 -63.658 -14.901 QT
-70.908 -14.901 L
-70.908 -14.62 L
-70.908 -12.558 -70.073 -11.065 QT
-69.237 -9.573 -67.33 -9.573 QT
-66.565 -9.573 -65.916 -9.917 QT
-65.268 -10.261 -64.783 -10.87 QT
-64.299 -11.479 -64.127 -12.167 QT
-64.096 -12.261 -64.033 -12.323 QT
-63.971 -12.386 -63.877 -12.386 QT
-63.658 -12.386 L
-63.408 -12.386 -63.408 -12.073 QT
-63.768 -10.651 -64.94 -9.745 QT
-66.112 -8.839 -67.565 -8.839 QT
cp
-70.877 -15.511 M
-65.174 -15.511 L
-65.174 -16.464 -65.44 -17.425 QT
-65.705 -18.386 -66.315 -19.026 QT
-66.924 -19.667 -67.908 -19.667 QT
-69.33 -19.667 -70.104 -18.339 QT
-70.877 -17.011 -70.877 -15.511 QT
cp
f
GR
GS
[0 -0.75 0.75 0 51.8 208.12484] CT
N
-47.83 -8.839 M
-49.33 -8.839 -50.611 -9.604 QT
-51.892 -10.37 -52.634 -11.651 QT
-53.377 -12.933 -53.377 -14.448 QT
-53.377 -15.589 -52.97 -16.651 QT
-52.564 -17.714 -51.799 -18.55 QT
-51.033 -19.386 -50.025 -19.854 QT
-49.017 -20.323 -47.83 -20.323 QT
-46.299 -20.323 -45.033 -19.511 QT
-43.767 -18.698 -43.033 -17.339 QT
-42.299 -15.979 -42.299 -14.448 QT
-42.299 -12.948 -43.041 -11.659 QT
-43.783 -10.37 -45.064 -9.604 QT
-46.345 -8.839 -47.83 -8.839 QT
cp
-47.83 -9.573 M
-45.83 -9.573 -45.158 -11.026 QT
-44.486 -12.479 -44.486 -14.729 QT
-44.486 -15.979 -44.619 -16.808 QT
-44.752 -17.636 -45.205 -18.308 QT
-45.486 -18.714 -45.916 -19.026 QT
-46.345 -19.339 -46.83 -19.503 QT
-47.314 -19.667 -47.83 -19.667 QT
-48.611 -19.667 -49.314 -19.315 QT
-50.017 -18.964 -50.486 -18.308 QT
-50.939 -17.589 -51.072 -16.745 QT
-51.205 -15.901 -51.205 -14.729 QT
-51.205 -13.323 -50.955 -12.206 QT
-50.705 -11.089 -49.97 -10.331 QT
-49.236 -9.573 -47.83 -9.573 QT
cp
f
GR
GS
[0 -0.75 0.75 0 51.8 208.12484] CT
N
-40.601 -9.12 M
-40.601 -9.995 L
-39.772 -9.995 -39.218 -10.128 QT
-38.663 -10.261 -38.663 -10.792 QT
-38.663 -19.026 L
-40.585 -19.026 L
-40.585 -19.901 L
-38.663 -19.901 L
-38.663 -22.886 L
-38.663 -23.698 -38.327 -24.401 QT
-37.991 -25.104 -37.429 -25.628 QT
-36.866 -26.151 -36.124 -26.448 QT
-35.382 -26.745 -34.585 -26.745 QT
-33.741 -26.745 -33.069 -26.245 QT
-32.397 -25.745 -32.397 -24.917 QT
-32.397 -24.433 -32.718 -24.112 QT
-33.038 -23.792 -33.522 -23.792 QT
-33.991 -23.792 -34.327 -24.112 QT
-34.663 -24.433 -34.663 -24.917 QT
-34.663 -25.698 -33.991 -25.964 QT
-34.397 -26.104 -34.71 -26.104 QT
-35.444 -26.104 -35.96 -25.581 QT
-36.476 -25.058 -36.733 -24.315 QT
-36.991 -23.573 -36.991 -22.839 QT
-36.991 -19.901 L
-34.116 -19.901 L
-34.116 -19.026 L
-36.913 -19.026 L
-36.913 -10.792 L
-36.913 -10.276 -36.179 -10.136 QT
-35.444 -9.995 -34.491 -9.995 QT
-34.491 -9.12 L
-40.601 -9.12 L
cp
f
GR
GS
[0 -0.75 0.75 0 51.8 208.12484] CT
N
-17.447 -8.839 M
-22.556 -24.526 L
-22.744 -25.058 -23.306 -25.19 QT
-23.869 -25.323 -24.775 -25.323 QT
-24.775 -26.198 L
-18.072 -26.198 L
-18.072 -25.323 L
-20.181 -25.323 -20.181 -24.651 QT
-20.181 -24.526 L
-16.181 -12.214 L
-12.775 -22.745 L
-13.353 -24.526 L
-13.54 -25.058 -14.103 -25.19 QT
-14.665 -25.323 -15.572 -25.323 QT
-15.572 -26.198 L
-8.884 -26.198 L
-8.884 -25.323 L
-11.009 -25.323 -11.009 -24.651 QT
-11.009 -24.604 -10.986 -24.534 QT
-10.962 -24.464 -10.962 -24.433 QT
-6.978 -12.214 L
-3.228 -23.839 L
-3.212 -23.917 -3.212 -24.073 QT
-3.212 -24.729 -3.908 -25.026 QT
-4.603 -25.323 -5.353 -25.323 QT
-5.353 -26.198 L
-0.009 -26.198 L
-0.009 -25.323 L
-1.978 -25.323 -2.447 -23.839 QT
-7.337 -8.839 L
-7.415 -8.573 -7.697 -8.573 QT
-7.884 -8.573 L
-8.165 -8.573 -8.244 -8.839 QT
-12.369 -21.573 L
-16.525 -8.839 L
-16.603 -8.573 -16.9 -8.573 QT
-17.072 -8.573 L
-17.369 -8.573 -17.447 -8.839 QT
cp
f
GR
GS
[0 -0.75 0.75 0 51.8 208.12484] CT
N
1.575 -9.12 M
1.575 -9.995 L
2.434 -9.995 2.981 -10.128 QT
3.528 -10.261 3.528 -10.792 QT
3.528 -17.62 L
3.528 -18.573 3.161 -18.8 QT
2.794 -19.026 1.684 -19.026 QT
1.684 -19.901 L
5.294 -20.167 L
5.294 -10.792 L
5.294 -10.261 5.77 -10.128 QT
6.247 -9.995 7.028 -9.995 QT
7.028 -9.12 L
1.575 -9.12 L
cp
2.637 -24.464 M
2.637 -25.011 3.051 -25.425 QT
3.465 -25.839 4.012 -25.839 QT
4.356 -25.839 4.692 -25.659 QT
5.028 -25.479 5.208 -25.151 QT
5.387 -24.823 5.387 -24.464 QT
5.387 -23.933 4.973 -23.519 QT
4.559 -23.104 4.012 -23.104 QT
3.465 -23.104 3.051 -23.519 QT
2.637 -23.933 2.637 -24.464 QT
cp
f
GR
GS
[0 -0.75 0.75 0 51.8 208.12484] CT
N
8.596 -9.12 M
8.596 -9.995 L
9.44 -9.995 9.995 -10.128 QT
10.549 -10.261 10.549 -10.792 QT
10.549 -17.62 L
10.549 -18.292 10.346 -18.589 QT
10.143 -18.886 9.76 -18.956 QT
9.378 -19.026 8.596 -19.026 QT
8.596 -19.901 L
12.221 -20.167 L
12.221 -17.729 L
12.721 -18.808 13.706 -19.487 QT
14.69 -20.167 15.846 -20.167 QT
17.581 -20.167 18.448 -19.339 QT
19.315 -18.511 19.315 -16.792 QT
19.315 -10.792 L
19.315 -10.261 19.87 -10.128 QT
20.424 -9.995 21.268 -9.995 QT
21.268 -9.12 L
15.549 -9.12 L
15.549 -9.995 L
16.409 -9.995 16.956 -10.128 QT
17.503 -10.261 17.503 -10.792 QT
17.503 -16.729 L
17.503 -17.948 17.151 -18.737 QT
16.799 -19.526 15.69 -19.526 QT
14.237 -19.526 13.307 -18.362 QT
12.378 -17.198 12.378 -15.729 QT
12.378 -10.792 L
12.378 -10.261 12.924 -10.128 QT
13.471 -9.995 14.315 -9.995 QT
14.315 -9.12 L
8.596 -9.12 L
cp
f
GR
GS
[0 -0.75 0.75 0 51.8 208.12484] CT
N
28.03 -8.839 M
26.545 -8.839 25.327 -9.636 QT
24.108 -10.433 23.428 -11.745 QT
22.749 -13.058 22.749 -14.511 QT
22.749 -16.026 23.491 -17.331 QT
24.233 -18.636 25.499 -19.401 QT
26.764 -20.167 28.295 -20.167 QT
29.202 -20.167 30.022 -19.784 QT
30.842 -19.401 31.436 -18.714 QT
31.436 -23.917 L
31.436 -24.589 31.241 -24.886 QT
31.045 -25.183 30.67 -25.253 QT
30.295 -25.323 29.499 -25.323 QT
29.499 -26.198 L
33.202 -26.464 L
33.202 -11.386 L
33.202 -10.729 33.405 -10.433 QT
33.608 -10.136 33.975 -10.065 QT
34.342 -9.995 35.139 -9.995 QT
35.139 -9.12 L
31.374 -8.839 L
31.374 -10.417 L
30.717 -9.667 29.827 -9.253 QT
28.936 -8.839 28.03 -8.839 QT
cp
25.467 -11.292 M
25.905 -10.479 26.616 -9.987 QT
27.327 -9.495 28.17 -9.495 QT
29.202 -9.495 30.069 -10.097 QT
30.936 -10.698 31.374 -11.651 QT
31.374 -17.636 L
31.077 -18.183 30.631 -18.62 QT
30.186 -19.058 29.631 -19.292 QT
29.077 -19.526 28.452 -19.526 QT
27.139 -19.526 26.35 -18.784 QT
25.561 -18.042 25.241 -16.894 QT
24.92 -15.745 24.92 -14.495 QT
24.92 -13.495 25.022 -12.745 QT
25.124 -11.995 25.467 -11.292 QT
cp
f
GR
GS
[0 -0.75 0.75 0 51.8 208.12484] CT
N
45.267 -9.12 M
45.267 -9.995 L
47.845 -9.995 47.845 -10.792 QT
47.845 -24.526 L
47.845 -25.323 45.267 -25.323 QT
45.267 -26.198 L
54.173 -26.198 L
55.533 -26.198 56.9 -25.636 QT
58.267 -25.073 59.15 -24.003 QT
60.033 -22.933 60.033 -21.495 QT
60.033 -20.104 59.142 -19.058 QT
58.251 -18.011 56.9 -17.464 QT
55.548 -16.917 54.173 -16.917 QT
50.158 -16.917 L
50.158 -10.792 L
50.158 -9.995 52.736 -9.995 QT
52.736 -9.12 L
45.267 -9.12 L
cp
50.095 -17.667 M
53.486 -17.667 L
54.861 -17.667 55.72 -18.065 QT
56.58 -18.464 56.97 -19.3 QT
57.361 -20.136 57.361 -21.495 QT
57.361 -23.542 56.47 -24.433 QT
55.58 -25.323 53.486 -25.323 QT
51.361 -25.323 L
50.908 -25.323 50.658 -25.284 QT
50.408 -25.245 50.251 -25.065 QT
50.095 -24.886 50.095 -24.526 QT
50.095 -17.667 L
cp
f
GR
GS
[0 -0.75 0.75 0 51.8 208.12484] CT
N
62.32 -9.12 M
62.32 -9.995 L
63.18 -9.995 63.727 -10.128 QT
64.273 -10.261 64.273 -10.792 QT
64.273 -17.62 L
64.273 -18.292 64.078 -18.589 QT
63.883 -18.886 63.5 -18.956 QT
63.117 -19.026 62.32 -19.026 QT
62.32 -19.901 L
65.898 -20.167 L
65.898 -17.729 L
66.305 -18.808 67.047 -19.487 QT
67.789 -20.167 68.852 -20.167 QT
69.602 -20.167 70.188 -19.729 QT
70.773 -19.292 70.773 -18.573 QT
70.773 -18.12 70.453 -17.784 QT
70.133 -17.448 69.648 -17.448 QT
69.18 -17.448 68.852 -17.776 QT
68.523 -18.104 68.523 -18.573 QT
68.523 -19.245 69.008 -19.526 QT
68.852 -19.526 L
67.852 -19.526 67.211 -18.792 QT
66.57 -18.058 66.297 -16.972 QT
66.023 -15.886 66.023 -14.901 QT
66.023 -10.792 L
66.023 -9.995 68.461 -9.995 QT
68.461 -9.12 L
62.32 -9.12 L
cp
f
GR
GS
[0 -0.75 0.75 0 51.8 208.12484] CT
N
77.852 -8.839 M
76.352 -8.839 75.071 -9.604 QT
73.789 -10.37 73.047 -11.651 QT
72.305 -12.933 72.305 -14.448 QT
72.305 -15.589 72.711 -16.651 QT
73.118 -17.714 73.883 -18.55 QT
74.649 -19.386 75.657 -19.854 QT
76.664 -20.323 77.852 -20.323 QT
79.383 -20.323 80.649 -19.511 QT
81.914 -18.698 82.649 -17.339 QT
83.383 -15.979 83.383 -14.448 QT
83.383 -12.948 82.641 -11.659 QT
81.899 -10.37 80.618 -9.604 QT
79.336 -8.839 77.852 -8.839 QT
cp
77.852 -9.573 M
79.852 -9.573 80.524 -11.026 QT
81.196 -12.479 81.196 -14.729 QT
81.196 -15.979 81.063 -16.808 QT
80.93 -17.636 80.477 -18.308 QT
80.196 -18.714 79.766 -19.026 QT
79.336 -19.339 78.852 -19.503 QT
78.368 -19.667 77.852 -19.667 QT
77.071 -19.667 76.368 -19.315 QT
75.664 -18.964 75.196 -18.308 QT
74.743 -17.589 74.61 -16.745 QT
74.477 -15.901 74.477 -14.729 QT
74.477 -13.323 74.727 -12.206 QT
74.977 -11.089 75.711 -10.331 QT
76.446 -9.573 77.852 -9.573 QT
cp
f
GR
GS
[0 -0.75 0.75 0 51.8 208.12484] CT
N
91.082 -8.839 M
89.597 -8.839 88.379 -9.636 QT
87.16 -10.433 86.48 -11.745 QT
85.801 -13.058 85.801 -14.511 QT
85.801 -16.026 86.543 -17.331 QT
87.285 -18.636 88.551 -19.401 QT
89.816 -20.167 91.347 -20.167 QT
92.254 -20.167 93.074 -19.784 QT
93.894 -19.401 94.488 -18.714 QT
94.488 -23.917 L
94.488 -24.589 94.293 -24.886 QT
94.097 -25.183 93.722 -25.253 QT
93.347 -25.323 92.551 -25.323 QT
92.551 -26.198 L
96.254 -26.464 L
96.254 -11.386 L
96.254 -10.729 96.457 -10.433 QT
96.66 -10.136 97.027 -10.065 QT
97.394 -9.995 98.191 -9.995 QT
98.191 -9.12 L
94.426 -8.839 L
94.426 -10.417 L
93.769 -9.667 92.879 -9.253 QT
91.988 -8.839 91.082 -8.839 QT
cp
88.519 -11.292 M
88.957 -10.479 89.668 -9.987 QT
90.379 -9.495 91.222 -9.495 QT
92.254 -9.495 93.121 -10.097 QT
93.988 -10.698 94.426 -11.651 QT
94.426 -17.636 L
94.129 -18.183 93.683 -18.62 QT
93.238 -19.058 92.683 -19.292 QT
92.129 -19.526 91.504 -19.526 QT
90.191 -19.526 89.402 -18.784 QT
88.613 -18.042 88.293 -16.894 QT
87.972 -15.745 87.972 -14.495 QT
87.972 -13.495 88.074 -12.745 QT
88.176 -11.995 88.519 -11.292 QT
cp
f
GR
GS
[0 -0.75 0.75 0 51.8 208.12484] CT
N
101.75 -12.104 M
101.75 -17.62 L
101.75 -18.292 101.547 -18.589 QT
101.343 -18.886 100.961 -18.956 QT
100.578 -19.026 99.797 -19.026 QT
99.797 -19.901 L
103.578 -20.167 L
103.578 -12.104 L
103.578 -11.12 103.718 -10.581 QT
103.859 -10.042 104.312 -9.769 QT
104.765 -9.495 105.765 -9.495 QT
107.109 -9.495 107.906 -10.62 QT
108.703 -11.745 108.703 -13.167 QT
108.703 -17.62 L
108.703 -18.292 108.492 -18.589 QT
108.281 -18.886 107.914 -18.956 QT
107.547 -19.026 106.75 -19.026 QT
106.75 -19.901 L
110.515 -20.167 L
110.515 -11.386 L
110.515 -10.729 110.718 -10.433 QT
110.922 -10.136 111.304 -10.065 QT
111.687 -9.995 112.468 -9.995 QT
112.468 -9.12 L
108.781 -8.839 L
108.781 -10.948 L
108.312 -10.011 107.484 -9.425 QT
106.656 -8.839 105.656 -8.839 QT
103.859 -8.839 102.804 -9.604 QT
101.75 -10.37 101.75 -12.104 QT
cp
f
GR
GS
[0 -0.75 0.75 0 51.8 208.12484] CT
N
119.339 -8.839 M
117.839 -8.839 116.605 -9.628 QT
115.371 -10.417 114.66 -11.729 QT
113.949 -13.042 113.949 -14.511 QT
113.949 -15.995 114.652 -17.347 QT
115.355 -18.698 116.597 -19.511 QT
117.839 -20.323 119.339 -20.323 QT
120.808 -20.323 122.011 -19.753 QT
123.214 -19.183 123.214 -17.87 QT
123.214 -17.386 122.871 -17.026 QT
122.527 -16.667 122.027 -16.667 QT
121.527 -16.667 121.175 -17.026 QT
120.824 -17.386 120.824 -17.87 QT
120.824 -18.308 121.105 -18.636 QT
121.386 -18.964 121.792 -19.042 QT
120.933 -19.589 119.371 -19.589 QT
118.167 -19.589 117.441 -18.8 QT
116.714 -18.011 116.417 -16.839 QT
116.121 -15.667 116.121 -14.511 QT
116.121 -13.308 116.48 -12.175 QT
116.839 -11.042 117.644 -10.308 QT
118.449 -9.573 119.652 -9.573 QT
120.839 -9.573 121.667 -10.3 QT
122.496 -11.026 122.808 -12.198 QT
122.808 -12.339 122.996 -12.339 QT
123.308 -12.339 L
123.371 -12.339 123.433 -12.276 QT
123.496 -12.214 123.496 -12.12 QT
123.496 -12.058 L
123.121 -10.573 121.996 -9.706 QT
120.871 -8.839 119.339 -8.839 QT
cp
f
GR
GS
[0 -0.75 0.75 0 51.8 208.12484] CT
N
130.599 -8.839 M
129.083 -8.839 127.81 -9.636 QT
126.536 -10.433 125.81 -11.769 QT
125.083 -13.104 125.083 -14.604 QT
125.083 -16.073 125.747 -17.386 QT
126.411 -18.698 127.599 -19.511 QT
128.786 -20.323 130.255 -20.323 QT
131.396 -20.323 132.247 -19.94 QT
133.099 -19.558 133.646 -18.87 QT
134.192 -18.183 134.474 -17.261 QT
134.755 -16.339 134.755 -15.229 QT
134.755 -14.901 134.505 -14.901 QT
127.255 -14.901 L
127.255 -14.62 L
127.255 -12.558 128.091 -11.065 QT
128.927 -9.573 130.833 -9.573 QT
131.599 -9.573 132.247 -9.917 QT
132.896 -10.261 133.38 -10.87 QT
133.864 -11.479 134.036 -12.167 QT
134.067 -12.261 134.13 -12.323 QT
134.192 -12.386 134.286 -12.386 QT
134.505 -12.386 L
134.755 -12.386 134.755 -12.073 QT
134.396 -10.651 133.224 -9.745 QT
132.052 -8.839 130.599 -8.839 QT
cp
127.286 -15.511 M
132.989 -15.511 L
132.989 -16.464 132.724 -17.425 QT
132.458 -18.386 131.849 -19.026 QT
131.239 -19.667 130.255 -19.667 QT
128.833 -19.667 128.06 -18.339 QT
127.286 -17.011 127.286 -15.511 QT
cp
f
GR
GS
[0 -0.75 0.75 0 51.8 208.12484] CT
N
136.28 -9.12 M
136.28 -9.995 L
137.139 -9.995 137.686 -10.128 QT
138.233 -10.261 138.233 -10.792 QT
138.233 -17.62 L
138.233 -18.292 138.038 -18.589 QT
137.842 -18.886 137.459 -18.956 QT
137.077 -19.026 136.28 -19.026 QT
136.28 -19.901 L
139.858 -20.167 L
139.858 -17.729 L
140.264 -18.808 141.006 -19.487 QT
141.749 -20.167 142.811 -20.167 QT
143.561 -20.167 144.147 -19.729 QT
144.733 -19.292 144.733 -18.573 QT
144.733 -18.12 144.413 -17.784 QT
144.092 -17.448 143.608 -17.448 QT
143.139 -17.448 142.811 -17.776 QT
142.483 -18.104 142.483 -18.573 QT
142.483 -19.245 142.967 -19.526 QT
142.811 -19.526 L
141.811 -19.526 141.17 -18.792 QT
140.53 -18.058 140.256 -16.972 QT
139.983 -15.886 139.983 -14.901 QT
139.983 -10.792 L
139.983 -9.995 142.42 -9.995 QT
142.42 -9.12 L
136.28 -9.12 L
cp
f
GR
GS
[0 -0.75 0.75 0 51.8 208.12484] CT
N
156.959 -2.87 M
156.959 -27.87 L
160.381 -27.87 L
160.381 -26.87 L
157.959 -26.87 L
157.959 -3.87 L
160.381 -3.87 L
160.381 -2.87 L
156.959 -2.87 L
cp
f
GR
GS
[0 -0.75 0.75 0 51.8 208.12484] CT
N
166.746 -11.792 M
167.605 -10.714 168.887 -10.081 QT
170.168 -9.448 171.543 -9.448 QT
172.699 -9.448 173.691 -9.909 QT
174.683 -10.37 175.418 -11.183 QT
176.152 -11.995 176.551 -13.034 QT
176.949 -14.073 176.949 -15.229 QT
176.949 -15.417 177.168 -15.417 QT
177.48 -15.417 L
177.668 -15.417 177.668 -15.183 QT
177.668 -13.87 177.168 -12.651 QT
176.668 -11.433 175.754 -10.511 QT
174.84 -9.589 173.644 -9.081 QT
172.449 -8.573 171.168 -8.573 QT
169.371 -8.573 167.762 -9.3 QT
166.152 -10.026 164.965 -11.292 QT
163.777 -12.558 163.113 -14.214 QT
162.449 -15.87 162.449 -17.667 QT
162.449 -19.464 163.113 -21.12 QT
163.777 -22.776 164.965 -24.05 QT
166.152 -25.323 167.762 -26.034 QT
169.371 -26.745 171.168 -26.745 QT
172.449 -26.745 173.621 -26.19 QT
174.793 -25.636 175.668 -24.62 QT
177.121 -26.667 L
177.262 -26.745 177.293 -26.745 QT
177.48 -26.745 L
177.543 -26.745 177.605 -26.683 QT
177.668 -26.62 177.668 -26.542 QT
177.668 -19.792 L
177.668 -19.573 177.48 -19.573 QT
177.027 -19.573 L
176.793 -19.573 176.793 -19.792 QT
176.793 -20.511 176.504 -21.401 QT
176.215 -22.292 175.769 -23.089 QT
175.324 -23.886 174.746 -24.495 QT
173.34 -25.87 171.512 -25.87 QT
170.137 -25.87 168.871 -25.245 QT
167.605 -24.62 166.746 -23.526 QT
165.824 -22.354 165.473 -20.854 QT
165.121 -19.354 165.121 -17.667 QT
165.121 -15.964 165.473 -14.464 QT
165.824 -12.964 166.746 -11.792 QT
cp
f
GR
GS
[0 -0.75 0.75 0 51.8 208.12484] CT
N
180.105 -9.12 M
180.105 -9.995 L
182.683 -9.995 182.683 -10.792 QT
182.683 -24.526 L
182.683 -25.323 180.105 -25.323 QT
180.105 -26.198 L
187.589 -26.198 L
187.589 -25.323 L
185.011 -25.323 185.011 -24.526 QT
185.011 -18.448 L
192.386 -18.448 L
192.386 -24.526 L
192.386 -25.323 189.808 -25.323 QT
189.808 -26.198 L
197.277 -26.198 L
197.277 -25.323 L
194.714 -25.323 194.714 -24.526 QT
194.714 -10.792 L
194.714 -9.995 197.277 -9.995 QT
197.277 -9.12 L
189.808 -9.12 L
189.808 -9.995 L
192.386 -9.995 192.386 -10.792 QT
192.386 -17.573 L
185.011 -17.573 L
185.011 -10.792 L
185.011 -9.995 187.589 -9.995 QT
187.589 -9.12 L
180.105 -9.12 L
cp
f
GR
GS
[0 -0.75 0.75 0 51.8 208.12484] CT
N
199.105 -9.12 M
199.105 -9.995 L
201.683 -9.995 201.683 -10.792 QT
201.683 -24.526 L
201.683 -25.323 199.105 -25.323 QT
199.105 -26.198 L
212.886 -26.198 L
213.589 -20.479 L
212.87 -20.479 L
212.699 -22.042 212.41 -22.956 QT
212.12 -23.87 211.574 -24.386 QT
211.027 -24.901 210.105 -25.112 QT
209.183 -25.323 207.574 -25.323 QT
205.292 -25.323 L
204.839 -25.323 204.589 -25.284 QT
204.339 -25.245 204.175 -25.065 QT
204.011 -24.886 204.011 -24.526 QT
204.011 -18.089 L
205.792 -18.089 L
207.074 -18.089 207.667 -18.315 QT
208.261 -18.542 208.488 -19.144 QT
208.714 -19.745 208.714 -21.026 QT
209.433 -21.026 L
209.433 -14.292 L
208.714 -14.292 L
208.714 -15.573 208.488 -16.175 QT
208.261 -16.776 207.667 -17.003 QT
207.074 -17.229 205.792 -17.229 QT
204.011 -17.229 L
204.011 -10.792 L
204.011 -9.995 207.214 -9.995 QT
207.214 -9.12 L
199.105 -9.12 L
cp
f
GR
GS
[0 -0.75 0.75 0 51.8 208.12484] CT
N
215.423 -2.87 M
215.423 -3.87 L
217.861 -3.87 L
217.861 -26.87 L
215.423 -26.87 L
215.423 -27.87 L
218.861 -27.87 L
218.861 -2.87 L
215.423 -2.87 L
cp
f
GR
GS
[0.75 0 0 0.75 0 0] CT
0 0.447 0.741 RC
1 LJ
4 LW
N
123.167 490.677 M
126.462 476.024 L
129.758 465.369 L
133.054 456.469 L
136.35 448.438 L
139.646 441.167 L
142.942 434.9 L
146.237 429.281 L
149.533 424.05 L
152.829 419.436 L
156.125 415.331 L
159.421 411.534 L
162.716 408.238 L
166.012 405.266 L
169.308 402.5 L
172.604 400.07 L
175.9 397.878 L
179.196 395.902 L
182.491 394.123 L
185.787 392.525 L
189.083 391.094 L
192.379 389.815 L
195.675 388.593 L
198.97 387.582 L
202.266 386.692 L
205.562 385.915 L
208.858 385.242 L
212.154 384.666 L
215.449 384.182 L
218.745 383.782 L
222.041 383.462 L
225.337 383.216 L
228.633 383.04 L
231.929 382.929 L
235.224 382.88 L
238.52 382.889 L
241.816 382.952 L
245.112 383.066 L
248.408 383.23 L
251.703 383.438 L
254.999 383.69 L
258.295 383.983 L
261.591 384.315 L
264.887 384.683 L
268.182 385.085 L
271.478 385.521 L
274.774 385.988 L
278.07 386.484 L
281.366 387.008 L
284.662 387.559 L
287.957 388.135 L
291.253 388.735 L
294.549 389.357 L
297.845 390.002 L
301.141 390.667 L
304.436 391.352 L
307.732 392.055 L
311.028 392.776 L
314.324 393.514 L
317.62 394.268 L
320.916 395.037 L
324.211 395.821 L
327.507 396.619 L
330.803 397.429 L
334.099 398.253 L
337.395 399.088 L
340.69 399.935 L
343.986 400.792 L
347.282 401.66 L
350.578 402.537 L
353.874 403.424 L
357.17 404.319 L
360.465 405.223 L
363.761 406.134 L
367.057 407.053 L
370.353 407.979 L
373.649 408.912 L
376.944 409.851 L
380.24 410.796 L
383.536 411.747 L
386.832 412.703 L
390.128 413.664 L
393.423 414.629 L
396.719 415.599 L
400.015 416.573 L
403.311 417.55 L
406.607 418.531 L
409.903 419.516 L
413.198 420.503 L
416.494 421.493 L
419.79 422.485 L
423.086 423.479 L
426.382 424.476 L
429.677 425.474 L
432.973 426.473 L
436.269 427.474 L
439.565 428.476 L
442.861 429.479 L
446.156 430.482 L
449.452 431.486 L
452.748 432.49 L
456.044 433.494 L
459.34 434.497 L
462.636 435.501 L
465.931 436.504 L
469.227 437.506 L
472.523 438.507 L
475.819 439.507 L
479.115 440.506 L
482.41 441.503 L
485.706 442.498 L
489.002 443.492 L
492.298 444.484 L
495.594 445.473 L
498.89 446.46 L
502.185 447.445 L
505.481 448.426 L
508.777 449.405 L
512.073 450.381 L
515.369 451.353 L
518.664 452.323 L
521.96 453.288 L
525.256 454.25 L
528.552 455.208 L
531.848 456.161 L
535.143 457.111 L
538.439 458.056 L
541.735 458.996 L
545.031 459.932 L
548.327 460.862 L
551.623 461.788 L
554.918 462.708 L
558.214 463.622 L
561.51 464.531 L
564.806 465.434 L
568.102 466.331 L
571.397 467.222 L
574.693 468.106 L
577.989 468.984 L
581.285 469.855 L
584.581 470.719 L
587.877 471.575 L
591.172 472.425 L
594.468 473.267 L
597.764 474.101 L
601.06 474.927 L
604.356 475.745 L
607.651 476.555 L
610.947 477.356 L
614.243 478.148 L
617.539 478.932 L
620.835 479.706 L
624.13 480.471 L
627.426 481.226 L
630.722 481.972 L
634.018 482.707 L
637.314 483.433 L
640.61 484.148 L
643.905 484.852 L
647.201 485.545 L
650.497 486.227 L
653.793 486.898 L
657.089 487.557 L
660.384 488.204 L
663.68 488.839 L
666.976 489.462 L
670.272 490.072 L
673.568 490.669 L
676.864 491.253 L
680.159 491.823 L
683.455 492.38 L
686.751 492.924 L
690.047 493.453 L
693.343 493.968 L
696.638 494.468 L
699.934 494.952 L
703.23 495.421 L
706.526 495.875 L
709.822 496.314 L
713.117 496.736 L
716.413 497.141 L
719.709 497.528 L
723.005 497.9 L
726.301 498.255 L
729.597 498.591 L
732.892 498.909 L
736.188 499.208 L
739.484 499.489 L
742.78 499.752 L
746.076 499.996 L
749.371 500.218 L
752.667 500.42 L
755.963 500.603 L
759.259 500.765 L
762.555 500.906 L
765.851 501.023 L
769.146 501.12 L
772.442 501.196 L
775.738 501.249 L
779.034 501.276 L
S
GR
GS
[0.75 0 0 0.75 0 0] CT
0.635 0.078 0.184 RC
1 LJ
4 LW
N
123.167 490.677 M
126.462 476.912 L
129.758 463.377 L
133.054 449.998 L
136.35 436.815 L
139.646 423.918 L
142.942 411.201 L
146.237 398.62 L
149.533 386.382 L
152.829 374.423 L
156.125 362.745 L
159.421 351.349 L
162.716 340.075 L
166.012 329.087 L
169.308 318.432 L
172.604 307.983 L
175.9 297.704 L
179.196 287.805 L
182.491 278.195 L
185.787 268.79 L
189.083 259.718 L
192.379 250.846 L
195.675 242.303 L
198.97 234.036 L
202.266 226.041 L
205.562 218.231 L
208.858 210.738 L
212.154 203.256 L
215.449 196.117 L
218.745 189.288 L
222.041 182.706 L
225.337 176.034 L
228.633 169.677 L
231.929 163.594 L
235.224 157.804 L
238.52 152.155 L
241.816 146.708 L
245.112 141.456 L
248.408 136.397 L
251.703 131.526 L
254.999 126.756 L
258.295 122.315 L
261.591 117.9 L
264.887 113.807 L
268.182 109.812 L
271.478 106.063 L
274.774 102.484 L
278.07 98.905 L
281.366 95.631 L
284.662 92.512 L
287.957 89.546 L
291.253 86.726 L
294.549 83.966 L
297.845 81.417 L
301.141 79.002 L
304.436 76.717 L
307.732 74.556 L
311.028 72.516 L
314.324 70.594 L
317.62 68.784 L
320.916 67.083 L
324.211 65.488 L
327.507 63.995 L
330.803 62.6 L
334.099 61.3 L
337.395 60.092 L
340.69 58.89 L
343.986 57.853 L
347.282 56.898 L
350.578 56.024 L
353.874 55.227 L
357.17 54.504 L
360.465 53.854 L
363.761 53.272 L
367.057 52.757 L
370.353 52.307 L
373.649 51.919 L
376.944 51.59 L
380.24 51.32 L
383.536 51.105 L
386.832 50.944 L
390.128 50.834 L
393.423 50.774 L
396.719 50.762 L
400.015 50.797 L
403.311 50.876 L
406.607 50.997 L
409.903 51.16 L
413.198 51.363 L
416.494 51.604 L
419.79 51.882 L
423.086 52.195 L
426.382 52.542 L
429.677 52.922 L
432.973 53.334 L
436.269 53.776 L
439.565 54.247 L
442.861 54.746 L
446.156 55.272 L
449.452 55.824 L
452.748 56.4 L
456.044 57.001 L
459.34 57.625 L
462.636 58.27 L
465.931 58.936 L
469.227 59.623 L
472.523 60.329 L
475.819 61.054 L
479.115 61.796 L
482.41 62.556 L
485.706 63.332 L
489.002 64.123 L
492.298 64.929 L
495.594 65.749 L
498.89 66.583 L
502.185 67.43 L
505.481 68.289 L
508.777 69.16 L
512.073 70.042 L
515.369 70.934 L
518.664 71.837 L
521.96 72.749 L
525.256 73.67 L
528.552 74.599 L
531.848 75.536 L
535.143 76.481 L
538.439 77.432 L
541.735 78.39 L
545.031 79.354 L
548.327 80.324 L
551.623 81.299 L
554.918 82.278 L
558.214 83.262 L
561.51 84.25 L
564.806 85.241 L
568.102 86.235 L
571.397 87.232 L
574.693 88.231 L
577.989 89.231 L
581.285 90.233 L
584.581 91.236 L
587.877 92.24 L
591.172 93.244 L
594.468 94.248 L
597.764 95.251 L
601.06 96.253 L
604.356 97.254 L
607.651 98.253 L
610.947 99.25 L
614.243 100.245 L
617.539 101.236 L
620.835 102.224 L
624.13 103.208 L
627.426 104.188 L
630.722 105.164 L
634.018 106.134 L
637.314 107.099 L
640.61 108.057 L
643.905 109.01 L
647.201 109.955 L
650.497 110.893 L
653.793 111.823 L
657.089 112.744 L
660.384 113.657 L
663.68 114.56 L
666.976 115.453 L
670.272 116.336 L
673.568 117.208 L
676.864 118.068 L
680.159 118.915 L
683.455 119.75 L
686.751 120.571 L
690.047 121.378 L
693.343 122.17 L
696.638 122.947 L
699.934 123.707 L
703.23 124.45 L
706.526 125.175 L
709.822 125.882 L
713.117 126.569 L
716.413 127.235 L
719.709 127.881 L
723.005 128.504 L
726.301 129.105 L
729.597 129.68 L
732.892 130.232 L
736.188 130.758 L
739.484 131.255 L
742.78 131.724 L
746.076 132.165 L
749.371 132.574 L
752.667 132.951 L
755.963 133.296 L
759.259 133.604 L
762.555 133.879 L
765.851 134.115 L
769.146 134.312 L
772.442 134.469 L
775.738 134.582 L
779.034 134.654 L
S
GR
GS
[0.75 0 0 0.75 0 0] CT
0.929 0.694 0.125 RC
1 LJ
4 LW
N
123.167 490.677 M
123.496 475.346 L
123.826 466.828 L
124.155 461.714 L
124.485 458.461 L
124.815 456.196 L
125.144 454.534 L
125.474 453.215 L
125.803 452.294 L
126.133 451.62 L
126.462 451.142 L
126.792 450.823 L
127.122 450.637 L
127.451 450.563 L
127.781 450.584 L
128.11 450.687 L
128.44 450.862 L
128.77 451.1 L
129.099 451.394 L
129.429 451.738 L
129.758 452.126 L
130.088 452.555 L
130.417 453.021 L
130.747 453.519 L
131.077 454.048 L
131.406 454.604 L
131.736 455.186 L
132.065 455.792 L
132.395 456.42 L
132.725 457.067 L
133.054 457.734 L
133.384 458.418 L
133.713 459.118 L
134.043 459.833 L
134.372 460.563 L
134.702 461.306 L
135.032 462.062 L
135.361 462.83 L
135.691 463.608 L
136.02 464.398 L
136.35 465.197 L
136.68 466.006 L
137.009 466.824 L
137.339 467.65 L
137.668 468.484 L
137.998 469.326 L
138.327 470.175 L
138.657 471.031 L
138.987 471.893 L
139.316 472.762 L
139.646 473.637 L
142.942 474.519 L
146.237 475.445 L
149.533 476.4 L
152.829 477.374 L
156.125 478.361 L
238.52 479.346 L
320.916 480.22 L
403.311 480.919 L
485.706 481.461 L
568.102 481.856 L
617.209 482.127 L
699.605 482.32 L
782 482.403 L
S
GR
GS
[0.75 0 0 0.75 0 0] CT
0.718 0.275 1 RC
1 LJ
4 LW
N
123.167 490.677 M
123.496 474.205 L
123.826 468.555 L
124.155 466.061 L
124.485 464.569 L
124.815 463.756 L
125.144 463.321 L
125.474 463.147 L
125.803 463.163 L
126.133 463.323 L
126.462 463.597 L
126.792 463.962 L
127.122 464.401 L
127.451 464.903 L
127.781 465.458 L
128.11 466.059 L
128.44 466.698 L
128.77 467.371 L
129.099 468.075 L
129.429 468.805 L
129.758 469.559 L
130.088 470.333 L
130.417 471.127 L
130.747 471.938 L
131.077 472.765 L
131.406 473.605 L
131.736 474.458 L
132.065 475.323 L
132.395 476.199 L
132.725 477.085 L
133.054 477.979 L
133.384 478.883 L
133.713 479.793 L
134.043 480.711 L
134.372 481.636 L
134.702 482.566 L
135.032 483.502 L
135.361 484.444 L
135.691 485.39 L
136.02 486.341 L
136.35 487.296 L
136.68 488.255 L
137.009 489.218 L
137.339 490.184 L
137.668 491.154 L
137.998 492.126 L
138.327 493.101 L
138.657 494.079 L
138.987 495.059 L
139.316 496.041 L
139.646 497.025 L
142.942 498.012 L
146.237 499.011 L
149.533 500.014 L
152.829 501.017 L
156.125 502.017 L
238.52 502.994 L
320.916 503.74 L
403.311 504.297 L
485.706 504.705 L
568.102 504.992 L
617.209 505.183 L
699.605 505.316 L
782 505.368 L
S
GR
GS
[0.75 0 0 0.75 94.1053 347.36046] CT
1 0 0 RC
10.0 ML
4 LW
N
-5.657 -5.657 M
5.657 5.657 L
-5.657 5.657 M
5.657 -5.657 L
S
GR
GS
[0.75 0 0 0.75 95.58842 337.92213] CT
1 0 0 RC
10.0 ML
4 LW
N
-5.657 -5.657 M
5.657 5.657 L
-5.657 5.657 M
5.657 -5.657 L
S
GR
GS
[0.75 0 0 0.75 297.53945 38.0718] CT
1 0 0 RC
10.0 ML
4 LW
N
-5.657 -5.657 M
5.657 5.657 L
-5.657 5.657 M
5.657 -5.657 L
S
GR
GS
[0.75 0 0 0.75 176.41827 287.15984] CT
1 0 0 RC
10.0 ML
4 LW
N
-5.657 -5.657 M
5.657 5.657 L
-5.657 5.657 M
5.657 -5.657 L
S
GR
GS
[0.75 0 0 0.75 176.41827 287.15984] CT
1 0 0 RC
10.0 ML
4 LW
N
-5.657 -5.657 M
5.657 5.657 L
-5.657 5.657 M
5.657 -5.657 L
S
GR
GS
[0.75 0 0 0.75 297.53945 38.0718] CT
1 0 0 RC
10.0 ML
4 LW
N
-5.657 -5.657 M
5.657 5.657 L
-5.657 5.657 M
5.657 -5.657 L
S
GR
GS
[0.75 0 0 0.75 95.58842 337.92213] CT
1 0 0 RC
10.0 ML
4 LW
N
-5.657 -5.657 M
5.657 5.657 L
-5.657 5.657 M
5.657 -5.657 L
S
GR
GS
[0.75 0 0 0.75 94.1053 347.36046] CT
1 0 0 RC
10.0 ML
4 LW
N
-5.657 -5.657 M
5.657 5.657 L
-5.657 5.657 M
5.657 -5.657 L
S
GR
GS
[0.75 0 0 0.75 94.1053 347.36046] CT
1 0 0 RC
10.0 ML
4 LW
N
-5.657 -5.657 M
5.657 5.657 L
-5.657 5.657 M
5.657 -5.657 L
S
GR
GS
[0.75 0 0 0.75 95.58842 337.92213] CT
1 0 0 RC
10.0 ML
4 LW
N
-5.657 -5.657 M
5.657 5.657 L
-5.657 5.657 M
5.657 -5.657 L
S
GR
GS
[0.75 0 0 0.75 297.53945 38.0718] CT
1 0 0 RC
10.0 ML
4 LW
N
-5.657 -5.657 M
5.657 5.657 L
-5.657 5.657 M
5.657 -5.657 L
S
GR
GS
[0.75 0 0 0.75 176.41827 287.15984] CT
1 0 0 RC
10.0 ML
4 LW
N
-5.657 -5.657 M
5.657 5.657 L
-5.657 5.657 M
5.657 -5.657 L
S
GR
GS
[0.75 0 0 0.75 176.41827 287.15984] CT
1 0 0 RC
10.0 ML
4 LW
N
-5.657 -5.657 M
5.657 5.657 L
-5.657 5.657 M
5.657 -5.657 L
S
GR
GS
[0.75 0 0 0.75 297.53945 38.0718] CT
1 0 0 RC
10.0 ML
4 LW
N
-5.657 -5.657 M
5.657 5.657 L
-5.657 5.657 M
5.657 -5.657 L
S
GR
GS
[0.75 0 0 0.75 95.58842 337.92213] CT
1 0 0 RC
10.0 ML
4 LW
N
-5.657 -5.657 M
5.657 5.657 L
-5.657 5.657 M
5.657 -5.657 L
S
GR
GS
[0.75 0 0 0.75 94.1053 347.36046] CT
1 0 0 RC
10.0 ML
4 LW
N
-5.657 -5.657 M
5.657 5.657 L
-5.657 5.657 M
5.657 -5.657 L
S
GR
GS
[0.75 0 0 0.75 94.1053 347.36046] CT
1 0 0 RC
10.0 ML
4 LW
N
-5.657 -5.657 M
5.657 5.657 L
-5.657 5.657 M
5.657 -5.657 L
S
GR
GS
[0.75 0 0 0.75 95.58842 337.92213] CT
1 0 0 RC
10.0 ML
4 LW
N
-5.657 -5.657 M
5.657 5.657 L
-5.657 5.657 M
5.657 -5.657 L
S
GR
GS
[0.75 0 0 0.75 297.53945 38.0718] CT
1 0 0 RC
10.0 ML
4 LW
N
-5.657 -5.657 M
5.657 5.657 L
-5.657 5.657 M
5.657 -5.657 L
S
GR
GS
[0.75 0 0 0.75 176.41827 287.15984] CT
1 0 0 RC
10.0 ML
4 LW
N
-5.657 -5.657 M
5.657 5.657 L
-5.657 5.657 M
5.657 -5.657 L
S
GR
GS
[0.75 0 0 0.75 176.41827 287.15984] CT
1 0 0 RC
10.0 ML
4 LW
N
-5.657 -5.657 M
5.657 5.657 L
-5.657 5.657 M
5.657 -5.657 L
S
GR
GS
[0.75 0 0 0.75 297.53945 38.0718] CT
1 0 0 RC
10.0 ML
4 LW
N
-5.657 -5.657 M
5.657 5.657 L
-5.657 5.657 M
5.657 -5.657 L
S
GR
GS
[0.75 0 0 0.75 95.58842 337.92213] CT
1 0 0 RC
10.0 ML
4 LW
N
-5.657 -5.657 M
5.657 5.657 L
-5.657 5.657 M
5.657 -5.657 L
S
GR
GS
[0.75 0 0 0.75 94.1053 347.36046] CT
1 0 0 RC
10.0 ML
4 LW
N
-5.657 -5.657 M
5.657 5.657 L
-5.657 5.657 M
5.657 -5.657 L
S
GR
GS
[0.75 0 0 0.75 94.1053 347.36046] CT
1 0 0 RC
10.0 ML
4 LW
N
-5.657 -5.657 M
5.657 5.657 L
-5.657 5.657 M
5.657 -5.657 L
S
GR
GS
[0.75 0 0 0.75 95.58842 337.92213] CT
1 0 0 RC
10.0 ML
4 LW
N
-5.657 -5.657 M
5.657 5.657 L
-5.657 5.657 M
5.657 -5.657 L
S
GR
GS
[0.75 0 0 0.75 297.53945 38.0718] CT
1 0 0 RC
10.0 ML
4 LW
N
-5.657 -5.657 M
5.657 5.657 L
-5.657 5.657 M
5.657 -5.657 L
S
GR
GS
[0.75 0 0 0.75 176.41827 287.15984] CT
1 0 0 RC
10.0 ML
4 LW
N
-5.657 -5.657 M
5.657 5.657 L
-5.657 5.657 M
5.657 -5.657 L
S
GR
GS
[0.75 0 0 0.75 176.41827 287.15984] CT
1 0 0 RC
10.0 ML
4 LW
N
-5.657 -5.657 M
5.657 5.657 L
-5.657 5.657 M
5.657 -5.657 L
S
GR
GS
[0.75 0 0 0.75 297.53945 38.0718] CT
1 0 0 RC
10.0 ML
4 LW
N
-5.657 -5.657 M
5.657 5.657 L
-5.657 5.657 M
5.657 -5.657 L
S
GR
GS
[0.75 0 0 0.75 95.58842 337.92213] CT
1 0 0 RC
10.0 ML
4 LW
N
-5.657 -5.657 M
5.657 5.657 L
-5.657 5.657 M
5.657 -5.657 L
S
GR
GS
[0.75 0 0 0.75 94.1053 347.36046] CT
1 0 0 RC
10.0 ML
4 LW
N
-5.657 -5.657 M
5.657 5.657 L
-5.657 5.657 M
5.657 -5.657 L
S
GR
GS
[0.75 0 0 0.75 94.1053 347.36046] CT
1 0 0 RC
10.0 ML
4 LW
N
-5.657 -5.657 M
5.657 5.657 L
-5.657 5.657 M
5.657 -5.657 L
S
GR
GS
[0.75 0 0 0.75 95.58842 337.92213] CT
1 0 0 RC
10.0 ML
4 LW
N
-5.657 -5.657 M
5.657 5.657 L
-5.657 5.657 M
5.657 -5.657 L
S
GR
GS
[0.75 0 0 0.75 297.53945 38.0718] CT
1 0 0 RC
10.0 ML
4 LW
N
-5.657 -5.657 M
5.657 5.657 L
-5.657 5.657 M
5.657 -5.657 L
S
GR
GS
[0.75 0 0 0.75 176.41827 287.15984] CT
1 0 0 RC
10.0 ML
4 LW
N
-5.657 -5.657 M
5.657 5.657 L
-5.657 5.657 M
5.657 -5.657 L
S
GR
GS
[0.75 0 0 0.75 176.41827 287.15984] CT
1 0 0 RC
10.0 ML
4 LW
N
-5.657 -5.657 M
5.657 5.657 L
-5.657 5.657 M
5.657 -5.657 L
S
GR
GS
[0.75 0 0 0.75 297.53945 38.0718] CT
1 0 0 RC
10.0 ML
4 LW
N
-5.657 -5.657 M
5.657 5.657 L
-5.657 5.657 M
5.657 -5.657 L
S
GR
GS
[0.75 0 0 0.75 95.58842 337.92213] CT
1 0 0 RC
10.0 ML
4 LW
N
-5.657 -5.657 M
5.657 5.657 L
-5.657 5.657 M
5.657 -5.657 L
S
GR
GS
[0.75 0 0 0.75 94.1053 347.36046] CT
1 0 0 RC
10.0 ML
4 LW
N
-5.657 -5.657 M
5.657 5.657 L
-5.657 5.657 M
5.657 -5.657 L
S
GR
GS
[0.75 0 0 0.75 94.1053 347.36046] CT
1 0 0 RC
10.0 ML
4 LW
N
-5.657 -5.657 M
5.657 5.657 L
-5.657 5.657 M
5.657 -5.657 L
S
GR
GS
[0.75 0 0 0.75 95.58842 337.92213] CT
1 0 0 RC
10.0 ML
4 LW
N
-5.657 -5.657 M
5.657 5.657 L
-5.657 5.657 M
5.657 -5.657 L
S
GR
GS
[0.75 0 0 0.75 297.53945 38.0718] CT
1 0 0 RC
10.0 ML
4 LW
N
-5.657 -5.657 M
5.657 5.657 L
-5.657 5.657 M
5.657 -5.657 L
S
GR
GS
[0.75 0 0 0.75 176.41827 287.15984] CT
1 0 0 RC
10.0 ML
4 LW
N
-5.657 -5.657 M
5.657 5.657 L
-5.657 5.657 M
5.657 -5.657 L
S
GR
GS
[0.75 0 0 0.75 176.41827 287.15984] CT
1 0 0 RC
10.0 ML
4 LW
N
-5.657 -5.657 M
5.657 5.657 L
-5.657 5.657 M
5.657 -5.657 L
S
GR
GS
[0.75 0 0 0.75 297.53945 38.0718] CT
1 0 0 RC
10.0 ML
4 LW
N
-5.657 -5.657 M
5.657 5.657 L
-5.657 5.657 M
5.657 -5.657 L
S
GR
GS
[0.75 0 0 0.75 95.58842 337.92213] CT
1 0 0 RC
10.0 ML
4 LW
N
-5.657 -5.657 M
5.657 5.657 L
-5.657 5.657 M
5.657 -5.657 L
S
GR
GS
[0.75 0 0 0.75 94.1053 347.36046] CT
1 0 0 RC
10.0 ML
4 LW
N
-5.657 -5.657 M
5.657 5.657 L
-5.657 5.657 M
5.657 -5.657 L
S
GR
GS
[0.75 0 0 0.75 94.1053 347.36046] CT
1 0 0 RC
10.0 ML
4 LW
N
-5.657 -5.657 M
5.657 5.657 L
-5.657 5.657 M
5.657 -5.657 L
S
GR
GS
[0.75 0 0 0.75 95.58842 337.92213] CT
1 0 0 RC
10.0 ML
4 LW
N
-5.657 -5.657 M
5.657 5.657 L
-5.657 5.657 M
5.657 -5.657 L
S
GR
GS
[0.75 0 0 0.75 297.53945 38.0718] CT
1 0 0 RC
10.0 ML
4 LW
N
-5.657 -5.657 M
5.657 5.657 L
-5.657 5.657 M
5.657 -5.657 L
S
GR
GS
[0.75 0 0 0.75 176.41827 287.15984] CT
1 0 0 RC
10.0 ML
4 LW
N
-5.657 -5.657 M
5.657 5.657 L
-5.657 5.657 M
5.657 -5.657 L
S
GR
GS
[0.75 0 0 0.75 176.41827 287.15984] CT
1 0 0 RC
10.0 ML
4 LW
N
-5.657 -5.657 M
5.657 5.657 L
-5.657 5.657 M
5.657 -5.657 L
S
GR
GS
[0.75 0 0 0.75 297.53945 38.0718] CT
1 0 0 RC
10.0 ML
4 LW
N
-5.657 -5.657 M
5.657 5.657 L
-5.657 5.657 M
5.657 -5.657 L
S
GR
GS
[0.75 0 0 0.75 95.58842 337.92213] CT
1 0 0 RC
10.0 ML
4 LW
N
-5.657 -5.657 M
5.657 5.657 L
-5.657 5.657 M
5.657 -5.657 L
S
GR
GS
[0.75 0 0 0.75 94.1053 347.36046] CT
1 0 0 RC
10.0 ML
4 LW
N
-5.657 -5.657 M
5.657 5.657 L
-5.657 5.657 M
5.657 -5.657 L
S
GR
GS
[0.75 0 0 0.75 94.1053 347.36046] CT
1 0 0 RC
10.0 ML
4 LW
N
-5.657 -5.657 M
5.657 5.657 L
-5.657 5.657 M
5.657 -5.657 L
S
GR
GS
[0.75 0 0 0.75 95.58842 337.92213] CT
1 0 0 RC
10.0 ML
4 LW
N
-5.657 -5.657 M
5.657 5.657 L
-5.657 5.657 M
5.657 -5.657 L
S
GR
GS
[0.75 0 0 0.75 297.53945 38.0718] CT
1 0 0 RC
10.0 ML
4 LW
N
-5.657 -5.657 M
5.657 5.657 L
-5.657 5.657 M
5.657 -5.657 L
S
GR
GS
[0.75 0 0 0.75 176.41827 287.15984] CT
1 0 0 RC
10.0 ML
4 LW
N
-5.657 -5.657 M
5.657 5.657 L
-5.657 5.657 M
5.657 -5.657 L
S
GR
GS
[0.75 0 0 0.75 176.41827 287.15984] CT
1 0 0 RC
10.0 ML
4 LW
N
-5.657 -5.657 M
5.657 5.657 L
-5.657 5.657 M
5.657 -5.657 L
S
GR
GS
[0.75 0 0 0.75 297.53945 38.0718] CT
1 0 0 RC
10.0 ML
4 LW
N
-5.657 -5.657 M
5.657 5.657 L
-5.657 5.657 M
5.657 -5.657 L
S
GR
GS
[0.75 0 0 0.75 95.58842 337.92213] CT
1 0 0 RC
10.0 ML
4 LW
N
-5.657 -5.657 M
5.657 5.657 L
-5.657 5.657 M
5.657 -5.657 L
S
GR
GS
[0.75 0 0 0.75 94.1053 347.36046] CT
1 0 0 RC
10.0 ML
4 LW
N
-5.657 -5.657 M
5.657 5.657 L
-5.657 5.657 M
5.657 -5.657 L
S
GR
GS
[0.75 0 0 0.75 94.1053 347.36046] CT
1 0 0 RC
10.0 ML
4 LW
N
-5.657 -5.657 M
5.657 5.657 L
-5.657 5.657 M
5.657 -5.657 L
S
GR
GS
[0.75 0 0 0.75 95.58842 337.92213] CT
1 0 0 RC
10.0 ML
4 LW
N
-5.657 -5.657 M
5.657 5.657 L
-5.657 5.657 M
5.657 -5.657 L
S
GR
GS
[0.75 0 0 0.75 297.53945 38.0718] CT
1 0 0 RC
10.0 ML
4 LW
N
-5.657 -5.657 M
5.657 5.657 L
-5.657 5.657 M
5.657 -5.657 L
S
GR
GS
[0.75 0 0 0.75 176.41827 287.15984] CT
1 0 0 RC
10.0 ML
4 LW
N
-5.657 -5.657 M
5.657 5.657 L
-5.657 5.657 M
5.657 -5.657 L
S
GR
GS
[0.75 0 0 0.75 176.41827 287.15984] CT
1 0 0 RC
10.0 ML
4 LW
N
-5.657 -5.657 M
5.657 5.657 L
-5.657 5.657 M
5.657 -5.657 L
S
GR
GS
[0.75 0 0 0.75 297.53945 38.0718] CT
1 0 0 RC
10.0 ML
4 LW
N
-5.657 -5.657 M
5.657 5.657 L
-5.657 5.657 M
5.657 -5.657 L
S
GR
GS
[0.75 0 0 0.75 95.58842 337.92213] CT
1 0 0 RC
10.0 ML
4 LW
N
-5.657 -5.657 M
5.657 5.657 L
-5.657 5.657 M
5.657 -5.657 L
S
GR
GS
[0.75 0 0 0.75 94.1053 347.36046] CT
1 0 0 RC
10.0 ML
4 LW
N
-5.657 -5.657 M
5.657 5.657 L
-5.657 5.657 M
5.657 -5.657 L
S
GR
GS
[0.75 0 0 0.75 94.1053 347.36046] CT
1 0 0 RC
10.0 ML
4 LW
N
-5.657 -5.657 M
5.657 5.657 L
-5.657 5.657 M
5.657 -5.657 L
S
GR
GS
[0.75 0 0 0.75 95.58842 337.92213] CT
1 0 0 RC
10.0 ML
4 LW
N
-5.657 -5.657 M
5.657 5.657 L
-5.657 5.657 M
5.657 -5.657 L
S
GR
GS
[0.75 0 0 0.75 297.53945 38.0718] CT
1 0 0 RC
10.0 ML
4 LW
N
-5.657 -5.657 M
5.657 5.657 L
-5.657 5.657 M
5.657 -5.657 L
S
GR
GS
[0.75 0 0 0.75 176.41827 287.15984] CT
1 0 0 RC
10.0 ML
4 LW
N
-5.657 -5.657 M
5.657 5.657 L
-5.657 5.657 M
5.657 -5.657 L
S
GR
GS
[0.75 0 0 0.75 176.41827 287.15984] CT
1 0 0 RC
10.0 ML
4 LW
N
-5.657 -5.657 M
5.657 5.657 L
-5.657 5.657 M
5.657 -5.657 L
S
GR
GS
[0.75 0 0 0.75 297.53945 38.0718] CT
1 0 0 RC
10.0 ML
4 LW
N
-5.657 -5.657 M
5.657 5.657 L
-5.657 5.657 M
5.657 -5.657 L
S
GR
GS
[0.75 0 0 0.75 95.58842 337.92213] CT
1 0 0 RC
10.0 ML
4 LW
N
-5.657 -5.657 M
5.657 5.657 L
-5.657 5.657 M
5.657 -5.657 L
S
GR
GS
[0.75 0 0 0.75 94.1053 347.36046] CT
1 0 0 RC
10.0 ML
4 LW
N
-5.657 -5.657 M
5.657 5.657 L
-5.657 5.657 M
5.657 -5.657 L
S
GR
GS
[0.75 0 0 0.75 94.1053 347.36046] CT
1 0 0 RC
10.0 ML
4 LW
N
-5.657 -5.657 M
5.657 5.657 L
-5.657 5.657 M
5.657 -5.657 L
S
GR
GS
[0.75 0 0 0.75 95.58842 337.92213] CT
1 0 0 RC
10.0 ML
4 LW
N
-5.657 -5.657 M
5.657 5.657 L
-5.657 5.657 M
5.657 -5.657 L
S
GR
GS
[0.75 0 0 0.75 297.53945 38.0718] CT
1 0 0 RC
10.0 ML
4 LW
N
-5.657 -5.657 M
5.657 5.657 L
-5.657 5.657 M
5.657 -5.657 L
S
GR
GS
[0.75 0 0 0.75 176.41827 287.15984] CT
1 0 0 RC
10.0 ML
4 LW
N
-5.657 -5.657 M
5.657 5.657 L
-5.657 5.657 M
5.657 -5.657 L
S
GR
GS
[0.75 0 0 0.75 176.41827 287.15984] CT
1 0 0 RC
10.0 ML
4 LW
N
-5.657 -5.657 M
5.657 5.657 L
-5.657 5.657 M
5.657 -5.657 L
S
GR
GS
[0.75 0 0 0.75 297.53945 38.0718] CT
1 0 0 RC
10.0 ML
4 LW
N
-5.657 -5.657 M
5.657 5.657 L
-5.657 5.657 M
5.657 -5.657 L
S
GR
GS
[0.75 0 0 0.75 95.58842 337.92213] CT
1 0 0 RC
10.0 ML
4 LW
N
-5.657 -5.657 M
5.657 5.657 L
-5.657 5.657 M
5.657 -5.657 L
S
GR
GS
[0.75 0 0 0.75 94.1053 347.36046] CT
1 0 0 RC
10.0 ML
4 LW
N
-5.657 -5.657 M
5.657 5.657 L
-5.657 5.657 M
5.657 -5.657 L
S
GR
GS
[0.75 0 0 0.75 94.1053 347.36046] CT
1 0 0 RC
10.0 ML
4 LW
N
-5.657 -5.657 M
5.657 5.657 L
-5.657 5.657 M
5.657 -5.657 L
S
GR
GS
[0.75 0 0 0.75 95.58842 337.92213] CT
1 0 0 RC
10.0 ML
4 LW
N
-5.657 -5.657 M
5.657 5.657 L
-5.657 5.657 M
5.657 -5.657 L
S
GR
GS
[0.75 0 0 0.75 297.53945 38.0718] CT
1 0 0 RC
10.0 ML
4 LW
N
-5.657 -5.657 M
5.657 5.657 L
-5.657 5.657 M
5.657 -5.657 L
S
GR
GS
[0.75 0 0 0.75 176.41827 287.15984] CT
1 0 0 RC
10.0 ML
4 LW
N
-5.657 -5.657 M
5.657 5.657 L
-5.657 5.657 M
5.657 -5.657 L
S
GR
GS
[0.75 0 0 0.75 176.41827 287.15984] CT
1 0 0 RC
10.0 ML
4 LW
N
-5.657 -5.657 M
5.657 5.657 L
-5.657 5.657 M
5.657 -5.657 L
S
GR
GS
[0.75 0 0 0.75 297.53945 38.0718] CT
1 0 0 RC
10.0 ML
4 LW
N
-5.657 -5.657 M
5.657 5.657 L
-5.657 5.657 M
5.657 -5.657 L
S
GR
GS
[0.75 0 0 0.75 95.58842 337.92213] CT
1 0 0 RC
10.0 ML
4 LW
N
-5.657 -5.657 M
5.657 5.657 L
-5.657 5.657 M
5.657 -5.657 L
S
GR
GS
[0.75 0 0 0.75 94.1053 347.36046] CT
1 0 0 RC
10.0 ML
4 LW
N
-5.657 -5.657 M
5.657 5.657 L
-5.657 5.657 M
5.657 -5.657 L
S
GR
GS
[0.75 0 0 0.75 94.1053 347.36046] CT
1 0 0 RC
10.0 ML
4 LW
N
-5.657 -5.657 M
5.657 5.657 L
-5.657 5.657 M
5.657 -5.657 L
S
GR
GS
[0.75 0 0 0.75 95.58842 337.92213] CT
1 0 0 RC
10.0 ML
4 LW
N
-5.657 -5.657 M
5.657 5.657 L
-5.657 5.657 M
5.657 -5.657 L
S
GR
GS
[0.75 0 0 0.75 297.53945 38.0718] CT
1 0 0 RC
10.0 ML
4 LW
N
-5.657 -5.657 M
5.657 5.657 L
-5.657 5.657 M
5.657 -5.657 L
S
GR
GS
[0.75 0 0 0.75 176.41827 287.15984] CT
1 0 0 RC
10.0 ML
4 LW
N
-5.657 -5.657 M
5.657 5.657 L
-5.657 5.657 M
5.657 -5.657 L
S
GR
GS
[0.75 0 0 0.75 176.41827 287.15984] CT
1 0 0 RC
10.0 ML
4 LW
N
-5.657 -5.657 M
5.657 5.657 L
-5.657 5.657 M
5.657 -5.657 L
S
GR
GS
[0.75 0 0 0.75 297.53945 38.0718] CT
1 0 0 RC
10.0 ML
4 LW
N
-5.657 -5.657 M
5.657 5.657 L
-5.657 5.657 M
5.657 -5.657 L
S
GR
GS
[0.75 0 0 0.75 95.58842 337.92213] CT
1 0 0 RC
10.0 ML
4 LW
N
-5.657 -5.657 M
5.657 5.657 L
-5.657 5.657 M
5.657 -5.657 L
S
GR
GS
[0.75 0 0 0.75 94.1053 347.36046] CT
1 0 0 RC
10.0 ML
4 LW
N
-5.657 -5.657 M
5.657 5.657 L
-5.657 5.657 M
5.657 -5.657 L
S
GR
GS
[0.75 0 0 0.75 94.1053 347.36046] CT
1 0 0 RC
10.0 ML
4 LW
N
-5.657 -5.657 M
5.657 5.657 L
-5.657 5.657 M
5.657 -5.657 L
S
GR
GS
[0.75 0 0 0.75 95.58842 337.92213] CT
1 0 0 RC
10.0 ML
4 LW
N
-5.657 -5.657 M
5.657 5.657 L
-5.657 5.657 M
5.657 -5.657 L
S
GR
GS
[0.75 0 0 0.75 297.53945 38.0718] CT
1 0 0 RC
10.0 ML
4 LW
N
-5.657 -5.657 M
5.657 5.657 L
-5.657 5.657 M
5.657 -5.657 L
S
GR
GS
[0.75 0 0 0.75 176.41827 287.15984] CT
1 0 0 RC
10.0 ML
4 LW
N
-5.657 -5.657 M
5.657 5.657 L
-5.657 5.657 M
5.657 -5.657 L
S
GR
GS
[0.75 0 0 0.75 176.41827 287.15984] CT
1 0 0 RC
10.0 ML
4 LW
N
-5.657 -5.657 M
5.657 5.657 L
-5.657 5.657 M
5.657 -5.657 L
S
GR
GS
[0.75 0 0 0.75 297.53945 38.0718] CT
1 0 0 RC
10.0 ML
4 LW
N
-5.657 -5.657 M
5.657 5.657 L
-5.657 5.657 M
5.657 -5.657 L
S
GR
GS
[0.75 0 0 0.75 95.58842 337.92213] CT
1 0 0 RC
10.0 ML
4 LW
N
-5.657 -5.657 M
5.657 5.657 L
-5.657 5.657 M
5.657 -5.657 L
S
GR
GS
[0.75 0 0 0.75 94.1053 347.36046] CT
1 0 0 RC
10.0 ML
4 LW
N
-5.657 -5.657 M
5.657 5.657 L
-5.657 5.657 M
5.657 -5.657 L
S
GR
GS
[0.75 0 0 0.75 94.1053 347.36046] CT
1 0 0 RC
10.0 ML
4 LW
N
-5.657 -5.657 M
5.657 5.657 L
-5.657 5.657 M
5.657 -5.657 L
S
GR
GS
[0.75 0 0 0.75 95.58842 337.92213] CT
1 0 0 RC
10.0 ML
4 LW
N
-5.657 -5.657 M
5.657 5.657 L
-5.657 5.657 M
5.657 -5.657 L
S
GR
GS
[0.75 0 0 0.75 297.53945 38.0718] CT
1 0 0 RC
10.0 ML
4 LW
N
-5.657 -5.657 M
5.657 5.657 L
-5.657 5.657 M
5.657 -5.657 L
S
GR
GS
[0.75 0 0 0.75 176.41827 287.15984] CT
1 0 0 RC
10.0 ML
4 LW
N
-5.657 -5.657 M
5.657 5.657 L
-5.657 5.657 M
5.657 -5.657 L
S
GR
GS
[0.75 0 0 0.75 176.41827 287.15984] CT
1 0 0 RC
10.0 ML
4 LW
N
-5.657 -5.657 M
5.657 5.657 L
-5.657 5.657 M
5.657 -5.657 L
S
GR
GS
[0.75 0 0 0.75 297.53945 38.0718] CT
1 0 0 RC
10.0 ML
4 LW
N
-5.657 -5.657 M
5.657 5.657 L
-5.657 5.657 M
5.657 -5.657 L
S
GR
GS
[0.75 0 0 0.75 95.58842 337.92213] CT
1 0 0 RC
10.0 ML
4 LW
N
-5.657 -5.657 M
5.657 5.657 L
-5.657 5.657 M
5.657 -5.657 L
S
GR
GS
[0.75 0 0 0.75 94.1053 347.36046] CT
1 0 0 RC
10.0 ML
4 LW
N
-5.657 -5.657 M
5.657 5.657 L
-5.657 5.657 M
5.657 -5.657 L
S
GR
GS
[0.75 0 0 0.75 94.1053 347.36046] CT
1 0 0 RC
10.0 ML
4 LW
N
-5.657 -5.657 M
5.657 5.657 L
-5.657 5.657 M
5.657 -5.657 L
S
GR
GS
[0.75 0 0 0.75 95.58842 337.92213] CT
1 0 0 RC
10.0 ML
4 LW
N
-5.657 -5.657 M
5.657 5.657 L
-5.657 5.657 M
5.657 -5.657 L
S
GR
GS
[0.75 0 0 0.75 297.53945 38.0718] CT
1 0 0 RC
10.0 ML
4 LW
N
-5.657 -5.657 M
5.657 5.657 L
-5.657 5.657 M
5.657 -5.657 L
S
GR
GS
[0.75 0 0 0.75 176.41827 287.15984] CT
1 0 0 RC
10.0 ML
4 LW
N
-5.657 -5.657 M
5.657 5.657 L
-5.657 5.657 M
5.657 -5.657 L
S
GR
GS
[0.75 0 0 0.75 0 0] CT
1 GC
N
771 167 M
771 54 L
649 54 L
649 167 L
cp
f
GR
GS
[0.75 0 0 0.75 522 52.07379] CT
/Times-Roman 24 F
GS
[1 0 0 1 0 0] CT
0 8.5 moveto 
1 -1 scale
(exp 0.5) t 
GR
GR
GS
[0.75 0 0 0.75 0 0] CT
0 0.447 0.741 RC
1 LJ
4 LW
N
653 69.432 M
693 69.432 L
S
GR
GS
[0.75 0 0 0.75 522 72.60793] CT
/Times-Roman 24 F
GS
[1 0 0 1 0 0] CT
0 8.5 moveto 
1 -1 scale
(exp 1) t 
GR
GR
GS
[0.75 0 0 0.75 0 0] CT
0.635 0.078 0.184 RC
1 LJ
4 LW
N
653 96.811 M
693 96.811 L
S
GR
GS
[0.75 0 0 0.75 522 93.14207] CT
/Times-Roman 24 F
GS
[1 0 0 1 0 0] CT
0 8.5 moveto 
1 -1 scale
(log 2) t 
GR
GR
GS
[0.75 0 0 0.75 0 0] CT
0.929 0.694 0.125 RC
1 LJ
4 LW
N
653 124.189 M
693 124.189 L
S
GR
GS
[0.75 0 0 0.75 522 113.67621] CT
/Times-Roman 24 F
GS
[1 0 0 1 0 0] CT
0 8.5 moveto 
1 -1 scale
(log 5) t 
GR
GR
GS
[0.75 0 0 0.75 0 0] CT
0.718 0.275 1 RC
1 LJ
4 LW
N
653 151.568 M
693 151.568 L
S
GR
GS
[0.75 0 0 0.75 0 0] CT
0.149 GC
10.0 ML
0.667 LW
N
649 167 M
649 54 L
771 54 L
771 167 L
cp
S
GR
%%Trailer
%%Pages: 1
%%EOF
