%!PS-Adobe-3.0 EPSF-3.0
%%Creator: (MATLAB, The Mathworks, Inc. Version 9.6.0.1472908 \(R2019a\) Update 9. Operating System: Windows 10)
%%Title: (C:/Users/A/OneDrive - ETHZ/Research_MasterThesis/AllCodeFiles/Figures/TotSystemCostExpFinalFig.eps)
%%CreationDate: 2023-05-27T03:40:16
%%Pages: (atend)
%%BoundingBox:    38     2   596   406
%%LanguageLevel: 3
%%EndComments
%%BeginProlog
%%BeginResource: procset (Apache XML Graphics Std ProcSet) 1.2 0
%%Version: 1.2 0
%%Copyright: (Copyright 2001-2003,2010 The Apache Software Foundation. License terms: http://www.apache.org/licenses/LICENSE-2.0)
/bd{bind def}bind def
/ld{load def}bd
/GR/grestore ld
/GS/gsave ld
/RM/rmoveto ld
/C/curveto ld
/t/show ld
/L/lineto ld
/ML/setmiterlimit ld
/CT/concat ld
/f/fill ld
/N/newpath ld
/S/stroke ld
/CC/setcmykcolor ld
/A/ashow ld
/cp/closepath ld
/RC/setrgbcolor ld
/LJ/setlinejoin ld
/GC/setgray ld
/LW/setlinewidth ld
/M/moveto ld
/re {4 2 roll M
1 index 0 rlineto
0 exch rlineto
neg 0 rlineto
cp } bd
/_ctm matrix def
/_tm matrix def
/BT { _ctm currentmatrix pop matrix _tm copy pop 0 0 moveto } bd
/ET { _ctm setmatrix } bd
/iTm { _ctm setmatrix _tm concat } bd
/Tm { _tm astore pop iTm 0 0 moveto } bd
/ux 0.0 def
/uy 0.0 def
/F {
  /Tp exch def
  /Tf exch def
  Tf findfont Tp scalefont setfont
  /cf Tf def  /cs Tp def
} bd
/ULS {currentpoint /uy exch def /ux exch def} bd
/ULE {
  /Tcx currentpoint pop def
  gsave
  newpath
  cf findfont cs scalefont dup
  /FontMatrix get 0 get /Ts exch def /FontInfo get dup
  /UnderlinePosition get Ts mul /To exch def
  /UnderlineThickness get Ts mul /Tt exch def
  ux uy To add moveto  Tcx uy To add lineto
  Tt setlinewidth stroke
  grestore
} bd
/OLE {
  /Tcx currentpoint pop def
  gsave
  newpath
  cf findfont cs scalefont dup
  /FontMatrix get 0 get /Ts exch def /FontInfo get dup
  /UnderlinePosition get Ts mul /To exch def
  /UnderlineThickness get Ts mul /Tt exch def
  ux uy To add cs add moveto Tcx uy To add cs add lineto
  Tt setlinewidth stroke
  grestore
} bd
/SOE {
  /Tcx currentpoint pop def
  gsave
  newpath
  cf findfont cs scalefont dup
  /FontMatrix get 0 get /Ts exch def /FontInfo get dup
  /UnderlinePosition get Ts mul /To exch def
  /UnderlineThickness get Ts mul /Tt exch def
  ux uy To add cs 10 mul 26 idiv add moveto Tcx uy To add cs 10 mul 26 idiv add lineto
  Tt setlinewidth stroke
  grestore
} bd
/QT {
/Y22 exch store
/X22 exch store
/Y21 exch store
/X21 exch store
currentpoint
/Y21 load 2 mul add 3 div exch
/X21 load 2 mul add 3 div exch
/X21 load 2 mul /X22 load add 3 div
/Y21 load 2 mul /Y22 load add 3 div
/X22 load /Y22 load curveto
} bd
/SSPD {
dup length /d exch dict def
{
/v exch def
/k exch def
currentpagedevice k known {
/cpdv currentpagedevice k get def
v cpdv ne {
/upd false def
/nullv v type /nulltype eq def
/nullcpdv cpdv type /nulltype eq def
nullv nullcpdv or
{
/upd true def
} {
/sametype v type cpdv type eq def
sametype {
v type /arraytype eq {
/vlen v length def
/cpdvlen cpdv length def
vlen cpdvlen eq {
0 1 vlen 1 sub {
/i exch def
/obj v i get def
/cpdobj cpdv i get def
obj cpdobj ne {
/upd true def
exit
} if
} for
} {
/upd true def
} ifelse
} {
v type /dicttype eq {
v {
/dv exch def
/dk exch def
/cpddv cpdv dk get def
dv cpddv ne {
/upd true def
exit
} if
} forall
} {
/upd true def
} ifelse
} ifelse
} if
} ifelse
upd true eq {
d k v put
} if
} if
} if
} forall
d length 0 gt {
d setpagedevice
} if
} bd
/RE { % /NewFontName [NewEncodingArray] /FontName RE -
  findfont dup length dict begin
  {
    1 index /FID ne
    {def} {pop pop} ifelse
  } forall
  /Encoding exch def
  /FontName 1 index def
  currentdict definefont pop
  end
} bind def
%%EndResource
%%BeginResource: procset (Apache XML Graphics EPS ProcSet) 1.0 0
%%Version: 1.0 0
%%Copyright: (Copyright 2002-2003 The Apache Software Foundation. License terms: http://www.apache.org/licenses/LICENSE-2.0)
/BeginEPSF { %def
/b4_Inc_state save def         % Save state for cleanup
/dict_count countdictstack def % Count objects on dict stack
/op_count count 1 sub def      % Count objects on operand stack
userdict begin                 % Push userdict on dict stack
/showpage { } def              % Redefine showpage, { } = null proc
0 setgray 0 setlinecap         % Prepare graphics state
1 setlinewidth 0 setlinejoin
10 setmiterlimit [ ] 0 setdash newpath
/languagelevel where           % If level not equal to 1 then
{pop languagelevel             % set strokeadjust and
1 ne                           % overprint to their defaults.
{false setstrokeadjust false setoverprint
} if
} if
} bd
/EndEPSF { %def
count op_count sub {pop} repeat            % Clean up stacks
countdictstack dict_count sub {end} repeat
b4_Inc_state restore
} bd
%%EndResource
%FOPBeginFontDict
%%IncludeResource: font Courier-Oblique
%%IncludeResource: font Courier-BoldOblique
%%IncludeResource: font Courier-Bold
%%IncludeResource: font ZapfDingbats
%%IncludeResource: font Symbol
%%IncludeResource: font Helvetica
%%IncludeResource: font Helvetica-Oblique
%%IncludeResource: font Helvetica-Bold
%%IncludeResource: font Helvetica-BoldOblique
%%IncludeResource: font Times-Roman
%%IncludeResource: font Times-Italic
%%IncludeResource: font Times-Bold
%%IncludeResource: font Times-BoldItalic
%%IncludeResource: font Courier
%FOPEndFontDict
%%BeginResource: encoding WinAnsiEncoding
/WinAnsiEncoding [
/.notdef /.notdef /.notdef /.notdef /.notdef
/.notdef /.notdef /.notdef /.notdef /.notdef
/.notdef /.notdef /.notdef /.notdef /.notdef
/.notdef /.notdef /.notdef /.notdef /.notdef
/.notdef /.notdef /.notdef /.notdef /.notdef
/.notdef /.notdef /.notdef /.notdef /.notdef
/.notdef /.notdef /space /exclam /quotedbl
/numbersign /dollar /percent /ampersand /quotesingle
/parenleft /parenright /asterisk /plus /comma
/hyphen /period /slash /zero /one
/two /three /four /five /six
/seven /eight /nine /colon /semicolon
/less /equal /greater /question /at
/A /B /C /D /E
/F /G /H /I /J
/K /L /M /N /O
/P /Q /R /S /T
/U /V /W /X /Y
/Z /bracketleft /backslash /bracketright /asciicircum
/underscore /quoteleft /a /b /c
/d /e /f /g /h
/i /j /k /l /m
/n /o /p /q /r
/s /t /u /v /w
/x /y /z /braceleft /bar
/braceright /asciitilde /bullet /Euro /bullet
/quotesinglbase /florin /quotedblbase /ellipsis /dagger
/daggerdbl /circumflex /perthousand /Scaron /guilsinglleft
/OE /bullet /Zcaron /bullet /bullet
/quoteleft /quoteright /quotedblleft /quotedblright /bullet
/endash /emdash /asciitilde /trademark /scaron
/guilsinglright /oe /bullet /zcaron /Ydieresis
/space /exclamdown /cent /sterling /currency
/yen /brokenbar /section /dieresis /copyright
/ordfeminine /guillemotleft /logicalnot /sfthyphen /registered
/macron /degree /plusminus /twosuperior /threesuperior
/acute /mu /paragraph /middot /cedilla
/onesuperior /ordmasculine /guillemotright /onequarter /onehalf
/threequarters /questiondown /Agrave /Aacute /Acircumflex
/Atilde /Adieresis /Aring /AE /Ccedilla
/Egrave /Eacute /Ecircumflex /Edieresis /Igrave
/Iacute /Icircumflex /Idieresis /Eth /Ntilde
/Ograve /Oacute /Ocircumflex /Otilde /Odieresis
/multiply /Oslash /Ugrave /Uacute /Ucircumflex
/Udieresis /Yacute /Thorn /germandbls /agrave
/aacute /acircumflex /atilde /adieresis /aring
/ae /ccedilla /egrave /eacute /ecircumflex
/edieresis /igrave /iacute /icircumflex /idieresis
/eth /ntilde /ograve /oacute /ocircumflex
/otilde /odieresis /divide /oslash /ugrave
/uacute /ucircumflex /udieresis /yacute /thorn
/ydieresis
] def
%%EndResource
%FOPBeginFontReencode
/Courier-Oblique findfont
dup length dict begin
  {1 index /FID ne {def} {pop pop} ifelse} forall
  /Encoding WinAnsiEncoding def
  currentdict
end
/Courier-Oblique exch definefont pop
/Courier-BoldOblique findfont
dup length dict begin
  {1 index /FID ne {def} {pop pop} ifelse} forall
  /Encoding WinAnsiEncoding def
  currentdict
end
/Courier-BoldOblique exch definefont pop
/Courier-Bold findfont
dup length dict begin
  {1 index /FID ne {def} {pop pop} ifelse} forall
  /Encoding WinAnsiEncoding def
  currentdict
end
/Courier-Bold exch definefont pop
/Helvetica findfont
dup length dict begin
  {1 index /FID ne {def} {pop pop} ifelse} forall
  /Encoding WinAnsiEncoding def
  currentdict
end
/Helvetica exch definefont pop
/Helvetica-Oblique findfont
dup length dict begin
  {1 index /FID ne {def} {pop pop} ifelse} forall
  /Encoding WinAnsiEncoding def
  currentdict
end
/Helvetica-Oblique exch definefont pop
/Helvetica-Bold findfont
dup length dict begin
  {1 index /FID ne {def} {pop pop} ifelse} forall
  /Encoding WinAnsiEncoding def
  currentdict
end
/Helvetica-Bold exch definefont pop
/Helvetica-BoldOblique findfont
dup length dict begin
  {1 index /FID ne {def} {pop pop} ifelse} forall
  /Encoding WinAnsiEncoding def
  currentdict
end
/Helvetica-BoldOblique exch definefont pop
/Times-Roman findfont
dup length dict begin
  {1 index /FID ne {def} {pop pop} ifelse} forall
  /Encoding WinAnsiEncoding def
  currentdict
end
/Times-Roman exch definefont pop
/Times-Italic findfont
dup length dict begin
  {1 index /FID ne {def} {pop pop} ifelse} forall
  /Encoding WinAnsiEncoding def
  currentdict
end
/Times-Italic exch definefont pop
/Times-Bold findfont
dup length dict begin
  {1 index /FID ne {def} {pop pop} ifelse} forall
  /Encoding WinAnsiEncoding def
  currentdict
end
/Times-Bold exch definefont pop
/Times-BoldItalic findfont
dup length dict begin
  {1 index /FID ne {def} {pop pop} ifelse} forall
  /Encoding WinAnsiEncoding def
  currentdict
end
/Times-BoldItalic exch definefont pop
/Courier findfont
dup length dict begin
  {1 index /FID ne {def} {pop pop} ifelse} forall
  /Encoding WinAnsiEncoding def
  currentdict
end
/Courier exch definefont pop
%FOPEndFontReencode
%%EndProlog
%%Page: 1 1
%%PageBoundingBox: 0 0 648 432
%%BeginPageSetup
[1 0 0 -1 0 432] CT
%%EndPageSetup
GS
[0.75 0 0 0.75 0 0] CT
1 GC
N
0 0 864 576 re
f
GR
GS
[0.75 0 0 0.75 0 0] CT
1 GC
N
0 0 864 576 re
f
GR
GS
[0.75 0 0 0.75 0 0] CT
1 GC
N
112 512 M
782 512 L
782 43 L
112 43 L
cp
f
GR
GS
[0.75 0 0 0.75 0 0] CT
0.873 GC
1 LJ
0.667 LW
N
112 512 M
112 43 L
S
GR
GS
[0.75 0 0 0.75 0 0] CT
0.873 GC
1 LJ
0.667 LW
N
223.667 512 M
223.667 43 L
S
GR
GS
[0.75 0 0 0.75 0 0] CT
0.873 GC
1 LJ
0.667 LW
N
335.333 512 M
335.333 43 L
S
GR
GS
[0.75 0 0 0.75 0 0] CT
0.873 GC
1 LJ
0.667 LW
N
447 512 M
447 43 L
S
GR
GS
[0.75 0 0 0.75 0 0] CT
0.873 GC
1 LJ
0.667 LW
N
558.667 512 M
558.667 43 L
S
GR
GS
[0.75 0 0 0.75 0 0] CT
0.873 GC
1 LJ
0.667 LW
N
670.333 512 M
670.333 43 L
S
GR
GS
[0.75 0 0 0.75 0 0] CT
0.873 GC
1 LJ
0.667 LW
N
782 512 M
782 43 L
S
GR
GS
[0.75 0 0 0.75 0 0] CT
0.851 GC
1 LJ
0.667 LW
N
782 512 M
112 512 L
S
GR
GS
[0.75 0 0 0.75 0 0] CT
0.851 GC
1 LJ
0.667 LW
N
782 418.2 M
112 418.2 L
S
GR
GS
[0.75 0 0 0.75 0 0] CT
0.851 GC
1 LJ
0.667 LW
N
782 324.4 M
112 324.4 L
S
GR
GS
[0.75 0 0 0.75 0 0] CT
0.851 GC
1 LJ
0.667 LW
N
782 230.6 M
112 230.6 L
S
GR
GS
[0.75 0 0 0.75 0 0] CT
0.851 GC
1 LJ
0.667 LW
N
782 136.8 M
112 136.8 L
S
GR
GS
[0.75 0 0 0.75 0 0] CT
0.851 GC
1 LJ
0.667 LW
N
782 43 M
112 43 L
S
GR
GS
[0.75 0 0 0.75 0 0] CT
0.149 GC
2 setlinecap
1 LJ
0.667 LW
N
112 512 M
782 512 L
S
GR
GS
[0.75 0 0 0.75 0 0] CT
0.149 GC
2 setlinecap
1 LJ
0.667 LW
N
112 43 M
782 43 L
S
GR
GS
[0.75 0 0 0.75 0 0] CT
0.149 GC
2 setlinecap
1 LJ
0.667 LW
N
112 512 M
112 505.3 L
S
GR
GS
[0.75 0 0 0.75 0 0] CT
0.149 GC
2 setlinecap
1 LJ
0.667 LW
N
223.667 512 M
223.667 505.3 L
S
GR
GS
[0.75 0 0 0.75 0 0] CT
0.149 GC
2 setlinecap
1 LJ
0.667 LW
N
335.333 512 M
335.333 505.3 L
S
GR
GS
[0.75 0 0 0.75 0 0] CT
0.149 GC
2 setlinecap
1 LJ
0.667 LW
N
447 512 M
447 505.3 L
S
GR
GS
[0.75 0 0 0.75 0 0] CT
0.149 GC
2 setlinecap
1 LJ
0.667 LW
N
558.667 512 M
558.667 505.3 L
S
GR
GS
[0.75 0 0 0.75 0 0] CT
0.149 GC
2 setlinecap
1 LJ
0.667 LW
N
670.333 512 M
670.333 505.3 L
S
GR
GS
[0.75 0 0 0.75 0 0] CT
0.149 GC
2 setlinecap
1 LJ
0.667 LW
N
782 512 M
782 505.3 L
S
GR
GS
[0.75 0 0 0.75 0 0] CT
0.149 GC
2 setlinecap
1 LJ
0.667 LW
N
112 43 M
112 49.7 L
S
GR
GS
[0.75 0 0 0.75 0 0] CT
0.149 GC
2 setlinecap
1 LJ
0.667 LW
N
223.667 43 M
223.667 49.7 L
S
GR
GS
[0.75 0 0 0.75 0 0] CT
0.149 GC
2 setlinecap
1 LJ
0.667 LW
N
335.333 43 M
335.333 49.7 L
S
GR
GS
[0.75 0 0 0.75 0 0] CT
0.149 GC
2 setlinecap
1 LJ
0.667 LW
N
447 43 M
447 49.7 L
S
GR
GS
[0.75 0 0 0.75 0 0] CT
0.149 GC
2 setlinecap
1 LJ
0.667 LW
N
558.667 43 M
558.667 49.7 L
S
GR
GS
[0.75 0 0 0.75 0 0] CT
0.149 GC
2 setlinecap
1 LJ
0.667 LW
N
670.333 43 M
670.333 49.7 L
S
GR
GS
[0.75 0 0 0.75 0 0] CT
0.149 GC
2 setlinecap
1 LJ
0.667 LW
N
782 43 M
782 49.7 L
S
GR
GS
[0.75 0 0 0.75 84 389.19997] CT
0.149 GC
/Times-Roman 21.333 F
GS
[1 0 0 1 0 0] CT
-5.5 20 moveto 
1 -1 scale
(0) t 
GR
GR
GS
[0.75 0 0 0.75 167.75 389.19997] CT
0.149 GC
/Times-Roman 21.333 F
GS
[1 0 0 1 0 0] CT
-11 20 moveto 
1 -1 scale
(10) t 
GR
GR
GS
[0.75 0 0 0.75 251.50001 389.19997] CT
0.149 GC
/Times-Roman 21.333 F
GS
[1 0 0 1 0 0] CT
-11 20 moveto 
1 -1 scale
(20) t 
GR
GR
GS
[0.75 0 0 0.75 335.25 389.19997] CT
0.149 GC
/Times-Roman 21.333 F
GS
[1 0 0 1 0 0] CT
-11 20 moveto 
1 -1 scale
(30) t 
GR
GR
GS
[0.75 0 0 0.75 419.00002 389.19997] CT
0.149 GC
/Times-Roman 21.333 F
GS
[1 0 0 1 0 0] CT
-11 20 moveto 
1 -1 scale
(40) t 
GR
GR
GS
[0.75 0 0 0.75 502.74998 389.19997] CT
0.149 GC
/Times-Roman 21.333 F
GS
[1 0 0 1 0 0] CT
-11 20 moveto 
1 -1 scale
(50) t 
GR
GR
GS
[0.75 0 0 0.75 586.5 389.19997] CT
0.149 GC
/Times-Roman 21.333 F
GS
[1 0 0 1 0 0] CT
-11 20 moveto 
1 -1 scale
(60) t 
GR
GR
GS
[0.75 0 0 0.75 335.25023 408.95] CT
0.149 GC
N
-86.079 21.28 M
-86.079 20.405 L
-83.501 20.405 -83.501 19.608 QT
-83.501 5.874 L
-83.501 5.077 -86.079 5.077 QT
-86.079 4.202 L
-77.173 4.202 L
-75.814 4.202 -74.447 4.764 QT
-73.079 5.327 -72.197 6.397 QT
-71.314 7.467 -71.314 8.905 QT
-71.314 10.296 -72.204 11.342 QT
-73.095 12.389 -74.447 12.936 QT
-75.798 13.483 -77.173 13.483 QT
-81.189 13.483 L
-81.189 19.608 L
-81.189 20.405 -78.611 20.405 QT
-78.611 21.28 L
-86.079 21.28 L
cp
-81.251 12.733 M
-77.861 12.733 L
-76.486 12.733 -75.626 12.335 QT
-74.767 11.936 -74.376 11.1 QT
-73.986 10.264 -73.986 8.905 QT
-73.986 6.858 -74.876 5.967 QT
-75.767 5.077 -77.861 5.077 QT
-79.986 5.077 L
-80.439 5.077 -80.689 5.116 QT
-80.939 5.155 -81.095 5.335 QT
-81.251 5.514 -81.251 5.874 QT
-81.251 12.733 L
cp
f
GR
GS
[0.75 0 0 0.75 335.25023 408.95] CT
0.149 GC
N
-69.371 18.827 M
-69.371 17.342 -68.199 16.405 QT
-67.027 15.467 -65.386 15.085 QT
-63.746 14.702 -62.261 14.702 QT
-62.261 13.671 L
-62.261 12.952 -62.581 12.272 QT
-62.902 11.592 -63.496 11.163 QT
-64.089 10.733 -64.824 10.733 QT
-66.48 10.733 -67.339 11.483 QT
-66.871 11.483 -66.558 11.842 QT
-66.246 12.202 -66.246 12.671 QT
-66.246 13.171 -66.597 13.53 QT
-66.949 13.889 -67.433 13.889 QT
-67.949 13.889 -68.3 13.53 QT
-68.652 13.171 -68.652 12.671 QT
-68.652 11.358 -67.456 10.717 QT
-66.261 10.077 -64.824 10.077 QT
-63.808 10.077 -62.777 10.506 QT
-61.746 10.936 -61.097 11.741 QT
-60.449 12.546 -60.449 13.624 QT
-60.449 19.249 L
-60.449 19.749 -60.238 20.155 QT
-60.027 20.561 -59.589 20.561 QT
-59.183 20.561 -58.98 20.147 QT
-58.777 19.733 -58.777 19.249 QT
-58.777 17.655 L
-58.042 17.655 L
-58.042 19.249 L
-58.042 19.811 -58.331 20.319 QT
-58.621 20.827 -59.121 21.124 QT
-59.621 21.421 -60.183 21.421 QT
-60.917 21.421 -61.449 20.858 QT
-61.98 20.296 -62.042 19.514 QT
-62.511 20.452 -63.41 21.006 QT
-64.308 21.561 -65.339 21.561 QT
-66.292 21.561 -67.214 21.28 QT
-68.136 20.999 -68.753 20.397 QT
-69.371 19.796 -69.371 18.827 QT
cp
-67.339 18.827 M
-67.339 19.702 -66.691 20.303 QT
-66.042 20.905 -65.167 20.905 QT
-64.371 20.905 -63.706 20.499 QT
-63.042 20.092 -62.652 19.397 QT
-62.261 18.702 -62.261 17.936 QT
-62.261 15.342 L
-63.402 15.342 -64.589 15.71 QT
-65.777 16.077 -66.558 16.874 QT
-67.339 17.671 -67.339 18.827 QT
cp
f
GR
GS
[0.75 0 0 0.75 335.25023 408.95] CT
0.149 GC
N
-56.689 25.389 M
-56.204 25.764 -55.642 25.764 QT
-54.064 25.764 -53.064 23.374 QT
-52.204 21.28 L
-55.954 12.092 L
-56.189 11.639 -56.665 11.506 QT
-57.142 11.374 -57.939 11.374 QT
-57.939 10.499 L
-52.689 10.499 L
-52.689 11.374 L
-54.064 11.374 -54.064 11.983 QT
-54.064 12.077 -54.033 12.124 QT
-51.251 18.967 L
-48.751 12.811 L
-48.673 12.608 -48.673 12.374 QT
-48.673 12.077 -48.837 11.85 QT
-49.001 11.624 -49.267 11.499 QT
-49.533 11.374 -49.861 11.374 QT
-49.861 10.499 L
-45.704 10.499 L
-45.704 11.374 L
-46.486 11.374 -47.064 11.733 QT
-47.642 12.092 -47.954 12.78 QT
-52.283 23.374 L
-52.626 24.186 -53.079 24.866 QT
-53.533 25.546 -54.197 25.975 QT
-54.861 26.405 -55.642 26.405 QT
-56.548 26.405 -57.243 25.803 QT
-57.939 25.202 -57.939 24.311 QT
-57.939 23.842 -57.618 23.522 QT
-57.298 23.202 -56.829 23.202 QT
-56.517 23.202 -56.267 23.342 QT
-56.017 23.483 -55.876 23.733 QT
-55.736 23.983 -55.736 24.311 QT
-55.736 24.717 -56.001 25.03 QT
-56.267 25.342 -56.689 25.389 QT
cp
f
GR
GS
[0.75 0 0 0.75 335.25023 408.95] CT
0.149 GC
N
-44.287 21.28 M
-44.287 20.405 L
-43.443 20.405 -42.889 20.272 QT
-42.334 20.139 -42.334 19.608 QT
-42.334 12.78 L
-42.334 12.108 -42.537 11.811 QT
-42.74 11.514 -43.123 11.444 QT
-43.506 11.374 -44.287 11.374 QT
-44.287 10.499 L
-40.662 10.233 L
-40.662 12.671 L
-40.162 11.592 -39.178 10.913 QT
-38.193 10.233 -37.037 10.233 QT
-34.162 10.233 -33.662 12.577 QT
-33.162 11.53 -32.193 10.881 QT
-31.225 10.233 -30.084 10.233 QT
-28.943 10.233 -28.17 10.6 QT
-27.396 10.967 -27.006 11.717 QT
-26.615 12.467 -26.615 13.608 QT
-26.615 19.608 L
-26.615 20.139 -26.061 20.272 QT
-25.506 20.405 -24.662 20.405 QT
-24.662 21.28 L
-30.381 21.28 L
-30.381 20.405 L
-29.537 20.405 -28.982 20.272 QT
-28.428 20.139 -28.428 19.608 QT
-28.428 13.671 L
-28.428 12.421 -28.787 11.647 QT
-29.146 10.874 -30.24 10.874 QT
-31.678 10.874 -32.623 12.038 QT
-33.568 13.202 -33.568 14.671 QT
-33.568 19.608 L
-33.568 20.139 -33.014 20.272 QT
-32.459 20.405 -31.615 20.405 QT
-31.615 21.28 L
-37.334 21.28 L
-37.334 20.405 L
-36.475 20.405 -35.928 20.272 QT
-35.381 20.139 -35.381 19.608 QT
-35.381 13.671 L
-35.381 12.452 -35.732 11.663 QT
-36.084 10.874 -37.193 10.874 QT
-38.646 10.874 -39.576 12.038 QT
-40.506 13.202 -40.506 14.671 QT
-40.506 19.608 L
-40.506 20.139 -39.959 20.272 QT
-39.412 20.405 -38.568 20.405 QT
-38.568 21.28 L
-44.287 21.28 L
cp
f
GR
GS
[0.75 0 0 0.75 335.25023 408.95] CT
0.149 GC
N
-17.707 21.561 M
-19.223 21.561 -20.496 20.764 QT
-21.77 19.967 -22.496 18.631 QT
-23.223 17.296 -23.223 15.796 QT
-23.223 14.327 -22.559 13.014 QT
-21.895 11.702 -20.707 10.889 QT
-19.52 10.077 -18.051 10.077 QT
-16.91 10.077 -16.059 10.46 QT
-15.207 10.842 -14.66 11.53 QT
-14.113 12.217 -13.832 13.139 QT
-13.551 14.061 -13.551 15.171 QT
-13.551 15.499 -13.801 15.499 QT
-21.051 15.499 L
-21.051 15.78 L
-21.051 17.842 -20.215 19.335 QT
-19.379 20.827 -17.473 20.827 QT
-16.707 20.827 -16.059 20.483 QT
-15.41 20.139 -14.926 19.53 QT
-14.442 18.921 -14.27 18.233 QT
-14.238 18.139 -14.176 18.077 QT
-14.113 18.014 -14.02 18.014 QT
-13.801 18.014 L
-13.551 18.014 -13.551 18.327 QT
-13.91 19.749 -15.082 20.655 QT
-16.254 21.561 -17.707 21.561 QT
cp
-21.02 14.889 M
-15.317 14.889 L
-15.317 13.936 -15.582 12.975 QT
-15.848 12.014 -16.457 11.374 QT
-17.067 10.733 -18.051 10.733 QT
-19.473 10.733 -20.246 12.061 QT
-21.02 13.389 -21.02 14.889 QT
cp
f
GR
GS
[0.75 0 0 0.75 335.25023 408.95] CT
0.149 GC
N
-11.917 21.28 M
-11.917 20.405 L
-11.073 20.405 -10.518 20.272 QT
-9.964 20.139 -9.964 19.608 QT
-9.964 12.78 L
-9.964 12.108 -10.167 11.811 QT
-10.37 11.514 -10.753 11.444 QT
-11.135 11.374 -11.917 11.374 QT
-11.917 10.499 L
-8.292 10.233 L
-8.292 12.671 L
-7.792 11.592 -6.807 10.913 QT
-5.823 10.233 -4.667 10.233 QT
-2.932 10.233 -2.065 11.061 QT
-1.198 11.889 -1.198 13.608 QT
-1.198 19.608 L
-1.198 20.139 -0.643 20.272 QT
-0.089 20.405 0.755 20.405 QT
0.755 21.28 L
-4.964 21.28 L
-4.964 20.405 L
-4.104 20.405 -3.557 20.272 QT
-3.01 20.139 -3.01 19.608 QT
-3.01 13.671 L
-3.01 12.452 -3.362 11.663 QT
-3.714 10.874 -4.823 10.874 QT
-6.276 10.874 -7.206 12.038 QT
-8.135 13.202 -8.135 14.671 QT
-8.135 19.608 L
-8.135 20.139 -7.589 20.272 QT
-7.042 20.405 -6.198 20.405 QT
-6.198 21.28 L
-11.917 21.28 L
cp
f
GR
GS
[0.75 0 0 0.75 335.25023 408.95] CT
0.149 GC
N
3.251 18.28 M
3.251 11.374 L
1.172 11.374 L
1.172 10.733 L
2.813 10.733 3.587 9.21 QT
4.36 7.686 4.36 5.905 QT
5.079 5.905 L
5.079 10.499 L
8.594 10.499 L
8.594 11.374 L
5.079 11.374 L
5.079 18.233 L
5.079 19.264 5.422 20.046 QT
5.766 20.827 6.672 20.827 QT
7.532 20.827 7.907 20.006 QT
8.282 19.186 8.282 18.233 QT
8.282 16.749 L
9.001 16.749 L
9.001 18.28 L
9.001 19.061 8.719 19.819 QT
8.438 20.577 7.876 21.069 QT
7.313 21.561 6.501 21.561 QT
5.001 21.561 4.126 20.663 QT
3.251 19.764 3.251 18.28 QT
cp
f
GR
GS
[0.75 0 0 0.75 335.25023 408.95] CT
0.149 GC
N
21.953 27.53 M
21.953 2.53 L
25.375 2.53 L
25.375 3.53 L
22.953 3.53 L
22.953 26.53 L
25.375 26.53 L
25.375 27.53 L
21.953 27.53 L
cp
f
GR
GS
[0.75 0 0 0.75 335.25023 408.95] CT
0.149 GC
N
31.74 18.608 M
32.6 19.686 33.881 20.319 QT
35.162 20.952 36.537 20.952 QT
37.693 20.952 38.686 20.491 QT
39.678 20.03 40.412 19.217 QT
41.146 18.405 41.545 17.366 QT
41.943 16.327 41.943 15.171 QT
41.943 14.983 42.162 14.983 QT
42.475 14.983 L
42.662 14.983 42.662 15.217 QT
42.662 16.53 42.162 17.749 QT
41.662 18.967 40.748 19.889 QT
39.834 20.811 38.639 21.319 QT
37.443 21.827 36.162 21.827 QT
34.365 21.827 32.756 21.1 QT
31.146 20.374 29.959 19.108 QT
28.771 17.842 28.107 16.186 QT
27.443 14.53 27.443 12.733 QT
27.443 10.936 28.107 9.28 QT
28.771 7.624 29.959 6.35 QT
31.146 5.077 32.756 4.366 QT
34.365 3.655 36.162 3.655 QT
37.443 3.655 38.615 4.21 QT
39.787 4.764 40.662 5.78 QT
42.115 3.733 L
42.256 3.655 42.287 3.655 QT
42.475 3.655 L
42.537 3.655 42.6 3.717 QT
42.662 3.78 42.662 3.858 QT
42.662 10.608 L
42.662 10.827 42.475 10.827 QT
42.021 10.827 L
41.787 10.827 41.787 10.608 QT
41.787 9.889 41.498 8.999 QT
41.209 8.108 40.764 7.311 QT
40.318 6.514 39.74 5.905 QT
38.334 4.53 36.506 4.53 QT
35.131 4.53 33.865 5.155 QT
32.6 5.78 31.74 6.874 QT
30.818 8.046 30.467 9.546 QT
30.115 11.046 30.115 12.733 QT
30.115 14.436 30.467 15.936 QT
30.818 17.436 31.74 18.608 QT
cp
f
GR
GS
[0.75 0 0 0.75 335.25023 408.95] CT
0.149 GC
N
45.099 21.28 M
45.099 20.405 L
47.677 20.405 47.677 19.608 QT
47.677 5.874 L
47.677 5.077 45.099 5.077 QT
45.099 4.202 L
52.583 4.202 L
52.583 5.077 L
50.005 5.077 50.005 5.874 QT
50.005 11.952 L
57.38 11.952 L
57.38 5.874 L
57.38 5.077 54.802 5.077 QT
54.802 4.202 L
62.271 4.202 L
62.271 5.077 L
59.708 5.077 59.708 5.874 QT
59.708 19.608 L
59.708 20.405 62.271 20.405 QT
62.271 21.28 L
54.802 21.28 L
54.802 20.405 L
57.38 20.405 57.38 19.608 QT
57.38 12.827 L
50.005 12.827 L
50.005 19.608 L
50.005 20.405 52.583 20.405 QT
52.583 21.28 L
45.099 21.28 L
cp
f
GR
GS
[0.75 0 0 0.75 335.25023 408.95] CT
0.149 GC
N
64.099 21.28 M
64.099 20.405 L
66.677 20.405 66.677 19.608 QT
66.677 5.874 L
66.677 5.077 64.099 5.077 QT
64.099 4.202 L
77.88 4.202 L
78.583 9.921 L
77.865 9.921 L
77.693 8.358 77.404 7.444 QT
77.115 6.53 76.568 6.014 QT
76.021 5.499 75.099 5.288 QT
74.177 5.077 72.568 5.077 QT
70.287 5.077 L
69.833 5.077 69.583 5.116 QT
69.333 5.155 69.169 5.335 QT
69.005 5.514 69.005 5.874 QT
69.005 12.311 L
70.787 12.311 L
72.068 12.311 72.662 12.085 QT
73.255 11.858 73.482 11.256 QT
73.708 10.655 73.708 9.374 QT
74.427 9.374 L
74.427 16.108 L
73.708 16.108 L
73.708 14.827 73.482 14.225 QT
73.255 13.624 72.662 13.397 QT
72.068 13.171 70.787 13.171 QT
69.005 13.171 L
69.005 19.608 L
69.005 20.405 72.208 20.405 QT
72.208 21.28 L
64.099 21.28 L
cp
f
GR
GS
[0.75 0 0 0.75 335.25023 408.95] CT
0.149 GC
N
80.417 27.53 M
80.417 26.53 L
82.855 26.53 L
82.855 3.53 L
80.417 3.53 L
80.417 2.53 L
83.855 2.53 L
83.855 27.53 L
80.417 27.53 L
cp
f
GR
GS
[0.75 0 0 0.75 0 0] CT
2 setlinecap
1 LJ
0.667 LW
N
112 512 M
112 43 L
S
GR
GS
[0.75 0 0 0.75 0 0] CT
2 setlinecap
1 LJ
0.667 LW
N
782 512 M
782 43 L
S
GR
GS
[0.75 0 0 0.75 0 0] CT
2 setlinecap
1 LJ
0.667 LW
N
112 512 M
118.7 512 L
S
GR
GS
[0.75 0 0 0.75 0 0] CT
2 setlinecap
1 LJ
0.667 LW
N
112 418.2 M
118.7 418.2 L
S
GR
GS
[0.75 0 0 0.75 0 0] CT
2 setlinecap
1 LJ
0.667 LW
N
112 324.4 M
118.7 324.4 L
S
GR
GS
[0.75 0 0 0.75 0 0] CT
2 setlinecap
1 LJ
0.667 LW
N
112 230.6 M
118.7 230.6 L
S
GR
GS
[0.75 0 0 0.75 0 0] CT
2 setlinecap
1 LJ
0.667 LW
N
112 136.8 M
118.7 136.8 L
S
GR
GS
[0.75 0 0 0.75 0 0] CT
2 setlinecap
1 LJ
0.667 LW
N
112 43 M
118.7 43 L
S
GR
GS
[0.75 0 0 0.75 0 0] CT
2 setlinecap
1 LJ
0.667 LW
N
782 512 M
775.3 512 L
S
GR
GS
[0.75 0 0 0.75 0 0] CT
2 setlinecap
1 LJ
0.667 LW
N
782 418.2 M
775.3 418.2 L
S
GR
GS
[0.75 0 0 0.75 0 0] CT
2 setlinecap
1 LJ
0.667 LW
N
782 324.4 M
775.3 324.4 L
S
GR
GS
[0.75 0 0 0.75 0 0] CT
2 setlinecap
1 LJ
0.667 LW
N
782 230.6 M
775.3 230.6 L
S
GR
GS
[0.75 0 0 0.75 0 0] CT
2 setlinecap
1 LJ
0.667 LW
N
782 136.8 M
775.3 136.8 L
S
GR
GS
[0.75 0 0 0.75 0 0] CT
2 setlinecap
1 LJ
0.667 LW
N
782 43 M
775.3 43 L
S
GR
GS
[0.75 0 0 0.75 78.8 384] CT
/Times-Roman 21.333 F
GS
[1 0 0 1 0 0] CT
-22 7.5 moveto 
1 -1 scale
(35) t 
GR
GR
GS
[0.75 0 0 0.75 78.8 313.65001] CT
/Times-Roman 21.333 F
GS
[1 0 0 1 0 0] CT
-22 7.5 moveto 
1 -1 scale
(40) t 
GR
GR
GS
[0.75 0 0 0.75 78.8 243.3] CT
/Times-Roman 21.333 F
GS
[1 0 0 1 0 0] CT
-22 7.5 moveto 
1 -1 scale
(45) t 
GR
GR
GS
[0.75 0 0 0.75 78.8 172.95] CT
/Times-Roman 21.333 F
GS
[1 0 0 1 0 0] CT
-22 7.5 moveto 
1 -1 scale
(50) t 
GR
GR
GS
[0.75 0 0 0.75 78.8 102.6] CT
/Times-Roman 21.333 F
GS
[1 0 0 1 0 0] CT
-22 7.5 moveto 
1 -1 scale
(55) t 
GR
GR
GS
[0.75 0 0 0.75 78.8 32.25] CT
/Times-Roman 21.333 F
GS
[1 0 0 1 0 0] CT
-22 7.5 moveto 
1 -1 scale
(60) t 
GR
GR
GS
[0 -0.75 0.75 0 59.3 208.12484] CT
N
-136.839 -9.12 M
-136.839 -9.995 L
-135.573 -9.995 -134.394 -10.136 QT
-133.214 -10.276 -133.214 -10.792 QT
-133.214 -24.526 L
-133.214 -25.058 -133.511 -25.19 QT
-133.808 -25.323 -134.48 -25.323 QT
-135.526 -25.323 L
-137.589 -25.323 -138.464 -24.417 QT
-138.901 -23.964 -139.097 -22.972 QT
-139.292 -21.979 -139.433 -20.479 QT
-140.151 -20.479 L
-139.683 -26.198 L
-124.401 -26.198 L
-123.933 -20.479 L
-124.667 -20.479 L
-124.808 -22.089 -124.987 -23.034 QT
-125.167 -23.979 -125.62 -24.417 QT
-126.511 -25.323 -128.558 -25.323 QT
-129.605 -25.323 L
-130.058 -25.323 -130.308 -25.284 QT
-130.558 -25.245 -130.714 -25.065 QT
-130.87 -24.886 -130.87 -24.526 QT
-130.87 -10.792 L
-130.87 -10.276 -129.69 -10.136 QT
-128.511 -9.995 -127.261 -9.995 QT
-127.261 -9.12 L
-136.839 -9.12 L
cp
f
GR
GS
[0 -0.75 0.75 0 59.3 208.12484] CT
N
-118.622 -8.839 M
-120.122 -8.839 -121.404 -9.604 QT
-122.685 -10.37 -123.427 -11.651 QT
-124.169 -12.933 -124.169 -14.448 QT
-124.169 -15.589 -123.763 -16.651 QT
-123.357 -17.714 -122.591 -18.55 QT
-121.826 -19.386 -120.818 -19.854 QT
-119.81 -20.323 -118.622 -20.323 QT
-117.091 -20.323 -115.826 -19.511 QT
-114.56 -18.698 -113.826 -17.339 QT
-113.091 -15.979 -113.091 -14.448 QT
-113.091 -12.948 -113.833 -11.659 QT
-114.576 -10.37 -115.857 -9.604 QT
-117.138 -8.839 -118.622 -8.839 QT
cp
-118.622 -9.573 M
-116.622 -9.573 -115.951 -11.026 QT
-115.279 -12.479 -115.279 -14.729 QT
-115.279 -15.979 -115.412 -16.808 QT
-115.544 -17.636 -115.997 -18.308 QT
-116.279 -18.714 -116.708 -19.026 QT
-117.138 -19.339 -117.622 -19.503 QT
-118.107 -19.667 -118.622 -19.667 QT
-119.404 -19.667 -120.107 -19.315 QT
-120.81 -18.964 -121.279 -18.308 QT
-121.732 -17.589 -121.865 -16.745 QT
-121.997 -15.901 -121.997 -14.729 QT
-121.997 -13.323 -121.747 -12.206 QT
-121.497 -11.089 -120.763 -10.331 QT
-120.029 -9.573 -118.622 -9.573 QT
cp
f
GR
GS
[0 -0.75 0.75 0 59.3 208.12484] CT
N
-109.659 -12.12 M
-109.659 -19.026 L
-111.737 -19.026 L
-111.737 -19.667 L
-110.096 -19.667 -109.323 -21.19 QT
-108.55 -22.714 -108.55 -24.495 QT
-107.831 -24.495 L
-107.831 -19.901 L
-104.315 -19.901 L
-104.315 -19.026 L
-107.831 -19.026 L
-107.831 -12.167 L
-107.831 -11.136 -107.487 -10.354 QT
-107.143 -9.573 -106.237 -9.573 QT
-105.378 -9.573 -105.003 -10.394 QT
-104.628 -11.214 -104.628 -12.167 QT
-104.628 -13.651 L
-103.909 -13.651 L
-103.909 -12.12 L
-103.909 -11.339 -104.19 -10.581 QT
-104.471 -9.823 -105.034 -9.331 QT
-105.596 -8.839 -106.409 -8.839 QT
-107.909 -8.839 -108.784 -9.737 QT
-109.659 -10.636 -109.659 -12.12 QT
cp
f
GR
GS
[0 -0.75 0.75 0 59.3 208.12484] CT
N
-101.354 -11.573 M
-101.354 -13.058 -100.182 -13.995 QT
-99.01 -14.933 -97.37 -15.315 QT
-95.729 -15.698 -94.245 -15.698 QT
-94.245 -16.729 L
-94.245 -17.448 -94.565 -18.128 QT
-94.885 -18.808 -95.479 -19.237 QT
-96.073 -19.667 -96.807 -19.667 QT
-98.463 -19.667 -99.323 -18.917 QT
-98.854 -18.917 -98.541 -18.558 QT
-98.229 -18.198 -98.229 -17.729 QT
-98.229 -17.229 -98.58 -16.87 QT
-98.932 -16.511 -99.416 -16.511 QT
-99.932 -16.511 -100.284 -16.87 QT
-100.635 -17.229 -100.635 -17.729 QT
-100.635 -19.042 -99.44 -19.683 QT
-98.245 -20.323 -96.807 -20.323 QT
-95.791 -20.323 -94.76 -19.894 QT
-93.729 -19.464 -93.08 -18.659 QT
-92.432 -17.854 -92.432 -16.776 QT
-92.432 -11.151 L
-92.432 -10.651 -92.221 -10.245 QT
-92.01 -9.839 -91.573 -9.839 QT
-91.166 -9.839 -90.963 -10.253 QT
-90.76 -10.667 -90.76 -11.151 QT
-90.76 -12.745 L
-90.026 -12.745 L
-90.026 -11.151 L
-90.026 -10.589 -90.315 -10.081 QT
-90.604 -9.573 -91.104 -9.276 QT
-91.604 -8.979 -92.166 -8.979 QT
-92.901 -8.979 -93.432 -9.542 QT
-93.963 -10.104 -94.026 -10.886 QT
-94.495 -9.948 -95.393 -9.394 QT
-96.291 -8.839 -97.323 -8.839 QT
-98.276 -8.839 -99.198 -9.12 QT
-100.12 -9.401 -100.737 -10.003 QT
-101.354 -10.604 -101.354 -11.573 QT
cp
-99.323 -11.573 M
-99.323 -10.698 -98.674 -10.097 QT
-98.026 -9.495 -97.151 -9.495 QT
-96.354 -9.495 -95.69 -9.901 QT
-95.026 -10.308 -94.635 -11.003 QT
-94.245 -11.698 -94.245 -12.464 QT
-94.245 -15.058 L
-95.385 -15.058 -96.573 -14.69 QT
-97.76 -14.323 -98.541 -13.526 QT
-99.323 -12.729 -99.323 -11.573 QT
cp
f
GR
GS
[0 -0.75 0.75 0 59.3 208.12484] CT
N
-88.922 -9.12 M
-88.922 -9.995 L
-88.062 -9.995 -87.515 -10.128 QT
-86.968 -10.261 -86.968 -10.792 QT
-86.968 -23.917 L
-86.968 -24.589 -87.172 -24.886 QT
-87.375 -25.183 -87.75 -25.253 QT
-88.125 -25.323 -88.922 -25.323 QT
-88.922 -26.198 L
-85.203 -26.464 L
-85.203 -10.792 L
-85.203 -10.261 -84.656 -10.128 QT
-84.109 -9.995 -83.265 -9.995 QT
-83.265 -9.12 L
-88.922 -9.12 L
cp
f
GR
GS
[0 -0.75 0.75 0 59.3 208.12484] CT
N
-72.799 -8.761 M
-72.799 -14.604 L
-72.799 -14.792 -72.581 -14.792 QT
-72.284 -14.792 L
-72.206 -14.792 -72.143 -14.729 QT
-72.081 -14.667 -72.081 -14.604 QT
-72.081 -12.151 -70.565 -10.8 QT
-69.049 -9.448 -66.581 -9.448 QT
-65.706 -9.448 -64.971 -9.948 QT
-64.237 -10.448 -63.831 -11.261 QT
-63.424 -12.073 -63.424 -12.948 QT
-63.424 -13.698 -63.729 -14.409 QT
-64.034 -15.12 -64.612 -15.651 QT
-65.19 -16.183 -65.909 -16.354 QT
-69.159 -17.136 L
-70.768 -17.573 -71.784 -18.894 QT
-72.799 -20.214 -72.799 -21.87 QT
-72.799 -23.151 -72.143 -24.292 QT
-71.487 -25.433 -70.37 -26.089 QT
-69.253 -26.745 -67.956 -26.745 QT
-65.456 -26.745 -63.971 -25.058 QT
-62.956 -26.667 L
-62.878 -26.745 -62.784 -26.745 QT
-62.612 -26.745 L
-62.534 -26.745 -62.471 -26.69 QT
-62.409 -26.636 -62.409 -26.542 QT
-62.409 -20.745 L
-62.409 -20.526 -62.612 -20.526 QT
-62.909 -20.526 L
-63.128 -20.526 -63.128 -20.745 QT
-63.128 -21.37 -63.346 -22.128 QT
-63.565 -22.886 -63.94 -23.581 QT
-64.315 -24.276 -64.753 -24.714 QT
-65.971 -25.948 -67.956 -25.948 QT
-68.815 -25.948 -69.534 -25.511 QT
-70.253 -25.073 -70.682 -24.331 QT
-71.112 -23.589 -71.112 -22.761 QT
-71.112 -21.698 -70.44 -20.823 QT
-69.768 -19.948 -68.706 -19.667 QT
-65.456 -18.87 L
-64.643 -18.683 -63.932 -18.175 QT
-63.221 -17.667 -62.745 -16.995 QT
-62.268 -16.323 -62.003 -15.495 QT
-61.737 -14.667 -61.737 -13.792 QT
-61.737 -12.448 -62.354 -11.245 QT
-62.971 -10.042 -64.104 -9.308 QT
-65.237 -8.573 -66.581 -8.573 QT
-67.409 -8.573 -68.276 -8.753 QT
-69.143 -8.933 -69.878 -9.315 QT
-70.612 -9.698 -71.206 -10.292 QT
-72.253 -8.651 L
-72.331 -8.573 -72.44 -8.573 QT
-72.581 -8.573 L
-72.799 -8.573 -72.799 -8.761 QT
cp
f
GR
GS
[0 -0.75 0.75 0 59.3 208.12484] CT
N
-58.413 -5.011 M
-57.928 -4.636 -57.366 -4.636 QT
-55.788 -4.636 -54.788 -7.026 QT
-53.928 -9.12 L
-57.678 -18.308 L
-57.913 -18.761 -58.389 -18.894 QT
-58.866 -19.026 -59.663 -19.026 QT
-59.663 -19.901 L
-54.413 -19.901 L
-54.413 -19.026 L
-55.788 -19.026 -55.788 -18.417 QT
-55.788 -18.323 -55.757 -18.276 QT
-52.975 -11.433 L
-50.475 -17.589 L
-50.397 -17.792 -50.397 -18.026 QT
-50.397 -18.323 -50.561 -18.55 QT
-50.725 -18.776 -50.991 -18.901 QT
-51.257 -19.026 -51.585 -19.026 QT
-51.585 -19.901 L
-47.428 -19.901 L
-47.428 -19.026 L
-48.21 -19.026 -48.788 -18.667 QT
-49.366 -18.308 -49.678 -17.62 QT
-54.007 -7.026 L
-54.35 -6.214 -54.803 -5.534 QT
-55.257 -4.854 -55.921 -4.425 QT
-56.585 -3.995 -57.366 -3.995 QT
-58.272 -3.995 -58.968 -4.597 QT
-59.663 -5.198 -59.663 -6.089 QT
-59.663 -6.558 -59.343 -6.878 QT
-59.022 -7.198 -58.553 -7.198 QT
-58.241 -7.198 -57.991 -7.058 QT
-57.741 -6.917 -57.6 -6.667 QT
-57.46 -6.417 -57.46 -6.089 QT
-57.46 -5.683 -57.725 -5.37 QT
-57.991 -5.058 -58.413 -5.011 QT
cp
f
GR
GS
[0 -0.75 0.75 0 59.3 208.12484] CT
N
-45.933 -9.042 M
-45.933 -13.12 L
-45.933 -13.323 -45.714 -13.323 QT
-45.402 -13.323 L
-45.261 -13.323 -45.214 -13.12 QT
-44.511 -9.495 -41.839 -9.495 QT
-40.652 -9.495 -39.855 -10.034 QT
-39.058 -10.573 -39.058 -11.698 QT
-39.058 -12.495 -39.683 -13.065 QT
-40.308 -13.636 -41.152 -13.839 QT
-42.824 -14.167 L
-43.667 -14.354 -44.363 -14.737 QT
-45.058 -15.12 -45.496 -15.745 QT
-45.933 -16.37 -45.933 -17.198 QT
-45.933 -18.308 -45.355 -19.003 QT
-44.777 -19.698 -43.847 -20.011 QT
-42.917 -20.323 -41.839 -20.323 QT
-40.558 -20.323 -39.605 -19.636 QT
-38.886 -20.261 L
-38.886 -20.323 -38.761 -20.323 QT
-38.589 -20.323 L
-38.511 -20.323 -38.449 -20.261 QT
-38.386 -20.198 -38.386 -20.12 QT
-38.386 -16.854 L
-38.386 -16.62 -38.589 -16.62 QT
-38.886 -16.62 L
-39.105 -16.62 -39.105 -16.854 QT
-39.105 -18.151 -39.831 -18.948 QT
-40.558 -19.745 -41.871 -19.745 QT
-42.996 -19.745 -43.816 -19.331 QT
-44.636 -18.917 -44.636 -17.901 QT
-44.636 -17.198 -44.042 -16.753 QT
-43.449 -16.308 -42.652 -16.12 QT
-40.964 -15.792 L
-40.105 -15.604 -39.371 -15.136 QT
-38.636 -14.667 -38.199 -13.964 QT
-37.761 -13.261 -37.761 -12.37 QT
-37.761 -11.464 -38.074 -10.8 QT
-38.386 -10.136 -38.941 -9.698 QT
-39.496 -9.261 -40.253 -9.05 QT
-41.011 -8.839 -41.839 -8.839 QT
-43.402 -8.839 -44.511 -9.886 QT
-45.433 -8.901 L
-45.433 -8.839 -45.558 -8.839 QT
-45.714 -8.839 L
-45.933 -8.839 -45.933 -9.042 QT
cp
f
GR
GS
[0 -0.75 0.75 0 59.3 208.12484] CT
N
-34.222 -12.12 M
-34.222 -19.026 L
-36.3 -19.026 L
-36.3 -19.667 L
-34.659 -19.667 -33.886 -21.19 QT
-33.112 -22.714 -33.112 -24.495 QT
-32.394 -24.495 L
-32.394 -19.901 L
-28.878 -19.901 L
-28.878 -19.026 L
-32.394 -19.026 L
-32.394 -12.167 L
-32.394 -11.136 -32.05 -10.354 QT
-31.706 -9.573 -30.8 -9.573 QT
-29.94 -9.573 -29.565 -10.394 QT
-29.19 -11.214 -29.19 -12.167 QT
-29.19 -13.651 L
-28.472 -13.651 L
-28.472 -12.12 L
-28.472 -11.339 -28.753 -10.581 QT
-29.034 -9.823 -29.597 -9.331 QT
-30.159 -8.839 -30.972 -8.839 QT
-32.472 -8.839 -33.347 -9.737 QT
-34.222 -10.636 -34.222 -12.12 QT
cp
f
GR
GS
[0 -0.75 0.75 0 59.3 208.12484] CT
N
-20.698 -8.839 M
-22.214 -8.839 -23.487 -9.636 QT
-24.76 -10.433 -25.487 -11.769 QT
-26.214 -13.104 -26.214 -14.604 QT
-26.214 -16.073 -25.549 -17.386 QT
-24.885 -18.698 -23.698 -19.511 QT
-22.51 -20.323 -21.042 -20.323 QT
-19.901 -20.323 -19.049 -19.94 QT
-18.198 -19.558 -17.651 -18.87 QT
-17.104 -18.183 -16.823 -17.261 QT
-16.542 -16.339 -16.542 -15.229 QT
-16.542 -14.901 -16.792 -14.901 QT
-24.042 -14.901 L
-24.042 -14.62 L
-24.042 -12.558 -23.206 -11.065 QT
-22.37 -9.573 -20.464 -9.573 QT
-19.698 -9.573 -19.049 -9.917 QT
-18.401 -10.261 -17.917 -10.87 QT
-17.432 -11.479 -17.26 -12.167 QT
-17.229 -12.261 -17.167 -12.323 QT
-17.104 -12.386 -17.01 -12.386 QT
-16.792 -12.386 L
-16.542 -12.386 -16.542 -12.073 QT
-16.901 -10.651 -18.073 -9.745 QT
-19.245 -8.839 -20.698 -8.839 QT
cp
-24.01 -15.511 M
-18.307 -15.511 L
-18.307 -16.464 -18.573 -17.425 QT
-18.839 -18.386 -19.448 -19.026 QT
-20.057 -19.667 -21.042 -19.667 QT
-22.464 -19.667 -23.237 -18.339 QT
-24.01 -17.011 -24.01 -15.511 QT
cp
f
GR
GS
[0 -0.75 0.75 0 59.3 208.12484] CT
N
-14.907 -9.12 M
-14.907 -9.995 L
-14.064 -9.995 -13.509 -10.128 QT
-12.954 -10.261 -12.954 -10.792 QT
-12.954 -17.62 L
-12.954 -18.292 -13.157 -18.589 QT
-13.361 -18.886 -13.743 -18.956 QT
-14.126 -19.026 -14.907 -19.026 QT
-14.907 -19.901 L
-11.282 -20.167 L
-11.282 -17.729 L
-10.782 -18.808 -9.798 -19.487 QT
-8.814 -20.167 -7.657 -20.167 QT
-4.782 -20.167 -4.282 -17.823 QT
-3.782 -18.87 -2.814 -19.519 QT
-1.845 -20.167 -0.704 -20.167 QT
0.436 -20.167 1.21 -19.8 QT
1.983 -19.433 2.374 -18.683 QT
2.764 -17.933 2.764 -16.792 QT
2.764 -10.792 L
2.764 -10.261 3.319 -10.128 QT
3.874 -9.995 4.718 -9.995 QT
4.718 -9.12 L
-1.001 -9.12 L
-1.001 -9.995 L
-0.157 -9.995 0.397 -10.128 QT
0.952 -10.261 0.952 -10.792 QT
0.952 -16.729 L
0.952 -17.979 0.593 -18.753 QT
0.233 -19.526 -0.861 -19.526 QT
-2.298 -19.526 -3.243 -18.362 QT
-4.189 -17.198 -4.189 -15.729 QT
-4.189 -10.792 L
-4.189 -10.261 -3.634 -10.128 QT
-3.079 -9.995 -2.236 -9.995 QT
-2.236 -9.12 L
-7.954 -9.12 L
-7.954 -9.995 L
-7.095 -9.995 -6.548 -10.128 QT
-6.001 -10.261 -6.001 -10.792 QT
-6.001 -16.729 L
-6.001 -17.948 -6.353 -18.737 QT
-6.704 -19.526 -7.814 -19.526 QT
-9.267 -19.526 -10.196 -18.362 QT
-11.126 -17.198 -11.126 -15.729 QT
-11.126 -10.792 L
-11.126 -10.261 -10.579 -10.128 QT
-10.032 -9.995 -9.189 -9.995 QT
-9.189 -9.12 L
-14.907 -9.12 L
cp
f
GR
GS
[0 -0.75 0.75 0 59.3 208.12484] CT
N
19.601 -11.792 M
20.461 -10.714 21.742 -10.081 QT
23.023 -9.448 24.398 -9.448 QT
25.554 -9.448 26.547 -9.909 QT
27.539 -10.37 28.273 -11.183 QT
29.008 -11.995 29.406 -13.034 QT
29.804 -14.073 29.804 -15.229 QT
29.804 -15.417 30.023 -15.417 QT
30.336 -15.417 L
30.523 -15.417 30.523 -15.183 QT
30.523 -13.87 30.023 -12.651 QT
29.523 -11.433 28.609 -10.511 QT
27.695 -9.589 26.5 -9.081 QT
25.304 -8.573 24.023 -8.573 QT
22.226 -8.573 20.617 -9.3 QT
19.008 -10.026 17.82 -11.292 QT
16.633 -12.558 15.969 -14.214 QT
15.304 -15.87 15.304 -17.667 QT
15.304 -19.464 15.969 -21.12 QT
16.633 -22.776 17.82 -24.05 QT
19.008 -25.323 20.617 -26.034 QT
22.226 -26.745 24.023 -26.745 QT
25.304 -26.745 26.476 -26.19 QT
27.648 -25.636 28.523 -24.62 QT
29.976 -26.667 L
30.117 -26.745 30.148 -26.745 QT
30.336 -26.745 L
30.398 -26.745 30.461 -26.683 QT
30.523 -26.62 30.523 -26.542 QT
30.523 -19.792 L
30.523 -19.573 30.336 -19.573 QT
29.883 -19.573 L
29.648 -19.573 29.648 -19.792 QT
29.648 -20.511 29.359 -21.401 QT
29.07 -22.292 28.625 -23.089 QT
28.179 -23.886 27.601 -24.495 QT
26.195 -25.87 24.367 -25.87 QT
22.992 -25.87 21.726 -25.245 QT
20.461 -24.62 19.601 -23.526 QT
18.679 -22.354 18.328 -20.854 QT
17.976 -19.354 17.976 -17.667 QT
17.976 -15.964 18.328 -14.464 QT
18.679 -12.964 19.601 -11.792 QT
cp
f
GR
GS
[0 -0.75 0.75 0 59.3 208.12484] CT
N
38.445 -8.839 M
36.945 -8.839 35.663 -9.604 QT
34.382 -10.37 33.64 -11.651 QT
32.898 -12.933 32.898 -14.448 QT
32.898 -15.589 33.304 -16.651 QT
33.71 -17.714 34.476 -18.55 QT
35.241 -19.386 36.249 -19.854 QT
37.257 -20.323 38.445 -20.323 QT
39.976 -20.323 41.241 -19.511 QT
42.507 -18.698 43.241 -17.339 QT
43.976 -15.979 43.976 -14.448 QT
43.976 -12.948 43.234 -11.659 QT
42.491 -10.37 41.21 -9.604 QT
39.929 -8.839 38.445 -8.839 QT
cp
38.445 -9.573 M
40.445 -9.573 41.116 -11.026 QT
41.788 -12.479 41.788 -14.729 QT
41.788 -15.979 41.655 -16.808 QT
41.523 -17.636 41.07 -18.308 QT
40.788 -18.714 40.359 -19.026 QT
39.929 -19.339 39.445 -19.503 QT
38.96 -19.667 38.445 -19.667 QT
37.663 -19.667 36.96 -19.315 QT
36.257 -18.964 35.788 -18.308 QT
35.335 -17.589 35.202 -16.745 QT
35.07 -15.901 35.07 -14.729 QT
35.07 -13.323 35.32 -12.206 QT
35.57 -11.089 36.304 -10.331 QT
37.038 -9.573 38.445 -9.573 QT
cp
f
GR
GS
[0 -0.75 0.75 0 59.3 208.12484] CT
N
45.689 -9.042 M
45.689 -13.12 L
45.689 -13.323 45.908 -13.323 QT
46.221 -13.323 L
46.361 -13.323 46.408 -13.12 QT
47.111 -9.495 49.783 -9.495 QT
50.971 -9.495 51.767 -10.034 QT
52.564 -10.573 52.564 -11.698 QT
52.564 -12.495 51.939 -13.065 QT
51.314 -13.636 50.471 -13.839 QT
48.799 -14.167 L
47.955 -14.354 47.26 -14.737 QT
46.564 -15.12 46.127 -15.745 QT
45.689 -16.37 45.689 -17.198 QT
45.689 -18.308 46.267 -19.003 QT
46.846 -19.698 47.775 -20.011 QT
48.705 -20.323 49.783 -20.323 QT
51.064 -20.323 52.017 -19.636 QT
52.736 -20.261 L
52.736 -20.323 52.861 -20.323 QT
53.033 -20.323 L
53.111 -20.323 53.174 -20.261 QT
53.236 -20.198 53.236 -20.12 QT
53.236 -16.854 L
53.236 -16.62 53.033 -16.62 QT
52.736 -16.62 L
52.517 -16.62 52.517 -16.854 QT
52.517 -18.151 51.791 -18.948 QT
51.064 -19.745 49.752 -19.745 QT
48.627 -19.745 47.807 -19.331 QT
46.986 -18.917 46.986 -17.901 QT
46.986 -17.198 47.58 -16.753 QT
48.174 -16.308 48.971 -16.12 QT
50.658 -15.792 L
51.517 -15.604 52.252 -15.136 QT
52.986 -14.667 53.424 -13.964 QT
53.861 -13.261 53.861 -12.37 QT
53.861 -11.464 53.549 -10.8 QT
53.236 -10.136 52.682 -9.698 QT
52.127 -9.261 51.369 -9.05 QT
50.611 -8.839 49.783 -8.839 QT
48.221 -8.839 47.111 -9.886 QT
46.189 -8.901 L
46.189 -8.839 46.064 -8.839 QT
45.908 -8.839 L
45.689 -8.839 45.689 -9.042 QT
cp
f
GR
GS
[0 -0.75 0.75 0 59.3 208.12484] CT
N
57.401 -12.12 M
57.401 -19.026 L
55.323 -19.026 L
55.323 -19.667 L
56.963 -19.667 57.737 -21.19 QT
58.51 -22.714 58.51 -24.495 QT
59.229 -24.495 L
59.229 -19.901 L
62.744 -19.901 L
62.744 -19.026 L
59.229 -19.026 L
59.229 -12.167 L
59.229 -11.136 59.573 -10.354 QT
59.916 -9.573 60.823 -9.573 QT
61.682 -9.573 62.057 -10.394 QT
62.432 -11.214 62.432 -12.167 QT
62.432 -13.651 L
63.151 -13.651 L
63.151 -12.12 L
63.151 -11.339 62.869 -10.581 QT
62.588 -9.823 62.026 -9.331 QT
61.463 -8.839 60.651 -8.839 QT
59.151 -8.839 58.276 -9.737 QT
57.401 -10.636 57.401 -12.12 QT
cp
f
GR
GS
[0 -0.75 0.75 0 59.3 208.12484] CT
N
76.103 -2.87 M
76.103 -27.87 L
79.525 -27.87 L
79.525 -26.87 L
77.103 -26.87 L
77.103 -3.87 L
79.525 -3.87 L
79.525 -2.87 L
76.103 -2.87 L
cp
f
GR
GS
[0 -0.75 0.75 0 59.3 208.12484] CT
N
85.89 -11.792 M
86.75 -10.714 88.031 -10.081 QT
89.312 -9.448 90.687 -9.448 QT
91.843 -9.448 92.836 -9.909 QT
93.828 -10.37 94.562 -11.183 QT
95.297 -11.995 95.695 -13.034 QT
96.093 -14.073 96.093 -15.229 QT
96.093 -15.417 96.312 -15.417 QT
96.625 -15.417 L
96.812 -15.417 96.812 -15.183 QT
96.812 -13.87 96.312 -12.651 QT
95.812 -11.433 94.898 -10.511 QT
93.984 -9.589 92.789 -9.081 QT
91.593 -8.573 90.312 -8.573 QT
88.515 -8.573 86.906 -9.3 QT
85.297 -10.026 84.109 -11.292 QT
82.922 -12.558 82.257 -14.214 QT
81.593 -15.87 81.593 -17.667 QT
81.593 -19.464 82.257 -21.12 QT
82.922 -22.776 84.109 -24.05 QT
85.297 -25.323 86.906 -26.034 QT
88.515 -26.745 90.312 -26.745 QT
91.593 -26.745 92.765 -26.19 QT
93.937 -25.636 94.812 -24.62 QT
96.265 -26.667 L
96.406 -26.745 96.437 -26.745 QT
96.625 -26.745 L
96.687 -26.745 96.75 -26.683 QT
96.812 -26.62 96.812 -26.542 QT
96.812 -19.792 L
96.812 -19.573 96.625 -19.573 QT
96.172 -19.573 L
95.937 -19.573 95.937 -19.792 QT
95.937 -20.511 95.648 -21.401 QT
95.359 -22.292 94.914 -23.089 QT
94.468 -23.886 93.89 -24.495 QT
92.484 -25.87 90.656 -25.87 QT
89.281 -25.87 88.015 -25.245 QT
86.75 -24.62 85.89 -23.526 QT
84.968 -22.354 84.617 -20.854 QT
84.265 -19.354 84.265 -17.667 QT
84.265 -15.964 84.617 -14.464 QT
84.968 -12.964 85.89 -11.792 QT
cp
f
GR
GS
[0 -0.75 0.75 0 59.3 208.12484] CT
N
99.249 -9.12 M
99.249 -9.995 L
101.827 -9.995 101.827 -10.792 QT
101.827 -24.526 L
101.827 -25.323 99.249 -25.323 QT
99.249 -26.198 L
106.733 -26.198 L
106.733 -25.323 L
104.155 -25.323 104.155 -24.526 QT
104.155 -18.448 L
111.53 -18.448 L
111.53 -24.526 L
111.53 -25.323 108.952 -25.323 QT
108.952 -26.198 L
116.421 -26.198 L
116.421 -25.323 L
113.858 -25.323 113.858 -24.526 QT
113.858 -10.792 L
113.858 -9.995 116.421 -9.995 QT
116.421 -9.12 L
108.952 -9.12 L
108.952 -9.995 L
111.53 -9.995 111.53 -10.792 QT
111.53 -17.573 L
104.155 -17.573 L
104.155 -10.792 L
104.155 -9.995 106.733 -9.995 QT
106.733 -9.12 L
99.249 -9.12 L
cp
f
GR
GS
[0 -0.75 0.75 0 59.3 208.12484] CT
N
118.249 -9.12 M
118.249 -9.995 L
120.827 -9.995 120.827 -10.792 QT
120.827 -24.526 L
120.827 -25.323 118.249 -25.323 QT
118.249 -26.198 L
132.03 -26.198 L
132.734 -20.479 L
132.015 -20.479 L
131.843 -22.042 131.554 -22.956 QT
131.265 -23.87 130.718 -24.386 QT
130.171 -24.901 129.249 -25.112 QT
128.327 -25.323 126.718 -25.323 QT
124.437 -25.323 L
123.984 -25.323 123.734 -25.284 QT
123.484 -25.245 123.319 -25.065 QT
123.155 -24.886 123.155 -24.526 QT
123.155 -18.089 L
124.937 -18.089 L
126.218 -18.089 126.812 -18.315 QT
127.405 -18.542 127.632 -19.144 QT
127.859 -19.745 127.859 -21.026 QT
128.577 -21.026 L
128.577 -14.292 L
127.859 -14.292 L
127.859 -15.573 127.632 -16.175 QT
127.405 -16.776 126.812 -17.003 QT
126.218 -17.229 124.937 -17.229 QT
123.155 -17.229 L
123.155 -10.792 L
123.155 -9.995 126.359 -9.995 QT
126.359 -9.12 L
118.249 -9.12 L
cp
f
GR
GS
[0 -0.75 0.75 0 59.3 208.12484] CT
N
134.567 -2.87 M
134.567 -3.87 L
137.005 -3.87 L
137.005 -26.87 L
134.567 -26.87 L
134.567 -27.87 L
138.005 -27.87 L
138.005 -2.87 L
134.567 -2.87 L
cp
f
GR
GS
[0.75 0 0 0.75 0 0] CT
0.851 0.325 0.098 RC
1 LJ
4 LW
N
123.167 123.508 M
126.462 175.724 L
129.758 208.652 L
133.054 238.065 L
136.35 264.316 L
139.646 287.405 L
142.942 307.488 L
146.237 325.613 L
149.533 341.717 L
152.829 356.014 L
156.125 368.88 L
159.421 380.574 L
162.716 391.076 L
166.012 400.745 L
169.308 409.542 L
172.604 417.59 L
175.9 424.996 L
179.196 431.812 L
182.491 438.084 L
185.787 443.857 L
189.083 449.171 L
192.379 454.062 L
195.675 458.522 L
198.97 462.552 L
202.266 466.259 L
205.562 469.669 L
208.858 472.804 L
212.154 475.683 L
215.449 478.327 L
218.745 480.751 L
222.041 482.971 L
225.337 485.003 L
228.633 486.857 L
231.929 488.548 L
235.224 490.085 L
238.52 491.479 L
241.816 492.74 L
245.112 493.875 L
248.408 494.894 L
251.703 495.802 L
254.999 496.608 L
258.295 497.317 L
261.591 497.935 L
264.887 498.467 L
268.182 498.919 L
271.478 499.296 L
274.774 499.6 L
278.07 499.838 L
281.366 500.011 L
284.662 500.124 L
287.957 500.181 L
291.253 500.183 L
294.549 500.134 L
297.845 500.037 L
301.141 499.894 L
304.436 499.707 L
307.732 499.478 L
311.028 499.21 L
314.324 498.904 L
317.62 498.563 L
320.916 498.187 L
324.211 497.779 L
327.507 497.34 L
330.803 496.871 L
334.099 496.374 L
337.395 495.849 L
340.69 495.299 L
343.986 494.724 L
347.282 494.125 L
350.578 493.503 L
353.874 492.859 L
357.17 492.195 L
360.465 491.509 L
363.761 490.805 L
367.057 490.082 L
370.353 489.341 L
373.649 488.582 L
376.944 487.807 L
380.24 487.015 L
383.536 486.208 L
386.832 485.386 L
390.128 484.549 L
393.423 483.699 L
396.719 482.834 L
400.015 481.956 L
403.311 481.066 L
406.607 480.163 L
409.903 479.248 L
413.198 478.321 L
416.494 477.383 L
419.79 476.433 L
423.086 475.473 L
426.382 474.502 L
429.677 473.521 L
432.973 472.529 L
436.269 471.528 L
439.565 470.517 L
442.861 469.497 L
446.156 468.468 L
449.452 467.429 L
452.748 466.381 L
456.044 465.325 L
459.34 464.26 L
462.636 463.187 L
465.931 462.105 L
469.227 461.015 L
472.523 459.917 L
475.819 458.811 L
479.115 457.697 L
482.41 456.575 L
485.706 455.445 L
489.002 454.308 L
492.298 453.163 L
495.594 452.011 L
498.89 450.851 L
502.185 449.684 L
505.481 448.509 L
508.777 447.327 L
512.073 446.137 L
515.369 444.941 L
518.664 443.737 L
521.96 442.525 L
525.256 441.307 L
528.552 440.081 L
531.848 438.848 L
535.143 437.608 L
538.439 436.36 L
541.735 435.105 L
545.031 433.843 L
548.327 432.574 L
551.623 431.298 L
554.918 430.014 L
558.214 428.722 L
561.51 427.423 L
564.806 426.117 L
568.102 424.804 L
571.397 423.483 L
574.693 422.154 L
577.989 420.818 L
581.285 419.475 L
584.581 418.124 L
587.877 416.764 L
591.172 415.397 L
594.468 414.022 L
597.764 412.638 L
601.06 411.247 L
604.356 409.847 L
607.651 408.44 L
610.947 407.026 L
614.243 405.604 L
617.539 404.173 L
620.835 402.732 L
624.13 401.282 L
627.426 399.822 L
630.722 398.353 L
634.018 396.876 L
637.314 395.393 L
640.61 393.902 L
643.905 392.403 L
647.201 390.894 L
650.497 389.371 L
653.793 387.836 L
657.089 386.289 L
660.384 384.736 L
663.68 383.179 L
666.976 381.617 L
670.272 380.043 L
673.568 378.453 L
676.864 376.845 L
680.159 375.222 L
683.455 373.596 L
686.751 371.971 L
690.047 370.34 L
693.343 368.693 L
696.638 367.021 L
699.934 365.326 L
703.23 363.627 L
706.526 361.936 L
709.822 360.243 L
713.117 358.528 L
716.413 356.778 L
719.709 355.004 L
723.005 353.241 L
726.301 351.49 L
729.597 349.723 L
732.892 347.916 L
736.188 346.067 L
739.484 344.235 L
742.78 342.425 L
746.076 340.594 L
749.371 338.709 L
752.667 336.783 L
755.963 334.902 L
759.259 333.029 L
762.555 331.113 L
765.851 329.118 L
769.146 327.155 L
772.442 325.228 L
775.738 323.265 L
779.034 321.203 L
S
GR
GS
[0.75 0 0 0.75 0 0] CT
0 0.447 0.741 RC
1 LJ
4 LW
N
123.167 123.508 M
126.462 124.927 L
129.758 126.56 L
133.054 128.415 L
136.35 130.395 L
139.646 132.56 L
142.942 134.942 L
146.237 137.494 L
149.533 140.178 L
152.829 143.126 L
156.125 146.34 L
159.421 149.819 L
162.716 153.526 L
166.012 157.31 L
169.308 161.35 L
172.604 165.574 L
175.9 169.959 L
179.196 174.539 L
182.491 179.367 L
185.787 184.373 L
189.083 189.586 L
192.379 194.971 L
195.675 200.522 L
198.97 206.261 L
202.266 212.173 L
205.562 218.239 L
208.858 224.369 L
212.154 230.481 L
215.449 236.577 L
218.745 242.737 L
222.041 248.983 L
225.337 255.089 L
228.633 261.036 L
231.929 266.934 L
235.224 272.858 L
238.52 278.737 L
241.816 284.616 L
245.112 290.377 L
248.408 296.061 L
251.703 301.68 L
254.999 307.084 L
258.295 312.404 L
261.591 317.606 L
264.887 322.675 L
268.182 327.661 L
271.478 332.531 L
274.774 337.331 L
278.07 341.973 L
281.366 346.459 L
284.662 350.861 L
287.957 355.175 L
291.253 359.396 L
294.549 363.491 L
297.845 367.438 L
301.141 371.286 L
304.436 375.03 L
307.732 378.671 L
311.028 382.205 L
314.324 385.633 L
317.62 388.953 L
320.916 392.165 L
324.211 395.269 L
327.507 398.265 L
330.803 401.153 L
334.099 403.934 L
337.395 406.61 L
340.69 409.165 L
343.986 411.554 L
347.282 413.845 L
350.578 416.038 L
353.874 418.134 L
357.17 420.136 L
360.465 422.045 L
363.761 423.863 L
367.057 425.592 L
370.353 427.233 L
373.649 428.788 L
376.944 430.26 L
380.24 431.65 L
383.536 432.961 L
386.832 434.193 L
390.128 435.35 L
393.423 436.432 L
396.719 437.443 L
400.015 438.383 L
403.311 439.255 L
406.607 440.061 L
409.903 440.802 L
413.198 441.481 L
416.494 442.099 L
419.79 442.657 L
423.086 443.158 L
426.382 443.604 L
429.677 443.995 L
432.973 444.333 L
436.269 444.621 L
439.565 444.859 L
442.861 445.049 L
446.156 445.193 L
449.452 445.291 L
452.748 445.345 L
456.044 445.357 L
459.34 445.328 L
462.636 445.258 L
465.931 445.149 L
469.227 445.003 L
472.523 444.82 L
475.819 444.602 L
479.115 444.349 L
482.41 444.062 L
485.706 443.743 L
489.002 443.392 L
492.298 443.011 L
495.594 442.599 L
498.89 442.158 L
502.185 441.689 L
505.481 441.193 L
508.777 440.669 L
512.073 440.12 L
515.369 439.545 L
518.664 438.945 L
521.96 438.321 L
525.256 437.673 L
528.552 437.002 L
531.848 436.309 L
535.143 435.594 L
538.439 434.857 L
541.735 434.099 L
545.031 433.321 L
548.327 432.522 L
551.623 431.703 L
554.918 430.865 L
558.214 430.008 L
561.51 429.132 L
564.806 428.237 L
568.102 427.323 L
571.397 426.392 L
574.693 425.443 L
577.989 424.476 L
581.285 423.491 L
584.581 422.489 L
587.877 421.469 L
591.172 420.432 L
594.468 419.379 L
597.764 418.307 L
601.06 417.219 L
604.356 416.113 L
607.651 414.991 L
610.947 413.85 L
614.243 412.693 L
617.539 411.518 L
620.835 410.325 L
624.13 409.115 L
627.426 407.887 L
630.722 406.64 L
634.018 405.375 L
637.314 404.092 L
640.61 402.789 L
643.905 401.467 L
647.201 400.126 L
650.497 398.764 L
653.793 397.382 L
657.089 395.979 L
660.384 394.555 L
663.68 393.109 L
666.976 391.641 L
670.272 390.15 L
673.568 388.636 L
676.864 387.097 L
680.159 385.533 L
683.455 383.943 L
686.751 382.327 L
690.047 380.686 L
693.343 379.019 L
696.638 377.32 L
699.934 375.588 L
703.23 373.826 L
706.526 372.039 L
709.822 370.224 L
713.117 368.366 L
716.413 366.464 L
719.709 364.537 L
723.005 362.588 L
726.301 360.585 L
729.597 358.523 L
732.892 356.449 L
736.188 354.343 L
739.484 352.149 L
742.78 349.929 L
746.076 347.698 L
749.371 345.357 L
752.667 342.993 L
755.963 340.613 L
759.259 338.089 L
762.555 335.604 L
765.851 333.005 L
769.146 330.347 L
772.442 327.675 L
775.738 324.846 L
779.034 322.064 L
S
GR
GS
[0.75 0 0 0.75 0 0] CT
0.929 0.694 0.125 RC
1 LJ
4 LW
N
123.167 123.508 M
126.462 122.491 L
129.758 121.476 L
133.054 120.466 L
136.35 119.462 L
139.646 118.463 L
142.942 117.472 L
146.237 116.488 L
149.533 115.512 L
152.829 114.544 L
156.125 113.586 L
159.421 112.638 L
162.716 111.7 L
166.012 110.773 L
169.308 109.857 L
172.604 108.953 L
175.9 108.062 L
179.196 107.183 L
182.491 106.318 L
185.787 105.467 L
189.083 104.631 L
192.379 103.81 L
195.675 103.005 L
198.97 102.217 L
202.266 101.446 L
205.562 100.692 L
208.858 99.958 L
212.154 99.243 L
215.449 98.549 L
218.745 97.876 L
222.041 97.225 L
225.337 96.597 L
228.633 95.994 L
231.929 95.416 L
235.224 94.864 L
238.52 94.34 L
241.816 93.845 L
245.112 93.38 L
248.408 92.934 L
251.703 92.518 L
254.999 92.135 L
258.295 91.778 L
261.591 91.451 L
264.887 91.162 L
268.182 90.914 L
271.478 90.708 L
274.774 90.548 L
278.07 90.434 L
281.366 90.37 L
284.662 90.334 L
287.957 90.351 L
291.253 90.426 L
294.549 90.539 L
297.845 90.687 L
301.141 90.893 L
304.436 91.166 L
307.732 91.51 L
311.028 91.928 L
314.324 92.423 L
317.62 92.998 L
320.916 93.658 L
324.211 94.406 L
327.507 95.246 L
330.803 96.181 L
334.099 97.215 L
337.395 98.309 L
340.69 99.451 L
343.986 100.698 L
347.282 102.06 L
350.578 103.541 L
353.874 105.107 L
357.17 106.799 L
360.465 108.588 L
363.761 110.467 L
367.057 112.48 L
370.353 114.637 L
373.649 116.94 L
376.944 119.381 L
380.24 121.94 L
383.536 124.655 L
386.832 127.528 L
390.128 130.527 L
393.423 133.672 L
396.719 136.98 L
400.015 140.452 L
403.311 144.088 L
406.607 147.887 L
409.903 151.849 L
413.198 155.916 L
416.494 160.089 L
419.79 164.338 L
423.086 168.665 L
426.382 173.12 L
429.677 177.724 L
432.973 182.455 L
436.269 187.105 L
439.565 191.758 L
442.861 196.475 L
446.156 201.295 L
449.452 206.199 L
452.748 211.174 L
456.044 216.222 L
459.34 221.258 L
462.636 226.323 L
465.931 231.429 L
469.227 236.424 L
472.523 241.432 L
475.819 246.425 L
479.115 251.372 L
482.41 256.327 L
485.706 261.241 L
489.002 266.167 L
492.298 271.018 L
495.594 275.773 L
498.89 280.514 L
502.185 285.231 L
505.481 289.913 L
508.777 294.492 L
512.073 298.994 L
515.369 303.438 L
518.664 307.817 L
521.96 312.123 L
525.256 316.349 L
528.552 320.488 L
531.848 324.536 L
535.143 328.485 L
538.439 332.332 L
541.735 336.071 L
545.031 339.7 L
548.327 343.13 L
551.623 346.43 L
554.918 349.614 L
558.214 352.68 L
561.51 355.627 L
564.806 358.453 L
568.102 361.158 L
571.397 363.741 L
574.693 366.201 L
577.989 368.54 L
581.285 370.757 L
584.581 372.854 L
587.877 374.831 L
591.172 376.69 L
594.468 378.431 L
597.764 380.058 L
601.06 381.572 L
604.356 382.974 L
607.651 384.266 L
610.947 385.451 L
614.243 386.531 L
617.539 387.509 L
620.835 388.385 L
624.13 389.164 L
627.426 389.846 L
630.722 390.434 L
634.018 390.93 L
637.314 391.337 L
640.61 391.657 L
643.905 391.892 L
647.201 392.043 L
650.497 392.113 L
653.793 392.103 L
657.089 392.015 L
660.384 391.852 L
663.68 391.614 L
666.976 391.303 L
670.272 390.92 L
673.568 390.466 L
676.864 389.943 L
680.159 389.351 L
683.455 388.69 L
686.751 387.96 L
690.047 387.162 L
693.343 386.296 L
696.638 385.36 L
699.934 384.353 L
703.23 383.274 L
706.526 382.121 L
709.822 380.892 L
713.117 379.584 L
716.413 378.193 L
719.709 376.714 L
723.005 375.144 L
726.301 373.477 L
729.597 371.706 L
732.892 369.824 L
736.188 367.823 L
739.484 365.692 L
742.78 363.42 L
746.076 361.003 L
749.371 358.406 L
752.667 355.65 L
755.963 352.666 L
759.259 349.495 L
762.555 346.072 L
765.851 342.355 L
769.146 338.365 L
772.442 334.065 L
775.738 329.393 L
779.034 324.305 L
S
GR
GS
[0.75 0 0 0.75 487.87271 294.08439] CT
1 0 0 RC
10.0 ML
2.667 LW
N
-7.542 -7.542 M
7.542 7.542 L
-7.542 7.542 M
7.542 -7.542 L
S
GR
GS
[0.75 0 0 0.75 342.03294 334.01775] CT
1 0 0 RC
10.0 ML
2.667 LW
N
-7.542 -7.542 M
7.542 7.542 L
-7.542 7.542 M
7.542 -7.542 L
S
GR
GS
[0.75 0 0 0.75 218.4399 375.13728] CT
1 0 0 RC
10.0 ML
2.667 LW
N
-7.542 -7.542 M
7.542 7.542 L
-7.542 7.542 M
7.542 -7.542 L
S
GR
GS
[0.75 0 0 0.75 0 0] CT
1 GC
N
771 125 M
771 54 L
601 54 L
601 125 L
cp
f
GR
GS
[0.75 0 0 0.75 486 50.25] CT
/Times-Roman 19.2 F
GS
[1 0 0 1 0 0] CT
0 7 moveto 
1 -1 scale
(exponential 0.5) t 
GR
GR
GS
[0.75 0 0 0.75 0 0] CT
0.851 0.325 0.098 RC
1 LJ
4 LW
N
605 67 M
645 67 L
S
GR
GS
[0.75 0 0 0.75 486 67.125] CT
/Times-Roman 19.2 F
GS
[1 0 0 1 0 0] CT
0 7 moveto 
1 -1 scale
(exponential 1) t 
GR
GR
GS
[0.75 0 0 0.75 0 0] CT
0 0.447 0.741 RC
1 LJ
4 LW
N
605 89.5 M
645 89.5 L
S
GR
GS
[0.75 0 0 0.75 486 84] CT
/Times-Roman 19.2 F
GS
[1 0 0 1 0 0] CT
0 7 moveto 
1 -1 scale
(exponential 2.5) t 
GR
GR
GS
[0.75 0 0 0.75 0 0] CT
0.929 0.694 0.125 RC
1 LJ
4 LW
N
605 112 M
645 112 L
S
GR
GS
[0.75 0 0 0.75 0 0] CT
0.149 GC
10.0 ML
0.667 LW
N
601 125 M
601 54 L
771 54 L
771 125 L
cp
S
GR
%%Trailer
%%Pages: 1
%%EOF
